rep_num	position	torque	torque_compensated	lbs_compensated
1	0	3.34	3.63	68.5
1	10000	5.54	5.84	110
1	20000	5.36	5.65	107
1	30000	5.17	5.46	103
1	40000	3.98	4.26	80.6
1	50000	4.79	5.07	95.9
1	60000	5.67	5.98	113
1	70000	4.98	5.27	99.5
1	80000	4.4	4.69	88.6
1	90000	5.22	5.51	104
1	100000	6	6.33	120
1	110000	5.31	5.6	106
1	120000	4.36	4.64	87.8
1	130000	5.21	5.49	104
1	140000	5.49	5.79	109
1	150000	4.8	5.09	96.2
1	160000	4.17	4.46	84.2
1	170000	4.67	4.95	93.6
1	180000	5.27	5.56	105
1	190000	4.85	5.13	97.1
1	200000	4.18	4.46	84.4
1	210000	4.55	4.83	91.3
1	220000	5.18	5.46	103
1	230000	4.38	4.66	88.1
1	240000	3.92	4.21	79.6
1	250000	4.41	4.7	88.8
1	260000	4.89	5.18	97.9
1	270000	3.81	4.1	77.4
1	280000	3.09	3.38	63.8
1	290000	3.59	3.88	73.3
1	300000	3.87	4.16	78.6
1	310000	3.55	3.83	72.5
1	320000	3.15	3.44	65
1	330000	3.66	3.94	74.6
1	340000	3.79	4.07	77
1	350000	3.74	4.03	76.1
1	360000	2.81	3.1	58.5
1	370000	3.41	3.7	69.9
1	380000	3.45	3.74	70.7
1	390000	3.29	3.58	67.6
1	400000	2.72	3.01	56.9
1	410000	3.43	3.72	70.3
1	420000	4.21	4.49	84.9
1	430000	3.34	3.63	68.6
1	440000	2.84	3.12	59
1	450000	3.46	3.74	70.7
1	460000	3.99	4.28	80.9
1	470000	3.76	4.04	76.4
1	480000	2.8	3.08	58.3
1	490000	3.49	3.78	71.4
1	500000	3.9	4.18	79.1
1	510000	3.62	3.91	73.8
1	520000	2.82	3.1	58.7
1	530000	3.26	3.55	67.1
1	540000	3.61	3.89	73.6
1	550000	3.25	3.54	66.9
1	560000	3.11	3.39	64.2
1	570000	3.65	3.94	74.4
1	580000	4.14	4.43	83.6
2	0	5.58	3.32	62.8
2	-10000	6.18	3.92	74.2
2	-20000	5.36	3.1	58.6
2	-30000	6.7	4.44	83.9
2	-40000	6.89	4.63	87.5
2	-50000	6.23	3.97	75.1
2	-60000	5.79	3.53	66.6
2	-70000	6.84	4.58	86.5
2	-80000	7.7	5.44	103
2	-90000	6.82	4.56	86.1
2	-100000	5.92	3.66	69.2
2	-110000	7.06	4.8	90.7
2	-120000	7.18	4.92	92.9
2	-130000	6.3	4.04	76.4
2	-140000	5.93	3.67	69.3
2	-150000	6.79	4.53	85.6
2	-160000	7.24	4.98	94.2
2	-170000	6.2	3.94	74.5
2	-180000	6.63	4.37	82.6
2	-190000	7.5	5.24	98.9
2	-200000	7.44	5.18	98
2	-210000	6.72	4.46	84.2
2	-220000	6.79	4.53	85.6
2	-230000	7.37	5.11	96.6
2	-240000	7.56	5.3	100
2	-250000	7.01	4.75	89.8
2	-260000	6.64	4.38	82.8
2	-270000	7.56	5.3	100
2	-280000	7.75	5.49	104
2	-290000	6.61	4.35	82.3
2	-300000	6.07	3.81	72.1
2	-310000	6.6	4.34	82
2	-320000	6.84	4.58	86.6
2	-330000	6.18	3.92	74.1
2	-340000	5.5	3.24	61.2
2	-350000	6.15	3.89	73.6
2	-360000	6.23	3.97	75
2	-370000	5.64	3.38	63.9
2	-380000	5	2.87	54.2
2	-390000	5.49	3.23	61.1
2	-400000	6.46	4.2	79.3
2	-410000	5.35	3.09	58.4
2	-420000	4.4	2.52	47.6
2	-430000	5.59	3.33	62.9
2	-440000	5.68	3.42	64.7
2	-450000	4.77	2.73	51.7
2	-460000	4.42	2.53	47.8
2	-470000	5.22	2.99	56.5
2	-480000	5.37	3.11	58.7
2	-490000	4.31	2.47	46.7
2	-500000	4.21	2.41	45.5
2	-510000	5.2	2.98	56.4
2	-520000	5.28	3.03	57.2
2	-530000	4.48	2.57	48.5
2	-540000	4.47	2.56	48.4
2	-550000	5.22	2.99	56.5
2	-560000	5.26	3.01	56.9
2	-570000	3.75	2.15	40.7
2	-580000	3.28	1.88	35.5
2	0	3.12	3.41	64.4
2	10000	5.23	5.52	104
2	20000	5.63	5.94	112
2	30000	5.22	5.51	104
2	40000	4.02	4.31	81.4
2	50000	4.52	4.81	90.8
2	60000	5.02	5.3	100
2	70000	3.7	3.99	75.4
2	80000	3.05	3.34	63.1
2	90000	3.9	4.18	79
2	100000	4.48	4.77	90.1
2	110000	3.69	3.98	75.1
2	120000	2.94	3.22	60.9
2	130000	3.72	4.01	75.7
2	140000	3.81	4.1	77.5
2	150000	2.99	3.28	61.9
2	160000	2.69	2.98	56.2
2	170000	3.15	3.43	64.9
2	180000	3.57	3.85	72.9
2	190000	3	3.29	62.2
2	200000	2.03	2.32	43.8
2	210000	2.87	3.15	59.6
2	220000	3.15	3.44	65
2	230000	2.36	2.64	50
2	240000	1.73	2.02	38.2
2	250000	2.1	2.39	45.2
2	260000	2.38	2.66	50.3
2	270000	1.67	1.95	36.9
2	280000	0.997	1.28	24.2
2	290000	2.1	2.39	45.1
2	300000	2.51	2.8	52.9
2	310000	1.93	2.22	41.9
2	320000	1.48	1.76	33.3
2	330000	2.03	2.32	43.8
2	340000	2.55	2.83	53.6
2	350000	2.3	2.58	48.8
2	360000	1.56	1.85	34.9
2	370000	2.37	2.66	50.2
2	380000	2.76	3.05	57.6
2	390000	1.92	2.2	41.7
2	400000	1.32	1.61	30.4
2	410000	1.88	2.17	41
2	420000	2.68	2.97	56.1
2	430000	1.94	2.23	42.1
2	440000	1.03	1.32	25
2	450000	2.17	2.45	46.4
2	460000	2.37	2.66	50.3
2	470000	1.7	1.99	37.5
2	480000	1.57	1.86	35.1
2	490000	2.11	2.39	45.2
2	500000	2.56	2.85	53.8
2	510000	2.09	2.37	44.9
2	520000	1.12	1.4	26.5
2	530000	1.97	2.26	42.6
2	540000	2.31	2.6	49.1
2	550000	1.63	1.91	36.1
2	560000	1.65	1.94	36.6
2	570000	2.6	2.89	54.6
2	580000	3.01	3.3	62.3
3	0	4.47	2.56	48.4
3	-10000	4.87	2.79	52.7
3	-20000	4.42	2.53	47.8
3	-30000	5.6	3.34	63.1
3	-40000	6.14	3.88	73.3
3	-50000	5.06	2.9	54.7
3	-60000	4.64	2.66	50.2
3	-70000	5.66	3.4	64.3
3	-80000	6.17	3.91	73.8
3	-90000	4.91	2.82	53.2
3	-100000	4.71	2.7	51
3	-110000	5.87	3.61	68.1
3	-120000	5.68	3.42	64.6
3	-130000	4.75	2.72	51.4
3	-140000	4.66	2.67	50.5
3	-150000	5.29	3.03	57.4
3	-160000	5.34	3.08	58.2
3	-170000	4.31	2.47	46.7
3	-180000	4.38	2.51	47.4
3	-190000	5.27	3.02	57
3	-200000	5.07	2.91	54.9
3	-210000	4.05	2.32	43.8
3	-220000	4.26	2.44	46.1
3	-230000	4.87	2.79	52.8
3	-240000	5.03	2.88	54.5
3	-250000	4.17	2.39	45.1
3	-260000	3.79	2.17	41
3	-270000	4.86	2.78	52.6
3	-280000	4.7	2.7	50.9
3	-290000	3.81	2.19	41.3
3	-300000	3.91	2.24	42.3
3	-310000	4.38	2.51	47.4
3	-320000	4.5	2.58	48.7
3	-330000	3.82	2.19	41.4
3	-340000	3.68	2.11	39.8
3	-350000	4.35	2.49	47.1
3	-360000	4.43	2.54	48
3	-370000	4.15	2.38	44.9
3	-380000	3.58	2.05	38.7
3	-390000	4.31	2.47	46.7
3	-400000	4.54	2.6	49.1
3	-410000	3.44	1.97	37.2
3	-420000	3.26	1.87	35.3
3	-430000	4.51	2.58	48.8
3	-440000	4.47	2.56	48.4
3	-450000	3.36	1.92	36.3
3	-460000	3.24	1.86	35.1
3	-470000	4.13	2.37	44.7
3	-480000	4.15	2.38	44.9
3	-490000	3.1	1.78	33.6
3	-500000	3.08	1.76	33.3
3	-510000	4.05	2.32	43.8
3	-520000	4.04	2.32	43.8
3	-530000	3.02	1.73	32.7
3	-540000	3.21	1.84	34.7
3	-550000	4.18	2.4	45.3
3	-560000	4.18	2.39	45.3
3	-570000	2.5	1.43	27
3	-580000	3.25	1.86	35.2
3	0	2.38	2.66	50.3
3	10000	4.04	4.32	81.7
3	20000	4.38	4.67	88.3
3	30000	3.79	4.08	77
3	40000	2.95	3.24	61.2
3	50000	3.89	4.18	78.9
3	60000	4.32	4.6	87
3	70000	3.36	3.65	68.9
3	80000	2.36	2.65	50
3	90000	2.89	3.18	60.1
3	100000	3.75	4.04	76.4
3	110000	2.34	2.63	49.7
3	120000	1.91	2.19	41.4
3	130000	2.78	3.07	58
3	140000	3.25	3.54	66.8
3	150000	2.39	2.67	50.5
3	160000	2.01	2.3	43.4
3	170000	2.52	2.8	53
3	180000	3.1	3.39	64.1
3	190000	2.66	2.94	55.6
3	200000	1.72	2	37.9
3	210000	2.71	3	56.6
3	220000	2.97	3.25	61.5
3	230000	2.16	2.44	46.2
3	240000	1.69	1.97	37.3
3	250000	2.12	2.4	45.4
3	260000	2.57	2.86	54.1
3	270000	1.55	1.83	34.6
3	280000	1.12	1.41	26.6
3	290000	2.23	2.52	47.5
3	300000	2.42	2.7	51.1
3	310000	1.74	2.02	38.2
3	320000	1.23	1.51	28.6
3	330000	1.76	2.04	38.6
3	340000	2.27	2.55	48.2
3	350000	1.39	1.68	31.7
3	360000	0.904	1.19	22.5
3	370000	1.67	1.95	36.9
3	380000	2.26	2.54	48
3	390000	1.44	1.73	32.6
3	400000	0.819	1.11	20.9
3	410000	1.52	1.81	34.2
3	420000	2.35	2.64	49.8
3	430000	1.51	1.79	33.9
3	440000	1.22	1.5	28.4
3	450000	2.24	2.53	47.7
3	460000	2.9	3.18	60.2
3	470000	2.46	2.75	51.9
3	480000	2.06	2.35	44.4
3	490000	2.74	3.02	57.1
3	500000	3.32	3.6	68.1
3	510000	2.96	3.25	61.4
3	520000	2.3	2.59	48.9
3	530000	3.09	3.37	63.8
3	540000	3.27	3.55	67.1
3	550000	2.5	2.78	52.6
3	560000	2.19	2.48	46.9
3	570000	2.65	2.93	55.5
3	580000	3.19	3.47	65.6
4	0	4.51	2.58	48.9
4	-10000	5.08	2.91	55
4	-20000	3.73	2.14	40.4
4	-30000	5.24	3	56.8
4	-40000	5.41	3.15	59.5
4	-50000	4.53	2.59	49
4	-60000	4.09	2.34	44.3
4	-70000	5.2	2.98	56.3
4	-80000	5.64	3.38	63.9
4	-90000	4.3	2.46	46.5
4	-100000	3.96	2.27	42.9
4	-110000	5.24	3	56.8
4	-120000	5.13	2.94	55.5
4	-130000	3.99	2.29	43.2
4	-140000	4.13	2.37	44.8
4	-150000	4.86	2.78	52.6
4	-160000	4.9	2.81	53.1
4	-170000	3.83	2.19	41.4
4	-180000	3.72	2.13	40.3
4	-190000	4.61	2.64	49.9
4	-200000	4.55	2.61	49.3
4	-210000	3.64	2.08	39.4
4	-220000	3.47	1.99	37.6
4	-230000	4.24	2.43	45.9
4	-240000	4.63	2.65	50.2
4	-250000	3.52	2.01	38.1
4	-260000	3.16	1.81	34.3
4	-270000	4.16	2.38	45
4	-280000	4.3	2.46	46.5
4	-290000	3.31	1.9	35.9
4	-300000	3.11	1.78	33.7
4	-310000	4.06	2.33	44
4	-320000	4.22	2.42	45.7
4	-330000	3.23	1.85	35
4	-340000	3.01	1.73	32.6
4	-350000	3.84	2.2	41.6
4	-360000	3.72	2.13	40.3
4	-370000	3.02	1.73	32.8
4	-380000	2.44	1.4	26.4
4	-390000	3.48	2	37.7
4	-400000	4.03	2.31	43.7
4	-410000	3.04	1.74	32.9
4	-420000	2.41	1.38	26.1
4	-430000	3.63	2.08	39.3
4	-440000	3.69	2.11	39.9
4	-450000	2.88	1.65	31.2
4	-460000	2.58	1.48	27.9
4	-470000	3.36	1.93	36.4
4	-480000	3.47	1.99	37.5
4	-490000	2.67	1.53	28.9
4	-500000	2.43	1.39	26.3
4	-510000	3.52	2.02	38.1
4	-520000	3.88	2.22	42
4	-530000	3.13	1.79	33.9
4	-540000	2.84	1.63	30.8
4	-550000	3.65	2.09	39.6
4	-560000	3.73	2.13	40.3
4	-570000	2.63	1.51	28.5
4	-580000	4.36	2.5	47.2
4	0	3.63	3.91	73.9
4	10000	5.2	5.49	104
4	20000	5.22	5.5	104
4	30000	4.67	4.96	93.7
4	40000	3.49	3.77	71.3
4	50000	4.16	4.44	84
4	60000	4.3	4.59	86.7
4	70000	3.26	3.55	67
4	80000	2.58	2.86	54.1
4	90000	3.24	3.53	66.7
4	100000	3.91	4.2	79.3
4	110000	2.99	3.27	61.9
4	120000	2.09	2.37	44.8
4	130000	2.7	2.99	56.5
4	140000	3.2	3.49	66
4	150000	2.23	2.52	47.6
4	160000	1.84	2.13	40.2
4	170000	2.61	2.89	54.7
4	180000	2.72	3.01	56.9
4	190000	2.45	2.73	51.7
4	200000	1.62	1.9	36
4	210000	2.68	2.97	56.1
4	220000	3.23	3.51	66.4
4	230000	2.64	2.93	55.3
4	240000	2.24	2.53	47.8
4	250000	2.63	2.92	55.1
4	260000	3.09	3.38	63.9
4	270000	2.19	2.48	46.8
4	280000	1.62	1.9	36
4	290000	2.21	2.49	47.1
4	300000	2.89	3.17	60
4	310000	2.2	2.49	47
4	320000	1.75	2.03	38.4
4	330000	1.92	2.21	41.7
4	340000	2.35	2.63	49.8
4	350000	2.38	2.66	50.4
4	360000	1.57	1.85	35
4	370000	1.91	2.2	41.5
4	380000	2.74	3.03	57.2
4	390000	1.95	2.24	42.3
4	400000	1.2	1.48	28
4	410000	1.88	2.17	41
4	420000	2.54	2.83	53.5
4	430000	1.71	2	37.7
4	440000	0.953	1.24	23.4
4	450000	1.62	1.9	36
4	460000	2.04	2.32	43.9
4	470000	1.56	1.85	34.9
4	480000	0.843	1.13	21.3
4	490000	1.54	1.83	34.6
4	500000	2.27	2.56	48.3
4	510000	1.55	1.83	34.7
4	520000	0.741	1.03	19.4
4	530000	1.66	1.95	36.8
4	540000	1.88	2.17	40.9
4	550000	1.17	1.46	27.5
4	560000	1.37	1.65	31.3
4	570000	2.1	2.38	45
4	580000	2.35	2.64	49.9
5	0	3.82	2.19	41.4
5	-10000	4.06	2.33	44
5	-20000	3.08	1.76	33.3
5	-30000	4.26	2.44	46.2
5	-40000	4.34	2.49	47
5	-50000	3.71	2.13	40.2
5	-60000	3.67	2.1	39.7
5	-70000	4.56	2.61	49.3
5	-80000	4.9	2.81	53.1
5	-90000	3.9	2.23	42.2
5	-100000	3.73	2.13	40.3
5	-110000	4.98	2.86	54
5	-120000	4.9	2.81	53.1
5	-130000	3.91	2.24	42.3
5	-140000	4.08	2.34	44.2
5	-150000	4.88	2.8	52.9
5	-160000	4.72	2.7	51.1
5	-170000	3.6	2.06	38.9
5	-180000	3.94	2.26	42.7
5	-190000	4.79	2.75	51.9
5	-200000	4.42	2.53	47.9
5	-210000	3.49	2	37.8
5	-220000	3.84	2.2	41.5
5	-230000	4.54	2.6	49.1
5	-240000	4.54	2.6	49.2
5	-250000	3.83	2.2	41.5
5	-260000	3.85	2.2	41.7
5	-270000	4.71	2.7	51
5	-280000	4.45	2.55	48.2
5	-290000	3.49	2	37.8
5	-300000	3.47	1.99	37.6
5	-310000	3.99	2.29	43.2
5	-320000	4.33	2.48	46.9
5	-330000	3.24	1.85	35.1
5	-340000	3.11	1.78	33.6
5	-350000	3.89	2.23	42.1
5	-360000	3.63	2.08	39.3
5	-370000	3.11	1.78	33.7
5	-380000	2.83	1.62	30.6
5	-390000	3.56	2.04	38.6
5	-400000	3.83	2.19	41.4
5	-410000	2.77	1.59	30
5	-420000	2.63	1.51	28.5
5	-430000	3.67	2.1	39.7
5	-440000	3.3	1.89	35.8
5	-450000	2.4	1.37	25.9
5	-460000	2.59	1.49	28.1
5	-470000	3.09	1.77	33.5
5	-480000	2.98	1.71	32.3
5	-490000	2.2	1.26	23.8
5	-500000	2.22	1.27	24
5	-510000	2.95	1.69	31.9
5	-520000	2.89	1.66	31.3
5	-530000	2.27	1.3	24.6
5	-540000	2.38	1.36	25.8
5	-550000	2.81	1.61	30.4
5	-560000	3.18	1.82	34.5
5	-570000	1.7	0.975	18.4
5	-580000	1.97	1.13	21.3
5	0	1.87	2.16	40.8
5	10000	4.88	5.17	97.7
5	20000	5.18	5.46	103
5	30000	4.15	4.43	83.8
5	40000	3.26	3.55	67.1
5	50000	4.2	4.49	84.9
5	60000	4.46	4.75	89.7
5	70000	3.46	3.74	70.8
5	80000	2.87	3.16	59.7
5	90000	3.36	3.65	68.9
5	100000	3.88	4.17	78.7
5	110000	2.92	3.21	60.6
5	120000	2.35	2.63	49.8
5	130000	3.29	3.57	67.5
5	140000	3.28	3.57	67.5
5	150000	2.26	2.55	48.2
5	160000	2.14	2.42	45.8
5	170000	2.78	3.07	58
5	180000	3.55	3.84	72.5
5	190000	3.28	3.57	67.4
5	200000	2.32	2.61	49.3
5	210000	2.69	2.98	56.3
5	220000	3	3.29	62.2
5	230000	2.4	2.68	50.7
5	240000	1.93	2.21	41.8
5	250000	2.13	2.41	45.6
5	260000	2.64	2.92	55.2
5	270000	1.82	2.11	39.8
5	280000	1.23	1.52	28.7
5	290000	2.08	2.36	44.7
5	300000	2.53	2.82	53.3
5	310000	2.01	2.3	43.4
5	320000	1.93	2.22	42
5	330000	2.3	2.59	49
5	340000	2.91	3.2	60.4
5	350000	2.24	2.52	47.7
5	360000	1.48	1.77	33.4
5	370000	1.93	2.22	41.9
5	380000	2.55	2.84	53.7
5	390000	1.88	2.16	40.9
5	400000	1.27	1.55	29.3
5	410000	1.72	2.01	38
5	420000	2.24	2.53	47.8
5	430000	1.48	1.76	33.3
5	440000	0.877	1.16	22
5	450000	1.61	1.9	35.9
5	460000	1.84	2.13	40.2
5	470000	0.9	1.19	22.4
5	480000	0.516	0.802	15.2
5	490000	1.04	1.33	25.1
5	500000	1.81	2.09	39.6
5	510000	1.32	1.6	30.3
5	520000	0.361	0.647	12.2
5	530000	1.23	1.52	28.7
5	540000	1.78	2.06	39
5	550000	1.02	1.3	24.6
5	560000	1.21	1.5	28.3
5	570000	2.16	2.45	46.3
5	580000	2.22	2.51	47.4
6	0	3.9	2.23	42.2
6	-10000	3.72	2.13	40.3
6	-20000	2.7	1.55	29.3
6	-30000	3.61	2.07	39.1
6	-40000	3.7	2.12	40.1
6	-50000	2.89	1.65	31.3
6	-60000	2.64	1.51	28.6
6	-70000	3.45	1.97	37.3
6	-80000	3.8	2.17	41.1
6	-90000	2.63	1.51	28.5
6	-100000	2.55	1.46	27.6
6	-110000	3.9	2.23	42.2
6	-120000	3.69	2.11	39.9
6	-130000	2.92	1.67	31.6
6	-140000	2.91	1.67	31.5
6	-150000	3.55	2.03	38.4
6	-160000	3.38	1.93	36.5
6	-170000	2.62	1.5	28.3
6	-180000	2.82	1.62	30.6
6	-190000	4.04	2.31	43.7
6	-200000	4.18	2.4	45.3
6	-210000	3.98	2.28	43.1
6	-220000	4.29	2.46	46.4
6	-230000	5.07	2.91	54.9
6	-240000	5.45	3.19	60.3
6	-250000	4.77	2.73	51.7
6	-260000	4.98	2.86	54
6	-270000	5.89	3.63	68.7
6	-280000	5.89	3.63	68.6
6	-290000	5.24	3	56.7
6	-300000	5.46	3.2	60.4
6	-310000	6.04	3.78	71.4
6	-320000	6.18	3.92	74.2
6	-330000	5.77	3.51	66.3
6	-340000	5.52	3.26	61.6
6	-350000	6.55	4.29	81
6	-360000	6.26	4	75.6
6	-370000	5.41	3.15	59.6
6	-380000	5.47	3.21	60.6
6	-390000	5.81	3.55	67.1
6	-400000	5.95	3.69	69.7
6	-410000	5.49	3.23	61
6	-420000	4.86	2.79	52.7
6	-430000	5.67	3.41	64.5
6	-440000	5.27	3.02	57
6	-450000	4.26	2.44	46.1
6	-460000	4.06	2.33	44
6	-470000	4.23	2.43	45.8
6	-480000	4.19	2.4	45.4
6	-490000	2.96	1.7	32.1
6	-500000	2.59	1.48	28
6	-510000	3.33	1.91	36
6	-520000	2.84	1.63	30.7
6	-530000	2.04	1.17	22.1
6	-540000	2.04	1.17	22
6	-550000	2.48	1.42	26.8
6	-560000	2.52	1.44	27.3
6	-570000	1.16	0.663	12.5
6	-580000	1.14	0.652	12.3
