rep_num	position	torque	torque_compensated	lbs_compensated
1	0	3.07	3.36	63.5
1	10000	3.46	3.75	70.8
1	20000	3.58	3.86	73
1	30000	4.09	4.38	82.7
1	40000	3.55	3.84	72.6
1	50000	3.69	3.97	75.1
1	60000	3.81	4.1	77.4
1	70000	3.75	4.03	76.2
1	80000	3.57	3.85	72.8
1	90000	3.56	3.84	72.7
1	100000	4.32	4.6	87
1	110000	4.4	4.69	88.6
1	120000	3.91	4.19	79.3
1	130000	3.95	4.24	80.1
1	140000	4.13	4.41	83.4
1	150000	4.01	4.29	81.1
1	160000	3.38	3.67	69.3
1	170000	3.32	3.61	68.2
1	180000	3.59	3.88	73.3
1	190000	3.83	4.12	77.8
1	200000	3.45	3.73	70.6
1	210000	2.92	3.21	60.6
1	220000	3.12	3.41	64.4
1	230000	2.96	3.24	61.3
1	240000	2.81	3.1	58.6
1	250000	2.61	2.9	54.8
1	260000	3.07	3.36	63.4
1	270000	3.15	3.44	65
1	280000	2.46	2.75	51.9
1	290000	2.57	2.86	54.1
1	300000	2.65	2.94	55.6
1	310000	3.01	3.29	62.2
1	320000	2.85	3.13	59.2
1	330000	2.54	2.82	53.4
1	340000	2.78	3.07	58
1	350000	2.6	2.89	54.6
1	360000	2.82	3.1	58.7
1	370000	2.84	3.13	59.1
1	380000	2.91	3.2	60.4
1	390000	2.91	3.2	60.5
1	400000	2.75	3.03	57.3
1	410000	2.75	3.04	57.4
1	420000	3.38	3.66	69.2
1	430000	3.54	3.82	72.3
1	440000	3.47	3.75	71
1	450000	4.1	4.39	83
1	460000	4.4	4.69	88.6
1	470000	4.55	4.84	91.4
1	480000	4.53	4.82	91.1
1	490000	4.52	4.81	90.9
1	500000	4.63	4.91	92.8
1	510000	4.37	4.66	88
1	520000	3.49	3.78	71.4
1	530000	3.44	3.73	70.5
1	540000	3.31	3.59	67.9
1	550000	3.61	3.9	73.6
1	560000	3.81	4.1	77.4
1	570000	3.87	4.16	78.5
1	580000	3.81	4.09	77.4
2	0	5.22	2.99	56.5
2	-10000	7.18	4.92	92.9
2	-20000	6.8	4.54	85.8
2	-30000	7	4.74	89.6
2	-40000	6.68	4.42	83.6
2	-50000	6.75	4.49	84.8
2	-60000	6.74	4.48	84.6
2	-70000	7.22	4.96	93.7
2	-80000	7.71	5.45	103
2	-90000	8.09	5.83	110
2	-100000	8.3	6.04	114
2	-110000	8.68	6.42	121
2	-120000	8.12	5.86	111
2	-130000	7.5	5.24	99.1
2	-140000	7.42	5.16	97.5
2	-150000	7.22	4.96	93.8
2	-160000	6.46	4.2	79.3
2	-170000	6.18	3.92	74.1
2	-180000	6.84	4.58	86.5
2	-190000	6.78	4.52	85.5
2	-200000	6.39	4.13	78.1
2	-210000	6.14	3.88	73.4
2	-220000	6.63	4.37	82.6
2	-230000	6.65	4.39	83
2	-240000	6.74	4.48	84.7
2	-250000	6.64	4.38	82.8
2	-260000	6.84	4.58	86.6
2	-270000	6.82	4.56	86.2
2	-280000	6.53	4.27	80.8
2	-290000	6.43	4.17	78.8
2	-300000	6.39	4.13	78.1
2	-310000	6.18	3.92	74.2
2	-320000	5.94	3.68	69.5
2	-330000	5.94	3.68	69.5
2	-340000	6.02	3.76	71.1
2	-350000	5.82	3.56	67.3
2	-360000	5.46	3.2	60.5
2	-370000	5.81	3.55	67.1
2	-380000	5.6	3.34	63.1
2	-390000	5.65	3.39	64.1
2	-400000	5.68	3.42	64.7
2	-410000	5.27	3.02	57.1
2	-420000	5.08	2.91	55
2	-430000	5.37	3.11	58.8
2	-440000	4.52	2.59	48.9
2	-450000	4.37	2.5	47.3
2	-460000	4.4	2.52	47.6
2	-470000	4.71	2.7	51
2	-480000	4.46	2.56	48.3
2	-490000	4.34	2.49	47
2	-500000	4.87	2.79	52.7
2	-510000	5.57	3.31	62.5
2	-520000	5.31	3.05	57.6
2	-530000	5.24	3	56.8
2	-540000	5.61	3.35	63.2
2	-550000	5.15	2.95	55.7
2	-560000	4.98	2.85	53.9
2	-570000	4.4	2.52	47.6
2	-580000	3.43	1.97	37.2
2	0	2.93	3.21	60.7
2	10000	5.4	5.69	108
2	20000	5.23	5.52	104
2	30000	5.41	5.71	108
2	40000	4.27	4.56	86.2
2	50000	4.36	4.65	87.8
2	60000	4.74	5.03	95
2	70000	4.6	4.88	92.3
2	80000	4.35	4.64	87.7
2	90000	4.34	4.62	87.3
2	100000	4.59	4.87	92.1
2	110000	4.65	4.94	93.3
2	120000	4.18	4.47	84.4
2	130000	4.34	4.63	87.4
2	140000	4.53	4.81	91
2	150000	4.37	4.66	88
2	160000	4.38	4.66	88.1
2	170000	4.29	4.58	86.5
2	180000	4.04	4.32	81.7
2	190000	4.48	4.76	90
2	200000	3.96	4.25	80.3
2	210000	4.24	4.52	85.5
2	220000	4.39	4.67	88.3
2	230000	4.32	4.61	87.1
2	240000	4.04	4.32	81.7
2	250000	3.72	4	75.7
2	260000	3.89	4.18	78.9
2	270000	3.53	3.82	72.2
2	280000	3.28	3.56	67.4
2	290000	2.8	3.09	58.4
2	300000	3.12	3.4	64.3
2	310000	3.5	3.78	71.5
2	320000	3.69	3.97	75.1
2	330000	3.2	3.48	65.8
2	340000	3.69	3.98	75.1
2	350000	3.93	4.22	79.8
2	360000	3.3	3.58	67.7
2	370000	3.11	3.4	64.2
2	380000	3.46	3.75	70.9
2	390000	3.31	3.59	67.9
2	400000	2.57	2.86	54
2	410000	2.27	2.56	48.3
2	420000	2.69	2.98	56.3
2	430000	2.97	3.25	61.5
2	440000	2.34	2.63	49.7
2	450000	2.48	2.76	52.2
2	460000	2.86	3.15	59.4
2	470000	3.4	3.68	69.6
2	480000	3	3.28	62
2	490000	2.38	2.67	50.4
2	500000	2.64	2.92	55.3
2	510000	3.31	3.6	68
2	520000	2.38	2.67	50.4
2	530000	1.81	2.09	39.6
2	540000	2.31	2.6	49.1
2	550000	2.77	3.06	57.8
2	560000	3.36	3.64	68.9
2	570000	3.09	3.37	63.7
2	580000	2.69	2.98	56.3
3	0	4.13	2.37	44.7
3	-10000	5.77	3.51	66.3
3	-20000	6.11	3.85	72.7
3	-30000	6.27	4.01	75.7
3	-40000	6.27	4.01	75.7
3	-50000	6.6	4.34	82.1
3	-60000	6.99	4.73	89.4
3	-70000	7.29	5.03	95.2
3	-80000	7.21	4.95	93.5
3	-90000	6.66	4.4	83.2
3	-100000	6.74	4.48	84.7
3	-110000	7.46	5.2	98.4
3	-120000	6.58	4.32	81.6
3	-130000	6.43	4.17	78.9
3	-140000	6.56	4.3	81.3
3	-150000	6.29	4.03	76.2
3	-160000	5.81	3.55	67.1
3	-170000	5.58	3.32	62.7
3	-180000	6.29	4.03	76.1
3	-190000	6.42	4.16	78.6
3	-200000	5.7	3.44	65
3	-210000	5.6	3.34	63.2
3	-220000	6.14	3.88	73.4
3	-230000	5.89	3.63	68.5
3	-240000	5.66	3.4	64.2
3	-250000	5.58	3.32	62.8
3	-260000	5.65	3.39	64
3	-270000	5.63	3.37	63.6
3	-280000	5.49	3.23	61.1
3	-290000	5.22	2.99	56.5
3	-300000	5.96	3.7	70
3	-310000	5.91	3.65	68.9
3	-320000	5.73	3.47	65.6
3	-330000	5.47	3.21	60.7
3	-340000	5.41	3.15	59.5
3	-350000	5.32	3.06	57.8
3	-360000	4.79	2.74	51.8
3	-370000	4.95	2.83	53.5
3	-380000	4.78	2.74	51.7
3	-390000	4.75	2.72	51.4
3	-400000	4.9	2.8	53
3	-410000	4.47	2.56	48.4
3	-420000	4.51	2.58	48.8
3	-430000	4.98	2.86	54
3	-440000	4.37	2.5	47.3
3	-450000	4.19	2.4	45.4
3	-460000	4.37	2.5	47.3
3	-470000	4.37	2.5	47.3
3	-480000	4.06	2.33	43.9
3	-490000	3.84	2.2	41.6
3	-500000	4.26	2.44	46.2
3	-510000	4.33	2.48	46.9
3	-520000	4.08	2.34	44.2
3	-530000	4.17	2.39	45.2
3	-540000	4.75	2.72	51.5
3	-550000	4.84	2.77	52.4
3	-560000	4.94	2.83	53.5
3	-570000	4.4	2.52	47.7
3	-580000	4.18	2.39	45.2
3	0	2.77	3.05	57.7
3	10000	4.69	4.98	94.1
3	20000	4.71	4.99	94.4
3	30000	4.86	5.15	97.3
3	40000	4.17	4.45	84.2
3	50000	3.92	4.21	79.5
3	60000	3.92	4.2	79.4
3	70000	4.03	4.32	81.6
3	80000	3.38	3.66	69.2
3	90000	3.28	3.56	67.4
3	100000	3.59	3.87	73.2
3	110000	3.57	3.85	72.8
3	120000	2.93	3.22	60.8
3	130000	2.94	3.23	61
3	140000	3.26	3.55	67.1
3	150000	3.08	3.36	63.5
3	160000	2.97	3.25	61.5
3	170000	2.79	3.08	58.1
3	180000	2.62	2.91	54.9
3	190000	2.98	3.26	61.7
3	200000	2.39	2.68	50.7
3	210000	2.33	2.62	49.5
3	220000	2.36	2.65	50
3	230000	2.49	2.77	52.4
3	240000	2.32	2.61	49.3
3	250000	1.76	2.05	38.7
3	260000	1.96	2.25	42.4
3	270000	2.13	2.41	45.6
3	280000	1.79	2.07	39.2
3	290000	1.83	2.12	40
3	300000	2.38	2.67	50.5
3	310000	2.7	2.98	56.4
3	320000	2.49	2.78	52.5
3	330000	2.17	2.45	46.4
3	340000	2.53	2.82	53.2
3	350000	2.75	3.04	57.4
3	360000	2.13	2.42	45.7
3	370000	2	2.28	43.2
3	380000	2.22	2.5	47.3
3	390000	2.14	2.43	45.9
3	400000	2	2.29	43.2
3	410000	1.73	2.01	38
3	420000	2.26	2.55	48.2
3	430000	2.41	2.69	50.9
3	440000	2.23	2.52	47.6
3	450000	2.72	3.01	56.9
3	460000	2.75	3.04	57.5
3	470000	2.88	3.16	59.8
3	480000	2.88	3.17	59.9
3	490000	2.92	3.21	60.6
3	500000	3.06	3.35	63.2
3	510000	3.08	3.37	63.7
3	520000	2.4	2.69	50.8
3	530000	2.45	2.73	51.6
3	540000	1.92	2.21	41.7
3	550000	1.75	2.04	38.5
3	560000	1.78	2.06	39
3	570000	1.98	2.27	42.8
3	580000	1.67	1.96	37
4	0	2.93	1.68	31.7
4	-10000	4.21	2.41	45.6
4	-20000	4.54	2.6	49.2
4	-30000	5.23	3	56.7
4	-40000	5.28	3.03	57.2
4	-50000	6.06	3.8	71.9
4	-60000	5.97	3.71	70.2
4	-70000	6.17	3.91	73.9
4	-80000	6.22	3.96	74.8
4	-90000	5.93	3.67	69.3
4	-100000	5.92	3.66	69.1
4	-110000	6.27	4.01	75.8
4	-120000	5.79	3.53	66.8
4	-130000	5.71	3.45	65.2
4	-140000	6.18	3.92	74.1
4	-150000	6.31	4.05	76.6
4	-160000	5.8	3.54	66.9
4	-170000	5.34	3.08	58.3
4	-180000	5.91	3.65	69.1
4	-190000	5.8	3.54	66.9
4	-200000	5.04	2.89	54.6
4	-210000	5.08	2.91	55
4	-220000	5.57	3.31	62.5
4	-230000	5.31	3.05	57.6
4	-240000	4.96	2.84	53.7
4	-250000	5	2.87	54.2
4	-260000	5.1	2.92	55.2
4	-270000	5.13	2.94	55.5
4	-280000	4.43	2.54	47.9
4	-290000	4.2	2.41	45.5
4	-300000	4.72	2.7	51.1
4	-310000	5.02	2.88	54.4
4	-320000	4.73	2.71	51.2
4	-330000	4.7	2.69	50.9
4	-340000	4.83	2.77	52.3
4	-350000	4.59	2.63	49.7
4	-360000	3.91	2.24	42.4
4	-370000	4.07	2.33	44.1
4	-380000	4.14	2.37	44.8
4	-390000	4.05	2.32	43.9
4	-400000	3.81	2.19	41.3
4	-410000	3.61	2.07	39.1
4	-420000	3.74	2.14	40.5
4	-430000	3.88	2.23	42.1
4	-440000	3.15	1.8	34.1
4	-450000	3.05	1.74	33
4	-460000	3.39	1.94	36.7
4	-470000	3.17	1.82	34.4
4	-480000	2.88	1.65	31.1
4	-490000	2.67	1.53	28.9
4	-500000	3.08	1.77	33.4
4	-510000	2.91	1.67	31.6
4	-520000	2.43	1.39	26.3
4	-530000	2.2	1.26	23.8
4	-540000	2.38	1.36	25.8
4	-550000	3.97	2.27	42.9
4	-560000	6.11	3.85	72.9
4	-570000	6.91	4.65	87.9
4	-580000	5.83	3.57	67.5
4	0	4.62	4.91	92.8
4	10000	4.37	4.66	88
4	20000	3.9	4.19	79.2
4	30000	4.34	4.62	87.4
4	40000	3.28	3.57	67.4
4	50000	3.44	3.72	70.4
4	60000	3.95	4.23	80
4	70000	3.78	4.07	76.9
4	80000	3.33	3.62	68.4
4	90000	2.79	3.07	58.1
4	100000	2.92	3.21	60.6
4	110000	2.82	3.1	58.7
4	120000	2.15	2.43	46
4	130000	2.56	2.85	53.8
4	140000	3.08	3.37	63.6
4	150000	3.47	3.76	71.1
4	160000	3.31	3.59	67.9
4	170000	2.81	3.1	58.6
4	180000	2.85	3.14	59.3
4	190000	3.03	3.32	62.7
4	200000	2.45	2.74	51.8
4	210000	2.26	2.55	48.2
4	220000	2.27	2.56	48.4
4	230000	2.44	2.73	51.6
4	240000	2.66	2.94	55.7
4	250000	1.87	2.16	40.8
4	260000	2.01	2.3	43.4
4	270000	2.07	2.36	44.5
4	280000	1.41	1.69	32
4	290000	1.87	2.16	40.8
4	300000	2.1	2.39	45.2
4	310000	2.23	2.52	47.5
4	320000	1.78	2.07	39.1
4	330000	1.36	1.64	31.1
4	340000	1.7	1.98	37.5
4	350000	2.19	2.47	46.8
4	360000	1.85	2.14	40.4
4	370000	1.82	2.1	39.8
4	380000	2.08	2.37	44.8
4	390000	1.97	2.26	42.6
4	400000	1.67	1.95	36.9
4	410000	1.52	1.81	34.2
4	420000	1.81	2.09	39.5
4	430000	1.73	2.02	38.2
4	440000	1.29	1.58	29.9
4	450000	1.63	1.91	36.2
4	460000	1.75	2.03	38.4
4	470000	2.07	2.35	44.4
4	480000	2.09	2.38	44.9
4	490000	2.17	2.46	46.5
4	500000	2.04	2.32	43.9
4	510000	2.29	2.58	48.7
4	520000	1.67	1.96	37
4	530000	1.49	1.77	33.5
4	540000	1.6	1.88	35.6
4	550000	1.88	2.16	40.9
4	560000	1.91	2.2	41.5
4	570000	1.63	1.92	36.3
4	580000	1.39	1.67	31.6
5	0	2.83	1.62	30.7
5	-10000	4.4	2.52	47.6
5	-20000	4.39	2.52	47.6
5	-30000	4.96	2.84	53.7
5	-40000	4.7	2.69	50.9
5	-50000	4.91	2.81	53.1
5	-60000	4.69	2.69	50.8
5	-70000	4.86	2.78	52.6
5	-80000	4.83	2.77	52.3
5	-90000	4.57	2.62	49.5
5	-100000	4.7	2.69	50.9
5	-110000	5.02	2.87	54.3
5	-120000	4.51	2.58	48.8
5	-130000	4.26	2.44	46.1
5	-140000	4.55	2.6	49.2
5	-150000	4.46	2.56	48.3
5	-160000	4.25	2.43	46
5	-170000	3.94	2.26	42.7
5	-180000	4.37	2.5	47.3
5	-190000	4.55	2.61	49.2
5	-200000	3.94	2.26	42.7
5	-210000	3.9	2.23	42.2
5	-220000	4.13	2.37	44.8
5	-230000	4.2	2.41	45.5
5	-240000	3.94	2.26	42.6
5	-250000	3.94	2.26	42.6
5	-260000	3.97	2.28	43
5	-270000	4.27	2.44	46.2
5	-280000	3.61	2.07	39.1
5	-290000	3.5	2.01	37.9
5	-300000	3.88	2.23	42.1
5	-310000	3.54	2.03	38.4
5	-320000	3.36	1.92	36.3
5	-330000	3.28	1.88	35.5
5	-340000	3.56	2.04	38.6
5	-350000	3.49	2	37.8
5	-360000	3.07	1.76	33.2
5	-370000	3.19	1.83	34.5
5	-380000	3.12	1.79	33.8
5	-390000	3.17	1.82	34.4
5	-400000	3.29	1.89	35.6
5	-410000	2.94	1.68	31.8
5	-420000	3.08	1.76	33.3
5	-430000	3.32	1.9	35.9
5	-440000	2.8	1.6	30.3
5	-450000	2.68	1.53	29
5	-460000	2.93	1.68	31.7
5	-470000	2.86	1.64	30.9
5	-480000	2.63	1.51	28.5
5	-490000	2.47	1.41	26.7
5	-500000	2.92	1.68	31.7
5	-510000	3.06	1.75	33.1
5	-520000	2.71	1.55	29.4
5	-530000	2.62	1.5	28.4
5	-540000	2.92	1.67	31.7
5	-550000	2.94	1.68	31.8
5	-560000	2.95	1.69	31.9
5	-570000	2.66	1.53	28.9
5	-580000	2.3	1.32	24.9
5	0	1.12	1.4	26.5
5	10000	3.37	3.65	69.1
5	20000	3.83	4.11	77.7
5	30000	4.27	4.56	86.1
5	40000	3.83	4.12	77.8
5	50000	3.62	3.9	73.8
5	60000	4.12	4.4	83.2
5	70000	3.9	4.18	79.1
5	80000	3.55	3.84	72.5
5	90000	3.21	3.5	66.2
5	100000	3.39	3.67	69.4
5	110000	3.21	3.5	66.1
5	120000	2.71	3	56.6
5	130000	2.57	2.86	54
5	140000	2.73	3.02	57
5	150000	2.86	3.15	59.5
5	160000	2.65	2.93	55.5
5	170000	2.42	2.7	51.1
5	180000	2.73	3.02	57
5	190000	3.01	3.29	62.2
5	200000	2.75	3.04	57.5
5	210000	2.77	3.05	57.7
5	220000	2.97	3.25	61.5
5	230000	3.05	3.33	63
5	240000	3.2	3.48	65.9
5	250000	2.61	2.9	54.8
5	260000	2.81	3.09	58.5
5	270000	3.02	3.3	62.5
5	280000	2.56	2.84	53.8
5	290000	2.67	2.96	55.9
5	300000	2.81	3.1	58.5
5	310000	3.15	3.43	64.9
5	320000	3.01	3.29	62.2
5	330000	2.26	2.55	48.2
5	340000	2.44	2.73	51.6
5	350000	2.91	3.19	60.4
5	360000	2.45	2.73	51.7
5	370000	2.03	2.32	43.8
5	380000	2.38	2.66	50.4
5	390000	2.26	2.55	48.1
5	400000	2.13	2.41	45.6
5	410000	1.61	1.9	35.9
5	420000	2.12	2.4	45.4
5	430000	2.22	2.51	47.4
5	440000	1.44	1.73	32.6
5	450000	1.69	1.98	37.4
5	460000	1.45	1.73	32.8
5	470000	1.57	1.85	35
5	480000	1.46	1.75	33
5	490000	1.04	1.33	25.1
5	500000	1.42	1.71	32.2
5	510000	1.47	1.75	33.1
5	520000	1.06	1.34	25.4
5	530000	0.945	1.23	23.3
5	540000	1.04	1.32	25
5	550000	1.11	1.4	26.5
5	560000	1.3	1.58	29.9
5	570000	1.32	1.61	30.4
5	580000	1.31	1.6	30.2
6	0	2.75	1.58	29.8
6	-10000	4.29	2.45	46.4
6	-20000	4.6	2.63	49.8
6	-30000	5.29	3.03	57.2
6	-40000	5.49	3.23	61.1
6	-50000	5.78	3.52	66.6
6	-60000	5.77	3.51	66.4
6	-70000	6.07	3.81	71.9
6	-80000	6.16	3.9	73.6
6	-90000	5.56	3.3	62.3
6	-100000	5.49	3.23	61.1
6	-110000	6.24	3.98	75.2
6	-120000	5.42	3.16	59.7
6	-130000	5.3	3.04	57.5
6	-140000	5.61	3.35	63.3
6	-150000	5.54	3.28	62
6	-160000	4.97	2.85	53.9
6	-170000	4.42	2.53	47.9
6	-180000	4.58	2.63	49.6
6	-190000	5.04	2.89	54.6
6	-200000	4.61	2.64	49.9
6	-210000	4.27	2.44	46.2
6	-220000	4.62	2.65	50
6	-230000	4.47	2.56	48.4
6	-240000	4.26	2.44	46.1
6	-250000	3.9	2.24	42.3
6	-260000	3.81	2.18	41.2
6	-270000	4.25	2.44	46.1
6	-280000	3.78	2.16	40.9
6	-290000	3.4	1.95	36.8
6	-300000	3.78	2.17	40.9
6	-310000	3.82	2.19	41.4
6	-320000	4.05	2.32	43.9
6	-330000	3.94	2.26	42.6
6	-340000	3.89	2.23	42.1
6	-350000	3.94	2.26	42.7
6	-360000	3.36	1.92	36.3
6	-370000	3.39	1.94	36.7
6	-380000	3.42	1.96	37.1
6	-390000	3.61	2.07	39.1
6	-400000	3.43	1.96	37.1
6	-410000	3.13	1.79	33.9
6	-420000	3.1	1.78	33.6
6	-430000	3.42	1.96	37
6	-440000	2.83	1.62	30.6
6	-450000	2.55	1.46	27.6
6	-460000	2.67	1.53	28.9
6	-470000	2.9	1.66	31.4
6	-480000	2.45	1.41	26.6
6	-490000	2.32	1.33	25.2
6	-500000	2.33	1.33	25.2
6	-510000	2.58	1.48	27.9
6	-520000	2.18	1.25	23.7
6	-530000	2	1.15	21.7
6	-540000	2.27	1.3	24.6
6	-550000	2.35	1.34	25.4
6	-560000	2.34	1.34	25.3
6	-570000	2.04	1.17	22.1
6	-580000	1.47	0.845	16
