rep_num	position	torque	torque_compensated	lbs_compensated
1	0	3.68	3.97	75
1	10000	4.06	4.35	82.2
1	20000	4.16	4.45	84.1
1	30000	3.77	4.06	76.7
1	40000	2.76	3.04	57.5
1	50000	1.07	1.35	25.6
1	60000	1.09	1.37	25.9
1	70000	0.843	1.13	21.3
1	80000	1.66	1.95	36.9
1	90000	2.16	2.44	46.2
1	100000	1.57	1.86	35.1
1	110000	1.52	1.8	34.1
1	120000	2.95	3.24	61.2
1	130000	4.04	4.33	81.8
1	140000	4.16	4.45	84.1
1	150000	4.38	4.67	88.2
1	160000	4.71	4.99	94.4
1	170000	4.63	4.91	92.8
1	180000	4.35	4.64	87.7
1	190000	4.03	4.32	81.6
1	200000	3.97	4.25	80.4
1	210000	3.62	3.91	73.9
1	220000	3.45	3.73	70.5
1	230000	2.94	3.23	61
1	240000	3.34	3.63	68.6
1	250000	3.2	3.49	65.9
1	260000	3.11	3.4	64.2
1	270000	2.79	3.08	58.1
1	280000	2.65	2.94	55.5
1	290000	3.18	3.47	65.5
1	300000	3.3	3.58	67.7
1	310000	3.24	3.52	66.6
1	320000	3.41	3.69	69.8
1	330000	3.16	3.44	65.1
1	340000	3.02	3.31	62.5
1	350000	2.75	3.04	57.4
1	360000	2.63	2.91	55
1	370000	2.99	3.27	61.9
1	380000	3.39	3.67	69.4
1	390000	3.38	3.67	69.3
1	400000	3.38	3.66	69.2
1	410000	3.82	4.1	77.5
1	420000	3.59	3.88	73.3
1	430000	3.36	3.65	68.9
1	440000	3.29	3.58	67.6
1	450000	3.27	3.56	67.3
1	460000	3.04	3.33	63
1	470000	2.97	3.25	61.5
1	480000	2.94	3.23	61
1	490000	3.15	3.44	64.9
1	500000	2.88	3.17	59.8
1	510000	2.97	3.25	61.5
1	520000	2.74	3.02	57.2
1	530000	2.73	3.02	57.1
1	540000	2.58	2.87	54.2
1	550000	2.46	2.75	52
1	560000	2.87	3.16	59.7
1	570000	3.12	3.4	64.3
1	580000	3.38	3.66	69.2
2	0	4.75	2.72	51.4
2	-10000	5.95	3.69	69.8
2	-20000	6.36	4.1	77.6
2	-30000	5.94	3.68	69.5
2	-40000	6.3	4.04	76.3
2	-50000	6.46	4.2	79.3
2	-60000	6.07	3.81	72
2	-70000	6.32	4.06	76.7
2	-80000	6.5	4.24	80.2
2	-90000	6.7	4.44	83.9
2	-100000	6.37	4.11	77.7
2	-110000	6.52	4.26	80.5
2	-120000	7.02	4.76	90
2	-130000	6.77	4.51	85.2
2	-140000	6.25	3.99	75.4
2	-150000	6.75	4.49	84.9
2	-160000	6.2	3.94	74.5
2	-170000	6.17	3.91	73.8
2	-180000	6.16	3.9	73.6
2	-190000	6.15	3.89	73.6
2	-200000	6.42	4.16	78.7
2	-210000	6.34	4.08	77.2
2	-220000	6.28	4.02	75.9
2	-230000	6.37	4.11	77.8
2	-240000	6.12	3.86	73
2	-250000	6.02	3.76	71
2	-260000	5.84	3.58	67.6
2	-270000	5.83	3.57	67.4
2	-280000	5.76	3.5	66.1
2	-290000	5.74	3.48	65.8
2	-300000	5.47	3.21	60.8
2	-310000	5.35	3.09	58.4
2	-320000	5.46	3.2	60.6
2	-330000	5.62	3.36	63.6
2	-340000	5.58	3.32	62.8
2	-350000	5.25	3.01	56.8
2	-360000	5.36	3.1	58.6
2	-370000	5.2	2.98	56.3
2	-380000	4.85	2.78	52.5
2	-390000	5.06	2.9	54.8
2	-400000	5.46	3.2	60.5
2	-410000	5.94	3.68	69.5
2	-420000	5.7	3.44	64.9
2	-430000	5.76	3.5	66.2
2	-440000	5.96	3.7	69.9
2	-450000	5.72	3.46	65.4
2	-460000	5.33	3.07	57.9
2	-470000	5.73	3.47	65.5
2	-480000	5.39	3.13	59.2
2	-490000	5.22	2.99	56.5
2	-500000	5.03	2.88	54.5
2	-510000	4.97	2.85	53.8
2	-520000	4.84	2.77	52.4
2	-530000	4.67	2.68	50.6
2	-540000	4.39	2.52	47.5
2	-550000	4.03	2.31	43.7
2	-560000	3.77	2.16	40.8
2	-570000	3.23	1.85	35
2	-580000	2.89	1.66	31.3
2	0	1.71	2	37.8
2	10000	3.77	4.06	76.7
2	20000	3.94	4.22	79.8
2	30000	3.45	3.74	70.7
2	40000	3.02	3.3	62.5
2	50000	3.19	3.48	65.8
2	60000	3.42	3.71	70.1
2	70000	3.31	3.6	68
2	80000	3.09	3.38	63.8
2	90000	3.36	3.64	68.9
2	100000	3.15	3.44	65
2	110000	2.89	3.17	59.9
2	120000	3.15	3.44	64.9
2	130000	3.51	3.79	71.7
2	140000	3.15	3.44	65
2	150000	3.04	3.32	62.8
2	160000	2.72	3.01	56.8
2	170000	2.76	3.05	57.6
2	180000	2.6	2.88	54.5
2	190000	2.82	3.11	58.8
2	200000	2.78	3.06	57.9
2	210000	2.65	2.94	55.6
2	220000	2.85	3.14	59.3
2	230000	2.6	2.89	54.6
2	240000	2.71	2.99	56.5
2	250000	2.66	2.95	55.7
2	260000	2.6	2.89	54.6
2	270000	2.62	2.91	55
2	280000	2.36	2.65	50.1
2	290000	2.3	2.59	49
2	300000	2.32	2.61	49.3
2	310000	2.13	2.41	45.6
2	320000	2.13	2.42	45.7
2	330000	2.16	2.45	46.3
2	340000	2.02	2.31	43.7
2	350000	1.91	2.2	41.5
2	360000	1.63	1.92	36.3
2	370000	1.8	2.08	39.4
2	380000	2.31	2.6	49.1
2	390000	2.28	2.57	48.6
2	400000	2.35	2.63	49.8
2	410000	2.62	2.91	55
2	420000	2.44	2.73	51.5
2	430000	2.14	2.43	45.9
2	440000	2.1	2.38	45
2	450000	2.36	2.64	49.9
2	460000	2.23	2.52	47.6
2	470000	2.09	2.38	45
2	480000	2.06	2.34	44.3
2	490000	2.22	2.51	47.4
2	500000	1.76	2.05	38.7
2	510000	1.99	2.27	42.9
2	520000	2.09	2.37	44.8
2	530000	1.71	1.99	37.7
2	540000	1.86	2.14	40.5
2	550000	1.78	2.07	39.1
2	560000	2.26	2.54	48.1
2	570000	2.48	2.77	52.3
2	580000	2.97	3.25	61.5
3	0	4.25	2.43	46
3	-10000	5.79	3.53	66.7
3	-20000	6.05	3.79	71.7
3	-30000	5.92	3.66	69.1
3	-40000	5.69	3.43	64.7
3	-50000	5.81	3.55	67
3	-60000	5.54	3.28	62
3	-70000	5.47	3.21	60.6
3	-80000	5.67	3.41	64.5
3	-90000	5.99	3.73	70.5
3	-100000	5.93	3.67	69.3
3	-110000	6.2	3.94	74.5
3	-120000	6.59	4.33	81.9
3	-130000	6.32	4.06	76.6
3	-140000	5.85	3.59	67.9
3	-150000	5.99	3.73	70.6
3	-160000	5.88	3.62	68.5
3	-170000	5.59	3.33	63
3	-180000	5.69	3.43	64.8
3	-190000	5.55	3.29	62.1
3	-200000	5.3	3.04	57.4
3	-210000	4.87	2.79	52.7
3	-220000	4.64	2.66	50.2
3	-230000	4.7	2.69	50.8
3	-240000	4.65	2.67	50.4
3	-250000	4.72	2.71	51.1
3	-260000	4.79	2.75	51.9
3	-270000	4.89	2.8	52.9
3	-280000	5.31	3.05	57.6
3	-290000	5.38	3.12	58.9
3	-300000	5.17	2.96	56
3	-310000	5.05	2.89	54.7
3	-320000	4.98	2.85	53.9
3	-330000	4.79	2.74	51.8
3	-340000	4.94	2.83	53.4
3	-350000	4.58	2.63	49.6
3	-360000	4.59	2.63	49.7
3	-370000	4.5	2.58	48.7
3	-380000	4.03	2.31	43.7
3	-390000	4.1	2.35	44.4
3	-400000	4.19	2.4	45.4
3	-410000	4.08	2.34	44.2
3	-420000	3.58	2.05	38.8
3	-430000	3.53	2.02	38.2
3	-440000	3.61	2.07	39
3	-450000	3.45	1.97	37.3
3	-460000	3.16	1.81	34.2
3	-470000	3.43	1.96	37.1
3	-480000	3.32	1.9	36
3	-490000	3.13	1.79	33.9
3	-500000	3.03	1.73	32.8
3	-510000	3.04	1.74	32.9
3	-520000	3.01	1.72	32.6
3	-530000	2.84	1.63	30.7
3	-540000	2.49	1.43	27
3	-550000	2.52	1.44	27.3
3	-560000	2.71	1.55	29.3
3	-570000	2.5	1.43	27
3	-580000	2.49	1.43	26.9
3	0	1.28	1.57	29.7
3	10000	3.06	3.34	63.2
3	20000	3.81	4.1	77.4
3	30000	3.87	4.15	78.5
3	40000	3.51	3.8	71.8
3	50000	3.91	4.2	79.4
3	60000	4	4.29	81
3	70000	3.76	4.04	76.4
3	80000	3.48	3.77	71.2
3	90000	3.69	3.97	75.1
3	100000	3.39	3.67	69.4
3	110000	2.78	3.07	58
3	120000	2.91	3.19	60.4
3	130000	3.13	3.42	64.5
3	140000	2.93	3.21	60.7
3	150000	2.77	3.05	57.7
3	160000	2.61	2.9	54.8
3	170000	2.77	3.05	57.7
3	180000	2.64	2.92	55.2
3	190000	2.46	2.75	51.9
3	200000	2.5	2.79	52.7
3	210000	2.48	2.77	52.3
3	220000	2.56	2.84	53.7
3	230000	2.48	2.76	52.3
3	240000	2.67	2.95	55.8
3	250000	2.61	2.89	54.7
3	260000	2.53	2.81	53.1
3	270000	2.58	2.87	54.2
3	280000	2.44	2.73	51.6
3	290000	2.39	2.68	50.6
3	300000	2.7	2.99	56.5
3	310000	2.58	2.86	54.1
3	320000	2.58	2.86	54.1
3	330000	2.45	2.74	51.7
3	340000	2.25	2.54	48
3	350000	2.46	2.75	51.9
3	360000	2.36	2.64	50
3	370000	2.51	2.79	52.8
3	380000	2.73	3.01	57
3	390000	2.62	2.91	55
3	400000	2.46	2.75	52
3	410000	2.86	3.15	59.5
3	420000	2.71	3	56.7
3	430000	2.5	2.79	52.7
3	440000	2.45	2.73	51.6
3	450000	2.78	3.07	58
3	460000	2.58	2.86	54.1
3	470000	2.53	2.81	53.2
3	480000	2.23	2.52	47.5
3	490000	2.68	2.97	56.1
3	500000	2.57	2.86	54
3	510000	2.6	2.88	54.5
3	520000	2.65	2.94	55.5
3	530000	2.95	3.24	61.2
3	540000	3.19	3.48	65.7
3	550000	3.42	3.71	70
3	560000	4.01	4.29	81.1
3	570000	4.02	4.31	81.4
3	580000	3.85	4.13	78.1
4	0	5.37	3.11	58.7
4	-10000	6.05	3.79	71.7
4	-20000	6.18	3.92	74.1
4	-30000	5.75	3.49	66
4	-40000	6.32	4.06	76.7
4	-50000	6.29	4.03	76.1
4	-60000	5.72	3.46	65.5
4	-70000	5.53	3.27	61.8
4	-80000	5.69	3.43	64.9
4	-90000	5.77	3.51	66.4
4	-100000	5.54	3.28	61.9
4	-110000	5.43	3.17	59.8
4	-120000	5.31	3.05	57.7
4	-130000	5.32	3.06	57.9
4	-140000	4.88	2.79	52.8
4	-150000	5.04	2.89	54.6
4	-160000	4.87	2.79	52.7
4	-170000	4.76	2.73	51.5
4	-180000	4.76	2.73	51.5
4	-190000	4.73	2.71	51.2
4	-200000	4.94	2.83	53.5
4	-210000	4.57	2.62	49.5
4	-220000	4.54	2.6	49.1
4	-230000	4.78	2.74	51.8
4	-240000	4.75	2.72	51.4
4	-250000	4.74	2.72	51.3
4	-260000	4.59	2.63	49.7
4	-270000	4.69	2.69	50.8
4	-280000	4.61	2.64	49.9
4	-290000	4.44	2.55	48.1
4	-300000	4.22	2.42	45.7
4	-310000	4.06	2.33	44
4	-320000	4.14	2.37	44.8
4	-330000	4.07	2.33	44.1
4	-340000	3.86	2.21	41.8
4	-350000	3.46	1.98	37.5
4	-360000	3.34	1.91	36.2
4	-370000	3.42	1.96	37
4	-380000	3.11	1.78	33.6
4	-390000	3.19	1.83	34.5
4	-400000	3.4	1.95	36.8
4	-410000	3.27	1.87	35.4
4	-420000	3.11	1.78	33.6
4	-430000	3.15	1.8	34.1
4	-440000	3.15	1.8	34.1
4	-450000	3.11	1.78	33.7
4	-460000	2.7	1.55	29.2
4	-470000	3.03	1.73	32.8
4	-480000	2.86	1.64	31
4	-490000	2.73	1.57	29.6
4	-500000	2.6	1.49	28.1
4	-510000	2.74	1.57	29.6
4	-520000	2.77	1.59	30
4	-530000	2.84	1.62	30.7
4	-540000	2.53	1.45	27.4
4	-550000	2.74	1.57	29.7
4	-560000	2.83	1.62	30.7
4	-570000	2.55	1.46	27.6
4	-580000	2.33	1.34	25.3
4	0	0.818	1.1	20.9
4	10000	3.72	4.01	75.8
4	20000	4.82	5.11	96.6
4	30000	4.9	5.19	98.1
4	40000	4.88	5.16	97.6
4	50000	4.82	5.1	96.5
4	60000	4.89	5.17	97.8
4	70000	4.46	4.74	89.7
4	80000	4.06	4.34	82.1
4	90000	4.22	4.51	85.2
4	100000	3.82	4.11	77.6
4	110000	3.4	3.69	69.7
4	120000	3.29	3.57	67.5
4	130000	3.49	3.78	71.4
4	140000	3.16	3.45	65.2
4	150000	2.92	3.21	60.6
4	160000	2.69	2.97	56.2
4	170000	2.74	3.03	57.3
4	180000	2.51	2.8	52.9
4	190000	2.59	2.87	54.3
4	200000	2.53	2.81	53.2
4	210000	2.53	2.82	53.3
4	220000	2.57	2.85	53.9
4	230000	2.58	2.87	54.2
4	240000	2.48	2.76	52.3
4	250000	2.36	2.64	49.9
4	260000	2.39	2.67	50.6
4	270000	2.51	2.8	52.8
4	280000	2.24	2.52	47.7
4	290000	2.3	2.59	48.9
4	300000	2.32	2.61	49.3
4	310000	2.11	2.39	45.2
4	320000	2.13	2.42	45.7
4	330000	2.06	2.35	44.4
4	340000	1.86	2.14	40.5
4	350000	1.97	2.25	42.6
4	360000	1.63	1.92	36.3
4	370000	1.74	2.02	38.2
4	380000	1.97	2.26	42.6
4	390000	1.66	1.95	36.9
4	400000	1.57	1.86	35.1
4	410000	2.11	2.4	45.3
4	420000	2.21	2.5	47.2
4	430000	2.23	2.51	47.5
4	440000	2.4	2.68	50.7
4	450000	3.09	3.38	63.8
4	460000	2.69	2.97	56.2
4	470000	2.63	2.92	55.2
4	480000	2.77	3.06	57.8
4	490000	3	3.29	62.1
4	500000	3.07	3.36	63.4
4	510000	3.23	3.52	66.5
4	520000	3.26	3.55	67
4	530000	3.05	3.33	63
4	540000	3.18	3.46	65.4
4	550000	3.19	3.47	65.6
4	560000	3.49	3.78	71.4
4	570000	3.27	3.56	67.2
4	580000	3.71	4	75.5
5	0	4.92	2.82	53.2
5	-10000	5.83	3.57	67.5
5	-20000	5.55	3.29	62.2
5	-30000	5.63	3.37	63.7
5	-40000	5.73	3.47	65.6
5	-50000	5.74	3.48	65.8
5	-60000	5.44	3.18	60.1
5	-70000	5.52	3.26	61.7
5	-80000	5.71	3.45	65.2
5	-90000	5.55	3.29	62.3
5	-100000	5.06	2.9	54.8
5	-110000	5.02	2.88	54.4
5	-120000	5.14	2.94	55.6
5	-130000	4.9	2.81	53.1
5	-140000	4.64	2.66	50.2
5	-150000	5.64	3.38	64
5	-160000	5.8	3.54	66.9
5	-170000	5.77	3.51	66.3
5	-180000	5.72	3.46	65.3
5	-190000	5.67	3.41	64.4
5	-200000	5.48	3.22	60.9
5	-210000	4.97	2.85	53.8
5	-220000	4.86	2.78	52.6
5	-230000	4.99	2.86	54.1
5	-240000	5.07	2.9	54.9
5	-250000	5.04	2.89	54.6
5	-260000	5.08	2.91	55
5	-270000	4.92	2.82	53.3
5	-280000	4.73	2.71	51.2
5	-290000	4.64	2.66	50.2
5	-300000	4.59	2.63	49.7
5	-310000	5.03	2.88	54.5
5	-320000	5.49	3.23	61
5	-330000	6.07	3.81	71.9
5	-340000	6.36	4.1	77.4
5	-350000	6.49	4.23	80
5	-360000	7.07	4.81	90.9
5	-370000	7.08	4.82	91.2
5	-380000	6.82	4.56	86.1
5	-390000	6.15	3.89	73.5
5	-400000	5.93	3.67	69.4
5	-410000	5.8	3.54	67
5	-420000	5.35	3.09	58.5
5	-430000	5.28	3.03	57.2
5	-440000	5.31	3.05	57.6
5	-450000	5.14	2.94	55.6
5	-460000	4.59	2.63	49.7
5	-470000	4.89	2.8	53
5	-480000	4.77	2.73	51.6
5	-490000	4.45	2.55	48.2
5	-500000	4.18	2.4	45.3
5	-510000	4.05	2.32	43.9
5	-520000	3.81	2.18	41.2
5	-530000	3.61	2.07	39.1
5	-540000	3.38	1.94	36.6
5	-550000	3.66	2.09	39.6
5	-560000	3.54	2.03	38.4
5	-570000	3.12	1.79	33.8
5	-580000	2.7	1.55	29.3
5	0	1.17	1.46	27.6
5	10000	3.79	4.08	77.1
5	20000	4.18	4.47	84.5
5	30000	3.92	4.21	79.5
5	40000	3.71	3.99	75.5
5	50000	3.89	4.18	79
5	60000	4.05	4.34	82
5	70000	4.08	4.36	82.5
5	80000	3.81	4.1	77.4
5	90000	3.83	4.12	77.9
5	100000	3.5	3.78	71.5
5	110000	3	3.28	62
5	120000	3.13	3.42	64.7
5	130000	3.46	3.75	70.9
5	140000	3.17	3.45	65.3
5	150000	3.16	3.44	65.1
5	160000	2.98	3.27	61.8
5	170000	3.26	3.55	67.1
5	180000	3.2	3.48	65.9
5	190000	3.21	3.49	66
5	200000	3.06	3.35	63.3
5	210000	2.94	3.23	61
5	220000	3.12	3.41	64.4
5	230000	2.93	3.22	60.8
5	240000	2.97	3.26	61.6
5	250000	2.88	3.17	59.9
5	260000	2.89	3.17	59.9
5	270000	2.9	3.19	60.3
5	280000	2.63	2.92	55.2
5	290000	2.52	2.81	53.1
5	300000	2.66	2.94	55.6
5	310000	2.38	2.67	50.5
5	320000	2.45	2.74	51.8
5	330000	2.44	2.73	51.5
5	340000	2.29	2.57	48.7
5	350000	1.84	2.13	40.3
5	360000	1.55	1.84	34.7
5	370000	1.71	1.99	37.7
5	380000	1.91	2.2	41.6
5	390000	1.69	1.97	37.3
5	400000	1.83	2.12	40
5	410000	2.28	2.56	48.5
5	420000	2.13	2.42	45.7
5	430000	1.95	2.24	42.3
5	440000	1.98	2.27	42.9
5	450000	2.3	2.59	48.9
5	460000	1.77	2.05	38.8
5	470000	1.51	1.79	33.9
5	480000	1.27	1.55	29.4
5	490000	1.36	1.65	31.2
5	500000	1.62	1.91	36.1
5	510000	1.59	1.88	35.5
5	520000	1.3	1.58	29.9
5	530000	1.26	1.55	29.3
5	540000	1.16	1.44	27.3
5	550000	1.3	1.58	29.9
5	560000	1.94	2.23	42.1
5	570000	2.01	2.3	43.4
5	580000	2.4	2.68	50.7
6	0	3.19	1.82	34.5
6	-10000	4.05	2.32	43.8
6	-20000	4.67	2.68	50.6
6	-30000	4.77	2.73	51.7
6	-40000	4.96	2.84	53.8
6	-50000	5.38	3.12	59
6	-60000	5.12	2.93	55.4
6	-70000	5.25	3.01	56.9
6	-80000	5.45	3.19	60.3
6	-90000	5.43	3.17	59.9
6	-100000	5.18	2.97	56.1
6	-110000	5.4	3.14	59.3
6	-120000	5.55	3.29	62.2
6	-130000	5.21	2.99	56.5
6	-140000	4.61	2.64	49.9
6	-150000	5.35	3.09	58.4
6	-160000	5.56	3.3	62.3
6	-170000	5.64	3.38	63.9
6	-180000	5.98	3.72	70.4
6	-190000	6.01	3.75	70.9
6	-200000	6.18	3.92	74.2
6	-210000	6.07	3.81	72.1
6	-220000	5.75	3.49	66
6	-230000	5.8	3.54	66.8
6	-240000	5.64	3.38	63.9
6	-250000	5.49	3.23	61
6	-260000	5.35	3.09	58.4
6	-270000	5.21	2.99	56.4
6	-280000	4.84	2.77	52.4
6	-290000	4.75	2.72	51.4
6	-300000	4.42	2.53	47.8
6	-310000	4.5	2.58	48.7
6	-320000	4.35	2.49	47.1
6	-330000	4.28	2.45	46.3
6	-340000	3.93	2.25	42.6
6	-350000	3.61	2.07	39.1
6	-360000	3.75	2.15	40.6
6	-370000	3.5	2	37.9
6	-380000	3.06	1.75	33.2
6	-390000	3.39	1.94	36.7
6	-400000	3.35	1.92	36.3
6	-410000	3.22	1.84	34.8
6	-420000	2.97	1.7	32.1
6	-430000	3.07	1.76	33.2
6	-440000	3	1.72	32.5
6	-450000	2.94	1.68	31.8
6	-460000	2.51	1.44	27.2
6	-470000	2.79	1.6	30.2
6	-480000	2.69	1.54	29.1
6	-490000	2.55	1.46	27.6
6	-500000	2.45	1.4	26.5
6	-510000	2.33	1.34	25.3
6	-520000	2.36	1.35	25.6
6	-530000	2.42	1.39	26.2
6	-540000	2.19	1.25	23.7
6	-550000	2.52	1.44	27.2
6	-560000	2.64	1.51	28.6
6	-570000	2.54	1.46	27.5
6	-580000	2.28	1.31	24.7
