rep_num	position	torque	torque_compensated	lbs_compensated
1	0	3.07	3.35	63.4
1	10000	4.98	5.27	99.6
1	20000	5.26	5.55	105
1	30000	6.07	6.4	121
1	40000	6.08	6.4	121
1	50000	5.39	5.68	107
1	60000	5.6	5.91	112
1	70000	5.74	6.05	114
1	80000	5.39	5.68	107
1	90000	4.96	5.25	99.2
1	100000	5.09	5.37	102
1	110000	5.53	5.83	110
1	120000	5.84	6.15	116
1	130000	5.39	5.68	107
1	140000	5.04	5.33	101
1	150000	5.23	5.52	104
1	160000	5.68	5.98	113
1	170000	5.27	5.56	105
1	180000	4.85	5.14	97.1
1	190000	5.4	5.7	108
1	200000	5.45	5.74	109
1	210000	4.63	4.91	92.9
1	220000	4.81	5.1	96.4
1	230000	4.82	5.1	96.5
1	240000	5.16	5.44	103
1	250000	4.02	4.31	81.5
1	260000	3.76	4.04	76.4
1	270000	4.01	4.29	81.1
1	280000	4.3	4.59	86.7
1	290000	3.58	3.87	73.1
1	300000	3.45	3.74	70.6
1	310000	3.76	4.04	76.4
1	320000	4	4.28	81
1	330000	3.34	3.63	68.6
1	340000	3.21	3.5	66.2
1	350000	3.37	3.65	69
1	360000	3.39	3.68	69.5
1	370000	3.03	3.32	62.7
1	380000	3.22	3.51	66.3
1	390000	3.6	3.88	73.4
1	400000	3.45	3.73	70.6
1	410000	3.02	3.31	62.6
1	420000	3.28	3.56	67.3
1	430000	3.7	3.99	75.4
1	440000	3.91	4.19	79.2
1	450000	3.37	3.66	69.2
1	460000	3.64	3.92	74.1
1	470000	4.44	4.73	89.3
1	480000	4.94	5.23	98.8
1	490000	4.38	4.67	88.2
1	500000	3.99	4.27	80.8
1	510000	4.93	5.21	98.5
1	520000	4.87	5.16	97.5
1	530000	4.44	4.73	89.3
1	540000	4.11	4.4	83.2
1	550000	4.96	5.24	99.1
1	560000	4.95	5.23	98.9
1	570000	4.01	4.3	81.3
1	580000	3.99	4.27	80.8
2	0	5.1	2.92	55.2
2	-10000	6.47	4.21	79.6
2	-20000	7.11	4.85	91.6
2	-30000	6.48	4.22	79.8
2	-40000	6.53	4.27	80.7
2	-50000	7.38	5.12	96.7
2	-60000	7.76	5.5	104
2	-70000	7.53	5.27	99.6
2	-80000	7.49	5.23	98.9
2	-90000	8.06	5.8	110
2	-100000	8.47	6.21	117
2	-110000	8.14	5.88	111
2	-120000	7.47	5.21	98.5
2	-130000	7.91	5.65	107
2	-140000	7.94	5.68	107
2	-150000	7.93	5.67	107
2	-160000	7.67	5.41	102
2	-170000	7.66	5.4	102
2	-180000	8.25	5.99	113
2	-190000	8.09	5.83	110
2	-200000	7.72	5.46	103
2	-210000	8.02	5.76	109
2	-220000	8.63	6.37	120
2	-230000	8.11	5.85	111
2	-240000	7.64	5.38	102
2	-250000	7.85	5.59	106
2	-260000	7.83	5.57	105
2	-270000	7.4	5.14	97.1
2	-280000	7.47	5.21	98.4
2	-290000	7.87	5.61	106
2	-300000	7.89	5.63	106
2	-310000	7.29	5.03	95.1
2	-320000	7.16	4.9	92.6
2	-330000	7.65	5.39	102
2	-340000	7.84	5.58	105
2	-350000	6.86	4.6	86.9
2	-360000	6.72	4.46	84.2
2	-370000	7.41	5.15	97.4
2	-380000	7.49	5.23	98.9
2	-390000	6.92	4.66	88
2	-400000	6.72	4.46	84.4
2	-410000	6.78	4.52	85.4
2	-420000	7.14	4.88	92.2
2	-430000	7.28	5.02	94.9
2	-440000	6.65	4.39	82.9
2	-450000	7.25	4.99	94.4
2	-460000	7.1	4.84	91.5
2	-470000	6.75	4.49	84.9
2	-480000	6.19	3.93	74.3
2	-490000	6.58	4.32	81.6
2	-500000	7.29	5.03	95
2	-510000	7.14	4.88	92.2
2	-520000	6.55	4.29	81.1
2	-530000	7.13	4.87	92
2	-540000	7.36	5.1	96.5
2	-550000	7.14	4.88	92.2
2	-560000	6.9	4.64	87.8
2	-570000	6.54	4.28	80.9
2	-580000	6.33	4.07	77
2	0	4.68	4.96	93.8
2	10000	4.61	4.9	92.6
2	20000	4.25	4.53	85.7
2	30000	4.47	4.75	89.8
2	40000	4.76	5.05	95.4
2	50000	4.16	4.45	84
2	60000	4.15	4.44	83.8
2	70000	4	4.29	81.1
2	80000	3.95	4.23	80
2	90000	3.38	3.67	69.4
2	100000	3.19	3.47	65.6
2	110000	3.35	3.64	68.7
2	120000	3.6	3.88	73.4
2	130000	3.12	3.41	64.5
2	140000	2.83	3.12	59
2	150000	3.36	3.65	68.9
2	160000	3.99	4.27	80.8
2	170000	4.05	4.34	82
2	180000	3.84	4.13	78
2	190000	4.2	4.49	84.8
2	200000	4.25	4.53	85.7
2	210000	3.63	3.91	73.9
2	220000	3.3	3.59	67.9
2	230000	3.88	4.16	78.7
2	240000	3.95	4.24	80.1
2	250000	3.08	3.37	63.7
2	260000	2.95	3.24	61.2
2	270000	3.17	3.46	65.4
2	280000	3.32	3.61	68.2
2	290000	2.73	3.01	57
2	300000	2.89	3.18	60
2	310000	2.78	3.07	57.9
2	320000	3.15	3.44	64.9
2	330000	2.49	2.78	52.5
2	340000	2.31	2.59	49
2	350000	2.58	2.87	54.2
2	360000	2.59	2.87	54.3
2	370000	2.16	2.45	46.3
2	380000	2.28	2.56	48.4
2	390000	2.43	2.71	51.3
2	400000	2.78	3.07	58
2	410000	2.45	2.73	51.7
2	420000	2.6	2.88	54.5
2	430000	2.72	3	56.8
2	440000	3.12	3.41	64.4
2	450000	2.64	2.92	55.3
2	460000	2.08	2.37	44.7
2	470000	2.3	2.59	48.9
2	480000	2.85	3.13	59.2
2	490000	2.4	2.69	50.9
2	500000	2.14	2.43	45.9
2	510000	2.79	3.07	58.1
2	520000	2.8	3.08	58.2
2	530000	2.13	2.42	45.7
2	540000	2.3	2.59	49
2	550000	3.21	3.5	66.2
2	560000	3.07	3.35	63.4
2	570000	2.52	2.81	53
2	580000	2.88	3.17	59.9
3	0	4.06	2.33	44
3	-10000	6.37	4.11	77.7
3	-20000	6.95	4.69	88.6
3	-30000	6.12	3.86	73
3	-40000	5.93	3.67	69.3
3	-50000	6.6	4.34	82
3	-60000	6.51	4.25	80.3
3	-70000	5.95	3.69	69.8
3	-80000	5.85	3.59	67.9
3	-90000	5.82	3.56	67.3
3	-100000	6.07	3.81	71.9
3	-110000	5.45	3.19	60.4
3	-120000	5.12	2.93	55.4
3	-130000	5.12	2.93	55.4
3	-140000	5.62	3.36	63.5
3	-150000	5.69	3.43	64.9
3	-160000	5.64	3.38	64
3	-170000	5.64	3.38	63.8
3	-180000	6.28	4.02	76
3	-190000	5.73	3.47	65.5
3	-200000	5.2	2.98	56.4
3	-210000	5.39	3.13	59.1
3	-220000	5.61	3.35	63.4
3	-230000	5.32	3.06	57.9
3	-240000	5.02	2.88	54.4
3	-250000	5.16	2.95	55.8
3	-260000	5.55	3.29	62.1
3	-270000	5.26	3.01	56.9
3	-280000	4.69	2.69	50.8
3	-290000	4.94	2.83	53.5
3	-300000	5.15	2.95	55.7
3	-310000	4.54	2.6	49.1
3	-320000	4.41	2.53	47.8
3	-330000	4.75	2.72	51.4
3	-340000	5.16	2.96	55.9
3	-350000	4.49	2.57	48.6
3	-360000	4.82	2.76	52.2
3	-370000	5.36	3.1	58.6
3	-380000	5.34	3.08	58.3
3	-390000	4.79	2.74	51.8
3	-400000	4.91	2.81	53.2
3	-410000	5.22	2.99	56.5
3	-420000	5.23	3	56.7
3	-430000	4.95	2.83	53.6
3	-440000	4.75	2.72	51.5
3	-450000	5.13	2.94	55.6
3	-460000	5.32	3.06	57.8
3	-470000	4.7	2.69	50.9
3	-480000	4.45	2.55	48.2
3	-490000	4.5	2.58	48.7
3	-500000	4.89	2.8	53
3	-510000	4.43	2.54	47.9
3	-520000	3.85	2.21	41.7
3	-530000	4.31	2.47	46.7
3	-540000	4.29	2.46	46.5
3	-550000	3.59	2.06	38.9
3	-560000	3.47	1.99	37.6
3	-570000	3.63	2.08	39.3
3	-580000	4.21	2.41	45.6
3	0	2.53	2.82	53.3
3	10000	3.01	3.3	62.3
3	20000	2.53	2.81	53.2
3	30000	3.63	3.91	73.9
3	40000	3.44	3.73	70.5
3	50000	2.83	3.11	58.8
3	60000	2.92	3.2	60.5
3	70000	2.98	3.27	61.8
3	80000	2.84	3.12	59
3	90000	2.51	2.79	52.8
3	100000	2.29	2.58	48.7
3	110000	2.76	3.04	57.5
3	120000	2.84	3.12	59
3	130000	2.44	2.72	51.5
3	140000	1.97	2.25	42.6
3	150000	2.3	2.58	48.8
3	160000	2.58	2.86	54.1
3	170000	2.13	2.42	45.7
3	180000	1.84	2.13	40.2
3	190000	2.65	2.93	55.4
3	200000	2.71	3	56.6
3	210000	2.07	2.36	44.6
3	220000	1.87	2.15	40.7
3	230000	2.27	2.55	48.2
3	240000	2.67	2.96	55.9
3	250000	2.15	2.43	46
3	260000	2.26	2.54	48.1
3	270000	2.74	3.02	57.1
3	280000	2.6	2.88	54.5
3	290000	2.06	2.35	44.4
3	300000	1.97	2.25	42.6
3	310000	2.54	2.83	53.4
3	320000	3.04	3.32	62.8
3	330000	2.78	3.07	58
3	340000	2.84	3.13	59.1
3	350000	3.42	3.7	70
3	360000	3.45	3.74	70.7
3	370000	2.81	3.1	58.5
3	380000	2.81	3.1	58.6
3	390000	3.2	3.48	65.8
3	400000	2.86	3.14	59.4
3	410000	2.39	2.68	50.6
3	420000	1.92	2.21	41.8
3	430000	2.59	2.88	54.4
3	440000	2.59	2.87	54.3
3	450000	2.29	2.57	48.6
3	460000	1.81	2.1	39.7
3	470000	2.26	2.55	48.1
3	480000	2.53	2.82	53.3
3	490000	2.08	2.37	44.7
3	500000	1.98	2.27	42.9
3	510000	2.77	3.06	57.8
3	520000	2.54	2.82	53.4
3	530000	2.49	2.78	52.5
3	540000	2.88	3.17	59.8
3	550000	3.32	3.61	68.2
3	560000	3.33	3.62	68.4
3	570000	2.59	2.87	54.3
3	580000	2.32	2.61	49.3
4	0	3.88	2.22	42
4	-10000	4.76	2.73	51.6
4	-20000	5.23	3	56.6
4	-30000	4.65	2.66	50.3
4	-40000	4.89	2.8	52.9
4	-50000	5.09	2.91	55.1
4	-60000	5.02	2.88	54.4
4	-70000	4.31	2.47	46.6
4	-80000	4.57	2.62	49.5
4	-90000	4.84	2.77	52.4
4	-100000	4.67	2.68	50.6
4	-110000	4.44	2.54	48.1
4	-120000	4.22	2.41	45.6
4	-130000	4.66	2.67	50.4
4	-140000	4.75	2.72	51.4
4	-150000	4.27	2.44	46.2
4	-160000	3.92	2.25	42.5
4	-170000	4.41	2.53	47.8
4	-180000	4.71	2.7	51
4	-190000	3.91	2.24	42.3
4	-200000	3.73	2.14	40.4
4	-210000	4.31	2.47	46.7
4	-220000	4.39	2.52	47.6
4	-230000	4.11	2.36	44.5
4	-240000	4.17	2.39	45.2
4	-250000	4.45	2.55	48.2
4	-260000	4.83	2.76	52.2
4	-270000	4.17	2.39	45.2
4	-280000	3.81	2.18	41.2
4	-290000	4.16	2.38	45
4	-300000	4.25	2.43	46
4	-310000	3.39	1.94	36.7
4	-320000	3.47	1.99	37.6
4	-330000	3.95	2.26	42.7
4	-340000	4.02	2.3	43.5
4	-350000	3.36	1.93	36.4
4	-360000	3.33	1.91	36
4	-370000	3.97	2.27	43
4	-380000	3.82	2.19	41.4
4	-390000	3.32	1.9	36
4	-400000	3.37	1.93	36.4
4	-410000	3.53	2.02	38.2
4	-420000	3.59	2.05	38.8
4	-430000	3.47	1.99	37.6
4	-440000	3.01	1.72	32.6
4	-450000	3.28	1.88	35.5
4	-460000	3.51	2.01	38
4	-470000	2.98	1.71	32.3
4	-480000	2.77	1.59	30
4	-490000	3.1	1.78	33.6
4	-500000	3.33	1.91	36.1
4	-510000	2.95	1.69	32
4	-520000	2.72	1.56	29.5
4	-530000	3.21	1.84	34.8
4	-540000	3.14	1.8	34.1
4	-550000	2.42	1.39	26.2
4	-560000	2.3	1.32	24.9
4	-570000	2.83	1.62	30.7
4	-580000	3.33	1.9	36
4	0	2.04	2.32	43.9
4	10000	3.21	3.49	66
4	20000	2.46	2.75	51.9
4	30000	3.08	3.37	63.6
4	40000	2.82	3.11	58.7
4	50000	2.21	2.5	47.2
4	60000	2.25	2.54	47.9
4	70000	2.47	2.75	52
4	80000	2.79	3.08	58.1
4	90000	2.65	2.93	55.4
4	100000	2.59	2.88	54.4
4	110000	2.86	3.15	59.5
4	120000	2.94	3.23	61
4	130000	2.61	2.9	54.8
4	140000	2.02	2.3	43.5
4	150000	2.23	2.51	47.5
4	160000	2.69	2.97	56.2
4	170000	2.3	2.58	48.8
4	180000	1.67	1.95	36.9
4	190000	2.22	2.51	47.4
4	200000	2.12	2.4	45.4
4	210000	1.78	2.07	39.1
4	220000	1.73	2.02	38.1
4	230000	2.16	2.45	46.2
4	240000	2.57	2.86	54
4	250000	2.01	2.3	43.4
4	260000	1.9	2.19	41.4
4	270000	2.62	2.91	55
4	280000	2.53	2.81	53.1
4	290000	1.99	2.27	43
4	300000	1.54	1.82	34.4
4	310000	1.89	2.17	41
4	320000	2.33	2.62	49.4
4	330000	1.71	1.99	37.7
4	340000	1.51	1.8	33.9
4	350000	2.03	2.31	43.7
4	360000	2.09	2.38	44.9
4	370000	1.56	1.84	34.8
4	380000	1.71	2	37.7
4	390000	1.72	2.01	37.9
4	400000	1.97	2.25	42.6
4	410000	1.72	2.01	37.9
4	420000	1.42	1.71	32.3
4	430000	1.86	2.14	40.5
4	440000	2.19	2.48	46.9
4	450000	2.06	2.35	44.4
4	460000	1.93	2.21	41.8
4	470000	2.16	2.45	46.3
4	480000	2.58	2.87	54.2
4	490000	1.98	2.26	42.8
4	500000	1.89	2.18	41.2
4	510000	2.41	2.69	50.9
4	520000	2.28	2.57	48.6
4	530000	1.91	2.19	41.4
4	540000	1.7	1.98	37.5
4	550000	1.91	2.2	41.5
4	560000	2.46	2.74	51.8
4	570000	1.74	2.02	38.2
4	580000	2.02	2.31	43.6
5	0	3.49	2	37.8
5	-10000	5.07	2.9	54.9
5	-20000	5.76	3.5	66.2
5	-30000	4.9	2.81	53
5	-40000	4.84	2.77	52.4
5	-50000	5.3	3.04	57.5
5	-60000	5.38	3.12	59
5	-70000	5.14	2.94	55.6
5	-80000	5.4	3.14	59.4
5	-90000	5.84	3.58	67.7
5	-100000	6.04	3.78	71.5
5	-110000	5.59	3.33	62.9
5	-120000	5.11	2.93	55.3
5	-130000	5.34	3.08	58.2
5	-140000	5.43	3.17	59.8
5	-150000	4.99	2.86	54
5	-160000	4.51	2.58	48.8
5	-170000	4.77	2.73	51.7
5	-180000	4.85	2.78	52.5
5	-190000	4.14	2.37	44.9
5	-200000	4.04	2.32	43.8
5	-210000	4.66	2.67	50.5
5	-220000	4.66	2.67	50.4
5	-230000	4.07	2.33	44
5	-240000	4.04	2.31	43.7
5	-250000	4.31	2.47	46.7
5	-260000	4.4	2.52	47.7
5	-270000	4.04	2.31	43.7
5	-280000	3.86	2.21	41.8
5	-290000	4.26	2.44	46.2
5	-300000	4.56	2.61	49.3
5	-310000	4.02	2.3	43.6
5	-320000	3.75	2.15	40.6
5	-330000	4.04	2.31	43.7
5	-340000	4.21	2.41	45.6
5	-350000	3.22	1.84	34.8
5	-360000	3.1	1.77	33.5
5	-370000	3.88	2.23	42.1
5	-380000	3.64	2.09	39.4
5	-390000	3.12	1.79	33.8
5	-400000	3.32	1.9	36
5	-410000	3.54	2.03	38.3
5	-420000	3.6	2.06	38.9
5	-430000	3.22	1.84	34.9
5	-440000	2.83	1.62	30.6
5	-450000	3.2	1.83	34.6
5	-460000	3.45	1.98	37.4
5	-470000	2.99	1.71	32.4
5	-480000	2.75	1.58	29.8
5	-490000	2.99	1.71	32.3
5	-500000	3.3	1.89	35.7
5	-510000	2.75	1.57	29.8
5	-520000	2.39	1.37	25.9
5	-530000	2.77	1.59	30
5	-540000	2.86	1.64	31
5	-550000	2.26	1.3	24.5
5	-560000	2.31	1.32	25
5	-570000	2.73	1.57	29.6
5	-580000	3.95	2.26	42.7
5	0	2.92	3.2	60.6
5	10000	2.64	2.92	55.2
5	20000	1.89	2.17	41.1
5	30000	2.47	2.76	52.1
5	40000	2.39	2.67	50.5
5	50000	1.87	2.16	40.8
5	60000	1.87	2.15	40.7
5	70000	2.06	2.35	44.3
5	80000	2.1	2.38	45
5	90000	1.88	2.17	41
5	100000	1.62	1.91	36.1
5	110000	1.9	2.18	41.2
5	120000	2.05	2.34	44.2
5	130000	1.61	1.89	35.8
5	140000	1.47	1.76	33.2
5	150000	1.62	1.91	36
5	160000	2.01	2.3	43.4
5	170000	1.61	1.89	35.8
5	180000	1.31	1.6	30.2
5	190000	2.11	2.39	45.3
5	200000	2.24	2.53	47.8
5	210000	1.85	2.14	40.4
5	220000	1.85	2.14	40.4
5	230000	2.14	2.43	45.9
5	240000	2.49	2.77	52.4
5	250000	2.01	2.3	43.4
5	260000	2.06	2.35	44.4
5	270000	2.38	2.66	50.3
5	280000	2.56	2.85	53.8
5	290000	1.92	2.2	41.6
5	300000	1.91	2.19	41.5
5	310000	2.37	2.66	50.2
5	320000	2.66	2.95	55.7
5	330000	2.13	2.42	45.7
5	340000	1.92	2.2	41.7
5	350000	2.31	2.6	49.1
5	360000	2.02	2.3	43.5
5	370000	2.03	2.32	43.8
5	380000	1.59	1.88	35.5
5	390000	1.65	1.94	36.7
5	400000	1.88	2.17	40.9
5	410000	1.45	1.74	32.8
5	420000	1.41	1.7	32.1
5	430000	1.63	1.91	36.1
5	440000	1.79	2.08	39.3
5	450000	1.3	1.59	30
5	460000	1.05	1.33	25.2
5	470000	1.43	1.72	32.5
5	480000	1.56	1.85	35
5	490000	1.29	1.58	29.8
5	500000	1.14	1.42	26.9
5	510000	1.58	1.86	35.2
5	520000	1.58	1.87	35.3
5	530000	1.03	1.32	24.9
5	540000	0.86	1.15	21.7
5	550000	1.04	1.33	25.1
5	560000	1.4	1.69	31.9
5	570000	0.801	1.09	20.5
5	580000	1.4	1.68	31.8
6	0	3.37	1.93	36.5
6	-10000	5.72	3.46	65.5
6	-20000	6.5	4.24	80.1
6	-30000	6.07	3.81	72.1
6	-40000	6.01	3.75	70.8
6	-50000	6.82	4.56	86.1
6	-60000	6.41	4.15	78.4
6	-70000	6	3.74	70.7
6	-80000	5.81	3.55	67.1
6	-90000	6.22	3.96	74.9
6	-100000	6.15	3.89	73.6
6	-110000	5.45	3.19	60.2
6	-120000	5.1	2.92	55.2
6	-130000	5.36	3.1	58.7
6	-140000	5.37	3.11	58.9
6	-150000	4.77	2.73	51.6
6	-160000	4.59	2.63	49.7
6	-170000	5.26	3.01	57
6	-180000	5.48	3.22	60.9
6	-190000	4.91	2.81	53.2
6	-200000	4.7	2.69	50.8
6	-210000	5.17	2.96	56
6	-220000	5.48	3.22	60.9
6	-230000	5.2	2.98	56.3
6	-240000	4.99	2.86	54.1
6	-250000	5.6	3.34	63.2
6	-260000	6.38	4.12	77.9
6	-270000	6.08	3.82	72.1
6	-280000	5.96	3.7	69.9
6	-290000	6.62	4.36	82.4
6	-300000	6.78	4.52	85.3
6	-310000	5.89	3.63	68.6
6	-320000	5.47	3.21	60.6
6	-330000	5.78	3.52	66.5
6	-340000	5.63	3.37	63.7
6	-350000	4.67	2.67	50.5
6	-360000	4.52	2.59	48.9
6	-370000	4.89	2.8	52.9
6	-380000	4.65	2.67	50.4
6	-390000	4.3	2.46	46.6
6	-400000	4.23	2.42	45.8
6	-410000	4.41	2.53	47.8
6	-420000	4.36	2.5	47.2
6	-430000	3.89	2.23	42.1
6	-440000	3.41	1.95	36.9
6	-450000	3.48	1.99	37.7
6	-460000	3.27	1.87	35.4
6	-470000	2.82	1.62	30.6
6	-480000	2.44	1.4	26.5
6	-490000	2.56	1.47	27.7
6	-500000	2.89	1.65	31.3
6	-510000	2.41	1.38	26.1
6	-520000	2.13	1.22	23
6	-530000	2.61	1.5	28.3
6	-540000	2.59	1.48	28
6	-550000	2	1.15	21.7
6	-560000	2.09	1.19	22.6
6	-570000	2.51	1.44	27.2
6	-580000	2.84	1.63	30.8
