rep_num	position	torque	torque_compensated	lbs_compensated
1	0	2.99	3.28	62
1	10000	3.84	4.12	77.9
1	20000	3.51	3.79	71.7
1	30000	4.87	5.15	97.4
1	40000	4.3	4.59	86.7
1	50000	3.35	3.64	68.7
1	60000	3.74	4.02	76
1	70000	4.17	4.45	84.1
1	80000	3.63	3.92	74.1
1	90000	3.04	3.33	62.9
1	100000	3.12	3.41	64.4
1	110000	4	4.28	80.9
1	120000	3.29	3.58	67.6
1	130000	2.46	2.74	51.8
1	140000	2.95	3.24	61.2
1	150000	3.73	4.02	76
1	160000	3.19	3.47	65.6
1	170000	1.98	2.27	42.9
1	180000	2.08	2.37	44.8
1	190000	3.29	3.58	67.6
1	200000	2.52	2.8	52.9
1	210000	1.53	1.81	34.2
1	220000	2.11	2.4	45.3
1	230000	2.85	3.14	59.3
1	240000	2.36	2.65	50.1
1	250000	0.901	1.19	22.4
1	260000	0.522	0.808	15.3
1	270000	2	2.28	43.1
1	280000	1.63	1.91	36.1
1	290000	1.02	1.3	24.7
1	300000	1.77	2.05	38.8
1	310000	2.82	3.11	58.8
1	320000	2.79	3.08	58.2
1	330000	1.46	1.74	33
1	340000	1.83	2.12	40
1	350000	3.01	3.29	62.2
1	360000	2.1	2.39	45.2
1	370000	1.25	1.54	29.1
1	380000	1.94	2.23	42.1
1	390000	2.86	3.14	59.4
1	400000	2.32	2.61	49.3
1	410000	1.08	1.36	25.8
1	420000	1.45	1.74	32.9
1	430000	2.4	2.69	50.8
1	440000	1.76	2.05	38.7
1	450000	1.35	1.63	30.8
1	460000	1.78	2.07	39.1
1	470000	2.88	3.17	59.9
1	480000	2.42	2.71	51.2
1	490000	1.65	1.94	36.6
1	500000	2.38	2.66	50.3
1	510000	4.01	4.3	81.2
1	520000	3.36	3.64	68.8
1	530000	2.72	3.01	56.9
1	540000	3.56	3.85	72.8
1	550000	4.35	4.64	87.7
1	560000	4.57	4.86	91.8
1	570000	2.45	2.74	51.7
1	580000	2.74	3.02	57.1
2	0	4.41	2.53	47.8
2	-10000	6.17	3.91	74
2	-20000	6.17	3.91	73.8
2	-30000	6.41	4.15	78.5
2	-40000	5.25	3.01	56.8
2	-50000	6.14	3.88	73.2
2	-60000	7.03	4.77	90.2
2	-70000	7.09	4.83	91.3
2	-80000	5.87	3.61	68.3
2	-90000	5.9	3.64	68.8
2	-100000	6.8	4.54	85.8
2	-110000	6.79	4.53	85.7
2	-120000	5.44	3.18	60.1
2	-130000	5.24	3	56.7
2	-140000	6.32	4.06	76.7
2	-150000	6.29	4.03	76.2
2	-160000	5.06	2.9	54.8
2	-170000	5.21	2.98	56.4
2	-180000	6.58	4.32	81.7
2	-190000	6.7	4.44	83.9
2	-200000	5.2	2.98	56.4
2	-210000	5.85	3.59	67.9
2	-220000	7.21	4.95	93.6
2	-230000	7.17	4.91	92.8
2	-240000	6.13	3.87	73.1
2	-250000	6.45	4.19	79.1
2	-260000	7.39	5.13	96.9
2	-270000	7.19	4.93	93.1
2	-280000	5.71	3.45	65.2
2	-290000	5.69	3.43	64.9
2	-300000	6.78	4.52	85.5
2	-310000	6.15	3.89	73.5
2	-320000	4.98	2.86	54
2	-330000	4.82	2.76	52.2
2	-340000	6	3.74	70.7
2	-350000	5.44	3.18	60
2	-360000	4.25	2.43	46
2	-370000	4.59	2.63	49.7
2	-380000	5.22	2.99	56.5
2	-390000	5.09	2.92	55.1
2	-400000	3.98	2.28	43.1
2	-410000	3.81	2.19	41.3
2	-420000	4.48	2.57	48.5
2	-430000	4.8	2.75	52
2	-440000	3.76	2.16	40.8
2	-450000	3.94	2.25	42.6
2	-460000	4.81	2.76	52.1
2	-470000	4.64	2.66	50.3
2	-480000	3.68	2.11	39.8
2	-490000	3.71	2.13	40.2
2	-500000	4.94	2.83	53.5
2	-510000	4.62	2.65	50
2	-520000	3.07	1.76	33.3
2	-530000	3.52	2.02	38.1
2	-540000	4.55	2.61	49.3
2	-550000	4.05	2.32	43.8
2	-560000	4.3	2.47	46.6
2	-570000	4.83	2.76	52.2
2	-580000	6.3	4.04	76.3
2	0	5.29	5.57	105
2	10000	5.84	6.15	116
2	20000	4.59	4.88	92.2
2	30000	5.67	5.98	113
2	40000	4.58	4.87	92
2	50000	3.58	3.87	73.1
2	60000	4.31	4.6	86.9
2	70000	4.88	5.17	97.7
2	80000	4.22	4.51	85.2
2	90000	3.31	3.6	68
2	100000	3.82	4.11	77.7
2	110000	4.64	4.92	93.1
2	120000	3.97	4.25	80.4
2	130000	3.06	3.34	63.2
2	140000	3.03	3.31	62.6
2	150000	4.1	4.39	82.9
2	160000	3.42	3.71	70.1
2	170000	2.46	2.74	51.9
2	180000	2.73	3.02	57
2	190000	4.1	4.38	82.8
2	200000	3.28	3.56	67.4
2	210000	2.66	2.95	55.7
2	220000	3.47	3.75	70.9
2	230000	4.01	4.29	81.2
2	240000	3.71	4	75.5
2	250000	2.33	2.61	49.4
2	260000	3.28	3.56	67.3
2	270000	4.29	4.58	86.5
2	280000	3.36	3.64	68.9
2	290000	2.18	2.47	46.6
2	300000	2.82	3.1	58.7
2	310000	3.57	3.85	72.9
2	320000	2.71	2.99	56.5
2	330000	1.81	2.1	39.6
2	340000	2.09	2.38	44.9
2	350000	2.97	3.25	61.5
2	360000	2.11	2.39	45.3
2	370000	1.18	1.46	27.7
2	380000	2.46	2.75	51.9
2	390000	3.19	3.47	65.6
2	400000	2.52	2.8	53
2	410000	1.6	1.88	35.6
2	420000	2.05	2.34	44.2
2	430000	3.17	3.45	65.3
2	440000	2.61	2.9	54.8
2	450000	1.75	2.03	38.5
2	460000	2.02	2.3	43.5
2	470000	2.97	3.25	61.5
2	480000	2.15	2.44	46.1
2	490000	1.02	1.31	24.7
2	500000	1.65	1.94	36.6
2	510000	2.78	3.07	58
2	520000	1.88	2.17	41
2	530000	1.04	1.32	25
2	540000	1.78	2.07	39.1
2	550000	2.87	3.16	59.7
2	560000	3.4	3.69	69.7
2	570000	1.55	1.83	34.6
2	580000	1.9	2.19	41.3
3	0	3.22	1.85	34.9
3	-10000	4.95	2.84	53.6
3	-20000	5.92	3.66	69.2
3	-30000	5.47	3.21	60.8
3	-40000	4.51	2.58	48.8
3	-50000	5.22	2.99	56.5
3	-60000	5.94	3.68	69.6
3	-70000	5.3	3.04	57.4
3	-80000	4.68	2.68	50.7
3	-90000	4.9	2.81	53.1
3	-100000	6	3.74	70.7
3	-110000	5.99	3.73	70.5
3	-120000	4.73	2.71	51.3
3	-130000	5.1	2.92	55.2
3	-140000	6.01	3.75	71
3	-150000	5.59	3.33	63
3	-160000	4.43	2.54	48
3	-170000	4.67	2.68	50.6
3	-180000	5.7	3.44	65
3	-190000	5.25	3.01	56.9
3	-200000	4.38	2.51	47.5
3	-210000	4.73	2.71	51.2
3	-220000	5.59	3.33	63
3	-230000	5.4	3.14	59.4
3	-240000	4.2	2.41	45.5
3	-250000	4.23	2.42	45.8
3	-260000	5.48	3.22	60.8
3	-270000	4.96	2.84	53.7
3	-280000	3.74	2.14	40.5
3	-290000	3.91	2.24	42.3
3	-300000	4.81	2.75	52
3	-310000	3.98	2.28	43
3	-320000	3.24	1.86	35.1
3	-330000	3.61	2.07	39
3	-340000	4.52	2.59	49
3	-350000	4.03	2.31	43.7
3	-360000	2.96	1.7	32.1
3	-370000	3.55	2.04	38.5
3	-380000	4.45	2.55	48.1
3	-390000	3.78	2.17	41
3	-400000	2.99	1.71	32.3
3	-410000	3.04	1.74	32.9
3	-420000	4.01	2.3	43.4
3	-430000	4.13	2.37	44.8
3	-440000	2.7	1.55	29.3
3	-450000	2.79	1.6	30.3
3	-460000	3.81	2.18	41.3
3	-470000	3.42	1.96	37.1
3	-480000	2.33	1.33	25.2
3	-490000	2.44	1.4	26.4
3	-500000	3.61	2.07	39.1
3	-510000	3.29	1.89	35.6
3	-520000	2.07	1.19	22.4
3	-530000	2.5	1.43	27
3	-540000	3.69	2.11	39.9
3	-550000	3.39	1.94	36.7
3	-560000	3.41	1.95	36.9
3	-570000	3.33	1.91	36
3	-580000	5.31	3.05	57.7
3	0	4.99	5.27	99.7
3	10000	5.02	5.31	100
3	20000	3.8	4.08	77.2
3	30000	4.87	5.16	97.5
3	40000	3.86	4.15	78.4
3	50000	2.64	2.93	55.3
3	60000	3.45	3.74	70.7
3	70000	3.95	4.24	80.1
3	80000	3.15	3.44	65
3	90000	2.62	2.91	55
3	100000	3.05	3.34	63.1
3	110000	3.73	4.02	76
3	120000	2.9	3.19	60.3
3	130000	2.05	2.33	44.1
3	140000	2.79	3.08	58.2
3	150000	3.37	3.65	69.1
3	160000	3.14	3.43	64.8
3	170000	1.77	2.06	38.8
3	180000	2.15	2.43	46
3	190000	3.1	3.39	64
3	200000	2.41	2.69	50.9
3	210000	1.69	1.98	37.4
3	220000	2.44	2.72	51.5
3	230000	2.96	3.25	61.4
3	240000	2.64	2.92	55.2
3	250000	1.21	1.5	28.3
3	260000	1.72	2	37.9
3	270000	2.33	2.61	49.4
3	280000	1.71	2	37.8
3	290000	0.96	1.25	23.6
3	300000	1.74	2.03	38.3
3	310000	2.3	2.58	48.8
3	320000	1.84	2.13	40.2
3	330000	1.09	1.37	25.9
3	340000	1.74	2.03	38.3
3	350000	2.62	2.91	55
3	360000	1.92	2.2	41.6
3	370000	1.21	1.49	28.2
3	380000	2.35	2.63	49.7
3	390000	2.78	3.07	58
3	400000	2	2.28	43.1
3	410000	1.68	1.97	37.2
3	420000	2.56	2.84	53.7
3	430000	3.13	3.41	64.5
3	440000	2.64	2.92	55.3
3	450000	1.78	2.07	39.1
3	460000	1.57	1.86	35.1
3	470000	2.88	3.17	59.9
3	480000	2.38	2.66	50.3
3	490000	1.62	1.91	36
3	500000	2.07	2.36	44.6
3	510000	3.77	4.06	76.7
3	520000	3.07	3.36	63.5
3	530000	2.24	2.52	47.7
3	540000	3	3.28	62.1
3	550000	3.63	3.91	74
3	560000	3.96	4.24	80.2
3	570000	2.03	2.31	43.7
3	580000	2.31	2.6	49.1
4	0	3.85	2.2	41.6
4	-10000	6.15	3.89	73.6
4	-20000	6.37	4.11	77.6
4	-30000	6.63	4.37	82.5
4	-40000	5.74	3.48	65.7
4	-50000	6.03	3.77	71.2
4	-60000	7.08	4.82	91.1
4	-70000	6.54	4.28	80.8
4	-80000	5.91	3.65	68.9
4	-90000	5.97	3.71	70
4	-100000	6.74	4.48	84.6
4	-110000	6.66	4.4	83.2
4	-120000	5.44	3.18	60
4	-130000	5.56	3.3	62.4
4	-140000	6.23	3.97	75
4	-150000	5.73	3.47	65.6
4	-160000	4.77	2.73	51.6
4	-170000	4.77	2.73	51.6
4	-180000	6.32	4.06	76.7
4	-190000	5.39	3.13	59.1
4	-200000	4.01	2.29	43.4
4	-210000	4.2	2.41	45.5
4	-220000	5.31	3.05	57.6
4	-230000	4.96	2.84	53.7
4	-240000	3.56	2.04	38.5
4	-250000	3.71	2.13	40.2
4	-260000	4.81	2.76	52.1
4	-270000	4.43	2.54	48
4	-280000	3.25	1.86	35.2
4	-290000	3.36	1.93	36.4
4	-300000	4.26	2.44	46.1
4	-310000	3.84	2.2	41.6
4	-320000	2.59	1.48	28
4	-330000	2.68	1.53	29
4	-340000	3.83	2.19	41.4
4	-350000	3.33	1.91	36.1
4	-360000	2.13	1.22	23.1
4	-370000	2.8	1.6	30.3
4	-380000	3.77	2.16	40.9
4	-390000	3.31	1.9	35.9
4	-400000	2.55	1.46	27.6
4	-410000	2.62	1.5	28.3
4	-420000	3.66	2.1	39.6
4	-430000	3.68	2.11	39.8
4	-440000	2.27	1.3	24.5
4	-450000	2.53	1.45	27.4
4	-460000	3.32	1.9	35.9
4	-470000	3.16	1.81	34.2
4	-480000	2.36	1.35	25.5
4	-490000	2.4	1.38	26
4	-500000	3.31	1.9	35.9
4	-510000	3.12	1.79	33.8
4	-520000	1.76	1.01	19
4	-530000	2.38	1.36	25.8
4	-540000	3.25	1.86	35.2
4	-550000	2.96	1.7	32.1
4	-560000	2.49	1.43	27
4	-570000	2.39	1.37	25.9
4	-580000	3.33	1.91	36
4	0	2.35	2.63	49.8
4	10000	3.94	4.22	79.8
4	20000	2.73	3.02	57
4	30000	3.82	4.1	77.5
4	40000	2.92	3.2	60.6
4	50000	1.95	2.24	42.3
4	60000	2.68	2.97	56.1
4	70000	3.14	3.43	64.8
4	80000	2.32	2.6	49.2
4	90000	1.76	2.04	38.6
4	100000	2.36	2.64	49.9
4	110000	3.13	3.41	64.5
4	120000	2.47	2.76	52.1
4	130000	1.82	2.1	39.8
4	140000	2.38	2.66	50.3
4	150000	2.9	3.19	60.3
4	160000	2.48	2.76	52.3
4	170000	1.6	1.89	35.7
4	180000	1.95	2.23	42.2
4	190000	2.99	3.28	62
4	200000	2.17	2.46	46.4
4	210000	1.2	1.49	28.2
4	220000	2.03	2.31	43.7
4	230000	2.71	2.99	56.5
4	240000	2.15	2.43	46
4	250000	1.21	1.5	28.3
4	260000	1.7	1.99	37.5
4	270000	2.51	2.8	52.8
4	280000	1.7	1.98	37.5
4	290000	0.823	1.11	21
4	300000	1.48	1.76	33.3
4	310000	2.22	2.51	47.4
4	320000	1.63	1.92	36.3
4	330000	0.86	1.15	21.7
4	340000	1.26	1.55	29.2
4	350000	2.19	2.48	46.8
4	360000	1.22	1.51	28.5
4	370000	0.5	0.786	14.9
4	380000	1.47	1.76	33.2
4	390000	1.69	1.98	37.4
4	400000	0.742	1.03	19.4
4	410000	0.325	0.611	11.5
4	420000	0.795	1.08	20.4
4	430000	1.69	1.98	37.4
4	440000	0.897	1.18	22.4
4	450000	0.473	0.759	14.3
4	460000	1.26	1.54	29.2
4	470000	1.84	2.12	40.1
4	480000	1.25	1.54	29
4	490000	0.546	0.832	15.7
4	500000	1.14	1.42	26.9
4	510000	1.96	2.25	42.4
4	520000	0.89	1.18	22.2
4	530000	0.266	0.552	10.4
4	540000	1.13	1.42	26.8
4	550000	1.93	2.21	41.8
4	560000	2.54	2.82	53.4
4	570000	0.992	1.28	24.2
4	580000	1.6	1.88	35.6
5	0	3.43	1.96	37.1
5	-10000	6.61	4.35	82.2
5	-20000	7.18	4.92	92.9
5	-30000	6.97	4.71	89
5	-40000	5.74	3.48	65.8
5	-50000	6.52	4.26	80.6
5	-60000	7.28	5.02	94.8
5	-70000	6.62	4.36	82.4
5	-80000	6.19	3.93	74.2
5	-90000	6.15	3.89	73.5
5	-100000	6.95	4.69	88.7
5	-110000	6.88	4.62	87.3
5	-120000	5.73	3.47	65.5
5	-130000	6.02	3.76	71
5	-140000	7.13	4.87	92
5	-150000	6.95	4.69	88.6
5	-160000	5.84	3.58	67.7
5	-170000	5.9	3.64	68.8
5	-180000	7.34	5.08	96.1
5	-190000	7.09	4.83	91.3
5	-200000	5.57	3.31	62.6
5	-210000	5.47	3.21	60.7
5	-220000	5.98	3.72	70.4
5	-230000	6.07	3.81	71.9
5	-240000	4.94	2.83	53.5
5	-250000	4.95	2.83	53.5
5	-260000	6	3.74	70.6
5	-270000	5.59	3.33	63
5	-280000	4.52	2.59	48.9
5	-290000	4.62	2.65	50
5	-300000	5.63	3.37	63.7
5	-310000	4.99	2.86	54
5	-320000	3.84	2.2	41.5
5	-330000	3.82	2.19	41.4
5	-340000	4.71	2.7	51
5	-350000	3.96	2.27	42.9
5	-360000	2.88	1.65	31.2
5	-370000	3.39	1.94	36.7
5	-380000	4.35	2.49	47.1
5	-390000	3.78	2.17	41
5	-400000	2.96	1.69	32
5	-410000	3.09	1.77	33.5
5	-420000	3.85	2.21	41.7
5	-430000	3.79	2.17	41.1
5	-440000	2.44	1.4	26.4
5	-450000	2.84	1.62	30.7
5	-460000	3.56	2.04	38.6
5	-470000	3.11	1.78	33.7
5	-480000	2.23	1.28	24.1
5	-490000	2.26	1.3	24.5
5	-500000	3.41	1.95	36.9
5	-510000	3.03	1.73	32.8
5	-520000	1.86	1.06	20.1
5	-530000	2.47	1.41	26.7
5	-540000	5.11	2.92	55.3
5	-550000	5.8	3.54	66.8
5	-560000	6.26	4	75.7
5	-570000	5.98	3.72	70.2
5	-580000	6.64	4.38	82.9
5	0	4.88	5.17	97.7
5	10000	3.99	4.28	80.9
5	20000	2.84	3.12	59
5	30000	3.62	3.91	73.8
5	40000	2.77	3.05	57.7
5	50000	1.78	2.07	39.1
5	60000	2.73	3.02	57
5	70000	2.94	3.23	61
5	80000	2.13	2.42	45.8
5	90000	1.64	1.92	36.4
5	100000	2.28	2.57	48.5
5	110000	2.85	3.13	59.2
5	120000	2	2.29	43.3
5	130000	1.49	1.77	33.5
5	140000	2.23	2.52	47.5
5	150000	2.76	3.05	57.6
5	160000	1.94	2.22	42
5	170000	1.4	1.69	31.9
5	180000	2.14	2.43	45.9
5	190000	3.13	3.42	64.6
5	200000	2.26	2.55	48.2
5	210000	1.5	1.78	33.7
5	220000	2.07	2.36	44.6
5	230000	2.67	2.96	55.9
5	240000	2.26	2.54	48.1
5	250000	1.26	1.54	29.2
5	260000	1.48	1.76	33.3
5	270000	2.76	3.04	57.5
5	280000	1.92	2.2	41.6
5	290000	0.969	1.26	23.7
5	300000	1.46	1.75	33
5	310000	2.14	2.42	45.8
5	320000	1.77	2.05	38.8
5	330000	0.947	1.23	23.3
5	340000	1.54	1.83	34.5
5	350000	2.62	2.91	55
5	360000	1.74	2.02	38.2
5	370000	1.03	1.31	24.8
5	380000	1.78	2.07	39.1
5	390000	2.53	2.81	53.2
5	400000	1.45	1.74	32.8
5	410000	0.892	1.18	22.3
5	420000	1.32	1.6	30.3
5	430000	2.34	2.62	49.6
5	440000	1.98	2.26	42.8
5	450000	1.01	1.29	24.4
5	460000	1.37	1.66	31.3
5	470000	2.52	2.81	53.1
5	480000	2.09	2.38	45
5	490000	1.24	1.52	28.8
5	500000	1.57	1.86	35.1
5	510000	2.81	3.1	58.6
5	520000	1.85	2.13	40.3
5	530000	0.909	1.2	22.6
5	540000	1.46	1.75	33
5	550000	2.36	2.65	50
5	560000	2.8	3.08	58.3
5	570000	1.07	1.36	25.6
5	580000	1.78	2.07	39.1
6	0	3.26	1.87	35.3
6	-10000	5.49	3.23	61
6	-20000	6	3.74	70.7
6	-30000	5.86	3.6	68
6	-40000	5.07	2.9	54.9
6	-50000	6.07	3.81	72
6	-60000	6.69	4.43	83.7
6	-70000	6.4	4.14	78.3
6	-80000	5.88	3.62	68.5
6	-90000	6.11	3.85	72.8
6	-100000	7.07	4.81	90.8
6	-110000	7.04	4.78	90.4
6	-120000	5.83	3.57	67.4
6	-130000	6.21	3.95	74.6
6	-140000	6.87	4.61	87.1
6	-150000	6.75	4.49	84.9
6	-160000	5.93	3.67	69.4
6	-170000	6.34	4.08	77.2
6	-180000	8.01	5.75	109
6	-190000	7.67	5.41	102
6	-200000	6.11	3.85	72.9
6	-210000	6.69	4.43	83.7
6	-220000	7.75	5.49	104
6	-230000	7.01	4.75	89.7
6	-240000	5.98	3.72	70.2
6	-250000	6.14	3.88	73.4
6	-260000	7.05	4.79	90.5
6	-270000	6.68	4.42	83.6
6	-280000	5.31	3.05	57.7
6	-290000	5.66	3.4	64.3
6	-300000	6.83	4.57	86.3
6	-310000	5.96	3.7	70
6	-320000	5.38	3.12	59
6	-330000	5.38	3.12	58.9
6	-340000	6.34	4.08	77.1
6	-350000	6.03	3.77	71.2
6	-360000	4.97	2.84	53.8
6	-370000	5.68	3.42	64.7
6	-380000	5.66	3.4	64.2
6	-390000	4.9	2.81	53
6	-400000	3.75	2.15	40.6
6	-410000	3.45	1.98	37.3
6	-420000	4.51	2.58	48.8
6	-430000	4.38	2.51	47.4
6	-440000	2.89	1.66	31.3
6	-450000	2.88	1.65	31.2
6	-460000	3.92	2.24	42.4
6	-470000	3.78	2.16	40.9
6	-480000	2.57	1.47	27.8
6	-490000	2.83	1.62	30.6
6	-500000	3.8	2.18	41.1
6	-510000	3.57	2.04	38.6
6	-520000	2.21	1.26	23.9
6	-530000	2.35	1.34	25.4
6	-540000	3.03	1.74	32.8
6	-550000	2.52	1.45	27.3
6	-560000	2.39	1.37	25.9
6	-570000	1.98	1.14	21.5
6	-580000	2.56	1.46	27.7
