rep_num	position	torque	torque_compensated	lbs_compensated
1	0	3.64	3.93	74.2
1	10000	3.07	3.35	63.3
1	20000	3.51	3.8	71.8
1	30000	2.86	3.15	59.5
1	40000	2.79	3.08	58.2
1	50000	3.17	3.45	65.3
1	60000	3.52	3.8	71.9
1	70000	3.27	3.56	67.3
1	80000	3.09	3.37	63.7
1	90000	3.54	3.83	72.4
1	100000	3.85	4.14	78.2
1	110000	2.94	3.23	61
1	120000	2.8	3.09	58.4
1	130000	3.72	4.01	75.7
1	140000	3.78	4.06	76.8
1	150000	2.69	2.98	56.3
1	160000	2.98	3.27	61.8
1	170000	3.26	3.55	67
1	180000	3.52	3.81	72
1	190000	3	3.28	62.1
1	200000	3.16	3.44	65.1
1	210000	3.83	4.11	77.8
1	220000	3.43	3.71	70.2
1	230000	2.81	3.09	58.5
1	240000	2.09	2.38	45
1	250000	2.35	2.63	49.8
1	260000	2.5	2.79	52.7
1	270000	2.41	2.69	50.9
1	280000	2.39	2.67	50.5
1	290000	3.02	3.31	62.5
1	300000	2.93	3.21	60.7
1	310000	2.02	2.31	43.6
1	320000	0.965	1.25	23.7
1	330000	1.67	1.96	37
1	340000	1.25	1.54	29.1
1	350000	0.785	1.07	20.2
1	360000	1.37	1.65	31.3
1	370000	2.6	2.89	54.6
1	380000	3.1	3.38	64
1	390000	2.91	3.19	60.3
1	400000	2.48	2.77	52.4
1	410000	3.17	3.46	65.4
1	420000	3.51	3.8	71.8
1	430000	2.59	2.88	54.4
1	440000	2.29	2.58	48.7
1	450000	3.03	3.32	62.7
1	460000	3.13	3.42	64.6
1	470000	2.69	2.98	56.3
1	480000	2.45	2.74	51.7
1	490000	3.04	3.33	62.9
1	500000	3.19	3.48	65.8
1	510000	2.31	2.59	49
1	520000	2.33	2.62	49.4
1	530000	3.07	3.35	63.4
1	540000	2.53	2.81	53.2
1	550000	2.56	2.85	53.8
1	560000	2.66	2.95	55.7
1	570000	3.47	3.76	71
1	580000	3.79	4.08	77.1
2	0	5.27	3.02	57
2	-10000	6.53	4.27	80.7
2	-20000	5.56	3.3	62.4
2	-30000	6.49	4.23	80
2	-40000	7.1	4.84	91.5
2	-50000	6.59	4.33	81.8
2	-60000	6	3.74	70.6
2	-70000	6.19	3.93	74.3
2	-80000	6.95	4.69	88.7
2	-90000	6.81	4.55	86
2	-100000	6.48	4.22	79.8
2	-110000	7.72	5.46	103
2	-120000	8.03	5.77	109
2	-130000	7.4	5.14	97.1
2	-140000	7.36	5.1	96.4
2	-150000	7.67	5.41	102
2	-160000	7.67	5.41	102
2	-170000	7.06	4.8	90.7
2	-180000	6.53	4.27	80.7
2	-190000	6.79	4.53	85.6
2	-200000	6.69	4.43	83.8
2	-210000	6.42	4.16	78.6
2	-220000	6.12	3.86	73
2	-230000	6.77	4.51	85.3
2	-240000	6.91	4.65	87.8
2	-250000	6.57	4.31	81.5
2	-260000	6.07	3.81	71.9
2	-270000	6.71	4.45	84.1
2	-280000	6.87	4.61	87.1
2	-290000	6.1	3.84	72.6
2	-300000	5.66	3.4	64.2
2	-310000	6.02	3.76	71
2	-320000	6.43	4.17	78.8
2	-330000	6.34	4.08	77.2
2	-340000	5.81	3.55	67.2
2	-350000	6.12	3.86	72.9
2	-360000	6.75	4.49	84.8
2	-370000	5.87	3.61	68.2
2	-380000	5.33	3.07	58.1
2	-390000	6.02	3.76	71
2	-400000	6.61	4.35	82.2
2	-410000	5.91	3.65	69.1
2	-420000	4.99	2.86	54.1
2	-430000	5.54	3.28	62.1
2	-440000	5.62	3.36	63.6
2	-450000	4.96	2.84	53.7
2	-460000	5.16	2.96	55.9
2	-470000	5.24	3	56.7
2	-480000	5.59	3.33	63
2	-490000	4.9	2.81	53
2	-500000	4.41	2.53	47.8
2	-510000	4.9	2.81	53.1
2	-520000	4.95	2.84	53.6
2	-530000	4.55	2.61	49.3
2	-540000	4.31	2.47	46.7
2	-550000	4.46	2.56	48.3
2	-560000	4.6	2.63	49.8
2	-570000	4.15	2.38	44.9
2	-580000	3.72	2.13	40.3
2	0	2.77	3.06	57.8
2	10000	3.23	3.52	66.5
2	20000	3.53	3.81	72
2	30000	2.79	3.07	58.1
2	40000	2.59	2.88	54.4
2	50000	3.06	3.35	63.3
2	60000	3.09	3.38	63.8
2	70000	2.83	3.12	59
2	80000	2.59	2.88	54.4
2	90000	3.02	3.31	62.5
2	100000	3.38	3.67	69.3
2	110000	2.6	2.89	54.6
2	120000	2.29	2.58	48.8
2	130000	3.17	3.46	65.4
2	140000	3.16	3.45	65.2
2	150000	2.35	2.63	49.8
2	160000	2.32	2.6	49.2
2	170000	2.76	3.04	57.5
2	180000	2.79	3.08	58.2
2	190000	2.2	2.49	47
2	200000	2.05	2.34	44.1
2	210000	2.94	3.22	60.9
2	220000	2.81	3.1	58.5
2	230000	2.2	2.49	47
2	240000	2.09	2.38	44.9
2	250000	2.6	2.89	54.6
2	260000	2.67	2.96	55.9
2	270000	1.73	2.02	38.1
2	280000	1.69	1.98	37.4
2	290000	2.37	2.66	50.2
2	300000	2.04	2.33	44
2	310000	1.62	1.91	36.1
2	320000	1.55	1.84	34.7
2	330000	1.97	2.26	42.6
2	340000	2.26	2.55	48.2
2	350000	1.81	2.1	39.7
2	360000	1.64	1.93	36.5
2	370000	2.27	2.56	48.3
2	380000	2.42	2.7	51
2	390000	1.89	2.17	41.1
2	400000	1.76	2.05	38.7
2	410000	2.09	2.38	45
2	420000	2.82	3.11	58.7
2	430000	1.92	2.21	41.7
2	440000	1.67	1.96	37
2	450000	2.52	2.81	53.1
2	460000	2.52	2.8	53
2	470000	2.05	2.34	44.2
2	480000	2.06	2.34	44.3
2	490000	2.64	2.93	55.3
2	500000	2.82	3.1	58.6
2	510000	1.79	2.08	39.2
2	520000	2.06	2.35	44.4
2	530000	3.03	3.31	62.6
2	540000	3.04	3.33	63
2	550000	2.87	3.16	59.7
2	560000	2.9	3.18	60.1
2	570000	3.47	3.76	71.1
2	580000	3.33	3.62	68.4
3	0	4.35	2.49	47.1
3	-10000	5.38	3.12	59
3	-20000	4.55	2.61	49.3
3	-30000	5.52	3.26	61.5
3	-40000	5.97	3.71	70.2
3	-50000	5.42	3.16	59.8
3	-60000	4.87	2.79	52.8
3	-70000	5.61	3.35	63.3
3	-80000	5.98	3.72	70.4
3	-90000	5.46	3.2	60.5
3	-100000	5.19	2.97	56.2
3	-110000	6.19	3.93	74.3
3	-120000	5.88	3.62	68.5
3	-130000	5.43	3.17	60
3	-140000	5.38	3.12	58.9
3	-150000	5.48	3.22	60.8
3	-160000	5.79	3.53	66.7
3	-170000	5.2	2.98	56.3
3	-180000	4.97	2.85	53.8
3	-190000	5.45	3.19	60.2
3	-200000	5.7	3.44	65
3	-210000	5.28	3.03	57.2
3	-220000	4.93	2.82	53.4
3	-230000	5.3	3.04	57.4
3	-240000	5.42	3.16	59.7
3	-250000	5.13	2.94	55.5
3	-260000	4.61	2.64	49.9
3	-270000	5.12	2.93	55.5
3	-280000	5.55	3.29	62.1
3	-290000	5.08	2.91	55
3	-300000	4.59	2.63	49.7
3	-310000	4.75	2.72	51.5
3	-320000	4.95	2.83	53.6
3	-330000	4.79	2.74	51.8
3	-340000	4.01	2.3	43.4
3	-350000	4.78	2.74	51.8
3	-360000	5.29	3.03	57.3
3	-370000	4.87	2.79	52.7
3	-380000	4.07	2.33	44.1
3	-390000	4.62	2.65	50
3	-400000	4.87	2.79	52.7
3	-410000	4.44	2.54	48
3	-420000	3.97	2.27	42.9
3	-430000	4.77	2.73	51.7
3	-440000	5.04	2.89	54.5
3	-450000	4.52	2.59	49
3	-460000	4.45	2.55	48.2
3	-470000	4.89	2.8	52.9
3	-480000	4.89	2.8	52.9
3	-490000	4.45	2.55	48.2
3	-500000	3.96	2.27	42.8
3	-510000	4.26	2.44	46.1
3	-520000	4.48	2.57	48.5
3	-530000	3.58	2.05	38.7
3	-540000	3.61	2.07	39.1
3	-550000	3.94	2.26	42.7
3	-560000	3.83	2.2	41.5
3	-570000	3.23	1.85	35
3	-580000	3.69	2.12	40
3	0	2.79	3.08	58.2
3	10000	3.07	3.35	63.3
3	20000	2.99	3.28	61.9
3	30000	2.41	2.7	51
3	40000	2.19	2.48	46.8
3	50000	2.88	3.16	59.8
3	60000	2.78	3.07	58
3	70000	2.21	2.5	47.2
3	80000	2.18	2.47	46.6
3	90000	2.49	2.78	52.5
3	100000	2.88	3.16	59.8
3	110000	2.13	2.42	45.7
3	120000	1.94	2.22	42
3	130000	3.03	3.32	62.7
3	140000	3.21	3.5	66.1
3	150000	2.71	3	56.7
3	160000	3.11	3.4	64.2
3	170000	4.11	4.4	83.2
3	180000	4.03	4.31	81.6
3	190000	3.39	3.68	69.5
3	200000	3.11	3.4	64.2
3	210000	3.54	3.83	72.3
3	220000	3.21	3.5	66.1
3	230000	2.92	3.2	60.5
3	240000	2.6	2.89	54.6
3	250000	3.3	3.59	67.8
3	260000	3.15	3.44	65
3	270000	2.67	2.95	55.8
3	280000	2.62	2.91	54.9
3	290000	3.03	3.31	62.6
3	300000	2.54	2.82	53.4
3	310000	2.05	2.33	44.1
3	320000	1.96	2.24	42.4
3	330000	2.61	2.89	54.7
3	340000	2.9	3.19	60.2
3	350000	2.28	2.57	48.6
3	360000	2.39	2.68	50.6
3	370000	2.93	3.21	60.8
3	380000	2.81	3.09	58.5
3	390000	2.33	2.61	49.4
3	400000	2.07	2.35	44.4
3	410000	2.24	2.53	47.8
3	420000	2.56	2.85	53.8
3	430000	1.74	2.03	38.4
3	440000	1.77	2.06	38.8
3	450000	2.46	2.75	51.9
3	460000	2.59	2.88	54.4
3	470000	2.12	2.4	45.4
3	480000	2.14	2.43	45.9
3	490000	2.86	3.15	59.5
3	500000	2.87	3.15	59.6
3	510000	2.34	2.63	49.6
3	520000	2.32	2.6	49.2
3	530000	3.19	3.48	65.7
3	540000	3.09	3.38	63.9
3	550000	2.91	3.19	60.3
3	560000	2.88	3.17	59.9
3	570000	4.1	4.39	82.9
3	580000	4.4	4.69	88.6
4	0	5.62	3.36	63.6
4	-10000	6.08	3.82	72.2
4	-20000	5.59	3.33	63
4	-30000	6.46	4.2	79.4
4	-40000	7.15	4.89	92.4
4	-50000	6.6	4.34	82
4	-60000	6.31	4.05	76.5
4	-70000	6.5	4.24	80
4	-80000	7.12	4.86	91.8
4	-90000	6.68	4.42	83.6
4	-100000	6.1	3.84	72.6
4	-110000	7.08	4.82	91
4	-120000	7.06	4.8	90.8
4	-130000	6.31	4.05	76.5
4	-140000	6.2	3.94	74.5
4	-150000	6.28	4.02	76
4	-160000	6.29	4.03	76.1
4	-170000	5.87	3.61	68.2
4	-180000	5.81	3.55	67.1
4	-190000	6.32	4.06	76.7
4	-200000	6.28	4.02	76
4	-210000	5.88	3.62	68.5
4	-220000	5.73	3.47	65.7
4	-230000	6.18	3.92	74.1
4	-240000	6.32	4.06	76.8
4	-250000	5.8	3.54	66.9
4	-260000	5.12	2.93	55.4
4	-270000	5.72	3.46	65.4
4	-280000	6.36	4.1	77.4
4	-290000	6.09	3.83	72.3
4	-300000	5.84	3.58	67.8
4	-310000	6.39	4.13	78
4	-320000	6.66	4.4	83.2
4	-330000	6.2	3.94	74.4
4	-340000	5.59	3.33	63
4	-350000	6.12	3.86	73
4	-360000	6.44	4.18	79
4	-370000	5.71	3.45	65.2
4	-380000	5.22	2.99	56.5
4	-390000	5.85	3.59	67.9
4	-400000	6.03	3.77	71.3
4	-410000	5.45	3.19	60.2
4	-420000	4.69	2.69	50.8
4	-430000	5.35	3.09	58.3
4	-440000	5.48	3.22	60.8
4	-450000	4.92	2.82	53.3
4	-460000	4.76	2.73	51.6
4	-470000	5.32	3.06	57.8
4	-480000	5.27	3.02	57
4	-490000	4.37	2.5	47.3
4	-500000	3.88	2.22	42
4	-510000	4.14	2.37	44.8
4	-520000	4.38	2.51	47.4
4	-530000	3.49	2	37.8
4	-540000	3.4	1.94	36.8
4	-550000	3.69	2.12	40
4	-560000	3.47	1.99	37.5
4	-570000	2.82	1.62	30.5
4	-580000	2.81	1.61	30.4
4	0	2.33	2.62	49.5
4	10000	3.28	3.57	67.4
4	20000	3.7	3.98	75.3
4	30000	3.06	3.34	63.2
4	40000	2.66	2.95	55.7
4	50000	3.56	3.85	72.7
4	60000	3.71	4	75.6
4	70000	3	3.28	62
4	80000	3.05	3.34	63.1
4	90000	3.44	3.72	70.4
4	100000	3.81	4.1	77.5
4	110000	2.71	3	56.7
4	120000	2.47	2.75	52.1
4	130000	3.02	3.31	62.5
4	140000	3.19	3.48	65.7
4	150000	2.26	2.54	48
4	160000	2.67	2.96	55.9
4	170000	3.25	3.54	66.9
4	180000	3.25	3.54	66.9
4	190000	2.68	2.97	56.1
4	200000	2.42	2.71	51.1
4	210000	3.17	3.45	65.3
4	220000	2.84	3.13	59.1
4	230000	2.37	2.66	50.2
4	240000	2.31	2.6	49.1
4	250000	2.82	3.11	58.7
4	260000	3.21	3.5	66.1
4	270000	2.36	2.64	49.9
4	280000	2.57	2.86	54
4	290000	3.57	3.86	72.9
4	300000	3.47	3.75	71
4	310000	2.79	3.08	58.2
4	320000	2.48	2.76	52.2
4	330000	2.78	3.07	58
4	340000	2.85	3.13	59.2
4	350000	2.02	2.3	43.6
4	360000	1.97	2.26	42.7
4	370000	2.46	2.74	51.8
4	380000	2.52	2.8	53
4	390000	2.34	2.63	49.6
4	400000	2.01	2.3	43.4
4	410000	2.17	2.46	46.5
4	420000	2.39	2.68	50.7
4	430000	1.55	1.83	34.6
4	440000	1.48	1.76	33.4
4	450000	2.29	2.58	48.8
4	460000	2.02	2.3	43.5
4	470000	1.32	1.6	30.3
4	480000	1.51	1.8	34
4	490000	2.02	2.31	43.6
4	500000	2.22	2.51	47.4
4	510000	1.48	1.77	33.4
4	520000	1.57	1.86	35.1
4	530000	2.44	2.72	51.5
4	540000	2.18	2.47	46.6
4	550000	2.01	2.3	43.5
4	560000	2.87	3.15	59.6
4	570000	3.99	4.28	80.9
4	580000	3.95	4.23	80
5	0	5.17	2.96	55.9
5	-10000	5.03	2.88	54.5
5	-20000	4.1	2.35	44.4
5	-30000	4.86	2.79	52.6
5	-40000	5.3	3.04	57.5
5	-50000	4.61	2.64	49.9
5	-60000	4.18	2.4	45.3
5	-70000	4.84	2.77	52.4
5	-80000	5.11	2.92	55.3
5	-90000	4.68	2.68	50.7
5	-100000	4.1	2.35	44.4
5	-110000	4.99	2.86	54
5	-120000	5.28	3.03	57.2
5	-130000	4.67	2.67	50.5
5	-140000	4.83	2.77	52.3
5	-150000	5.29	3.03	57.3
5	-160000	5.27	3.02	57
5	-170000	4.55	2.61	49.3
5	-180000	4.1	2.35	44.3
5	-190000	4.39	2.52	47.6
5	-200000	4.61	2.64	49.9
5	-210000	4.13	2.37	44.7
5	-220000	3.67	2.1	39.7
5	-230000	4.05	2.32	43.8
5	-240000	4.35	2.49	47.1
5	-250000	3.73	2.14	40.4
5	-260000	3.27	1.87	35.4
5	-270000	3.88	2.22	42
5	-280000	4.12	2.36	44.6
5	-290000	3.44	1.97	37.2
5	-300000	3.28	1.88	35.5
5	-310000	3.44	1.97	37.2
5	-320000	3.82	2.19	41.4
5	-330000	3.7	2.12	40.1
5	-340000	2.95	1.69	31.9
5	-350000	3.44	1.97	37.2
5	-360000	3.86	2.21	41.8
5	-370000	3.42	1.96	37.1
5	-380000	2.71	1.55	29.3
5	-390000	3.3	1.89	35.8
5	-400000	3.7	2.12	40.1
5	-410000	3	1.72	32.5
5	-420000	2.59	1.48	28
5	-430000	3.25	1.86	35.2
5	-440000	3.45	1.98	37.4
5	-450000	2.72	1.56	29.4
5	-460000	2.72	1.56	29.4
5	-470000	2.86	1.64	31
5	-480000	3.13	1.8	33.9
5	-490000	2.78	1.59	30.1
5	-500000	2.15	1.23	23.3
5	-510000	2.54	1.45	27.5
5	-520000	3.05	1.75	33
5	-530000	2.09	1.2	22.6
5	-540000	2.16	1.24	23.4
5	-550000	2.82	1.61	30.5
5	-560000	2.8	1.6	30.3
5	-570000	2.37	1.36	25.7
5	-580000	2.25	1.29	24.4
5	0	0.951	1.24	23.4
5	10000	2.14	2.43	45.9
5	20000	3.82	4.1	77.6
5	30000	3.64	3.92	74.2
5	40000	4.03	4.32	81.6
5	50000	4.89	5.18	97.9
5	60000	5.17	5.46	103
5	70000	4.73	5.01	94.8
5	80000	4.55	4.84	91.4
5	90000	4.74	5.02	94.9
5	100000	5.08	5.36	101
5	110000	4.23	4.52	85.4
5	120000	3.75	4.03	76.2
5	130000	4.51	4.79	90.6
5	140000	4.4	4.69	88.7
5	150000	3.66	3.94	74.5
5	160000	3.95	4.23	80
5	170000	4.2	4.48	84.7
5	180000	3.93	4.22	79.7
5	190000	3.54	3.82	72.2
5	200000	3.29	3.58	67.7
5	210000	3.67	3.96	74.8
5	220000	3.42	3.7	70
5	230000	3.34	3.62	68.4
5	240000	3.06	3.35	63.2
5	250000	3.34	3.63	68.6
5	260000	3.34	3.63	68.6
5	270000	2.57	2.86	54.1
5	280000	2.44	2.72	51.4
5	290000	3.27	3.56	67.2
5	300000	3.07	3.35	63.3
5	310000	2.89	3.18	60.1
5	320000	2.44	2.72	51.5
5	330000	2.68	2.96	56
5	340000	2.85	3.13	59.2
5	350000	2.47	2.76	52.1
5	360000	2.08	2.37	44.8
5	370000	2.68	2.97	56.1
5	380000	2.7	2.99	56.5
5	390000	2.2	2.48	46.9
5	400000	1.79	2.08	39.3
5	410000	2.26	2.55	48.1
5	420000	2.66	2.95	55.7
5	430000	1.91	2.2	41.6
5	440000	1.71	2	37.8
5	450000	2.34	2.63	49.7
5	460000	2.33	2.62	49.4
5	470000	1.99	2.28	43
5	480000	2.08	2.37	44.8
5	490000	2.21	2.49	47.1
5	500000	2.28	2.57	48.5
5	510000	1.7	1.98	37.5
5	520000	1.8	2.09	39.5
5	530000	2.77	3.06	57.8
5	540000	2.8	3.09	58.3
5	550000	2.03	2.32	43.8
5	560000	2.22	2.51	47.4
5	570000	3.58	3.86	73
5	580000	4.13	4.41	83.4
6	0	5.44	3.18	60.2
6	-10000	5.14	2.95	55.7
6	-20000	4.97	2.85	53.8
6	-30000	5.72	3.46	65.4
6	-40000	6.42	4.16	78.6
6	-50000	6.12	3.86	73
6	-60000	5.92	3.66	69.2
6	-70000	6.79	4.53	85.6
6	-80000	7.13	4.87	92
6	-90000	6.63	4.37	82.5
6	-100000	6.21	3.95	74.6
6	-110000	7.34	5.08	96
6	-120000	7.16	4.9	92.6
6	-130000	6.22	3.96	74.9
6	-140000	6.53	4.27	80.7
6	-150000	7.12	4.86	91.9
6	-160000	7.19	4.93	93.1
6	-170000	6.66	4.4	83.2
6	-180000	5.98	3.72	70.3
6	-190000	6.57	4.31	81.4
6	-200000	7.01	4.75	89.8
6	-210000	6.95	4.69	88.6
6	-220000	6.89	4.63	87.5
6	-230000	7.7	5.44	103
6	-240000	8.05	5.79	110
6	-250000	7.43	5.17	97.6
6	-260000	7.13	4.87	92
6	-270000	8.11	5.85	111
6	-280000	8.42	6.16	116
6	-290000	7.81	5.55	105
6	-300000	7.2	4.94	93.4
6	-310000	7.43	5.17	97.7
6	-320000	7.51	5.25	99.2
6	-330000	6.82	4.56	86.2
6	-340000	5.92	3.66	69.1
6	-350000	6.34	4.08	77.1
6	-360000	6.54	4.28	80.9
6	-370000	5.81	3.55	67.1
6	-380000	5.24	3	56.7
6	-390000	6.19	3.93	74.2
6	-400000	6.62	4.36	82.4
6	-410000	5.34	3.08	58.3
6	-420000	4.79	2.74	51.9
6	-430000	5.99	3.73	70.4
6	-440000	6.03	3.77	71.3
6	-450000	5.15	2.95	55.8
6	-460000	4.84	2.77	52.4
6	-470000	5.02	2.88	54.3
6	-480000	5.01	2.87	54.2
6	-490000	4.51	2.58	48.8
6	-500000	4.09	2.34	44.3
6	-510000	4.56	2.61	49.4
6	-520000	4.88	2.8	52.8
6	-530000	4.41	2.53	47.7
6	-540000	4.45	2.55	48.2
6	-550000	4.66	2.67	50.4
6	-560000	4.46	2.56	48.3
6	-570000	3.89	2.23	42.1
6	-580000	3.11	1.78	33.7
