rep_num	position	torque	torque_compensated	lbs_compensated
1	0	3.85	4.14	78.2
1	10000	2.56	2.85	53.8
1	20000	3	3.28	62
1	30000	3.29	3.57	67.5
1	40000	3.2	3.48	65.9
1	50000	3.75	4.04	76.3
1	60000	4.23	4.52	85.4
1	70000	4.19	4.47	84.6
1	80000	3.75	4.04	76.3
1	90000	3.76	4.04	76.4
1	100000	4.05	4.33	81.9
1	110000	3.15	3.43	64.9
1	120000	2.29	2.57	48.7
1	130000	1.54	1.83	34.5
1	140000	1.86	2.15	40.6
1	150000	1.83	2.12	40
1	160000	1.47	1.76	33.2
1	170000	1.59	1.88	35.5
1	180000	2.1	2.38	45
1	190000	1.98	2.26	42.8
1	200000	1.66	1.94	36.7
1	210000	2.21	2.49	47.1
1	220000	2.39	2.68	50.6
1	230000	2.13	2.41	45.6
1	240000	2.02	2.31	43.7
1	250000	1.92	2.2	41.7
1	260000	2.22	2.51	47.4
1	270000	1.71	2	37.8
1	280000	1.58	1.87	35.3
1	290000	2.05	2.34	44.2
1	300000	2.17	2.45	46.3
1	310000	2.2	2.49	47
1	320000	1.75	2.03	38.4
1	330000	1.6	1.89	35.7
1	340000	2.35	2.64	49.8
1	350000	2.15	2.43	46
1	360000	1.88	2.17	40.9
1	370000	1.77	2.05	38.8
1	380000	2.02	2.31	43.6
1	390000	1.76	2.04	38.6
1	400000	1.34	1.63	30.7
1	410000	1.17	1.46	27.6
1	420000	1.88	2.17	41
1	430000	1.45	1.74	32.9
1	440000	1.19	1.47	27.8
1	450000	1.61	1.89	35.8
1	460000	1.85	2.14	40.4
1	470000	1.56	1.84	34.9
1	480000	1.6	1.89	35.7
1	490000	1.6	1.89	35.7
1	500000	2.01	2.3	43.4
1	510000	2.24	2.53	47.8
1	520000	2.07	2.36	44.6
1	530000	2.59	2.87	54.3
1	540000	2.56	2.84	53.7
1	550000	2.78	3.06	57.9
1	560000	3.35	3.64	68.8
1	570000	3.87	4.16	78.5
1	580000	3.99	4.28	80.9
2	0	5.23	2.99	56.6
2	-10000	5.89	3.63	68.7
2	-20000	5.54	3.28	62
2	-30000	6.19	3.93	74.3
2	-40000	6.48	4.22	79.8
2	-50000	6.36	4.1	77.5
2	-60000	6.19	3.93	74.3
2	-70000	6.62	4.36	82.5
2	-80000	7.01	4.75	89.7
2	-90000	6.55	4.29	81
2	-100000	6.49	4.23	79.9
2	-110000	6.97	4.71	89
2	-120000	6.7	4.44	83.9
2	-130000	6.02	3.76	71.2
2	-140000	6.54	4.28	80.8
2	-150000	6.57	4.31	81.4
2	-160000	6.12	3.86	73
2	-170000	5.7	3.44	65
2	-180000	5.94	3.68	69.6
2	-190000	6.05	3.79	71.6
2	-200000	5.74	3.48	65.8
2	-210000	5.37	3.11	58.8
2	-220000	5.38	3.12	58.9
2	-230000	5.56	3.3	62.4
2	-240000	5.48	3.22	60.8
2	-250000	5.16	2.95	55.8
2	-260000	4.92	2.82	53.2
2	-270000	5.52	3.26	61.7
2	-280000	5.42	3.16	59.6
2	-290000	5.22	2.99	56.5
2	-300000	5.61	3.35	63.4
2	-310000	5.79	3.53	66.8
2	-320000	5.54	3.28	62.1
2	-330000	5.4	3.14	59.4
2	-340000	5.12	2.93	55.5
2	-350000	5.47	3.21	60.7
2	-360000	5.47	3.21	60.7
2	-370000	5.33	3.07	58
2	-380000	5.14	2.95	55.7
2	-390000	5.55	3.29	62.1
2	-400000	5.84	3.58	67.7
2	-410000	5.37	3.11	58.9
2	-420000	5.25	3.01	56.8
2	-430000	5.89	3.63	68.6
2	-440000	5.39	3.13	59.1
2	-450000	4.96	2.84	53.7
2	-460000	5.23	3	56.6
2	-470000	5.33	3.07	58.1
2	-480000	5.12	2.94	55.5
2	-490000	4.83	2.77	52.3
2	-500000	5.11	2.93	55.4
2	-510000	5.05	2.9	54.7
2	-520000	5.19	2.97	56.1
2	-530000	4.66	2.67	50.4
2	-540000	4.98	2.85	54
2	-550000	5.03	2.88	54.4
2	-560000	4.96	2.84	53.7
2	-570000	3.92	2.24	42.4
2	-580000	3.21	1.84	34.8
2	0	2.26	2.54	48
2	10000	5.35	5.64	107
2	20000	5.58	5.88	111
2	30000	5.34	5.63	106
2	40000	5.26	5.54	105
2	50000	5.3	5.59	106
2	60000	5.6	5.9	111
2	70000	5	5.29	100
2	80000	4.3	4.58	86.6
2	90000	3.88	4.16	78.7
2	100000	4.15	4.44	83.8
2	110000	3.71	3.99	75.5
2	120000	3.45	3.74	70.6
2	130000	3.84	4.13	78
2	140000	3.97	4.25	80.4
2	150000	3.57	3.85	72.9
2	160000	3.44	3.72	70.3
2	170000	3.4	3.69	69.7
2	180000	3.46	3.74	70.8
2	190000	3.31	3.59	67.9
2	200000	2.79	3.08	58.1
2	210000	2.97	3.26	61.6
2	220000	2.98	3.27	61.8
2	230000	3.07	3.35	63.4
2	240000	2.87	3.15	59.6
2	250000	2.87	3.16	59.7
2	260000	3.04	3.32	62.8
2	270000	2.92	3.2	60.6
2	280000	2.69	2.98	56.3
2	290000	2.75	3.04	57.5
2	300000	3.01	3.29	62.2
2	310000	2.72	3	56.8
2	320000	2.4	2.69	50.8
2	330000	2.08	2.37	44.7
2	340000	2.66	2.94	55.6
2	350000	2.69	2.98	56.3
2	360000	2.23	2.51	47.5
2	370000	2.22	2.5	47.3
2	380000	2.28	2.57	48.6
2	390000	2.02	2.31	43.6
2	400000	1.65	1.93	36.5
2	410000	1.81	2.1	39.7
2	420000	2.77	3.06	57.8
2	430000	2.65	2.94	55.6
2	440000	2.77	3.06	57.8
2	450000	3.23	3.52	66.5
2	460000	3.24	3.53	66.7
2	470000	3.02	3.31	62.6
2	480000	3.65	3.94	74.5
2	490000	4.18	4.47	84.4
2	500000	3.99	4.27	80.8
2	510000	4.11	4.4	83.1
2	520000	3.91	4.2	79.4
2	530000	4.41	4.7	88.7
2	540000	3.9	4.19	79.1
2	550000	3.65	3.94	74.4
2	560000	3.49	3.77	71.3
2	570000	3.61	3.89	73.6
2	580000	4.15	4.43	83.8
3	0	5.27	3.02	57
3	-10000	6.61	4.35	82.2
3	-20000	7.24	4.98	94.1
3	-30000	7.89	5.63	106
3	-40000	7.93	5.67	107
3	-50000	8.03	5.77	109
3	-60000	7.94	5.68	107
3	-70000	8.32	6.06	114
3	-80000	8.16	5.9	112
3	-90000	7.79	5.53	104
3	-100000	7.72	5.46	103
3	-110000	8.19	5.93	112
3	-120000	8	5.74	108
3	-130000	7.35	5.09	96.1
3	-140000	8.03	5.77	109
3	-150000	8.45	6.19	117
3	-160000	7.98	5.72	108
3	-170000	7.45	5.19	98.1
3	-180000	7.58	5.32	100
3	-190000	7.81	5.55	105
3	-200000	7.63	5.37	102
3	-210000	7.56	5.3	100
3	-220000	7.56	5.3	100
3	-230000	7.49	5.23	98.8
3	-240000	7.49	5.23	98.9
3	-250000	7.21	4.95	93.5
3	-260000	6.74	4.48	84.7
3	-270000	6.92	4.66	88.2
3	-280000	6.78	4.52	85.4
3	-290000	5.89	3.63	68.7
3	-300000	6.12	3.86	73
3	-310000	6.31	4.05	76.6
3	-320000	6.38	4.12	77.9
3	-330000	5.91	3.65	69.1
3	-340000	5.99	3.73	70.4
3	-350000	6.47	4.21	79.6
3	-360000	6.32	4.06	76.8
3	-370000	5.89	3.63	68.5
3	-380000	5.45	3.19	60.4
3	-390000	5.58	3.32	62.7
3	-400000	5.66	3.4	64.3
3	-410000	5.11	2.93	55.4
3	-420000	4.78	2.74	51.7
3	-430000	5.58	3.32	62.7
3	-440000	4.99	2.86	54
3	-450000	4.64	2.66	50.3
3	-460000	4.8	2.75	52
3	-470000	5.18	2.97	56.1
3	-480000	4.71	2.7	51
3	-490000	4.16	2.38	45
3	-500000	4.62	2.65	50.1
3	-510000	4.6	2.64	49.8
3	-520000	4.34	2.49	47
3	-530000	4.34	2.49	47
3	-540000	4.38	2.51	47.5
3	-550000	5.14	2.94	55.6
3	-560000	4.56	2.61	49.4
3	-570000	3.28	1.88	35.6
3	-580000	3.12	1.79	33.8
3	0	3.38	3.66	69.2
3	10000	4.9	5.19	98.1
3	20000	4.63	4.92	92.9
3	30000	4.26	4.54	85.9
3	40000	3.52	3.8	71.9
3	50000	3.04	3.33	63
3	60000	3.07	3.35	63.4
3	70000	3.08	3.37	63.7
3	80000	2.45	2.74	51.8
3	90000	2.55	2.84	53.7
3	100000	3.23	3.51	66.4
3	110000	2.81	3.09	58.5
3	120000	2.48	2.77	52.3
3	130000	2.55	2.84	53.6
3	140000	2.75	3.03	57.3
3	150000	2.24	2.53	47.7
3	160000	2.08	2.37	44.8
3	170000	2.19	2.47	46.8
3	180000	2.42	2.7	51.1
3	190000	2.44	2.73	51.5
3	200000	1.99	2.27	42.9
3	210000	2.37	2.65	50.2
3	220000	2.41	2.69	50.9
3	230000	2.49	2.77	52.4
3	240000	2.37	2.65	50.2
3	250000	2.43	2.71	51.3
3	260000	2.36	2.65	50
3	270000	2.19	2.48	46.8
3	280000	1.76	2.05	38.7
3	290000	1.63	1.91	36.2
3	300000	1.06	1.34	25.4
3	310000	0.943	1.23	23.2
3	320000	1.59	1.87	35.4
3	330000	1.94	2.22	42
3	340000	2.56	2.85	53.8
3	350000	2.59	2.88	54.4
3	360000	2.1	2.38	45
3	370000	1.99	2.27	43
3	380000	1.91	2.19	41.4
3	390000	1.72	2.01	38
3	400000	1.67	1.96	37.1
3	410000	1.63	1.91	36.1
3	420000	2.37	2.66	50.2
3	430000	1.89	2.18	41.1
3	440000	1.78	2.07	39
3	450000	1.78	2.06	39
3	460000	2.1	2.39	45.1
3	470000	2.01	2.29	43.3
3	480000	2.21	2.5	47.2
3	490000	2.2	2.49	47
3	500000	2.38	2.66	50.3
3	510000	2.17	2.46	46.4
3	520000	2.06	2.35	44.3
3	530000	2.79	3.07	58.1
3	540000	3.12	3.4	64.3
3	550000	3.08	3.37	63.6
3	560000	2.74	3.03	57.3
3	570000	3.62	3.91	73.9
3	580000	3.81	4.09	77.4
4	0	4.99	2.86	54
4	-10000	6.45	4.19	79.2
4	-20000	6.31	4.05	76.5
4	-30000	6.97	4.71	89
4	-40000	7.21	4.95	93.6
4	-50000	7.27	5.01	94.7
4	-60000	7.11	4.85	91.7
4	-70000	7.19	4.93	93.2
4	-80000	7.03	4.77	90.2
4	-90000	6.74	4.48	84.7
4	-100000	6.65	4.39	83
4	-110000	7.2	4.94	93.3
4	-120000	6.53	4.27	80.8
4	-130000	6.03	3.77	71.3
4	-140000	6.28	4.02	75.9
4	-150000	6.66	4.4	83.2
4	-160000	6.68	4.42	83.5
4	-170000	5.78	3.52	66.6
4	-180000	6.04	3.78	71.5
4	-190000	6.03	3.77	71.2
4	-200000	5.64	3.38	63.8
4	-210000	5.72	3.46	65.4
4	-220000	6.14	3.88	73.2
4	-230000	6.25	3.99	75.4
4	-240000	6.69	4.43	83.7
4	-250000	6.47	4.21	79.6
4	-260000	6.77	4.51	85.2
4	-270000	6.82	4.56	86.2
4	-280000	6.7	4.44	83.9
4	-290000	5.83	3.57	67.5
4	-300000	6.1	3.84	72.7
4	-310000	6.17	3.91	73.9
4	-320000	5.9	3.64	68.8
4	-330000	5.71	3.45	65.2
4	-340000	5.61	3.35	63.3
4	-350000	5.26	3.01	56.9
4	-360000	4.65	2.66	50.3
4	-370000	4.35	2.49	47.1
4	-380000	4.19	2.4	45.3
4	-390000	4.56	2.61	49.3
4	-400000	5.11	2.93	55.3
4	-410000	4.83	2.76	52.3
4	-420000	4.95	2.83	53.6
4	-430000	5.9	3.64	68.7
4	-440000	5.13	2.94	55.5
4	-450000	4.23	2.42	45.8
4	-460000	4.46	2.55	48.2
4	-470000	4.6	2.64	49.8
4	-480000	4.6	2.64	49.8
4	-490000	4.15	2.38	44.9
4	-500000	4.4	2.52	47.7
4	-510000	4.45	2.55	48.1
4	-520000	4.16	2.38	45
4	-530000	3.87	2.22	41.9
4	-540000	3.86	2.21	41.8
4	-550000	3.69	2.12	40
4	-560000	3.51	2.01	38
4	-570000	3.13	1.8	33.9
4	-580000	4.32	2.48	46.8
4	0	4.2	4.48	84.7
4	10000	5.05	5.33	101
4	20000	5.24	5.53	104
4	30000	4.92	5.21	98.4
4	40000	3.86	4.14	78.3
4	50000	3.93	4.22	79.7
4	60000	4.09	4.37	82.7
4	70000	3.59	3.88	73.2
4	80000	3.27	3.55	67.2
4	90000	3.09	3.38	63.9
4	100000	3.72	4	75.7
4	110000	3.24	3.53	66.7
4	120000	2.97	3.25	61.5
4	130000	3.04	3.33	62.9
4	140000	2.92	3.21	60.6
4	150000	2.44	2.73	51.6
4	160000	2.64	2.93	55.3
4	170000	2.64	2.93	55.3
4	180000	2.93	3.22	60.9
4	190000	2.2	2.49	47
4	200000	1.82	2.11	39.8
4	210000	2.3	2.58	48.8
4	220000	2.54	2.83	53.5
4	230000	2.48	2.76	52.2
4	240000	2.45	2.74	51.7
4	250000	2.2	2.49	47
4	260000	2.41	2.7	51
4	270000	2.42	2.7	51
4	280000	2.26	2.55	48.1
4	290000	2.33	2.62	49.5
4	300000	2.63	2.92	55.2
4	310000	2.72	3	56.7
4	320000	2.43	2.72	51.4
4	330000	1.94	2.22	42
4	340000	2.11	2.4	45.3
4	350000	1.39	1.67	31.6
4	360000	1.21	1.49	28.2
4	370000	1.23	1.52	28.7
4	380000	1.53	1.82	34.3
4	390000	1.56	1.85	34.9
4	400000	1.19	1.48	27.9
4	410000	1.13	1.41	26.7
4	420000	1.65	1.94	36.6
4	430000	1.32	1.61	30.4
4	440000	1.28	1.57	29.7
4	450000	1.8	2.08	39.4
4	460000	2.07	2.36	44.5
4	470000	1.76	2.05	38.7
4	480000	1.79	2.08	39.3
4	490000	2.07	2.36	44.5
4	500000	1.97	2.26	42.7
4	510000	1.92	2.21	41.7
4	520000	1.65	1.94	36.6
4	530000	1.95	2.24	42.3
4	540000	2.22	2.51	47.5
4	550000	2.17	2.45	46.4
4	560000	2.46	2.74	51.9
4	570000	2.52	2.81	53.1
4	580000	2.91	3.19	60.3
5	0	4.2	2.41	45.5
5	-10000	5.25	3.01	56.8
5	-20000	5.27	3.02	57
5	-30000	6.19	3.93	74.3
5	-40000	6.14	3.88	73.4
5	-50000	6.13	3.87	73.2
5	-60000	6.18	3.92	74.1
5	-70000	6.45	4.19	79.2
5	-80000	6.42	4.16	78.6
5	-90000	5.98	3.72	70.3
5	-100000	5.57	3.31	62.5
5	-110000	6.21	3.95	74.6
5	-120000	6.13	3.87	73.2
5	-130000	5.73	3.47	65.5
5	-140000	6.32	4.06	76.6
5	-150000	6.16	3.9	73.7
5	-160000	5.89	3.63	68.6
5	-170000	5.35	3.09	58.3
5	-180000	5.42	3.16	59.7
5	-190000	5.58	3.32	62.8
5	-200000	5.22	2.99	56.5
5	-210000	5.08	2.91	55
5	-220000	5.14	2.94	55.6
5	-230000	5.13	2.94	55.5
5	-240000	5.03	2.88	54.5
5	-250000	4.78	2.74	51.8
5	-260000	4.85	2.78	52.5
5	-270000	5.16	2.96	55.9
5	-280000	4.88	2.8	52.9
5	-290000	4.51	2.58	48.8
5	-300000	4.62	2.65	50.1
5	-310000	4.73	2.71	51.2
5	-320000	4.65	2.66	50.3
5	-330000	4.4	2.52	47.6
5	-340000	4.28	2.45	46.4
5	-350000	4.44	2.54	48
5	-360000	4.16	2.38	45.1
5	-370000	3.77	2.16	40.8
5	-380000	3.26	1.87	35.3
5	-390000	3.61	2.07	39.1
5	-400000	3.66	2.1	39.7
5	-410000	3.1	1.78	33.6
5	-420000	3.11	1.78	33.7
5	-430000	3.87	2.22	41.9
5	-440000	3.25	1.86	35.2
5	-450000	2.79	1.6	30.2
5	-460000	3.42	1.96	37
5	-470000	3.44	1.97	37.3
5	-480000	3.17	1.81	34.3
5	-490000	2.8	1.61	30.3
5	-500000	3.06	1.75	33.1
5	-510000	3.32	1.9	35.9
5	-520000	3.14	1.8	34
5	-530000	2.97	1.7	32.2
5	-540000	3.1	1.77	33.5
5	-550000	3.18	1.82	34.4
5	-560000	2.93	1.68	31.8
5	-570000	2.4	1.38	26
5	-580000	3.71	2.13	40.2
5	0	4.39	4.67	88.3
5	10000	4.67	4.96	93.7
5	20000	4.46	4.74	89.6
5	30000	4.03	4.31	81.5
5	40000	3.5	3.79	71.6
5	50000	3.28	3.57	67.4
5	60000	3.54	3.83	72.4
5	70000	3.18	3.46	65.5
5	80000	2.86	3.15	59.5
5	90000	2.58	2.86	54.1
5	100000	2.96	3.25	61.4
5	110000	2.31	2.6	49.1
5	120000	1.86	2.15	40.6
5	130000	2.21	2.5	47.3
5	140000	2.38	2.66	50.3
5	150000	2.03	2.31	43.7
5	160000	1.81	2.1	39.6
5	170000	1.75	2.04	38.6
5	180000	2.1	2.38	45
5	190000	1.97	2.25	42.6
5	200000	1.48	1.76	33.3
5	210000	1.58	1.86	35.2
5	220000	1.66	1.94	36.7
5	230000	1.77	2.06	38.9
5	240000	1.38	1.67	31.5
5	250000	1.2	1.48	28
5	260000	1.48	1.77	33.4
5	270000	1.19	1.48	27.9
5	280000	0.996	1.28	24.2
5	290000	1.25	1.54	29.1
5	300000	1.45	1.74	32.9
5	310000	1.6	1.89	35.6
5	320000	1.5	1.78	33.7
5	330000	1.75	2.04	38.5
5	340000	2.76	3.05	57.6
5	350000	2.93	3.21	60.7
5	360000	2.7	2.99	56.5
5	370000	2.48	2.77	52.3
5	380000	2.62	2.91	54.9
5	390000	2.28	2.56	48.4
5	400000	1.61	1.89	35.8
5	410000	1.27	1.55	29.4
5	420000	1.9	2.19	41.3
5	430000	1.13	1.42	26.8
5	440000	0.528	0.814	15.4
5	450000	0.659	0.945	17.9
5	460000	0.948	1.23	23.3
5	470000	0.813	1.1	20.8
5	480000	0.831	1.12	21.1
5	490000	1.49	1.78	33.6
5	500000	2.57	2.85	53.9
5	510000	2.59	2.88	54.4
5	520000	2.05	2.34	44.2
5	530000	2.6	2.89	54.6
5	540000	2.69	2.97	56.2
5	550000	2.56	2.85	53.9
5	560000	2.44	2.73	51.5
5	570000	2.4	2.68	50.7
5	580000	2.62	2.9	54.9
6	0	3.91	2.24	42.3
6	-10000	5.19	2.97	56.2
6	-20000	4.94	2.83	53.4
6	-30000	5.58	3.32	62.7
6	-40000	5.95	3.69	69.8
6	-50000	5.92	3.66	69.2
6	-60000	5.86	3.6	68
6	-70000	6.42	4.16	78.7
6	-80000	6.63	4.37	82.5
6	-90000	6.24	3.98	75.2
6	-100000	5.86	3.6	68
6	-110000	6.29	4.03	76.1
6	-120000	5.96	3.7	69.9
6	-130000	5.36	3.1	58.6
6	-140000	5.4	3.14	59.3
6	-150000	5.64	3.38	63.8
6	-160000	5.3	3.04	57.4
6	-170000	4.74	2.72	51.4
6	-180000	4.69	2.69	50.8
6	-190000	4.75	2.72	51.4
6	-200000	4.41	2.53	47.8
6	-210000	4.18	2.4	45.3
6	-220000	4.12	2.36	44.6
6	-230000	4.04	2.31	43.7
6	-240000	4.02	2.3	43.5
6	-250000	3.58	2.05	38.8
6	-260000	3.31	1.89	35.8
6	-270000	3.53	2.02	38.2
6	-280000	3.36	1.92	36.4
6	-290000	2.8	1.6	30.3
6	-300000	2.87	1.64	31.1
6	-310000	2.81	1.61	30.4
6	-320000	2.61	1.49	28.2
6	-330000	2.36	1.35	25.5
6	-340000	2.12	1.21	23
6	-350000	2.4	1.38	26
6	-360000	2.3	1.32	24.9
6	-370000	2.14	1.23	23.2
6	-380000	1.93	1.1	20.9
6	-390000	2.29	1.31	24.8
6	-400000	2.32	1.33	25.1
6	-410000	1.87	1.07	20.3
6	-420000	1.73	0.993	18.8
6	-430000	2.39	1.37	25.8
6	-440000	2.18	1.25	23.6
6	-450000	1.66	0.952	18
6	-460000	1.9	1.09	20.6
6	-470000	2.13	1.22	23.1
6	-480000	2.09	1.2	22.6
6	-490000	1.82	1.04	19.7
6	-500000	1.84	1.06	20
6	-510000	2.19	1.26	23.7
6	-520000	2.29	1.31	24.8
6	-530000	1.94	1.11	21
6	-540000	2.18	1.25	23.6
6	-550000	2.47	1.42	26.8
6	-560000	2.65	1.52	28.7
6	-570000	2.21	1.26	23.9
6	-580000	2.1	1.2	22.8
