rep_num	position	torque	torque_compensated	lbs_compensated
1	0	3.37	3.66	69.2
1	10000	4.57	4.86	91.8
1	20000	4.69	4.98	94
1	30000	3.61	3.89	73.6
1	40000	3.49	3.78	71.4
1	50000	4.32	4.61	87.1
1	60000	4.32	4.6	87
1	70000	3.38	3.67	69.3
1	80000	3.29	3.58	67.6
1	90000	4.24	4.53	85.6
1	100000	3.89	4.17	78.9
1	110000	3.18	3.47	65.6
1	120000	3.15	3.44	65
1	130000	3.91	4.2	79.4
1	140000	3.43	3.72	70.2
1	150000	2.86	3.15	59.5
1	160000	2.94	3.23	61
1	170000	3.49	3.78	71.4
1	180000	3.19	3.48	65.7
1	190000	2.65	2.94	55.5
1	200000	2.35	2.63	49.8
1	210000	2.77	3.06	57.8
1	220000	2.87	3.16	59.7
1	230000	2.12	2.41	45.5
1	240000	1.89	2.18	41.2
1	250000	2.7	2.99	56.5
1	260000	2.94	3.22	60.9
1	270000	2.85	3.14	59.3
1	280000	2.92	3.21	60.6
1	290000	3.51	3.79	71.7
1	300000	3.42	3.71	70
1	310000	2.62	2.91	54.9
1	320000	2.34	2.62	49.6
1	330000	2.42	2.7	51.1
1	340000	2.38	2.67	50.4
1	350000	1.71	2	37.8
1	360000	1.36	1.64	31
1	370000	2.02	2.31	43.6
1	380000	1.96	2.25	42.5
1	390000	1.04	1.33	25.1
1	400000	1.33	1.62	30.6
1	410000	2.69	2.97	56.2
1	420000	3.02	3.3	62.4
1	430000	2.68	2.97	56.1
1	440000	2.8	3.08	58.3
1	450000	2.95	3.23	61.1
1	460000	2.59	2.87	54.3
1	470000	2.42	2.7	51.1
1	480000	2.58	2.86	54.1
1	490000	3.23	3.52	66.5
1	500000	2.76	3.05	57.6
1	510000	2.56	2.85	53.9
1	520000	2.19	2.47	46.8
1	530000	2.68	2.97	56.1
1	540000	2.54	2.82	53.4
1	550000	1.79	2.08	39.3
1	560000	1.82	2.1	39.8
1	570000	2.41	2.69	50.9
1	580000	2.45	2.74	51.7
2	0	3.85	2.21	41.7
2	-10000	4.04	2.31	43.7
2	-20000	4.05	2.32	43.8
2	-30000	4.17	2.39	45.2
2	-40000	4.75	2.72	51.4
2	-50000	4.5	2.58	48.7
2	-60000	3.78	2.16	40.9
2	-70000	4.03	2.31	43.7
2	-80000	4.94	2.83	53.5
2	-90000	4.76	2.73	51.6
2	-100000	4.2	2.4	45.4
2	-110000	4.83	2.77	52.3
2	-120000	5.64	3.38	63.9
2	-130000	5.58	3.32	62.8
2	-140000	5.03	2.88	54.5
2	-150000	5.63	3.37	63.8
2	-160000	6.23	3.97	75
2	-170000	5.94	3.68	69.5
2	-180000	5.7	3.44	65
2	-190000	5.87	3.61	68.2
2	-200000	6.07	3.81	72
2	-210000	5.42	3.16	59.8
2	-220000	4.88	2.79	52.8
2	-230000	5.19	2.98	56.2
2	-240000	5.63	3.37	63.6
2	-250000	5.6	3.34	63.2
2	-260000	5.26	3.01	56.9
2	-270000	5.36	3.1	58.7
2	-280000	5.51	3.25	61.5
2	-290000	5.26	3.01	56.9
2	-300000	4.56	2.61	49.4
2	-310000	4.45	2.55	48.1
2	-320000	4.87	2.79	52.7
2	-330000	4.55	2.61	49.3
2	-340000	4.07	2.33	44.1
2	-350000	3.93	2.25	42.5
2	-360000	4.48	2.57	48.5
2	-370000	4.27	2.44	46.2
2	-380000	3.47	1.99	37.6
2	-390000	3.51	2.01	37.9
2	-400000	4.21	2.41	45.5
2	-410000	3.87	2.22	41.9
2	-420000	3.07	1.76	33.2
2	-430000	3.05	1.75	33.1
2	-440000	3.6	2.06	38.9
2	-450000	3.32	1.9	36
2	-460000	2.56	1.47	27.7
2	-470000	3.07	1.76	33.2
2	-480000	3.45	1.98	37.4
2	-490000	2.91	1.67	31.6
2	-500000	2.52	1.44	27.3
2	-510000	2.81	1.61	30.5
2	-520000	3.12	1.79	33.7
2	-530000	3.03	1.74	32.8
2	-540000	2.31	1.33	25.1
2	-550000	2.5	1.43	27.1
2	-560000	2.8	1.6	30.3
2	-570000	2.87	1.64	31.1
2	-580000	3.41	1.95	36.9
2	0	2.15	2.43	46
2	10000	2.77	3.06	57.8
2	20000	2.96	3.24	61.3
2	30000	2.57	2.86	54
2	40000	2.19	2.48	46.8
2	50000	2.83	3.12	58.9
2	60000	2.86	3.14	59.4
2	70000	1.98	2.27	42.8
2	80000	1.87	2.15	40.7
2	90000	2.88	3.16	59.8
2	100000	2.68	2.97	56.1
2	110000	2.09	2.38	44.9
2	120000	1.98	2.27	42.9
2	130000	2.86	3.14	59.4
2	140000	2.73	3.02	57
2	150000	2.19	2.47	46.8
2	160000	2.46	2.75	51.9
2	170000	3.25	3.54	66.9
2	180000	3.05	3.34	63.1
2	190000	2.42	2.71	51.2
2	200000	2.14	2.43	45.9
2	210000	2.88	3.17	59.9
2	220000	2.76	3.05	57.7
2	230000	1.97	2.25	42.6
2	240000	2.21	2.5	47.2
2	250000	2.71	3	56.6
2	260000	2.7	2.98	56.4
2	270000	2.16	2.45	46.2
2	280000	1.95	2.24	42.3
2	290000	2.67	2.95	55.8
2	300000	2.57	2.86	54
2	310000	1.94	2.22	42
2	320000	1.78	2.06	39
2	330000	2.07	2.35	44.4
2	340000	1.81	2.09	39.6
2	350000	1.58	1.87	35.3
2	360000	1.88	2.17	41
2	370000	2.77	3.05	57.7
2	380000	2.94	3.23	61
2	390000	2.26	2.55	48.1
2	400000	2.28	2.57	48.5
2	410000	2.76	3.05	57.6
2	420000	2.46	2.74	51.8
2	430000	1.75	2.04	38.5
2	440000	1.78	2.07	39.1
2	450000	2.57	2.86	54
2	460000	2.46	2.74	51.9
2	470000	1.97	2.25	42.6
2	480000	2.13	2.41	45.6
2	490000	2.71	3	56.7
2	500000	2.29	2.57	48.6
2	510000	1.89	2.18	41.1
2	520000	1.69	1.97	37.3
2	530000	2.41	2.7	51
2	540000	2.7	2.98	56.4
2	550000	1.99	2.27	43
2	560000	2.1	2.38	45.1
2	570000	2.84	3.13	59.1
2	580000	3.11	3.39	64.2
3	0	4.49	2.57	48.6
3	-10000	4.56	2.61	49.3
3	-20000	4.71	2.7	51
3	-30000	4.66	2.67	50.5
3	-40000	5.11	2.93	55.4
3	-50000	5.19	2.97	56.2
3	-60000	4.64	2.66	50.3
3	-70000	4.62	2.65	50
3	-80000	5.8	3.54	66.9
3	-90000	5.59	3.33	62.9
3	-100000	4.59	2.63	49.7
3	-110000	5.01	2.87	54.3
3	-120000	5.51	3.25	61.5
3	-130000	5.11	2.93	55.4
3	-140000	4.49	2.57	48.6
3	-150000	5.15	2.95	55.8
3	-160000	5.41	3.15	59.5
3	-170000	5.19	2.97	56.2
3	-180000	4.57	2.62	49.5
3	-190000	4.96	2.84	53.7
3	-200000	5.58	3.32	62.7
3	-210000	5.32	3.06	57.9
3	-220000	5.06	2.9	54.7
3	-230000	5.38	3.12	58.9
3	-240000	6.05	3.79	71.6
3	-250000	6.08	3.82	72.2
3	-260000	5.55	3.29	62.1
3	-270000	5.84	3.58	67.7
3	-280000	6.24	3.98	75.2
3	-290000	6.01	3.75	70.8
3	-300000	5.28	3.03	57.2
3	-310000	5.54	3.28	61.9
3	-320000	5.98	3.72	70.2
3	-330000	5.68	3.42	64.6
3	-340000	5.11	2.93	55.4
3	-350000	4.69	2.69	50.8
3	-360000	5.34	3.08	58.2
3	-370000	5.16	2.96	55.9
3	-380000	4.34	2.49	47
3	-390000	4.58	2.62	49.6
3	-400000	5.05	2.89	54.6
3	-410000	4.42	2.53	47.8
3	-420000	3.79	2.17	41.1
3	-430000	4.11	2.35	44.5
3	-440000	4.58	2.62	49.6
3	-450000	4.22	2.42	45.7
3	-460000	3.57	2.04	38.6
3	-470000	4.04	2.31	43.7
3	-480000	4.17	2.39	45.2
3	-490000	3.73	2.14	40.4
3	-500000	3.28	1.88	35.5
3	-510000	3.56	2.04	38.5
3	-520000	3.86	2.21	41.7
3	-530000	3.46	1.98	37.5
3	-540000	3.07	1.76	33.2
3	-550000	3.22	1.85	34.9
3	-560000	3.07	1.76	33.3
3	-570000	2.54	1.45	27.5
3	-580000	2.91	1.67	31.5
3	0	2.51	2.8	52.8
3	10000	2.95	3.23	61.1
3	20000	3.84	4.13	78
3	30000	3.39	3.67	69.4
3	40000	3.45	3.74	70.6
3	50000	4.18	4.47	84.4
3	60000	4.17	4.46	84.2
3	70000	3.5	3.79	71.5
3	80000	3.6	3.88	73.4
3	90000	4.38	4.67	88.2
3	100000	4.27	4.56	86.2
3	110000	3.64	3.92	74.2
3	120000	4.02	4.3	81.3
3	130000	4.89	5.17	97.8
3	140000	4.01	4.3	81.3
3	150000	3.56	3.85	72.7
3	160000	3.86	4.15	78.3
3	170000	4.58	4.87	92
3	180000	3.98	4.27	80.7
3	190000	3.71	3.99	75.4
3	200000	3.7	3.99	75.4
3	210000	3.77	4.06	76.7
3	220000	3.72	4	75.6
3	230000	3.09	3.37	63.7
3	240000	3.18	3.46	65.5
3	250000	3.36	3.64	68.8
3	260000	3.23	3.52	66.5
3	270000	2.8	3.09	58.4
3	280000	3.07	3.36	63.5
3	290000	3.28	3.57	67.4
3	300000	3.41	3.69	69.8
3	310000	2.81	3.09	58.5
3	320000	2.75	3.04	57.4
3	330000	3.17	3.45	65.3
3	340000	2.67	2.96	55.9
3	350000	2.23	2.52	47.6
3	360000	2.35	2.63	49.7
3	370000	2.77	3.05	57.7
3	380000	2.59	2.88	54.4
3	390000	2.02	2.3	43.5
3	400000	1.95	2.24	42.3
3	410000	2.77	3.05	57.7
3	420000	2.17	2.46	46.5
3	430000	1.68	1.97	37.1
3	440000	1.7	1.98	37.5
3	450000	2.47	2.75	52
3	460000	1.78	2.07	39
3	470000	1.51	1.8	34
3	480000	1.87	2.16	40.8
3	490000	2.33	2.62	49.5
3	500000	1.94	2.22	42
3	510000	1.64	1.93	36.4
3	520000	1.67	1.95	36.9
3	530000	2.2	2.49	47.1
3	540000	2.04	2.33	44
3	550000	1.3	1.59	30
3	560000	1.59	1.88	35.5
3	570000	2.45	2.74	51.8
3	580000	2.62	2.9	54.9
4	0	3.99	2.29	43.2
4	-10000	4.74	2.71	51.3
4	-20000	4.55	2.61	49.3
4	-30000	4.47	2.56	48.4
4	-40000	4.96	2.84	53.7
4	-50000	4.89	2.8	53
4	-60000	4.41	2.53	47.8
4	-70000	4.58	2.62	49.6
4	-80000	5.15	2.95	55.7
4	-90000	4.82	2.76	52.2
4	-100000	4.15	2.38	45
4	-110000	4.44	2.54	48.1
4	-120000	4.99	2.86	54
4	-130000	4.68	2.68	50.7
4	-140000	4.26	2.44	46.2
4	-150000	5.17	2.96	56
4	-160000	5.37	3.11	58.8
4	-170000	4.68	2.68	50.6
4	-180000	4.26	2.44	46.1
4	-190000	4.42	2.53	47.8
4	-200000	4.63	2.65	50.1
4	-210000	4.15	2.38	44.9
4	-220000	3.71	2.12	40.1
4	-230000	3.85	2.2	41.6
4	-240000	4.44	2.54	48.1
4	-250000	4.01	2.3	43.5
4	-260000	3.8	2.18	41.2
4	-270000	4.08	2.34	44.2
4	-280000	4.46	2.56	48.3
4	-290000	4.17	2.39	45.2
4	-300000	3.65	2.09	39.5
4	-310000	3.8	2.17	41.1
4	-320000	4.25	2.43	46
4	-330000	3.84	2.2	41.6
4	-340000	3.68	2.11	39.8
4	-350000	3.77	2.16	40.8
4	-360000	4.27	2.45	46.3
4	-370000	4.38	2.51	47.5
4	-380000	3.46	1.98	37.4
4	-390000	3.59	2.06	38.9
4	-400000	4.06	2.32	43.9
4	-410000	3.3	1.89	35.7
4	-420000	2.77	1.58	29.9
4	-430000	3.24	1.86	35.1
4	-440000	3.85	2.21	41.7
4	-450000	3.43	1.97	37.2
4	-460000	2.7	1.55	29.3
4	-470000	3.32	1.9	36
4	-480000	3.78	2.16	40.9
4	-490000	3.28	1.88	35.5
4	-500000	2.84	1.63	30.7
4	-510000	3.02	1.73	32.7
4	-520000	3.29	1.88	35.6
4	-530000	2.95	1.69	31.9
4	-540000	2.45	1.4	26.5
4	-550000	2.75	1.58	29.8
4	-560000	2.89	1.66	31.3
4	-570000	2.59	1.48	28
4	-580000	2.47	1.41	26.7
4	0	1.06	1.34	25.4
4	10000	1.14	1.43	26.9
4	20000	2.04	2.32	43.9
4	30000	1.97	2.25	42.6
4	40000	2.15	2.44	46
4	50000	2.76	3.05	57.6
4	60000	3.32	3.61	68.2
4	70000	2.76	3.05	57.6
4	80000	2.61	2.9	54.8
4	90000	3.67	3.96	74.9
4	100000	3.15	3.44	65
4	110000	2.32	2.61	49.3
4	120000	2.61	2.89	54.7
4	130000	3.12	3.41	64.4
4	140000	2.81	3.09	58.5
4	150000	2.33	2.62	49.5
4	160000	2.66	2.94	55.6
4	170000	3.23	3.51	66.4
4	180000	2.93	3.22	60.8
4	190000	2.84	3.13	59.1
4	200000	3.11	3.39	64.2
4	210000	3.35	3.63	68.7
4	220000	3.15	3.44	64.9
4	230000	2.04	2.33	44
4	240000	2.16	2.45	46.3
4	250000	2.38	2.66	50.3
4	260000	2.06	2.35	44.4
4	270000	1.43	1.72	32.5
4	280000	1.39	1.67	31.6
4	290000	1.83	2.12	40
4	300000	1.65	1.94	36.6
4	310000	1.18	1.47	27.7
4	320000	1.37	1.66	31.3
4	330000	1.88	2.17	41
4	340000	1.78	2.07	39.1
4	350000	1.4	1.69	31.9
4	360000	1.49	1.77	33.5
4	370000	1.85	2.13	40.3
4	380000	2.04	2.32	43.9
4	390000	0.931	1.22	23
4	400000	0.813	1.1	20.8
4	410000	1.6	1.88	35.6
4	420000	1.17	1.46	27.5
4	430000	0.578	0.864	16.3
4	440000	0.624	0.91	17.2
4	450000	1.27	1.55	29.3
4	460000	1.18	1.46	27.6
4	470000	0.683	0.969	18.3
4	480000	0.88	1.17	22
4	490000	1.65	1.93	36.5
4	500000	1.44	1.72	32.5
4	510000	1.26	1.54	29.2
4	520000	1.42	1.7	32.1
4	530000	1.95	2.23	42.2
4	540000	1.9	2.19	41.4
4	550000	1.5	1.78	33.7
4	560000	1.66	1.95	36.8
4	570000	2.5	2.79	52.7
4	580000	2.52	2.81	53.1
5	0	4.08	2.34	44.2
5	-10000	4.71	2.7	51
5	-20000	4.56	2.61	49.4
5	-30000	4.64	2.66	50.3
5	-40000	5.23	3	56.6
5	-50000	5.41	3.15	59.5
5	-60000	4.7	2.7	50.9
5	-70000	4.79	2.74	51.8
5	-80000	5.38	3.12	58.9
5	-90000	5.5	3.24	61.3
5	-100000	4.85	2.78	52.6
5	-110000	5.12	2.93	55.5
5	-120000	5.54	3.28	62
5	-130000	5.2	2.98	56.3
5	-140000	4.47	2.56	48.4
5	-150000	4.95	2.84	53.6
5	-160000	5.3	3.04	57.5
5	-170000	4.99	2.86	54
5	-180000	4.93	2.83	53.4
5	-190000	5.3	3.04	57.5
5	-200000	5.35	3.09	58.5
5	-210000	4.77	2.74	51.7
5	-220000	4.31	2.47	46.7
5	-230000	4.71	2.7	51
5	-240000	5.02	2.87	54.3
5	-250000	4.59	2.63	49.7
5	-260000	4.38	2.51	47.4
5	-270000	4.66	2.67	50.5
5	-280000	4.89	2.8	52.9
5	-290000	4.35	2.49	47.1
5	-300000	3.86	2.21	41.7
5	-310000	3.95	2.26	42.8
5	-320000	4.38	2.51	47.5
5	-330000	4.22	2.42	45.7
5	-340000	3.61	2.07	39.1
5	-350000	3.42	1.96	37
5	-360000	4.03	2.31	43.7
5	-370000	4.12	2.36	44.6
5	-380000	3.3	1.89	35.8
5	-390000	3.34	1.92	36.2
5	-400000	3.9	2.23	42.2
5	-410000	3.63	2.08	39.3
5	-420000	2.71	1.55	29.3
5	-430000	3	1.72	32.5
5	-440000	3.55	2.03	38.4
5	-450000	3.07	1.76	33.3
5	-460000	2.36	1.35	25.6
5	-470000	2.86	1.64	30.9
5	-480000	3.16	1.81	34.2
5	-490000	3	1.72	32.5
5	-500000	2.4	1.37	26
5	-510000	2.55	1.46	27.6
5	-520000	3.07	1.76	33.3
5	-530000	2.83	1.62	30.6
5	-540000	2.26	1.29	24.5
5	-550000	2.49	1.42	26.9
5	-560000	2.64	1.51	28.5
5	-570000	2.2	1.26	23.8
5	-580000	2.29	1.31	24.8
5	0	0.987	1.27	24.1
5	10000	2.05	2.33	44.1
5	20000	2.8	3.09	58.3
5	30000	2.43	2.72	51.4
5	40000	2.3	2.59	48.9
5	50000	3.05	3.34	63.1
5	60000	2.98	3.27	61.8
5	70000	2.16	2.45	46.2
5	80000	1.99	2.28	43.1
5	90000	2.69	2.98	56.3
5	100000	2.48	2.76	52.2
5	110000	1.81	2.1	39.6
5	120000	1.75	2.03	38.4
5	130000	2.35	2.63	49.7
5	140000	2.1	2.39	45.1
5	150000	1.57	1.86	35.1
5	160000	1.44	1.72	32.6
5	170000	2.01	2.3	43.5
5	180000	1.82	2.11	39.8
5	190000	1.63	1.91	36.1
5	200000	1.67	1.96	37
5	210000	2.23	2.51	47.5
5	220000	2.18	2.46	46.6
5	230000	1.32	1.6	30.3
5	240000	1.39	1.68	31.7
5	250000	2.02	2.31	43.7
5	260000	1.97	2.26	42.7
5	270000	1.43	1.72	32.5
5	280000	1.45	1.74	32.9
5	290000	2.08	2.36	44.6
5	300000	2.02	2.3	43.5
5	310000	1.27	1.55	29.4
5	320000	1.42	1.7	32.2
5	330000	2.08	2.36	44.6
5	340000	1.99	2.28	43.1
5	350000	1.42	1.7	32.2
5	360000	1.23	1.51	28.6
5	370000	1.87	2.16	40.8
5	380000	2.17	2.45	46.3
5	390000	1.46	1.75	33
5	400000	1.43	1.71	32.4
5	410000	1.98	2.26	42.7
5	420000	1.75	2.04	38.6
5	430000	1	1.29	24.4
5	440000	0.861	1.15	21.7
5	450000	1.58	1.86	35.2
5	460000	1.59	1.88	35.5
5	470000	1.02	1.31	24.7
5	480000	0.999	1.29	24.3
5	490000	1.6	1.89	35.7
5	500000	1.03	1.32	24.9
5	510000	0.97	1.26	23.7
5	520000	0.741	1.03	19.4
5	530000	1.48	1.77	33.4
5	540000	1.6	1.89	35.7
5	550000	0.887	1.17	22.2
5	560000	1.5	1.79	33.8
5	570000	2.36	2.65	50
5	580000	2.48	2.77	52.4
6	0	3.9	2.24	42.3
6	-10000	3.95	2.26	42.7
6	-20000	4.36	2.5	47.2
6	-30000	4.37	2.51	47.4
6	-40000	5.02	2.88	54.4
6	-50000	5.1	2.92	55.2
6	-60000	4.46	2.56	48.3
6	-70000	4.31	2.47	46.7
6	-80000	4.94	2.83	53.5
6	-90000	5.03	2.88	54.5
6	-100000	4.37	2.5	47.3
6	-110000	4.49	2.57	48.6
6	-120000	5.21	2.99	56.4
6	-130000	4.94	2.83	53.5
6	-140000	4.16	2.39	45.1
6	-150000	4.53	2.6	49.1
6	-160000	4.75	2.72	51.4
6	-170000	4.4	2.52	47.6
6	-180000	3.94	2.26	42.6
6	-190000	4.29	2.46	46.4
6	-200000	4.57	2.62	49.5
6	-210000	4.34	2.49	47
6	-220000	3.73	2.14	40.4
6	-230000	3.81	2.18	41.2
6	-240000	4.31	2.47	46.7
6	-250000	4.15	2.38	44.9
6	-260000	3.62	2.07	39.2
6	-270000	3.7	2.12	40
6	-280000	3.98	2.28	43.1
6	-290000	3.76	2.16	40.7
6	-300000	2.97	1.7	32.2
6	-310000	3.13	1.8	33.9
6	-320000	3.67	2.1	39.7
6	-330000	3.4	1.95	36.9
6	-340000	2.8	1.6	30.3
6	-350000	2.82	1.62	30.5
6	-360000	3.38	1.94	36.6
6	-370000	3.46	1.98	37.5
6	-380000	2.72	1.56	29.5
6	-390000	2.95	1.69	31.9
6	-400000	3.63	2.08	39.3
6	-410000	3.3	1.89	35.8
6	-420000	2.71	1.55	29.4
6	-430000	2.96	1.7	32.1
6	-440000	3.51	2.01	38
6	-450000	3.07	1.76	33.3
6	-460000	2.3	1.31	24.8
6	-470000	2.6	1.49	28.1
6	-480000	3.05	1.75	33
6	-490000	2.57	1.47	27.8
6	-500000	2.1	1.2	22.8
6	-510000	2.28	1.31	24.7
6	-520000	2.69	1.54	29.1
6	-530000	2.62	1.5	28.4
6	-540000	1.99	1.14	21.6
6	-550000	2.4	1.38	26
6	-560000	2.54	1.46	27.5
6	-570000	2.24	1.29	24.3
6	-580000	2.2	1.26	23.8
