rep_num	position	torque	torque_compensated	lbs_compensated
1	0	2.93	3.21	60.7
1	10000	4.42	4.7	88.9
1	20000	0.891	1.18	22.2
1	30000	1.77	2.06	38.9
1	40000	0.96	1.25	23.6
1	50000	0.781	1.07	20.2
1	60000	0.43	0.716	13.5
1	70000	0.57	0.856	16.2
1	80000	1.44	1.72	32.5
1	90000	2	2.29	43.3
1	100000	2.76	3.05	57.6
1	110000	4.17	4.45	84.2
1	120000	4.23	4.52	85.4
1	130000	3.57	3.85	72.9
1	140000	3.36	3.65	68.9
1	150000	4.33	4.62	87.3
1	160000	4.11	4.39	83
1	170000	2.8	3.09	58.4
1	180000	2.86	3.15	59.5
1	190000	4.48	4.76	90
1	200000	4.08	4.37	82.5
1	210000	2.5	2.78	52.6
1	220000	2.78	3.06	57.9
1	230000	3.67	3.95	74.7
1	240000	3.68	3.96	74.9
1	250000	2.03	2.31	43.7
1	260000	1.95	2.24	42.3
1	270000	3.12	3.4	64.3
1	280000	2.77	3.05	57.7
1	290000	1.87	2.15	40.7
1	300000	2.41	2.69	50.9
1	310000	3.68	3.97	75
1	320000	3.41	3.7	69.9
1	330000	0.994	1.28	24.2
1	340000	0.591	0.877	16.6
1	350000	1.69	1.98	37.4
1	360000	1.46	1.75	33
1	370000	1.12	1.4	26.5
1	380000	1.21	1.5	28.3
1	390000	2.36	2.65	50.1
1	400000	2.31	2.6	49.1
1	410000	1.21	1.5	28.4
1	420000	1.25	1.54	29.1
1	430000	2.49	2.77	52.4
1	440000	2.18	2.47	46.7
1	450000	1.31	1.6	30.2
1	460000	1.49	1.78	33.7
1	470000	2.92	3.21	60.6
1	480000	3.04	3.32	62.8
1	490000	1.58	1.86	35.2
1	500000	1.36	1.64	31
1	510000	2.84	3.13	59.2
1	520000	2.45	2.74	51.7
1	530000	0.846	1.13	21.4
1	540000	0.701	0.987	18.7
1	550000	2.25	2.54	48
1	560000	2.67	2.95	55.8
1	570000	0.963	1.25	23.6
1	580000	1.36	1.64	31
2	0	2.88	1.65	31.2
2	-10000	5.51	3.25	61.5
2	-20000	6.08	3.82	72.1
2	-30000	5.93	3.67	69.4
2	-40000	5.25	3.01	56.9
2	-50000	6.31	4.05	76.6
2	-60000	7.22	4.96	93.7
2	-70000	6.39	4.13	78
2	-80000	5.3	3.04	57.4
2	-90000	5.96	3.7	70
2	-100000	7	4.74	89.6
2	-110000	6.89	4.63	87.6
2	-120000	5.53	3.27	61.8
2	-130000	5.98	3.72	70.3
2	-140000	7.05	4.79	90.5
2	-150000	6.59	4.33	81.9
2	-160000	5.37	3.11	58.7
2	-170000	5.83	3.57	67.5
2	-180000	7	4.74	89.5
2	-190000	6.5	4.24	80.2
2	-200000	5.61	3.35	63.4
2	-210000	5.82	3.56	67.4
2	-220000	7.12	4.86	91.9
2	-230000	6.35	4.09	77.3
2	-240000	5.08	2.91	55
2	-250000	5.86	3.6	68
2	-260000	6.86	4.6	86.9
2	-270000	6.28	4.02	76
2	-280000	5.14	2.94	55.6
2	-290000	5.35	3.09	58.5
2	-300000	6.5	4.24	80.2
2	-310000	5.99	3.73	70.4
2	-320000	4.92	2.82	53.3
2	-330000	5.31	3.05	57.7
2	-340000	6.27	4.01	75.8
2	-350000	5.48	3.22	60.9
2	-360000	4.22	2.42	45.7
2	-370000	4.99	2.86	54
2	-380000	5.75	3.49	65.9
2	-390000	5	2.86	54.1
2	-400000	4.12	2.36	44.6
2	-410000	4.56	2.61	49.4
2	-420000	5.44	3.18	60.2
2	-430000	5.42	3.16	59.7
2	-440000	4.03	2.31	43.7
2	-450000	4.17	2.39	45.1
2	-460000	5.24	3	56.8
2	-470000	5.03	2.88	54.5
2	-480000	3.64	2.08	39.4
2	-490000	3.71	2.13	40.2
2	-500000	4.88	2.79	52.8
2	-510000	4.53	2.6	49.1
2	-520000	2.99	1.71	32.3
2	-530000	3.22	1.84	34.8
2	-540000	4.54	2.6	49.1
2	-550000	4	2.29	43.3
2	-560000	3.65	2.09	39.6
2	-570000	3.15	1.8	34.1
2	-580000	3.49	2	37.8
2	0	1.92	2.21	41.8
2	10000	4.27	4.55	86.1
2	20000	2.92	3.21	60.6
2	30000	4.34	4.63	87.4
2	40000	4.03	4.31	81.5
2	50000	2.73	3.01	56.9
2	60000	2.73	3.02	57
2	70000	3.5	3.79	71.6
2	80000	3.17	3.45	65.3
2	90000	2.27	2.56	48.4
2	100000	2.38	2.67	50.4
2	110000	3.75	4.03	76.2
2	120000	3.48	3.77	71.2
2	130000	2.58	2.87	54.2
2	140000	2.63	2.92	55.2
2	150000	3.45	3.74	70.7
2	160000	3.54	3.83	72.4
2	170000	2.26	2.54	48.1
2	180000	2.24	2.52	47.7
2	190000	3.23	3.52	66.5
2	200000	2.57	2.85	53.9
2	210000	1.99	2.28	43.1
2	220000	2.07	2.36	44.6
2	230000	2.92	3.21	60.6
2	240000	2.54	2.83	53.4
2	250000	1.7	1.99	37.5
2	260000	2.01	2.3	43.4
2	270000	3.34	3.62	68.5
2	280000	3.53	3.82	72.1
2	290000	2.72	3.01	56.9
2	300000	2.61	2.9	54.8
2	310000	3.77	4.05	76.6
2	320000	3.68	3.96	74.9
2	330000	2.03	2.32	43.8
2	340000	2.13	2.42	45.7
2	350000	3.35	3.64	68.8
2	360000	2.75	3.03	57.3
2	370000	1.65	1.93	36.5
2	380000	2.11	2.39	45.2
2	390000	3.12	3.4	64.3
2	400000	2.52	2.81	53
2	410000	1.57	1.86	35.1
2	420000	1.87	2.16	40.8
2	430000	3.25	3.54	66.9
2	440000	3	3.29	62.1
2	450000	2.18	2.47	46.6
2	460000	2.17	2.46	46.4
2	470000	3.42	3.71	70.1
2	480000	2.95	3.23	61.1
2	490000	1.91	2.2	41.5
2	500000	1.88	2.16	40.9
2	510000	2.86	3.15	59.5
2	520000	2.34	2.63	49.7
2	530000	1.12	1.4	26.5
2	540000	1.03	1.32	24.9
2	550000	2.07	2.36	44.5
2	560000	2.64	2.93	55.3
2	570000	1.06	1.35	25.5
2	580000	1.26	1.55	29.2
3	0	2.44	1.4	26.4
3	-10000	5.56	3.3	62.4
3	-20000	6.49	4.23	80
3	-30000	6.44	4.18	79
3	-40000	5.58	3.32	62.7
3	-50000	6.77	4.51	85.2
3	-60000	7.93	5.67	107
3	-70000	7.59	5.33	101
3	-80000	7	4.74	89.7
3	-90000	7.85	5.59	106
3	-100000	8.38	6.12	116
3	-110000	8.58	6.32	119
3	-120000	7.44	5.18	98
3	-130000	7.64	5.38	102
3	-140000	8.69	6.43	122
3	-150000	8.45	6.19	117
3	-160000	6.93	4.67	88.2
3	-170000	7.48	5.22	98.6
3	-180000	8.48	6.22	118
3	-190000	7.51	5.25	99.3
3	-200000	6.24	3.98	75.2
3	-210000	6.63	4.37	82.5
3	-220000	7.8	5.54	105
3	-230000	7.13	4.87	92.1
3	-240000	5.85	3.59	67.9
3	-250000	6.52	4.26	80.6
3	-260000	8	5.74	109
3	-270000	7.78	5.52	104
3	-280000	6.64	4.38	82.9
3	-290000	7.23	4.97	93.9
3	-300000	8.45	6.19	117
3	-310000	8.1	5.84	110
3	-320000	6.85	4.59	86.7
3	-330000	7.19	4.93	93.2
3	-340000	7.89	5.63	106
3	-350000	7.35	5.09	96.2
3	-360000	5.77	3.51	66.3
3	-370000	6.49	4.23	79.9
3	-380000	7.01	4.75	89.8
3	-390000	6.28	4.02	75.9
3	-400000	5.21	2.98	56.4
3	-410000	5.48	3.22	60.9
3	-420000	6.28	4.02	76
3	-430000	5.68	3.42	64.7
3	-440000	4.58	2.62	49.5
3	-450000	4.64	2.66	50.2
3	-460000	5.63	3.37	63.6
3	-470000	5.31	3.05	57.6
3	-480000	3.99	2.28	43.2
3	-490000	4.19	2.4	45.4
3	-500000	5.37	3.11	58.9
3	-510000	4.99	2.86	54
3	-520000	3.6	2.06	39
3	-530000	4.2	2.41	45.5
3	-540000	5.31	3.05	57.7
3	-550000	4.69	2.69	50.8
3	-560000	4.47	2.56	48.4
3	-570000	4.16	2.39	45.1
3	-580000	4.8	2.75	51.9
3	0	3.54	3.83	72.4
3	10000	4.39	4.68	88.4
3	20000	2.83	3.12	58.9
3	30000	4.54	4.82	91.2
3	40000	4.11	4.39	83
3	50000	2.75	3.04	57.5
3	60000	2.72	3.01	56.9
3	70000	3.7	3.98	75.3
3	80000	3.46	3.75	70.8
3	90000	2.08	2.36	44.7
3	100000	2.21	2.49	47.1
3	110000	3.06	3.35	63.2
3	120000	2.33	2.61	49.4
3	130000	0.398	0.684	12.9
3	140000	0.295	0.581	11
3	150000	1.59	1.87	35.4
3	160000	2.91	3.2	60.4
3	170000	2.85	3.14	59.3
3	180000	3.33	3.61	68.3
3	190000	5.3	5.58	105
3	200000	5.14	5.43	103
3	210000	4.13	4.42	83.5
3	220000	3.83	4.12	77.9
3	230000	4.67	4.96	93.7
3	240000	4.21	4.5	85
3	250000	2.91	3.2	60.4
3	260000	2.81	3.1	58.6
3	270000	3.98	4.27	80.7
3	280000	3.63	3.91	73.9
3	290000	2.23	2.52	47.6
3	300000	1.96	2.25	42.5
3	310000	3.21	3.5	66.1
3	320000	2.94	3.22	61
3	330000	1.59	1.87	35.4
3	340000	1.64	1.93	36.4
3	350000	3.14	3.42	64.7
3	360000	2.74	3.03	57.2
3	370000	1.51	1.8	34
3	380000	1.91	2.2	41.5
3	390000	2.97	3.26	61.6
3	400000	2.54	2.83	53.4
3	410000	1.43	1.71	32.4
3	420000	1.75	2.03	38.4
3	430000	2.98	3.27	61.8
3	440000	2.68	2.97	56.1
3	450000	1.64	1.92	36.3
3	460000	1.54	1.82	34.4
3	470000	2.8	3.08	58.3
3	480000	2.16	2.45	46.2
3	490000	1.23	1.52	28.7
3	500000	1.43	1.71	32.4
3	510000	2.75	3.03	57.3
3	520000	2.03	2.31	43.7
3	530000	0.885	1.17	22.1
3	540000	0.872	1.16	21.9
3	550000	2.1	2.39	45.2
3	560000	2.32	2.6	49.2
3	570000	0.375	0.661	12.5
3	580000	0.611	0.897	17
4	0	2.42	1.38	26.2
4	-10000	5.52	3.26	61.5
4	-20000	6.43	4.17	78.9
4	-30000	6.29	4.03	76.2
4	-40000	5.52	3.26	61.6
4	-50000	6.29	4.03	76.2
4	-60000	7.24	4.98	94.1
4	-70000	6.74	4.48	84.6
4	-80000	5.93	3.67	69.4
4	-90000	6.25	3.99	75.4
4	-100000	7.12	4.86	91.9
4	-110000	6.77	4.51	85.3
4	-120000	5.62	3.36	63.6
4	-130000	5.96	3.7	70
4	-140000	7.34	5.08	96.1
4	-150000	7.02	4.76	90
4	-160000	5.87	3.61	68.2
4	-170000	6.36	4.1	77.5
4	-180000	7.56	5.3	100
4	-190000	6.91	4.65	87.8
4	-200000	5.81	3.55	67.1
4	-210000	6.25	3.99	75.4
4	-220000	7.28	5.02	94.9
4	-230000	6.99	4.73	89.5
4	-240000	5.86	3.6	68.1
4	-250000	6.08	3.82	72.1
4	-260000	7.12	4.86	91.9
4	-270000	6.76	4.5	85.1
4	-280000	5.47	3.21	60.7
4	-290000	5.77	3.51	66.3
4	-300000	6.57	4.31	81.5
4	-310000	5.94	3.68	69.6
4	-320000	5.04	2.89	54.5
4	-330000	5.52	3.26	61.7
4	-340000	6.26	4	75.6
4	-350000	5.42	3.16	59.7
4	-360000	4.18	2.4	45.3
4	-370000	5.14	2.94	55.6
4	-380000	6.04	3.78	71.5
4	-390000	5.71	3.45	65.2
4	-400000	4.58	2.62	49.6
4	-410000	4.94	2.83	53.5
4	-420000	5.84	3.58	67.7
4	-430000	5.64	3.38	64
4	-440000	4.84	2.77	52.4
4	-450000	6.12	3.86	72.9
4	-460000	7.24	4.98	94.1
4	-470000	7.65	5.39	102
4	-480000	6.61	4.35	82.2
4	-490000	6.76	4.5	85
4	-500000	7.9	5.64	107
4	-510000	7.52	5.26	99.5
4	-520000	5.91	3.65	69
4	-530000	6.08	3.82	72.2
4	-540000	6.98	4.72	89.3
4	-550000	6.06	3.8	71.9
4	-560000	5.65	3.39	64
4	-570000	5.25	3.01	56.8
4	-580000	5.83	3.57	67.5
4	0	4.66	4.95	93.5
4	10000	5.5	5.8	110
4	20000	4.21	4.5	85
4	30000	5.53	5.83	110
4	40000	4.85	5.14	97.1
4	50000	3.39	3.67	69.4
4	60000	3.58	3.86	73
4	70000	4.42	4.71	89
4	80000	3.87	4.16	78.6
4	90000	2.24	2.53	47.8
4	100000	2.09	2.37	44.9
4	110000	3.29	3.57	67.5
4	120000	2.89	3.17	60
4	130000	1.76	2.05	38.7
4	140000	2.22	2.5	47.3
4	150000	3.37	3.65	69
4	160000	3.83	4.11	77.7
4	170000	2.56	2.84	53.8
4	180000	2.11	2.4	45.3
4	190000	3.48	3.76	71.1
4	200000	3.02	3.31	62.5
4	210000	1.49	1.78	33.6
4	220000	1.3	1.59	30
4	230000	2.37	2.65	50.2
4	240000	2.42	2.71	51.2
4	250000	1.3	1.58	29.9
4	260000	1.55	1.84	34.7
4	270000	3.01	3.29	62.2
4	280000	2.82	3.1	58.7
4	290000	1.59	1.88	35.5
4	300000	1.79	2.08	39.3
4	310000	2.77	3.06	57.8
4	320000	2.93	3.22	60.8
4	330000	1.67	1.95	36.9
4	340000	1.59	1.88	35.5
4	350000	2.86	3.14	59.4
4	360000	2.7	2.99	56.5
4	370000	1.36	1.65	31.2
4	380000	1.64	1.93	36.4
4	390000	2.62	2.91	54.9
4	400000	2.36	2.65	50
4	410000	1.19	1.48	27.9
4	420000	1.69	1.98	37.4
4	430000	2.53	2.82	53.2
4	440000	2.58	2.87	54.2
4	450000	1.7	1.99	37.6
4	460000	1.35	1.64	31
4	470000	2.69	2.97	56.2
4	480000	2.88	3.16	59.8
4	490000	1.72	2	37.9
4	500000	1.49	1.77	33.5
4	510000	2.86	3.15	59.5
4	520000	2.69	2.97	56.2
4	530000	1.62	1.91	36.1
4	540000	1.3	1.59	30
4	550000	3.03	3.32	62.7
4	560000	3.21	3.49	66
4	570000	1.34	1.62	30.7
4	580000	1.5	1.78	33.7
5	0	3.03	1.73	32.8
5	-10000	5.58	3.32	62.7
5	-20000	6.37	4.11	77.6
5	-30000	6.3	4.04	76.3
5	-40000	5.87	3.61	68.3
5	-50000	7.3	5.04	95.3
5	-60000	8.11	5.85	111
5	-70000	8.06	5.8	110
5	-80000	7.53	5.27	99.6
5	-90000	7.63	5.37	102
5	-100000	8.57	6.31	119
5	-110000	8.13	5.87	111
5	-120000	7.1	4.84	91.5
5	-130000	7.51	5.25	99.3
5	-140000	8.25	5.99	113
5	-150000	7.85	5.59	106
5	-160000	6.57	4.31	81.4
5	-170000	6.72	4.46	84.2
5	-180000	8.13	5.87	111
5	-190000	7.67	5.41	102
5	-200000	6.15	3.89	73.6
5	-210000	6.54	4.28	80.9
5	-220000	7.62	5.36	101
5	-230000	6.85	4.59	86.7
5	-240000	5.47	3.21	60.7
5	-250000	6.06	3.8	71.8
5	-260000	7.01	4.75	89.8
5	-270000	6.48	4.22	79.8
5	-280000	5.79	3.53	66.7
5	-290000	6.54	4.28	80.9
5	-300000	7.5	5.24	99
5	-310000	7.17	4.91	92.8
5	-320000	5.84	3.58	67.7
5	-330000	6.4	4.14	78.3
5	-340000	7.73	5.47	103
5	-350000	7.39	5.13	96.9
5	-360000	6.28	4.02	76
5	-370000	7	4.74	89.6
5	-380000	7.82	5.56	105
5	-390000	7.68	5.42	102
5	-400000	7.07	4.81	90.9
5	-410000	7.79	5.53	105
5	-420000	8.65	6.39	121
5	-430000	8.75	6.49	123
5	-440000	6.95	4.69	88.7
5	-450000	6.94	4.68	88.4
5	-460000	8.04	5.78	109
5	-470000	7.62	5.36	101
5	-480000	5.69	3.43	64.8
5	-490000	5.9	3.64	68.7
5	-500000	6.69	4.43	83.8
5	-510000	5.64	3.38	63.9
5	-520000	4.55	2.6	49.2
5	-530000	5.1	2.92	55.2
5	-540000	5.72	3.46	65.4
5	-550000	4.84	2.77	52.4
5	-560000	4.36	2.5	47.2
5	-570000	4.06	2.32	43.9
5	-580000	5.16	2.96	55.9
5	0	4.37	4.66	88
5	10000	4.14	4.43	83.7
5	20000	2.32	2.6	49.2
5	30000	3.77	4.05	76.6
5	40000	3.45	3.74	70.7
5	50000	2.1	2.39	45.1
5	60000	2.48	2.76	52.2
5	70000	3.32	3.61	68.2
5	80000	2.67	2.96	55.9
5	90000	1.66	1.95	36.8
5	100000	1.73	2.01	38.1
5	110000	2.59	2.88	54.4
5	120000	2.73	3.01	56.9
5	130000	1.66	1.95	36.8
5	140000	1.28	1.57	29.7
5	150000	2.28	2.57	48.6
5	160000	2.17	2.45	46.4
5	170000	1.09	1.37	25.9
5	180000	1.17	1.45	27.5
5	190000	2.57	2.86	54.1
5	200000	2.22	2.51	47.4
5	210000	1.09	1.38	26
5	220000	1.19	1.47	27.8
5	230000	2.52	2.8	53
5	240000	2.48	2.76	52.2
5	250000	1.12	1.41	26.6
5	260000	1.21	1.49	28.2
5	270000	2.61	2.9	54.8
5	280000	2.28	2.56	48.4
5	290000	1.05	1.34	25.3
5	300000	0.988	1.27	24.1
5	310000	2.2	2.48	46.9
5	320000	2.06	2.35	44.4
5	330000	0.605	0.891	16.8
5	340000	0.871	1.16	21.9
5	350000	2.4	2.69	50.8
5	360000	2.18	2.47	46.6
5	370000	1.03	1.31	24.8
5	380000	0.782	1.07	20.2
5	390000	1.98	2.27	42.9
5	400000	1.84	2.13	40.2
5	410000	0.662	0.948	17.9
5	420000	0.842	1.13	21.3
5	430000	2.11	2.39	45.3
5	440000	1.73	2.02	38.1
5	450000	0.852	1.14	21.5
5	460000	0.953	1.24	23.4
5	470000	2.11	2.4	45.4
5	480000	1.83	2.12	40
5	490000	0.932	1.22	23
5	500000	0.66	0.946	17.9
5	510000	2.09	2.38	44.9
5	520000	1.96	2.25	42.5
5	530000	0.776	1.06	20.1
5	540000	0.732	1.02	19.2
5	550000	2.02	2.31	43.6
5	560000	2.54	2.82	53.3
5	570000	0.639	0.925	17.5
5	580000	1.17	1.45	27.5
6	0	2.32	1.33	25.1
6	-10000	5.82	3.56	67.3
6	-20000	6.54	4.28	80.9
6	-30000	6.13	3.87	73.1
6	-40000	5.13	2.94	55.5
6	-50000	6.45	4.19	79.1
6	-60000	7.12	4.86	91.9
6	-70000	6.98	4.72	89.2
6	-80000	6.24	3.98	75.3
6	-90000	6.58	4.32	81.7
6	-100000	7.43	5.17	97.7
6	-110000	7.09	4.83	91.3
6	-120000	5.74	3.48	65.8
6	-130000	6.11	3.85	72.9
6	-140000	7.02	4.76	90
6	-150000	6.59	4.33	81.9
6	-160000	5.39	3.13	59.1
6	-170000	5.55	3.29	62.1
6	-180000	6.87	4.61	87.1
6	-190000	6.92	4.66	88.1
6	-200000	6.05	3.79	71.5
6	-210000	6.55	4.29	81
6	-220000	7.79	5.53	105
6	-230000	7.99	5.73	108
6	-240000	6.95	4.69	88.6
6	-250000	7.08	4.82	91.2
6	-260000	8.43	6.17	117
6	-270000	7.74	5.48	104
6	-280000	6.35	4.09	77.3
6	-290000	6.91	4.65	87.9
6	-300000	7.73	5.47	103
6	-310000	7.08	4.82	91.2
6	-320000	5.8	3.54	66.9
6	-330000	5.89	3.63	68.6
6	-340000	6.7	4.44	83.9
6	-350000	6.19	3.93	74.3
6	-360000	4.84	2.77	52.4
6	-370000	4.95	2.83	53.5
6	-380000	5.56	3.3	62.4
6	-390000	5.03	2.88	54.5
6	-400000	4.07	2.33	44
6	-410000	4.19	2.4	45.4
6	-420000	4.53	2.6	49.1
6	-430000	3.96	2.27	42.9
6	-440000	2.63	1.51	28.5
6	-450000	2.71	1.55	29.3
6	-460000	3.55	2.04	38.5
6	-470000	3.44	1.97	37.3
6	-480000	2.27	1.3	24.6
6	-490000	2.34	1.34	25.4
6	-500000	3.4	1.95	36.8
6	-510000	3.09	1.77	33.4
6	-520000	2.03	1.16	22
6	-530000	2.5	1.43	27
6	-540000	3.38	1.94	36.6
6	-550000	3.08	1.76	33.3
6	-560000	2.88	1.65	31.2
6	-570000	2.64	1.51	28.6
6	-580000	3	1.72	32.4
