rep_num	position	torque	torque_compensated	lbs_compensated
1	0	2.16	2.44	46.2
1	10000	5.37	5.66	107
1	20000	4.57	4.86	91.8
1	30000	4.99	5.28	99.7
1	40000	4.85	5.14	97.1
1	50000	4.12	4.4	83.2
1	60000	3.96	4.25	80.3
1	70000	4.67	4.95	93.6
1	80000	5.15	5.43	103
1	90000	5.02	5.31	100
1	100000	4.96	5.25	99.2
1	110000	4.7	4.99	94.3
1	120000	4.76	5.05	95.4
1	130000	4.33	4.62	87.3
1	140000	3.57	3.86	72.9
1	150000	3.76	4.05	76.5
1	160000	4	4.29	81.1
1	170000	3.92	4.21	79.6
1	180000	3.96	4.25	80.3
1	190000	4.37	4.66	88
1	200000	4.37	4.66	88.1
1	210000	4.2	4.49	84.9
1	220000	3.42	3.7	70
1	230000	3.81	4.1	77.4
1	240000	3.87	4.16	78.6
1	250000	3.29	3.58	67.6
1	260000	3.12	3.4	64.3
1	270000	3.48	3.76	71.1
1	280000	3.74	4.02	76.1
1	290000	3.17	3.45	65.3
1	300000	1.42	1.71	32.3
1	310000	2.04	2.32	43.9
1	320000	2.78	3.06	57.9
1	330000	2.47	2.76	52.1
1	340000	2.16	2.44	46.2
1	350000	2.38	2.67	50.4
1	360000	3.21	3.49	66
1	370000	2.85	3.14	59.3
1	380000	2.45	2.74	51.7
1	390000	2.83	3.11	58.8
1	400000	2.81	3.09	58.5
1	410000	2.1	2.39	45.2
1	420000	1.97	2.26	42.7
1	430000	1.93	2.22	42
1	440000	1.93	2.21	41.8
1	450000	1.32	1.61	30.3
1	460000	1.28	1.57	29.7
1	470000	1.8	2.08	39.4
1	480000	2.4	2.68	50.7
1	490000	2.4	2.69	50.8
1	500000	2.57	2.85	53.9
1	510000	2.9	3.19	60.2
1	520000	3.15	3.44	65
1	530000	3.07	3.35	63.4
1	540000	2.03	2.31	43.7
1	550000	2.7	2.98	56.4
1	560000	2.62	2.9	54.9
1	570000	2.65	2.94	55.5
1	580000	2.89	3.18	60.1
2	0	4.21	2.41	45.6
2	-10000	6.61	4.35	82.1
2	-20000	7.32	5.06	95.6
2	-30000	7.63	5.37	101
2	-40000	8.56	6.3	119
2	-50000	8.88	6.62	125
2	-60000	9.09	6.83	129
2	-70000	8.73	6.47	122
2	-80000	9.13	6.87	130
2	-90000	9.4	7.14	135
2	-100000	9.16	6.9	130
2	-110000	9.01	6.75	127
2	-120000	9.08	6.82	129
2	-130000	9.44	7.18	136
2	-140000	9.86	7.6	144
2	-150000	9.57	7.31	138
2	-160000	9	6.74	127
2	-170000	9.53	7.27	137
2	-180000	9.89	7.63	144
2	-190000	9.13	6.87	130
2	-200000	9.04	6.78	128
2	-210000	9.14	6.88	130
2	-220000	9.52	7.26	137
2	-230000	8.78	6.52	123
2	-240000	9.1	6.84	129
2	-250000	9.3	7.04	133
2	-260000	8.99	6.73	127
2	-270000	8.61	6.35	120
2	-280000	8.67	6.41	121
2	-290000	8.95	6.69	126
2	-300000	9.09	6.83	129
2	-310000	8.62	6.36	120
2	-320000	8.83	6.57	124
2	-330000	9.05	6.79	128
2	-340000	9.01	6.75	128
2	-350000	8.12	5.86	111
2	-360000	8.48	6.22	117
2	-370000	8.69	6.43	121
2	-380000	8.08	5.82	110
2	-390000	7.72	5.46	103
2	-400000	7.42	5.16	97.6
2	-410000	7.76	5.5	104
2	-420000	7.29	5.03	95
2	-430000	6.87	4.61	87.1
2	-440000	6.6	4.34	82.1
2	-450000	6.34	4.08	77.2
2	-460000	6.53	4.27	80.7
2	-470000	6.24	3.98	75.2
2	-480000	5.65	3.39	64
2	-490000	5.93	3.67	69.4
2	-500000	5.86	3.6	68
2	-510000	4.87	2.79	52.7
2	-520000	4.56	2.61	49.3
2	-530000	5.12	2.93	55.4
2	-540000	5.26	3.02	57
2	-550000	4.6	2.63	49.8
2	-560000	4.3	2.47	46.6
2	-570000	4.26	2.44	46.1
2	-580000	3.67	2.1	39.7
2	0	3.75	4.03	76.2
2	10000	5.21	5.5	104
2	20000	4.54	4.82	91.1
2	30000	4.3	4.59	86.7
2	40000	4.11	4.4	83.1
2	50000	3.44	3.72	70.4
2	60000	3.39	3.68	69.5
2	70000	3.95	4.23	80
2	80000	3.77	4.06	76.7
2	90000	3.07	3.36	63.4
2	100000	3.01	3.29	62.2
2	110000	2.55	2.84	53.6
2	120000	2.57	2.85	53.9
2	130000	2.48	2.77	52.3
2	140000	1.67	1.95	36.9
2	150000	2.03	2.31	43.8
2	160000	2.75	3.03	57.3
2	170000	2.13	2.41	45.6
2	180000	1.76	2.04	38.6
2	190000	1.89	2.18	41.2
2	200000	2.02	2.3	43.5
2	210000	1.92	2.21	41.7
2	220000	1.24	1.52	28.8
2	230000	1.79	2.07	39.2
2	240000	1.75	2.04	38.5
2	250000	1.81	2.1	39.6
2	260000	1.77	2.06	38.9
2	270000	1.49	1.77	33.5
2	280000	1.7	1.99	37.5
2	290000	1.37	1.66	31.3
2	300000	1.05	1.34	25.2
2	310000	2.12	2.41	45.5
2	320000	2.59	2.88	54.4
2	330000	2.56	2.85	53.8
2	340000	2.92	3.21	60.6
2	350000	3.28	3.57	67.5
2	360000	3.42	3.71	70.1
2	370000	2.46	2.75	52
2	380000	1.15	1.44	27.2
2	390000	1.39	1.67	31.6
2	400000	1.33	1.61	30.5
2	410000	0.479	0.765	14.5
2	420000	0.729	1.02	19.2
2	430000	0.821	1.11	20.9
2	440000	1.14	1.42	26.9
2	450000	1.88	2.17	41
2	460000	1.98	2.27	42.8
2	470000	2.76	3.05	57.6
2	480000	3.84	4.12	77.9
2	490000	3.76	4.05	76.5
2	500000	3.61	3.9	73.6
2	510000	3.66	3.95	74.6
2	520000	4.1	4.39	83
2	530000	3.76	4.04	76.4
2	540000	2.79	3.08	58.2
2	550000	3.17	3.46	65.4
2	560000	3.12	3.41	64.4
2	570000	2.9	3.18	60.2
2	580000	2.9	3.18	60.2
3	0	4.14	2.37	44.8
3	-10000	6.35	4.09	77.4
3	-20000	7.07	4.81	90.9
3	-30000	6.93	4.67	88.3
3	-40000	7.45	5.19	98.1
3	-50000	7.71	5.45	103
3	-60000	7.8	5.54	105
3	-70000	7.5	5.24	99
3	-80000	7.61	5.35	101
3	-90000	8.16	5.9	111
3	-100000	7.72	5.46	103
3	-110000	7.64	5.38	102
3	-120000	7.27	5.01	94.7
3	-130000	7.59	5.33	101
3	-140000	7.68	5.42	102
3	-150000	7.29	5.03	95
3	-160000	7.48	5.22	98.7
3	-170000	7.51	5.25	99.2
3	-180000	7.83	5.57	105
3	-190000	6.97	4.71	89
3	-200000	6.41	4.15	78.5
3	-210000	6.87	4.61	87.2
3	-220000	6.86	4.6	86.9
3	-230000	6.07	3.81	72
3	-240000	6.06	3.8	71.8
3	-250000	6.5	4.24	80.1
3	-260000	6.07	3.81	72
3	-270000	5.52	3.26	61.6
3	-280000	5.69	3.43	64.9
3	-290000	6.07	3.81	72
3	-300000	6.14	3.88	73.3
3	-310000	5.44	3.18	60.1
3	-320000	5.13	2.94	55.6
3	-330000	5.57	3.31	62.6
3	-340000	5.07	2.91	54.9
3	-350000	4.45	2.55	48.1
3	-360000	4.51	2.58	48.8
3	-370000	4.77	2.73	51.7
3	-380000	4.45	2.55	48.1
3	-390000	3.94	2.26	42.6
3	-400000	4.06	2.33	44
3	-410000	4.22	2.42	45.7
3	-420000	4.19	2.4	45.4
3	-430000	3.94	2.26	42.6
3	-440000	3.99	2.29	43.2
3	-450000	4.59	2.63	49.7
3	-460000	5.05	2.89	54.7
3	-470000	4.98	2.85	53.9
3	-480000	5.02	2.87	54.3
3	-490000	5.5	3.24	61.2
3	-500000	5.88	3.62	68.4
3	-510000	5.24	3	56.7
3	-520000	5.19	2.97	56.2
3	-530000	5.27	3.02	57.1
3	-540000	5.29	3.03	57.3
3	-550000	4.43	2.54	47.9
3	-560000	3.71	2.12	40.2
3	-570000	3.63	2.08	39.3
3	-580000	3	1.72	32.5
3	0	2.83	3.11	58.8
3	10000	3.95	4.23	80
3	20000	3.45	3.73	70.6
3	30000	3.61	3.89	73.6
3	40000	3.55	3.84	72.6
3	50000	3.16	3.44	65.1
3	60000	2.77	3.06	57.7
3	70000	3.23	3.52	66.5
3	80000	3.25	3.54	66.9
3	90000	2.53	2.82	53.3
3	100000	2.5	2.79	52.7
3	110000	2.87	3.16	59.7
3	120000	2.92	3.21	60.6
3	130000	2.89	3.17	60
3	140000	2.53	2.82	53.2
3	150000	2.72	3.01	56.8
3	160000	3.12	3.41	64.4
3	170000	2.47	2.75	52.1
3	180000	1.98	2.27	42.8
3	190000	2.56	2.85	53.9
3	200000	2.73	3.01	56.9
3	210000	2.66	2.95	55.7
3	220000	1.87	2.15	40.7
3	230000	2.17	2.46	46.5
3	240000	2.05	2.33	44.1
3	250000	1.64	1.92	36.4
3	260000	1.63	1.92	36.3
3	270000	1.81	2.1	39.6
3	280000	1.87	2.15	40.7
3	290000	1.6	1.89	35.7
3	300000	1.01	1.3	24.5
3	310000	1.65	1.94	36.7
3	320000	1.94	2.22	42.1
3	330000	1.4	1.69	31.9
3	340000	1.24	1.52	28.8
3	350000	1.42	1.71	32.3
3	360000	1.78	2.06	39
3	370000	1.14	1.42	26.9
3	380000	0.775	1.06	20.1
3	390000	1.33	1.61	30.5
3	400000	1.48	1.77	33.4
3	410000	1.07	1.36	25.7
3	420000	1.16	1.45	27.4
3	430000	1.2	1.49	28.1
3	440000	1.34	1.63	30.8
3	450000	1.38	1.67	31.6
3	460000	1.28	1.57	29.7
3	470000	1.78	2.06	39
3	480000	2.34	2.62	49.5
3	490000	1.89	2.18	41.2
3	500000	1.6	1.89	35.6
3	510000	1.84	2.13	40.3
3	520000	1.81	2.09	39.5
3	530000	1.77	2.06	38.8
3	540000	1.15	1.44	27.2
3	550000	2.06	2.34	44.3
3	560000	2.48	2.76	52.2
3	570000	2.44	2.72	51.5
3	580000	2.33	2.62	49.4
4	0	3.49	2	37.8
4	-10000	6.07	3.81	72.1
4	-20000	6.82	4.56	86.2
4	-30000	6.83	4.57	86.4
4	-40000	7.49	5.23	98.8
4	-50000	7.97	5.71	108
4	-60000	7.79	5.53	105
4	-70000	7.33	5.07	95.9
4	-80000	6.85	4.59	86.8
4	-90000	7.38	5.12	96.8
4	-100000	7.22	4.96	93.8
4	-110000	7.28	5.02	95
4	-120000	7.14	4.88	92.2
4	-130000	7.19	4.93	93.2
4	-140000	7.67	5.41	102
4	-150000	6.77	4.51	85.2
4	-160000	6.89	4.63	87.6
4	-170000	7.05	4.79	90.5
4	-180000	7.47	5.21	98.4
4	-190000	6.66	4.4	83.2
4	-200000	6.79	4.53	85.7
4	-210000	7.05	4.79	90.5
4	-220000	6.93	4.67	88.3
4	-230000	6.52	4.26	80.5
4	-240000	6.62	4.36	82.3
4	-250000	7.5	5.24	99
4	-260000	7.01	4.75	89.7
4	-270000	6.95	4.69	88.7
4	-280000	7.06	4.8	90.7
4	-290000	7.52	5.26	99.3
4	-300000	7.02	4.76	89.9
4	-310000	6.26	4	75.6
4	-320000	6.15	3.89	73.5
4	-330000	6.29	4.03	76.2
4	-340000	5.46	3.2	60.6
4	-350000	4.92	2.82	53.2
4	-360000	6	3.74	70.8
4	-370000	6.63	4.37	82.5
4	-380000	6.25	3.99	75.3
4	-390000	5.95	3.69	69.6
4	-400000	6	3.74	70.7
4	-410000	6.36	4.1	77.5
4	-420000	5.83	3.57	67.4
4	-430000	5.53	3.27	61.8
4	-440000	5.1	2.92	55.3
4	-450000	5.11	2.92	55.3
4	-460000	5.24	3	56.7
4	-470000	4.4	2.52	47.7
4	-480000	4.29	2.46	46.4
4	-490000	4.55	2.61	49.3
4	-500000	4.67	2.68	50.6
4	-510000	4.12	2.36	44.6
4	-520000	4.02	2.3	43.5
4	-530000	4.55	2.61	49.3
4	-540000	4.77	2.73	51.7
4	-550000	4.26	2.44	46.2
4	-560000	4.18	2.39	45.2
4	-570000	4.58	2.62	49.6
4	-580000	5.08	2.91	55
4	0	4.44	4.73	89.4
4	10000	3.95	4.24	80.1
4	20000	3.42	3.71	70.1
4	30000	3.39	3.67	69.4
4	40000	3.68	3.97	75
4	50000	3.41	3.7	69.9
4	60000	3.43	3.72	70.3
4	70000	3.84	4.12	78
4	80000	3.68	3.96	74.9
4	90000	2.74	3.03	57.3
4	100000	2.76	3.04	57.5
4	110000	2.98	3.26	61.7
4	120000	2.66	2.94	55.7
4	130000	2.55	2.84	53.7
4	140000	2.24	2.53	47.8
4	150000	2.47	2.76	52.2
4	160000	2.67	2.96	56
4	170000	2.21	2.5	47.2
4	180000	2.01	2.29	43.4
4	190000	2.46	2.74	51.8
4	200000	2.84	3.12	59
4	210000	2.62	2.91	55
4	220000	2.05	2.34	44.2
4	230000	2.12	2.41	45.5
4	240000	2.46	2.74	51.8
4	250000	1.96	2.24	42.4
4	260000	1.67	1.95	36.9
4	270000	2.1	2.38	45.1
4	280000	2.47	2.75	52
4	290000	2.22	2.5	47.3
4	300000	1.84	2.12	40.1
4	310000	1.8	2.09	39.4
4	320000	1.97	2.26	42.6
4	330000	1.53	1.82	34.3
4	340000	1.53	1.81	34.3
4	350000	1.63	1.91	36.2
4	360000	2.57	2.86	54.1
4	370000	2.58	2.86	54.1
4	380000	2.17	2.46	46.5
4	390000	2.74	3.03	57.2
4	400000	3.07	3.35	63.4
4	410000	2.48	2.77	52.4
4	420000	2.56	2.84	53.8
4	430000	2.72	3	56.7
4	440000	2.66	2.94	55.6
4	450000	2.29	2.58	48.8
4	460000	1.83	2.12	40
4	470000	1.94	2.22	42.1
4	480000	2.41	2.7	51
4	490000	1.77	2.05	38.8
4	500000	1.31	1.6	30.2
4	510000	1.4	1.68	31.8
4	520000	1.56	1.85	35
4	530000	1.41	1.7	32.1
4	540000	0.587	0.873	16.5
4	550000	1.23	1.52	28.7
4	560000	1.24	1.53	28.9
4	570000	1.14	1.43	27
4	580000	1.15	1.44	27.1
5	0	2.52	1.45	27.3
5	-10000	4.34	2.49	47
5	-20000	5.04	2.89	54.6
5	-30000	5.13	2.94	55.6
5	-40000	5.73	3.47	65.5
5	-50000	6.13	3.87	73.2
5	-60000	5.68	3.42	64.6
5	-70000	5.33	3.07	58.1
5	-80000	5.47	3.21	60.6
5	-90000	6.05	3.79	71.7
5	-100000	6.52	4.26	80.5
5	-110000	6.25	3.99	75.5
5	-120000	5.4	3.14	59.3
5	-130000	5.99	3.73	70.5
5	-140000	6.67	4.41	83.4
5	-150000	6.18	3.92	74.1
5	-160000	5.82	3.56	67.3
5	-170000	5.87	3.61	68.2
5	-180000	6.05	3.79	71.7
5	-190000	5.2	2.98	56.4
5	-200000	5.29	3.03	57.4
5	-210000	5.58	3.32	62.8
5	-220000	5.42	3.16	59.8
5	-230000	4.87	2.79	52.7
5	-240000	4.4	2.52	47.7
5	-250000	4.92	2.82	53.3
5	-260000	5.13	2.94	55.6
5	-270000	5.52	3.26	61.6
5	-280000	5.88	3.62	68.4
5	-290000	6.44	4.18	79
5	-300000	6.66	4.4	83.2
5	-310000	6	3.74	70.6
5	-320000	6.47	4.21	79.6
5	-330000	7.33	5.07	95.8
5	-340000	7.17	4.91	92.8
5	-350000	6.57	4.31	81.5
5	-360000	6.14	3.88	73.3
5	-370000	6.3	4.04	76.3
5	-380000	5.61	3.35	63.3
5	-390000	4.72	2.7	51.1
5	-400000	4.62	2.64	50
5	-410000	4.91	2.81	53.1
5	-420000	4.72	2.7	51.1
5	-430000	4.34	2.49	47
5	-440000	4.02	2.3	43.5
5	-450000	4.08	2.34	44.1
5	-460000	4.42	2.53	47.9
5	-470000	3.71	2.13	40.2
5	-480000	3.6	2.06	39
5	-490000	3.91	2.24	42.4
5	-500000	3.85	2.2	41.7
5	-510000	3.29	1.88	35.6
5	-520000	3.36	1.93	36.4
5	-530000	3.56	2.04	38.5
5	-540000	3.76	2.15	40.7
5	-550000	3.23	1.85	35
5	-560000	2.74	1.57	29.6
5	-570000	3.22	1.85	34.9
5	-580000	2.92	1.67	31.6
5	0	2.03	2.31	43.7
5	10000	3.41	3.7	69.9
5	20000	4.17	4.46	84.3
5	30000	4.83	5.12	96.7
5	40000	4.66	4.95	93.5
5	50000	3.66	3.95	74.6
5	60000	3.03	3.32	62.7
5	70000	3.13	3.41	64.5
5	80000	2.97	3.26	61.6
5	90000	2.17	2.45	46.4
5	100000	2.37	2.66	50.3
5	110000	2.55	2.84	53.7
5	120000	2.54	2.83	53.4
5	130000	2.63	2.91	55.1
5	140000	2.05	2.33	44.1
5	150000	2.1	2.39	45.1
5	160000	2.4	2.68	50.7
5	170000	1.97	2.26	42.6
5	180000	1.59	1.88	35.5
5	190000	2.13	2.42	45.7
5	200000	2.3	2.59	48.9
5	210000	1.99	2.27	42.9
5	220000	1.4	1.69	31.9
5	230000	2.04	2.33	44
5	240000	2.21	2.5	47.2
5	250000	2.01	2.29	43.4
5	260000	1.51	1.79	33.9
5	270000	1.81	2.09	39.5
5	280000	2.1	2.39	45.1
5	290000	1.49	1.78	33.6
5	300000	1.12	1.41	26.6
5	310000	1.71	2	37.8
5	320000	1.9	2.18	41.3
5	330000	1.28	1.57	29.7
5	340000	1.45	1.74	32.8
5	350000	1.51	1.79	33.9
5	360000	1.47	1.76	33.2
5	370000	0.97	1.26	23.7
5	380000	0.528	0.814	15.4
5	390000	0.904	1.19	22.5
5	400000	0.956	1.24	23.5
5	410000	0.523	0.809	15.3
5	420000	0.549	0.835	15.8
5	430000	1.4	1.69	31.9
5	440000	1.53	1.81	34.3
5	450000	1.1	1.38	26.2
5	460000	1.18	1.46	27.7
5	470000	1.67	1.95	36.9
5	480000	1.88	2.16	40.9
5	490000	1.43	1.72	32.5
5	500000	1.13	1.42	26.8
5	510000	1.25	1.54	29.1
5	520000	1.48	1.77	33.4
5	530000	1.27	1.55	29.3
5	540000	0.75	1.04	19.6
5	550000	1.51	1.8	33.9
5	560000	1.23	1.52	28.7
5	570000	0.97	1.26	23.7
5	580000	0.938	1.22	23.1
6	0	2.41	1.38	26.1
6	-10000	5.37	3.11	58.8
6	-20000	6.7	4.44	84
6	-30000	6.78	4.52	85.5
6	-40000	7.6	5.34	101
6	-50000	8.27	6.01	114
6	-60000	8.28	6.02	114
6	-70000	7.93	5.67	107
6	-80000	8.34	6.08	115
6	-90000	8.61	6.35	120
6	-100000	8.58	6.32	119
6	-110000	8.21	5.95	113
6	-120000	8.01	5.75	109
6	-130000	8.06	5.8	110
6	-140000	8.28	6.02	114
6	-150000	7.07	4.81	90.8
6	-160000	6.78	4.52	85.4
6	-170000	7.11	4.85	91.7
6	-180000	7.03	4.77	90.1
6	-190000	6.29	4.03	76.2
6	-200000	6	3.74	70.7
6	-210000	6.28	4.02	76
6	-220000	6.4	4.14	78.3
6	-230000	5.79	3.53	66.7
6	-240000	5.84	3.58	67.7
6	-250000	6.04	3.78	71.4
6	-260000	5.5	3.24	61.2
6	-270000	4.95	2.83	53.6
6	-280000	4.74	2.71	51.3
6	-290000	5.05	2.89	54.7
6	-300000	4.75	2.72	51.4
6	-310000	3.75	2.15	40.6
6	-320000	3.63	2.08	39.3
6	-330000	4.09	2.34	44.3
6	-340000	3.53	2.02	38.2
6	-350000	3	1.72	32.5
6	-360000	3.13	1.79	33.8
6	-370000	3.25	1.86	35.2
6	-380000	3.15	1.8	34.1
6	-390000	2.76	1.58	29.8
6	-400000	2.97	1.7	32.1
6	-410000	3.27	1.87	35.4
6	-420000	3.37	1.93	36.5
6	-430000	3.56	2.04	38.5
6	-440000	3.39	1.94	36.7
6	-450000	3.29	1.89	35.7
6	-460000	3.71	2.13	40.2
6	-470000	2.92	1.67	31.6
6	-480000	2.74	1.57	29.7
6	-490000	3.25	1.86	35.2
6	-500000	3.25	1.86	35.2
6	-510000	2.55	1.46	27.7
6	-520000	2.24	1.29	24.3
6	-530000	2.5	1.43	27.1
6	-540000	2.73	1.57	29.6
6	-550000	2.43	1.39	26.3
6	-560000	2.25	1.29	24.4
6	-570000	2.74	1.57	29.7
6	-580000	2.71	1.55	29.3
