rep_num	position	torque	torque_compensated	lbs_compensated
1	0	4.63	4.91	92.8
1	10000	6.51	6.86	130
1	20000	5.29	5.58	105
1	30000	6.02	6.34	120
1	40000	5.36	5.65	107
1	50000	4.62	4.9	92.7
1	60000	4.77	5.06	95.6
1	70000	5.53	5.83	110
1	80000	5.24	5.52	104
1	90000	4.76	5.05	95.5
1	100000	5.13	5.42	102
1	110000	5.38	5.67	107
1	120000	4.81	5.09	96.2
1	130000	4	4.29	81.1
1	140000	4.05	4.34	81.9
1	150000	4.4	4.68	88.5
1	160000	4.11	4.4	83.2
1	170000	3.14	3.43	64.8
1	180000	2.15	2.44	46.1
1	190000	3.06	3.34	63.2
1	200000	2.7	2.98	56.4
1	210000	2.12	2.4	45.4
1	220000	1.83	2.12	40.1
1	230000	2.94	3.23	61
1	240000	3.57	3.86	72.9
1	250000	2.87	3.15	59.6
1	260000	2.75	3.04	57.4
1	270000	2.39	2.68	50.7
1	280000	2.12	2.41	45.5
1	290000	2.56	2.85	53.8
1	300000	2.46	2.75	52
1	310000	3.15	3.43	64.9
1	320000	3.47	3.76	71
1	330000	2.74	3.03	57.2
1	340000	2.53	2.82	53.3
1	350000	2.93	3.22	60.9
1	360000	2.84	3.12	59
1	370000	1.82	2.11	39.8
1	380000	1.6	1.89	35.7
1	390000	2.66	2.94	55.7
1	400000	2.4	2.68	50.7
1	410000	1.43	1.72	32.4
1	420000	1.43	1.71	32.4
1	430000	1.52	1.81	34.2
1	440000	1.46	1.75	33
1	450000	1.19	1.47	27.8
1	460000	1.22	1.51	28.5
1	470000	2.03	2.32	43.8
1	480000	2	2.28	43.1
1	490000	1.58	1.87	35.3
1	500000	1.87	2.15	40.7
1	510000	2.74	3.02	57.2
1	520000	2.71	3	56.7
1	530000	1.95	2.24	42.3
1	540000	1.58	1.87	35.3
1	550000	2.16	2.44	46.2
1	560000	2.23	2.51	47.5
1	570000	1.77	2.05	38.8
1	580000	3.03	3.32	62.7
2	0	3.68	2.11	39.9
2	-10000	7.16	4.9	92.5
2	-20000	8.28	6.02	114
2	-30000	7.34	5.08	95.9
2	-40000	7.2	4.94	93.4
2	-50000	7.12	4.86	91.8
2	-60000	7.28	5.02	94.8
2	-70000	6.93	4.67	88.3
2	-80000	6.58	4.32	81.7
2	-90000	7.07	4.81	90.9
2	-100000	7.39	5.13	96.9
2	-110000	6.6	4.34	82
2	-120000	6.03	3.77	71.2
2	-130000	6.98	4.72	89.2
2	-140000	7.97	5.71	108
2	-150000	7.31	5.05	95.5
2	-160000	6.81	4.55	86
2	-170000	7.45	5.19	98
2	-180000	8.32	6.06	115
2	-190000	7.29	5.03	95
2	-200000	6.96	4.7	88.8
2	-210000	7.61	5.35	101
2	-220000	7.83	5.57	105
2	-230000	6.95	4.69	88.6
2	-240000	6.3	4.04	76.4
2	-250000	6.85	4.59	86.8
2	-260000	7.04	4.78	90.2
2	-270000	6.67	4.41	83.3
2	-280000	5.7	3.44	64.9
2	-290000	6.42	4.16	78.6
2	-300000	6.78	4.52	85.4
2	-310000	5.79	3.53	66.8
2	-320000	4.58	2.62	49.6
2	-330000	5.21	2.98	56.4
2	-340000	5.45	3.19	60.4
2	-350000	5.05	2.89	54.7
2	-360000	5.06	2.9	54.8
2	-370000	5.66	3.4	64.2
2	-380000	6.58	4.32	81.6
2	-390000	6.96	4.7	88.9
2	-400000	7.1	4.84	91.5
2	-410000	7.5	5.24	98.9
2	-420000	7.69	5.43	103
2	-430000	7.47	5.21	98.5
2	-440000	6.42	4.16	78.7
2	-450000	7.25	4.99	94.3
2	-460000	7.59	5.33	101
2	-470000	6.26	4	75.6
2	-480000	5.17	2.96	56
2	-490000	5.95	3.69	69.8
2	-500000	7.24	4.98	94.2
2	-510000	6.24	3.98	75.3
2	-520000	5.46	3.2	60.5
2	-530000	6.17	3.91	74
2	-540000	6.63	4.37	82.6
2	-550000	5.88	3.62	68.4
2	-560000	5.69	3.43	64.7
2	-570000	5.98	3.72	70.3
2	-580000	5.48	3.22	60.9
2	0	5.02	5.31	100
2	10000	6.48	6.83	129
2	20000	5.13	5.41	102
2	30000	5.94	6.26	118
2	40000	5.3	5.59	106
2	50000	4.72	5.01	94.6
2	60000	4.61	4.89	92.5
2	70000	5.07	5.36	101
2	80000	4.35	4.63	87.6
2	90000	3.44	3.73	70.4
2	100000	3.93	4.22	79.8
2	110000	4.37	4.66	88
2	120000	3.95	4.23	80
2	130000	3.67	3.95	74.7
2	140000	3.52	3.8	71.9
2	150000	3.9	4.18	79.1
2	160000	3.86	4.15	78.4
2	170000	3.57	3.86	72.9
2	180000	3.52	3.8	71.9
2	190000	4.04	4.33	81.8
2	200000	3.69	3.98	75.2
2	210000	2.55	2.83	53.5
2	220000	2.11	2.4	45.3
2	230000	3	3.29	62.2
2	240000	2.66	2.95	55.8
2	250000	1.69	1.97	37.3
2	260000	2.1	2.38	45.1
2	270000	3.13	3.41	64.5
2	280000	3.48	3.77	71.2
2	290000	2.81	3.09	58.4
2	300000	2.75	3.03	57.3
2	310000	3.7	3.99	75.4
2	320000	3.6	3.88	73.4
2	330000	2.77	3.06	57.8
2	340000	2.89	3.18	60
2	350000	3.28	3.56	67.3
2	360000	2.24	2.52	47.7
2	370000	2.08	2.36	44.7
2	380000	2.59	2.88	54.3
2	390000	3.4	3.69	69.7
2	400000	2.23	2.52	47.5
2	410000	1.71	2	37.8
2	420000	2.33	2.61	49.4
2	430000	2.95	3.24	61.1
2	440000	2.88	3.17	59.9
2	450000	2.5	2.79	52.7
2	460000	2.73	3.02	57.1
2	470000	3.14	3.43	64.8
2	480000	3.36	3.64	68.9
2	490000	2.6	2.89	54.6
2	500000	2.8	3.09	58.3
2	510000	3.71	4	75.6
2	520000	3.91	4.2	79.4
2	530000	3.45	3.73	70.6
2	540000	3.35	3.64	68.7
2	550000	4.31	4.59	86.8
2	560000	4.03	4.32	81.6
2	570000	3.15	3.43	64.9
2	580000	3.53	3.82	72.2
3	0	4.47	2.56	48.4
3	-10000	7.27	5.01	94.8
3	-20000	8.69	6.43	121
3	-30000	8.85	6.59	125
3	-40000	8.92	6.66	126
3	-50000	9.66	7.4	140
3	-60000	10.3	8	151
3	-70000	9.71	7.45	141
3	-80000	10.1	7.88	149
3	-90000	10.7	8.42	159
3	-100000	11.1	8.85	167
3	-110000	11	8.72	165
3	-120000	10	7.76	147
3	-130000	10.1	7.79	147
3	-140000	11.2	8.95	169
3	-150000	10.5	8.28	156
3	-160000	9.69	7.43	140
3	-170000	10	7.74	146
3	-180000	10.5	8.29	157
3	-190000	9.57	7.31	138
3	-200000	8.79	6.53	123
3	-210000	8.82	6.56	124
3	-220000	9.28	7.02	133
3	-230000	8.33	6.07	115
3	-240000	7.61	5.35	101
3	-250000	7.87	5.61	106
3	-260000	7.88	5.62	106
3	-270000	7.37	5.11	96.6
3	-280000	7.17	4.91	92.8
3	-290000	7.49	5.23	98.8
3	-300000	7.15	4.89	92.4
3	-310000	6.34	4.08	77.1
3	-320000	5.55	3.29	62.1
3	-330000	6.3	4.04	76.3
3	-340000	6.54	4.28	80.9
3	-350000	5.72	3.46	65.5
3	-360000	5.57	3.31	62.5
3	-370000	6.22	3.96	74.9
3	-380000	6.13	3.87	73.1
3	-390000	5.66	3.4	64.3
3	-400000	5.2	2.98	56.3
3	-410000	5.41	3.15	59.5
3	-420000	5.49	3.23	61
3	-430000	4.65	2.66	50.3
3	-440000	4.09	2.34	44.3
3	-450000	5.14	2.95	55.7
3	-460000	6.02	3.76	71.1
3	-470000	6.25	3.99	75.4
3	-480000	6.08	3.82	72.2
3	-490000	6.69	4.43	83.7
3	-500000	6.86	4.6	87
3	-510000	5.69	3.43	64.9
3	-520000	4.87	2.79	52.7
3	-530000	5.43	3.17	59.9
3	-540000	6.45	4.19	79.2
3	-550000	6.89	4.63	87.6
3	-560000	6.72	4.46	84.4
3	-570000	6.14	3.88	73.4
3	-580000	5.64	3.38	63.9
3	0	4.54	4.83	91.2
3	10000	6.67	7.03	133
3	20000	5.37	5.66	107
3	30000	5.93	6.25	118
3	40000	5.45	5.75	109
3	50000	4.16	4.45	84.1
3	60000	3.86	4.14	78.3
3	70000	4.49	4.77	90.2
3	80000	3.88	4.16	78.7
3	90000	2.97	3.25	61.5
3	100000	3.19	3.48	65.7
3	110000	3.43	3.71	70.1
3	120000	3.16	3.44	65.1
3	130000	2.96	3.24	61.3
3	140000	2.49	2.78	52.5
3	150000	3.03	3.31	62.6
3	160000	3.07	3.36	63.5
3	170000	2.64	2.92	55.2
3	180000	2.39	2.68	50.6
3	190000	2.79	3.07	58.1
3	200000	2.72	3.01	56.9
3	210000	1.92	2.2	41.6
3	220000	1.75	2.03	38.4
3	230000	2.68	2.97	56.1
3	240000	2.34	2.62	49.6
3	250000	1.73	2.01	38
3	260000	1.92	2.21	41.7
3	270000	2.35	2.64	49.9
3	280000	2.19	2.48	46.8
3	290000	1.75	2.04	38.6
3	300000	1.49	1.78	33.6
3	310000	2.28	2.56	48.4
3	320000	2.13	2.41	45.6
3	330000	1.21	1.49	28.2
3	340000	1.22	1.51	28.4
3	350000	1.92	2.21	41.7
3	360000	1.92	2.21	41.7
3	370000	1.16	1.44	27.3
3	380000	1.28	1.56	29.6
3	390000	2.33	2.61	49.4
3	400000	1.98	2.27	42.8
3	410000	1.06	1.35	25.4
3	420000	1.35	1.64	31
3	430000	2.25	2.54	48
3	440000	2.06	2.35	44.4
3	450000	1.32	1.6	30.3
3	460000	1.33	1.62	30.6
3	470000	2.2	2.48	46.9
3	480000	2.02	2.31	43.6
3	490000	1.13	1.41	26.7
3	500000	1.67	1.96	37
3	510000	2.17	2.45	46.4
3	520000	2.13	2.41	45.6
3	530000	1.6	1.89	35.7
3	540000	1.23	1.51	28.6
3	550000	2.28	2.57	48.5
3	560000	2.67	2.96	56
3	570000	2.52	2.81	53
3	580000	3.13	3.42	64.6
4	0	4.15	2.38	45
4	-10000	6.42	4.16	78.7
4	-20000	7.5	5.24	99
4	-30000	7.64	5.38	102
4	-40000	8.01	5.75	109
4	-50000	8.96	6.7	127
4	-60000	9.32	7.06	133
4	-70000	8.94	6.68	126
4	-80000	8.23	5.97	113
4	-90000	8.78	6.52	123
4	-100000	9.31	7.05	133
4	-110000	8.65	6.39	121
4	-120000	7.98	5.72	108
4	-130000	7.99	5.73	108
4	-140000	8.74	6.48	122
4	-150000	7.53	5.27	99.7
4	-160000	6.68	4.42	83.6
4	-170000	6.84	4.58	86.5
4	-180000	7.59	5.33	101
4	-190000	6.83	4.57	86.4
4	-200000	6.19	3.93	74.2
4	-210000	6.89	4.63	87.4
4	-220000	7.62	5.36	101
4	-230000	6.58	4.32	81.7
4	-240000	6.22	3.96	74.9
4	-250000	6.72	4.46	84.2
4	-260000	7.03	4.77	90.1
4	-270000	6.05	3.79	71.6
4	-280000	5.77	3.51	66.4
4	-290000	6.36	4.1	77.6
4	-300000	6.6	4.34	82
4	-310000	5.56	3.3	62.4
4	-320000	4.95	2.84	53.6
4	-330000	5.86	3.6	68
4	-340000	6.76	4.5	85
4	-350000	5.71	3.45	65.3
4	-360000	5.5	3.24	61.2
4	-370000	6.07	3.81	72
4	-380000	6.11	3.85	72.8
4	-390000	5.46	3.2	60.5
4	-400000	5.21	2.99	56.4
4	-410000	5.91	3.65	69
4	-420000	6	3.74	70.7
4	-430000	5.45	3.19	60.3
4	-440000	4.86	2.79	52.6
4	-450000	5.4	3.14	59.4
4	-460000	5.91	3.65	68.9
4	-470000	5.18	2.97	56
4	-480000	4.74	2.72	51.4
4	-490000	5.21	2.99	56.4
4	-500000	5.54	3.28	62
4	-510000	4.72	2.7	51.1
4	-520000	4.29	2.46	46.4
4	-530000	4.94	2.83	53.5
4	-540000	5.6	3.34	63.2
4	-550000	4.88	2.79	52.8
4	-560000	4.28	2.45	46.4
4	-570000	4.01	2.3	43.4
4	-580000	5.07	2.9	54.9
4	0	4.83	5.11	96.6
4	10000	5.51	5.81	110
4	20000	3.71	3.99	75.5
4	30000	4.57	4.86	91.8
4	40000	4.13	4.41	83.4
4	50000	3.08	3.36	63.6
4	60000	3.02	3.3	62.5
4	70000	3.61	3.9	73.7
4	80000	3.51	3.79	71.7
4	90000	2.85	3.14	59.3
4	100000	3.34	3.63	68.5
4	110000	3.64	3.92	74.2
4	120000	3.61	3.9	73.7
4	130000	3.38	3.66	69.2
4	140000	3.26	3.55	67
4	150000	4.08	4.36	82.5
4	160000	4.13	4.42	83.5
4	170000	3.11	3.4	64.2
4	180000	2.89	3.17	60
4	190000	3.28	3.57	67.4
4	200000	3.25	3.54	66.8
4	210000	2.36	2.65	50.1
4	220000	2.08	2.37	44.8
4	230000	3.08	3.36	63.6
4	240000	2.99	3.27	61.8
4	250000	1.96	2.24	42.4
4	260000	1.83	2.12	40
4	270000	2.68	2.97	56.1
4	280000	2.69	2.98	56.3
4	290000	1.92	2.21	41.7
4	300000	1.65	1.93	36.5
4	310000	2.66	2.94	55.6
4	320000	2.53	2.81	53.1
4	330000	1.85	2.14	40.4
4	340000	1.59	1.88	35.5
4	350000	1.87	2.16	40.8
4	360000	2.02	2.31	43.7
4	370000	1.37	1.65	31.3
4	380000	1.38	1.66	31.4
4	390000	2.33	2.61	49.4
4	400000	2.24	2.52	47.7
4	410000	1.19	1.48	28
4	420000	1.4	1.69	31.9
4	430000	1.91	2.2	41.6
4	440000	2.01	2.3	43.5
4	450000	2.1	2.39	45.2
4	460000	2.02	2.31	43.6
4	470000	2.93	3.22	60.8
4	480000	3.08	3.36	63.6
4	490000	2.34	2.63	49.6
4	500000	2.2	2.49	47
4	510000	2.7	2.98	56.4
4	520000	2.51	2.8	52.9
4	530000	1.95	2.24	42.3
4	540000	1.34	1.63	30.7
4	550000	2.23	2.52	47.6
4	560000	2.23	2.52	47.6
4	570000	1.18	1.47	27.7
4	580000	1.7	1.99	37.6
5	0	2.9	1.66	31.4
5	-10000	6.44	4.18	79
5	-20000	7.32	5.06	95.7
5	-30000	6.95	4.69	88.6
5	-40000	6.82	4.56	86.2
5	-50000	7.19	4.93	93.1
5	-60000	7.06	4.8	90.7
5	-70000	6.21	3.95	74.7
5	-80000	5.79	3.53	66.7
5	-90000	5.91	3.65	68.9
5	-100000	6.23	3.97	75
5	-110000	5.84	3.58	67.6
5	-120000	4.93	2.83	53.4
5	-130000	5.06	2.9	54.8
5	-140000	5.75	3.49	66
5	-150000	4.92	2.82	53.3
5	-160000	4.45	2.55	48.1
5	-170000	4.77	2.73	51.7
5	-180000	5.5	3.24	61.2
5	-190000	4.76	2.72	51.5
5	-200000	3.79	2.17	41
5	-210000	4.36	2.5	47.2
5	-220000	4.99	2.86	54.1
5	-230000	4.42	2.53	47.9
5	-240000	4.07	2.33	44
5	-250000	4.61	2.64	49.9
5	-260000	4.74	2.72	51.4
5	-270000	4.02	2.3	43.5
5	-280000	3.69	2.11	39.9
5	-290000	3.75	2.15	40.6
5	-300000	4.24	2.43	46
5	-310000	3.64	2.09	39.4
5	-320000	3.31	1.9	35.9
5	-330000	3.82	2.19	41.3
5	-340000	4.17	2.39	45.2
5	-350000	3.44	1.97	37.3
5	-360000	3.2	1.83	34.6
5	-370000	3.95	2.26	42.8
5	-380000	4.35	2.49	47.1
5	-390000	3.84	2.2	41.6
5	-400000	3.37	1.93	36.5
5	-410000	3.57	2.04	38.6
5	-420000	4.02	2.31	43.6
5	-430000	3.48	1.99	37.7
5	-440000	3.12	1.79	33.8
5	-450000	3.2	1.84	34.7
5	-460000	3.86	2.21	41.8
5	-470000	3.07	1.76	33.3
5	-480000	2.67	1.53	28.9
5	-490000	3.32	1.9	35.9
5	-500000	3.69	2.11	39.9
5	-510000	3.12	1.79	33.8
5	-520000	2.57	1.47	27.8
5	-530000	2.97	1.7	32.2
5	-540000	3.44	1.97	37.3
5	-550000	2.74	1.57	29.7
5	-560000	2.54	1.45	27.5
5	-570000	3	1.72	32.5
5	-580000	4.24	2.43	45.9
5	0	3.8	4.08	77.2
5	10000	5.07	5.35	101
5	20000	3.69	3.97	75.1
5	30000	4.09	4.37	82.6
5	40000	3.75	4.04	76.3
5	50000	2.37	2.66	50.3
5	60000	2.32	2.6	49.2
5	70000	3.66	3.94	74.5
5	80000	3.31	3.6	68
5	90000	2.45	2.73	51.7
5	100000	2.65	2.93	55.4
5	110000	3.17	3.45	65.3
5	120000	2.69	2.98	56.3
5	130000	2.31	2.59	49
5	140000	1.95	2.24	42.3
5	150000	2.79	3.08	58.1
5	160000	2.56	2.85	53.8
5	170000	1.65	1.94	36.6
5	180000	1.71	1.99	37.7
5	190000	2.59	2.88	54.4
5	200000	2.42	2.7	51.1
5	210000	2.1	2.39	45.1
5	220000	1.61	1.9	35.9
5	230000	2.32	2.61	49.3
5	240000	2.38	2.66	50.3
5	250000	1.46	1.74	33
5	260000	1.5	1.78	33.7
5	270000	1.97	2.25	42.6
5	280000	1.71	1.99	37.7
5	290000	1.23	1.52	28.6
5	300000	1.21	1.49	28.2
5	310000	1.89	2.17	41
5	320000	1.85	2.14	40.4
5	330000	1.27	1.55	29.3
5	340000	1.36	1.65	31.2
5	350000	2	2.29	43.2
5	360000	2.1	2.39	45.1
5	370000	1.26	1.54	29.2
5	380000	1.11	1.39	26.3
5	390000	1.96	2.25	42.5
5	400000	1.39	1.68	31.7
5	410000	0.346	0.632	11.9
5	420000	0.922	1.21	22.8
5	430000	1.38	1.67	31.5
5	440000	0.969	1.26	23.7
5	450000	0.715	1	18.9
5	460000	0.83	1.12	21.1
5	470000	1.99	2.28	43
5	480000	1.99	2.28	43.1
5	490000	1.26	1.55	29.2
5	500000	1.17	1.45	27.5
5	510000	1.72	2.01	37.9
5	520000	1.64	1.93	36.5
5	530000	1	1.29	24.3
5	540000	0.678	0.964	18.2
5	550000	1.67	1.96	37
5	560000	1.66	1.95	36.8
5	570000	1.09	1.38	26
5	580000	2.09	2.38	45
6	0	3.33	1.91	36.1
6	-10000	6.66	4.4	83.2
6	-20000	8.42	6.16	116
6	-30000	9.04	6.78	128
6	-40000	9.3	7.04	133
6	-50000	9.97	7.71	146
6	-60000	10.7	8.45	160
6	-70000	10	7.76	147
6	-80000	10.8	8.53	161
6	-90000	11.1	8.85	167
6	-100000	11.4	9.19	174
6	-110000	11	8.71	165
6	-120000	10.7	8.48	160
6	-130000	10.7	8.45	160
6	-140000	11.6	9.29	176
6	-150000	10.4	8.09	153
6	-160000	9.43	7.17	135
6	-170000	9.31	7.05	133
6	-180000	8.9	6.64	126
6	-190000	7.66	5.4	102
6	-200000	6.52	4.26	80.6
6	-210000	7.4	5.14	97.2
6	-220000	7.65	5.39	102
6	-230000	6.35	4.09	77.3
6	-240000	5.58	3.32	62.7
6	-250000	5.86	3.6	68
6	-260000	6.52	4.26	80.5
6	-270000	6.21	3.95	74.7
6	-280000	5.62	3.36	63.5
6	-290000	5.82	3.56	67.2
6	-300000	6.09	3.83	72.4
6	-310000	4.73	2.71	51.2
6	-320000	3.93	2.25	42.6
6	-330000	4.58	2.63	49.6
6	-340000	4.57	2.62	49.5
6	-350000	4.01	2.29	43.4
6	-360000	3.21	1.84	34.8
6	-370000	3.41	1.95	36.9
6	-380000	3.68	2.11	39.9
6	-390000	2.98	1.71	32.2
6	-400000	2.55	1.46	27.6
6	-410000	3.1	1.78	33.6
6	-420000	3.48	2	37.7
6	-430000	3.02	1.73	32.7
6	-440000	2.77	1.59	30
6	-450000	2.95	1.69	32
6	-460000	3.5	2.01	37.9
6	-470000	2.78	1.59	30.1
6	-480000	2.22	1.27	24
6	-490000	2.81	1.61	30.4
6	-500000	3.35	1.92	36.3
6	-510000	2.84	1.63	30.8
6	-520000	2.2	1.26	23.8
6	-530000	2.68	1.53	29
6	-540000	3.03	1.73	32.8
6	-550000	2.39	1.37	25.9
6	-560000	2.32	1.33	25.1
6	-570000	2.45	1.4	26.5
6	-580000	3.14	1.8	34
