rep_num	position	torque	torque_compensated	lbs_compensated
1	0	1.88	2.17	41
1	10000	6.04	6.36	120
1	20000	7.73	8.14	154
1	30000	8.33	8.78	166
1	40000	8.02	8.45	160
1	50000	8.21	8.65	164
1	60000	8.48	8.94	169
1	70000	8.33	8.78	166
1	80000	7.98	8.41	159
1	90000	7.99	8.42	159
1	100000	8.17	8.61	163
1	110000	7.76	8.18	155
1	120000	8.01	8.44	160
1	130000	8.44	8.9	168
1	140000	8.75	9.22	174
1	150000	9.03	9.52	180
1	160000	8.79	9.27	175
1	170000	8.94	9.42	178
1	180000	8.82	9.29	176
1	190000	8.58	9.04	171
1	200000	9.04	9.52	180
1	210000	9.56	10.1	190
1	220000	9.76	10.3	195
1	230000	9.98	10.5	199
1	240000	9.17	9.67	183
1	250000	8.87	9.35	177
1	260000	8.34	8.79	166
1	270000	8.55	9.01	170
1	280000	8.2	8.64	163
1	290000	8.55	9.01	170
1	300000	8.88	9.36	177
1	310000	9.18	9.68	183
1	320000	8.76	9.23	175
1	330000	9.1	9.59	181
1	340000	9.67	10.2	193
1	350000	9.67	10.2	193
1	360000	9.33	9.83	186
1	370000	9.92	10.5	198
1	380000	9.95	10.5	198
1	390000	10.2	10.7	202
1	400000	10	10.6	199
1	410000	10.1	10.7	201
1	420000	10.1	10.7	202
1	430000	9.7	10.2	193
1	440000	9.75	10.3	194
1	450000	9.73	10.3	194
1	460000	10.3	10.9	206
1	470000	10.5	11.1	210
2	0	12.7	10.5	198
2	-10000	14	11.7	221
2	-20000	13.2	11	207
2	-30000	12.5	10.2	193
2	-40000	12.8	10.5	199
2	-50000	13.5	11.2	212
2	-60000	13.4	11.2	211
2	-70000	12.5	10.3	194
2	-80000	12.2	9.94	188
2	-90000	11.2	8.91	168
2	-100000	10.8	8.49	161
2	-110000	11.1	8.89	168
2	-120000	11.1	8.87	168
2	-130000	11.8	9.53	180
2	-140000	13.1	10.8	205
2	-150000	12.5	10.2	194
2	-160000	12.3	10	189
2	-170000	11.6	9.32	176
2	-180000	11.5	9.2	174
2	-190000	12	9.75	184
2	-200000	12.1	9.87	187
2	-210000	12.5	10.2	193
2	-220000	13.2	10.9	207
2	-230000	13	10.8	204
2	-240000	14	11.8	223
2	-250000	14.4	12.2	230
2	-260000	14.5	12.2	231
2	-270000	14.5	12.2	231
2	-280000	13.6	11.3	214
2	-290000	13.4	11.1	210
2	-300000	13.5	11.3	213
2	-310000	13.6	11.3	214
2	-320000	13.2	10.9	206
2	-330000	13	10.7	203
2	-340000	12.6	10.3	195
2	-350000	13.1	10.8	204
2	-360000	12.9	10.6	201
2	-370000	13	10.7	203
2	-380000	12.6	10.3	195
2	-390000	12.5	10.2	194
2	-400000	13.4	11.2	211
2	-410000	14.3	12.1	228
2	-420000	15.3	13.1	247
2	-430000	16.7	14.5	274
2	-440000	16.4	14.1	267
2	-450000	15.7	13.4	253
2	-460000	14.6	12.3	233
2	-470000	13.5	11.2	212
2	0	11.4	12	227
2	10000	10.2	10.7	203
2	20000	10.4	10.9	207
2	30000	9.19	9.69	183
2	40000	8.06	8.49	161
2	50000	7.55	7.96	150
2	60000	7.26	7.65	145
2	70000	6.84	7.21	136
2	80000	6.37	6.71	127
2	90000	6.32	6.66	126
2	100000	6.51	6.86	130
2	110000	6.67	7.03	133
2	120000	5.96	6.29	119
2	130000	6.71	7.07	134
2	140000	7.57	7.98	151
2	150000	8.13	8.56	162
2	160000	8.39	8.84	167
2	170000	8.59	9.05	171
2	180000	8.53	8.99	170
2	190000	8.13	8.57	162
2	200000	7.91	8.34	158
2	210000	8.02	8.45	160
2	220000	7.62	8.03	152
2	230000	6.84	7.21	136
2	240000	6.85	7.22	136
2	250000	6.73	7.1	134
2	260000	6.82	7.18	136
2	270000	7.48	7.89	149
2	280000	7.7	8.11	153
2	290000	7.57	7.98	151
2	300000	6.47	6.82	129
2	310000	6.46	6.81	129
2	320000	6.48	6.83	129
2	330000	6.31	6.65	126
2	340000	6.53	6.89	130
2	350000	7	7.38	139
2	360000	7.09	7.48	141
2	370000	7.76	8.18	155
2	380000	8.27	8.72	165
2	390000	8.45	8.9	168
2	400000	8.24	8.68	164
2	410000	8.21	8.65	164
2	420000	8.51	8.97	170
2	430000	8.32	8.77	166
2	440000	8.5	8.96	169
2	450000	8.75	9.22	174
2	460000	9.26	9.76	184
2	470000	8.85	9.33	176
3	0	10.3	8.05	152
3	-10000	11.4	9.13	173
3	-20000	10.8	8.57	162
3	-30000	11	8.7	164
3	-40000	11.2	8.91	168
3	-50000	11.4	9.15	173
3	-60000	11.7	9.4	178
3	-70000	11.1	8.85	167
3	-80000	10.8	8.54	161
3	-90000	10.8	8.51	161
3	-100000	10.3	8.04	152
3	-110000	10.6	8.35	158
3	-120000	10.5	8.26	156
3	-130000	10.4	8.18	155
3	-140000	11.4	9.14	173
3	-150000	10.9	8.63	163
3	-160000	11.4	9.13	173
3	-170000	11.3	9	170
3	-180000	11.9	9.68	183
3	-190000	11.9	9.63	182
3	-200000	11.5	9.24	175
3	-210000	11.6	9.38	177
3	-220000	12.1	9.85	186
3	-230000	10.9	8.68	164
3	-240000	11.4	9.18	173
3	-250000	12	9.76	185
3	-260000	12.1	9.82	186
3	-270000	11.2	8.95	169
3	-280000	10.8	8.53	161
3	-290000	10.5	8.19	155
3	-300000	10.4	8.15	154
3	-310000	10.5	8.25	156
3	-320000	11.5	9.26	175
3	-330000	12.1	9.88	187
3	-340000	11.9	9.64	182
3	-350000	12.2	9.94	188
3	-360000	11.8	9.5	180
3	-370000	11	8.77	166
3	-380000	10.1	7.84	148
3	-390000	9.91	7.65	145
3	-400000	10.7	8.43	159
3	-410000	10.7	8.45	160
3	-420000	10.6	8.39	159
3	-430000	11.5	9.23	174
3	-440000	12.3	10	190
3	-450000	12.5	10.2	193
3	-460000	12.3	10.1	190
3	-470000	11.3	9.06	171
3	0	10.1	10.7	202
3	10000	8.01	8.45	160
3	20000	8.31	8.76	166
3	30000	8.49	8.95	169
3	40000	7.82	8.24	156
3	50000	7.1	7.48	141
3	60000	7.74	8.16	154
3	70000	7.6	8.01	151
3	80000	6.81	7.18	136
3	90000	7.3	7.7	145
3	100000	7.3	7.7	145
3	110000	7.28	7.68	145
3	120000	7.94	8.37	158
3	130000	7.84	8.26	156
3	140000	7.68	8.1	153
3	150000	7.13	7.51	142
3	160000	6.74	7.1	134
3	170000	6.83	7.2	136
3	180000	6.52	6.87	130
3	190000	5.87	6.19	117
3	200000	5.5	5.8	110
3	210000	6.11	6.44	122
3	220000	6.35	6.69	127
3	230000	6.43	6.77	128
3	240000	6.11	6.44	122
3	250000	6.21	6.54	124
3	260000	6.3	6.64	126
3	270000	7.13	7.52	142
3	280000	7.4	7.8	147
3	290000	6.68	7.04	133
3	300000	6.76	7.12	135
3	310000	6.73	7.09	134
3	320000	6.18	6.52	123
3	330000	6.03	6.36	120
3	340000	6.17	6.51	123
3	350000	6.34	6.68	126
3	360000	6.24	6.58	124
3	370000	6.39	6.74	127
3	380000	6.2	6.54	124
3	390000	6.37	6.71	127
3	400000	6.33	6.68	126
3	410000	6.85	7.23	137
3	420000	6.58	6.94	131
3	430000	6.41	6.75	128
3	440000	6.8	7.17	135
3	450000	7.19	7.58	143
3	460000	8.2	8.64	163
3	470000	7.84	8.27	156
4	0	9.35	7.09	134
4	-10000	11.2	8.95	169
4	-20000	10.3	7.99	151
4	-30000	9.9	7.64	144
4	-40000	9.39	7.13	135
4	-50000	8.95	6.69	126
4	-60000	8.92	6.66	126
4	-70000	8.55	6.29	119
4	-80000	9.25	6.99	132
4	-90000	9.27	7.01	132
4	-100000	9.77	7.51	142
4	-110000	10.6	8.34	158
4	-120000	10.6	8.37	158
4	-130000	10.6	8.35	158
4	-140000	10.9	8.68	164
4	-150000	11.2	8.95	169
4	-160000	11.9	9.62	182
4	-170000	11.7	9.43	178
4	-180000	12.2	9.98	189
4	-190000	11.8	9.55	181
4	-200000	11.4	9.14	173
4	-210000	12	9.73	184
4	-220000	12.8	10.5	199
4	-230000	13.7	11.4	216
4	-240000	14.6	12.4	234
4	-250000	14.3	12	227
4	-260000	13.6	11.3	214
4	-270000	13.3	11	208
4	-280000	13.4	11.2	211
4	-290000	13.6	11.3	214
4	-300000	13.5	11.2	212
4	-310000	13.1	10.8	205
4	-320000	13.3	11	209
4	-330000	13.8	11.5	217
4	-340000	13.7	11.5	217
4	-350000	13.8	11.5	218
4	-360000	14.3	12	227
4	-370000	14.3	12.1	228
4	-380000	14.1	11.8	223
4	-390000	13.4	11.1	210
4	-400000	13.6	11.3	214
4	-410000	12.8	10.5	198
4	-420000	12.7	10.5	198
4	-430000	13.3	11	208
4	-440000	12.5	10.3	194
4	-450000	11.9	9.6	181
4	-460000	10.6	8.34	158
4	-470000	9.68	7.42	140
4	0	8.09	8.53	161
4	10000	7.39	7.79	147
4	20000	7.88	8.3	157
4	30000	7.9	8.32	157
4	40000	7.62	8.03	152
4	50000	7.66	8.07	153
4	60000	7.13	7.51	142
4	70000	6.53	6.88	130
4	80000	6.27	6.61	125
4	90000	5.81	6.13	116
4	100000	5.56	5.86	111
4	110000	5.16	5.44	103
4	120000	5.06	5.34	101
4	130000	5.72	6.03	114
4	140000	5.58	5.88	111
4	150000	5.36	5.65	107
4	160000	4.81	5.1	96.3
4	170000	4.61	4.89	92.4
4	180000	4.04	4.32	81.7
4	190000	3.48	3.77	71.3
4	200000	3.54	3.83	72.4
4	210000	4.17	4.45	84.2
4	220000	4.17	4.46	84.2
4	230000	4.16	4.45	84.1
4	240000	3.41	3.7	69.9
4	250000	3.95	4.23	80
4	260000	3.9	4.18	79.1
4	270000	3.78	4.06	76.8
4	280000	3.18	3.47	65.5
4	290000	3.67	3.96	74.8
4	300000	4.3	4.59	86.7
4	310000	4.93	5.21	98.5
4	320000	5.04	5.32	101
4	330000	4.28	4.57	86.3
4	340000	4.45	4.73	89.5
4	350000	4.4	4.69	88.6
4	360000	4.35	4.64	87.6
4	370000	4.51	4.79	90.6
4	380000	4.36	4.64	87.8
4	390000	4.1	4.38	82.8
4	400000	3.89	4.17	78.9
4	410000	3.82	4.1	77.5
4	420000	4.39	4.67	88.3
4	430000	4.35	4.63	87.5
4	440000	4.93	5.22	98.6
4	450000	4.86	5.15	97.3
4	460000	5.15	5.43	103
4	470000	5.37	5.66	107
5	0	6.65	4.39	83
5	-10000	7.42	5.16	97.5
5	-20000	7.17	4.91	92.8
5	-30000	6.75	4.49	84.8
5	-40000	6.79	4.53	85.6
5	-50000	6.92	4.66	88.1
5	-60000	6.43	4.17	78.9
5	-70000	6.44	4.18	79.1
5	-80000	6.97	4.71	89
5	-90000	6.72	4.46	84.2
5	-100000	6.57	4.31	81.5
5	-110000	7.6	5.34	101
5	-120000	7.77	5.51	104
5	-130000	7.52	5.26	99.4
5	-140000	7.65	5.39	102
5	-150000	7.24	4.98	94.2
5	-160000	7.57	5.31	100
5	-170000	7.93	5.67	107
5	-180000	9.27	7.01	132
5	-190000	9.69	7.43	140
5	-200000	9.74	7.48	141
5	-210000	9.83	7.57	143
5	-220000	9.69	7.43	140
5	-230000	9.25	6.99	132
5	-240000	9.94	7.68	145
5	-250000	10.4	8.14	154
5	-260000	10.3	8.07	152
5	-270000	9.83	7.57	143
5	-280000	10.1	7.88	149
5	-290000	10.6	8.35	158
5	-300000	10.1	7.87	149
5	-310000	9.62	7.36	139
5	-320000	9.93	7.67	145
5	-330000	10.2	7.98	151
5	-340000	10.1	7.85	148
5	-350000	10.1	7.88	149
5	-360000	10.2	7.95	150
5	-370000	9.71	7.45	141
5	-380000	9.74	7.48	141
5	-390000	9.34	7.08	134
5	-400000	9.78	7.52	142
5	-410000	9.54	7.28	138
5	-420000	9.69	7.43	140
5	-430000	10.9	8.62	163
5	-440000	11.4	9.11	172
5	-450000	11.7	9.44	178
5	-460000	11.4	9.11	172
5	-470000	10.2	7.97	151
5	0	8.44	8.9	168
5	10000	6.03	6.35	120
5	20000	5.63	5.93	112
5	30000	4.97	5.25	99.3
5	40000	4.34	4.63	87.5
5	50000	4.45	4.73	89.4
5	60000	4.28	4.57	86.4
5	70000	3.78	4.07	76.8
5	80000	3.43	3.71	70.2
5	90000	3.19	3.47	65.7
5	100000	3.33	3.61	68.3
5	110000	2.8	3.08	58.3
5	120000	2.91	3.19	60.3
5	130000	2.42	2.71	51.2
5	140000	2.65	2.94	55.5
5	150000	2.64	2.92	55.3
5	160000	2.28	2.57	48.6
5	170000	2.77	3.05	57.7
5	180000	3.18	3.47	65.5
5	190000	3.23	3.51	66.4
5	200000	3.51	3.8	71.7
5	210000	3.47	3.75	71
5	220000	3.21	3.5	66.2
5	230000	2.86	3.15	59.5
5	240000	2.06	2.34	44.3
5	250000	2.48	2.76	52.2
5	260000	2.42	2.71	51.2
5	270000	2.37	2.66	50.2
5	280000	3.09	3.37	63.8
5	290000	2.73	3.02	57
5	300000	2.59	2.88	54.4
5	310000	4.09	4.38	82.7
5	320000	4.2	4.48	84.8
5	330000	4.45	4.73	89.5
5	340000	4.63	4.91	92.8
5	350000	3.91	4.19	79.3
5	360000	3.51	3.79	71.7
5	370000	3.4	3.69	69.7
5	380000	3	3.29	62.1
5	390000	2.74	3.03	57.3
5	400000	3.17	3.45	65.3
5	410000	2.83	3.12	58.9
5	420000	2.76	3.04	57.5
5	430000	2.72	3.01	56.8
5	440000	3.65	3.94	74.4
5	450000	3.66	3.95	74.6
5	460000	5.07	5.36	101
5	470000	5.37	5.66	107
6	0	6.35	4.09	77.3
6	-10000	6.72	4.46	84.3
6	-20000	6.83	4.57	86.3
6	-30000	6.5	4.24	80.2
6	-40000	6.56	4.3	81.2
6	-50000	5.93	3.67	69.4
6	-60000	5.88	3.62	68.5
6	-70000	5.52	3.26	61.5
6	-80000	6.16	3.9	73.7
6	-90000	6.15	3.89	73.5
6	-100000	5.8	3.54	66.9
6	-110000	6	3.74	70.7
6	-120000	6.93	4.67	88.3
6	-130000	7.16	4.9	92.6
6	-140000	8.06	5.8	110
6	-150000	8	5.74	108
6	-160000	7.76	5.5	104
6	-170000	7.64	5.38	102
6	-180000	8.35	6.09	115
6	-190000	8.75	6.49	123
6	-200000	8.77	6.51	123
6	-210000	9	6.74	127
6	-220000	9.02	6.76	128
6	-230000	8.94	6.68	126
6	-240000	9.59	7.33	138
6	-250000	10	7.75	147
6	-260000	10.2	7.96	150
6	-270000	10.1	7.82	148
6	-280000	10	7.74	146
6	-290000	9.73	7.47	141
6	-300000	9.51	7.25	137
6	-310000	9.85	7.59	143
6	-320000	10	7.77	147
6	-330000	9.98	7.72	146
6	-340000	10.3	8.01	151
6	-350000	10.1	7.89	149
6	-360000	10.3	8.06	152
6	-370000	11	8.73	165
6	-380000	10.8	8.58	162
6	-390000	10.4	8.11	153
6	-400000	10.8	8.52	161
6	-410000	10.6	8.31	157
6	-420000	10.6	8.31	157
6	-430000	11.5	9.22	174
6	-440000	10.9	8.69	164
6	-450000	10.5	8.23	156
6	-460000	9.85	7.59	143
6	-470000	9.2	6.94	131
