rep_num	position	torque	torque_compensated	lbs_compensated
1	0	3.68	3.97	75
1	10000	6.19	6.52	123
1	20000	8.55	9.02	170
1	30000	7.28	7.68	145
1	40000	7.26	7.65	145
1	50000	8.58	9.04	171
1	60000	8.85	9.33	176
1	70000	7.9	8.32	157
1	80000	7.72	8.14	154
1	90000	9.24	9.74	184
1	100000	9.56	10.1	190
1	110000	8.44	8.9	168
1	120000	8.51	8.97	170
1	130000	9.31	9.81	185
1	140000	9.04	9.53	180
1	150000	7.87	8.29	157
1	160000	7.28	7.67	145
1	170000	8.86	9.34	177
1	180000	8.86	9.34	177
1	190000	7.61	8.02	152
1	200000	7.34	7.73	146
1	210000	8.48	8.94	169
1	220000	8.38	8.83	167
1	230000	6.91	7.29	138
1	240000	6.76	7.13	135
1	250000	7.94	8.37	158
1	260000	7.94	8.37	158
1	270000	6.67	7.03	133
1	280000	6.51	6.86	130
1	290000	7.67	8.08	153
1	300000	7.91	8.34	158
1	310000	6.71	7.07	134
1	320000	6.74	7.11	134
1	330000	7.64	8.05	152
1	340000	7.88	8.3	157
1	350000	7.17	7.56	143
1	360000	7.2	7.59	143
1	370000	8.58	9.04	171
1	380000	9.17	9.66	183
1	390000	8.4	8.85	167
1	400000	8.41	8.86	167
1	410000	9.78	10.3	195
1	420000	9.85	10.4	196
1	430000	8.09	8.53	161
1	440000	8.21	8.66	164
1	450000	8.11	8.55	162
1	460000	7.68	8.1	153
1	470000	6.94	7.32	138
2	0	9.18	6.92	131
2	-10000	8.85	6.59	125
2	-20000	9.95	7.69	145
2	-30000	8.32	6.06	115
2	-40000	9.31	7.05	133
2	-50000	9.99	7.73	146
2	-60000	10.2	7.9	149
2	-70000	9.79	7.53	142
2	-80000	10.3	8.02	152
2	-90000	11.2	8.9	168
2	-100000	10.8	8.57	162
2	-110000	9.28	7.02	133
2	-120000	9.39	7.13	135
2	-130000	10.3	8	151
2	-140000	10.3	8.09	153
2	-150000	9.68	7.42	140
2	-160000	9.48	7.22	136
2	-170000	10.3	8.01	151
2	-180000	10.3	8.02	151
2	-190000	9.49	7.23	137
2	-200000	9.37	7.11	134
2	-210000	10	7.76	147
2	-220000	9.54	7.28	138
2	-230000	9.37	7.11	134
2	-240000	9.07	6.81	129
2	-250000	10.4	8.13	154
2	-260000	11	8.76	165
2	-270000	10.4	8.1	153
2	-280000	10.9	8.62	163
2	-290000	11.6	9.34	176
2	-300000	11.7	9.4	178
2	-310000	10.5	8.27	156
2	-320000	10	7.79	147
2	-330000	11.7	9.42	178
2	-340000	11.7	9.48	179
2	-350000	10.4	8.16	154
2	-360000	11.4	9.12	172
2	-370000	11.6	9.38	177
2	-380000	11.1	8.8	166
2	-390000	10.1	7.85	148
2	-400000	10.9	8.64	163
2	-410000	11.6	9.3	176
2	-420000	11.4	9.11	172
2	-430000	10.7	8.41	159
2	-440000	11	8.79	166
2	-450000	10.4	8.14	154
2	-460000	10.1	7.82	148
2	-470000	9.8	7.54	142
2	0	8.67	9.14	173
2	10000	7.49	7.89	149
2	20000	9.44	9.95	188
2	30000	8.55	9.02	170
2	40000	7.87	8.3	157
2	50000	8.83	9.31	176
2	60000	8.41	8.87	168
2	70000	6.91	7.28	138
2	80000	6.86	7.23	137
2	90000	8.36	8.82	167
2	100000	8.1	8.54	161
2	110000	6.74	7.11	134
2	120000	7.3	7.7	146
2	130000	8.29	8.73	165
2	140000	7.76	8.18	155
2	150000	6.69	7.05	133
2	160000	6.62	6.98	132
2	170000	7.11	7.5	142
2	180000	6.47	6.82	129
2	190000	5.17	5.45	103
2	200000	5.09	5.37	102
2	210000	6.29	6.63	125
2	220000	6.38	6.73	127
2	230000	5.16	5.44	103
2	240000	4.85	5.14	97.1
2	250000	5.64	5.95	112
2	260000	5.12	5.4	102
2	270000	4.56	4.85	91.6
2	280000	4.4	4.69	88.6
2	290000	5.5	5.8	110
2	300000	5.86	6.18	117
2	310000	4.93	5.21	98.5
2	320000	4.52	4.8	90.8
2	330000	5.35	5.64	107
2	340000	4.96	5.24	99.1
2	350000	4.38	4.67	88.3
2	360000	4.1	4.38	82.9
2	370000	5.41	5.7	108
2	380000	6.13	6.46	122
2	390000	5.55	5.85	111
2	400000	6.71	7.07	134
2	410000	8.57	9.03	171
2	420000	8.48	8.94	169
2	430000	7.54	7.94	150
2	440000	7.89	8.31	157
2	450000	8.53	8.99	170
2	460000	8.71	9.18	173
2	470000	8.35	8.81	166
3	0	10.8	8.53	161
3	-10000	11	8.78	166
3	-20000	10.9	8.62	163
3	-30000	8.91	6.65	126
3	-40000	9.76	7.5	142
3	-50000	9.98	7.72	146
3	-60000	10.1	7.81	148
3	-70000	9.36	7.1	134
3	-80000	9.36	7.1	134
3	-90000	10.7	8.48	160
3	-100000	10.5	8.28	157
3	-110000	10.1	7.85	148
3	-120000	10	7.79	147
3	-130000	10.4	8.15	154
3	-140000	10.2	7.9	149
3	-150000	9.26	7	132
3	-160000	9.16	6.9	130
3	-170000	10.2	7.92	150
3	-180000	9.67	7.41	140
3	-190000	8.42	6.16	116
3	-200000	8.97	6.71	127
3	-210000	10	7.78	147
3	-220000	9.84	7.58	143
3	-230000	9.22	6.96	132
3	-240000	9.06	6.8	128
3	-250000	10.3	8.06	152
3	-260000	10.6	8.35	158
3	-270000	8.98	6.72	127
3	-280000	9.18	6.92	131
3	-290000	10.1	7.88	149
3	-300000	10.1	7.86	149
3	-310000	9.05	6.79	128
3	-320000	10.2	7.9	149
3	-330000	12.4	10.1	191
3	-340000	12.4	10.1	192
3	-350000	11.8	9.55	181
3	-360000	12.8	10.5	199
3	-370000	13.4	11.1	210
3	-380000	13	10.7	202
3	-390000	11.3	8.99	170
3	-400000	11.1	8.79	166
3	-410000	11.6	9.36	177
3	-420000	11.2	8.97	169
3	-430000	10.3	8.01	151
3	-440000	10.7	8.43	159
3	-450000	10.1	7.8	147
3	-460000	9.85	7.59	143
3	-470000	9.07	6.81	129
3	0	7.48	7.89	149
3	10000	7.15	7.53	142
3	20000	8.22	8.66	164
3	30000	6.68	7.04	133
3	40000	6.13	6.46	122
3	50000	7.15	7.54	142
3	60000	7.07	7.46	141
3	70000	5.84	6.15	116
3	80000	5.43	5.73	108
3	90000	6.48	6.83	129
3	100000	6.34	6.68	126
3	110000	4.44	4.72	89.3
3	120000	4.23	4.52	85.4
3	130000	5.28	5.57	105
3	140000	4.72	5.01	94.7
3	150000	3.96	4.25	80.3
3	160000	3.77	4.05	76.6
3	170000	4.5	4.79	90.5
3	180000	4.77	5.06	95.6
3	190000	3.82	4.1	77.5
3	200000	3.55	3.84	72.5
3	210000	4.58	4.87	92
3	220000	4.95	5.24	99
3	230000	4.23	4.51	85.3
3	240000	4.89	5.18	97.8
3	250000	6.07	6.4	121
3	260000	6.46	6.8	129
3	270000	6.31	6.65	126
3	280000	6.54	6.89	130
3	290000	7.86	8.28	157
3	300000	8.03	8.47	160
3	310000	7.43	7.83	148
3	320000	7.42	7.82	148
3	330000	8.03	8.47	160
3	340000	8.01	8.44	160
3	350000	7.47	7.87	149
3	360000	7.27	7.66	145
3	370000	8.09	8.52	161
3	380000	8.19	8.63	163
3	390000	6.84	7.21	136
3	400000	7.03	7.41	140
3	410000	8.61	9.08	172
3	420000	8.06	8.49	161
3	430000	6.29	6.63	125
3	440000	6.33	6.68	126
3	450000	7.14	7.53	142
3	460000	7.41	7.81	148
3	470000	6.79	7.15	135
4	0	8.7	6.44	122
4	-10000	8.57	6.31	119
4	-20000	9.33	7.07	134
4	-30000	6.96	4.7	88.9
4	-40000	7.49	5.23	98.8
4	-50000	8.13	5.87	111
4	-60000	8.41	6.15	116
4	-70000	7.75	5.49	104
4	-80000	7.77	5.51	104
4	-90000	8.68	6.42	121
4	-100000	7.8	5.54	105
4	-110000	7.02	4.76	90
4	-120000	7.96	5.7	108
4	-130000	9.28	7.02	133
4	-140000	9.38	7.12	134
4	-150000	8.17	5.91	112
4	-160000	8.46	6.2	117
4	-170000	10.4	8.12	154
4	-180000	10.1	7.83	148
4	-190000	8.64	6.38	120
4	-200000	8.61	6.35	120
4	-210000	9.75	7.49	142
4	-220000	9.51	7.25	137
4	-230000	8.73	6.47	122
4	-240000	7.99	5.73	108
4	-250000	9.25	6.99	132
4	-260000	9.7	7.44	141
4	-270000	8.73	6.47	122
4	-280000	9.4	7.14	135
4	-290000	10.6	8.38	158
4	-300000	10.6	8.33	157
4	-310000	9.53	7.27	137
4	-320000	9.07	6.81	129
4	-330000	10.5	8.22	155
4	-340000	10.4	8.15	154
4	-350000	8.85	6.59	124
4	-360000	9.69	7.43	140
4	-370000	10	7.75	146
4	-380000	9.48	7.22	136
4	-390000	8.52	6.26	118
4	-400000	9.21	6.95	131
4	-410000	10.6	8.31	157
4	-420000	10.4	8.1	153
4	-430000	9.32	7.06	134
4	-440000	9.8	7.54	143
4	-450000	9.12	6.86	130
4	-460000	9.23	6.97	132
4	-470000	8.83	6.57	124
4	0	7.4	7.8	147
4	10000	6.03	6.36	120
4	20000	6.89	7.26	137
4	30000	5.44	5.74	108
4	40000	4.91	5.2	98.2
4	50000	5.72	6.03	114
4	60000	5.74	6.05	114
4	70000	4.46	4.75	89.7
4	80000	3.86	4.14	78.3
4	90000	4.9	5.18	98
4	100000	4.79	5.07	95.9
4	110000	3.74	4.02	76.1
4	120000	4.6	4.88	92.3
4	130000	5.63	5.93	112
4	140000	4.96	5.24	99.1
4	150000	3.44	3.73	70.4
4	160000	3.69	3.98	75.2
4	170000	4.92	5.21	98.4
4	180000	4.61	4.89	92.5
4	190000	3.25	3.54	66.9
4	200000	3.06	3.35	63.2
4	210000	3.64	3.93	74.3
4	220000	4.52	4.8	90.7
4	230000	3.18	3.47	65.6
4	240000	3.16	3.45	65.2
4	250000	3.98	4.26	80.5
4	260000	4.16	4.45	84
4	270000	3.36	3.65	69
4	280000	3.42	3.71	70.1
4	290000	4.03	4.32	81.6
4	300000	3.98	4.26	80.6
4	310000	2.95	3.24	61.2
4	320000	3.11	3.39	64.1
4	330000	4.35	4.64	87.7
4	340000	3.9	4.19	79.2
4	350000	3.35	3.64	68.8
4	360000	3.08	3.37	63.7
4	370000	4.65	4.94	93.3
4	380000	5.78	6.09	115
4	390000	5.46	5.75	109
4	400000	6.24	6.58	124
4	410000	8.58	9.05	171
4	420000	8.62	9.08	172
4	430000	7.55	7.96	150
4	440000	7.54	7.95	150
4	450000	7.61	8.02	152
4	460000	7.2	7.59	143
4	470000	6.47	6.82	129
5	0	8.35	6.09	115
5	-10000	7.89	5.63	106
5	-20000	8.48	6.22	118
5	-30000	7.5	5.24	98.9
5	-40000	8.23	5.97	113
5	-50000	8.22	5.96	113
5	-60000	7.86	5.6	106
5	-70000	6.6	4.34	81.9
5	-80000	6.35	4.09	77.4
5	-90000	7.16	4.9	92.7
5	-100000	7.38	5.12	96.7
5	-110000	6.61	4.35	82.1
5	-120000	6.55	4.29	81.1
5	-130000	7.7	5.44	103
5	-140000	8.19	5.93	112
5	-150000	7.44	5.18	97.9
5	-160000	7.52	5.26	99.5
5	-170000	8.44	6.18	117
5	-180000	7.7	5.44	103
5	-190000	6.67	4.41	83.4
5	-200000	6.85	4.59	86.8
5	-210000	7.81	5.55	105
5	-220000	7.97	5.71	108
5	-230000	9.08	6.82	129
5	-240000	8.9	6.64	125
5	-250000	10.2	7.9	149
5	-260000	10.5	8.29	157
5	-270000	9.32	7.06	133
5	-280000	8.89	6.63	125
5	-290000	9.43	7.17	135
5	-300000	9.26	7	132
5	-310000	8.14	5.88	111
5	-320000	8.95	6.69	126
5	-330000	10.8	8.52	161
5	-340000	9.77	7.51	142
5	-350000	8.13	5.87	111
5	-360000	8.61	6.35	120
5	-370000	8.92	6.66	126
5	-380000	9.41	7.15	135
5	-390000	8.65	6.39	121
5	-400000	8.75	6.49	123
5	-410000	9.56	7.3	138
5	-420000	9	6.74	127
5	-430000	8.19	5.93	112
5	-440000	9.05	6.79	128
5	-450000	8.75	6.49	123
5	-460000	8.69	6.43	122
5	-470000	7.93	5.67	107
5	0	5.88	6.2	117
5	10000	5.25	5.54	105
5	20000	6.38	6.73	127
5	30000	4.45	4.74	89.5
5	40000	3.84	4.12	77.9
5	50000	4.94	5.23	98.8
5	60000	4.54	4.83	91.3
5	70000	2.97	3.25	61.5
5	80000	2.82	3.11	58.8
5	90000	4.45	4.74	89.5
5	100000	4.54	4.82	91.2
5	110000	3.04	3.32	62.8
5	120000	3.04	3.33	62.9
5	130000	4.07	4.36	82.4
5	140000	3.83	4.12	77.8
5	150000	2.62	2.9	54.8
5	160000	2.92	3.21	60.6
5	170000	3.58	3.87	73.1
5	180000	3.59	3.88	73.2
5	190000	3.08	3.37	63.6
5	200000	3.01	3.3	62.4
5	210000	4.02	4.31	81.4
5	220000	4.28	4.57	86.4
5	230000	2.52	2.81	53
5	240000	2.8	3.09	58.4
5	250000	3.46	3.75	70.8
5	260000	2.89	3.18	60
5	270000	2.19	2.47	46.7
5	280000	2.16	2.45	46.3
5	290000	3.21	3.5	66.1
5	300000	3.25	3.54	66.8
5	310000	2.62	2.91	54.9
5	320000	3.23	3.51	66.4
5	330000	4.21	4.49	84.9
5	340000	4.02	4.3	81.4
5	350000	2.81	3.09	58.4
5	360000	3.07	3.36	63.4
5	370000	4.61	4.89	92.5
5	380000	5.13	5.42	102
5	390000	3.72	4	75.7
5	400000	3.83	4.12	77.8
5	410000	5.48	5.77	109
5	420000	4.89	5.17	97.8
5	430000	4.2	4.48	84.8
5	440000	4.46	4.74	89.6
5	450000	5.05	5.34	101
5	460000	4.99	5.27	99.7
5	470000	4.05	4.34	82
6	0	5.52	3.26	61.7
6	-10000	5.72	3.46	65.4
6	-20000	6.56	4.3	81.3
6	-30000	4.98	2.86	54
6	-40000	5.55	3.29	62.1
6	-50000	5.94	3.68	69.5
6	-60000	5.64	3.38	63.9
6	-70000	4.64	2.66	50.3
6	-80000	5.25	3.01	56.8
6	-90000	6.37	4.11	77.8
6	-100000	5.62	3.36	63.4
6	-110000	4.61	2.64	50
6	-120000	5.13	2.94	55.5
6	-130000	6.07	3.81	72
6	-140000	5.94	3.68	69.6
6	-150000	4.86	2.79	52.7
6	-160000	4.85	2.78	52.6
6	-170000	6.41	4.15	78.4
6	-180000	6.88	4.62	87.2
6	-190000	6.41	4.15	78.5
6	-200000	6.97	4.71	89
6	-210000	7.72	5.46	103
6	-220000	7.18	4.92	92.9
6	-230000	6.15	3.89	73.5
6	-240000	5.8	3.54	67
6	-250000	7.34	5.08	96
6	-260000	7.99	5.73	108
6	-270000	7.42	5.16	97.5
6	-280000	7.89	5.63	106
6	-290000	8.84	6.58	124
6	-300000	9.25	6.99	132
6	-310000	7.91	5.65	107
6	-320000	7.56	5.3	100
6	-330000	8.78	6.52	123
6	-340000	8.17	5.91	112
6	-350000	6.93	4.67	88.3
6	-360000	7.66	5.4	102
6	-370000	8.16	5.9	111
6	-380000	7.88	5.62	106
6	-390000	6.88	4.62	87.3
6	-400000	7.09	4.83	91.3
6	-410000	8.38	6.12	116
6	-420000	7.87	5.61	106
6	-430000	7.41	5.15	97.3
6	-440000	7.47	5.21	98.4
6	-450000	6.74	4.48	84.6
6	-460000	6.6	4.34	82.1
6	-470000	5.79	3.53	66.8
