rep_num	position	torque	torque_compensated	lbs_compensated
1	0	3.01	3.29	62.2
1	10000	4.72	5.01	94.7
1	20000	6.89	7.26	137
1	30000	6.68	7.04	133
1	40000	7.01	7.39	140
1	50000	8.37	8.83	167
1	60000	8.72	9.19	174
1	70000	8.5	8.96	169
1	80000	8.84	9.32	176
1	90000	9.26	9.77	185
1	100000	9.16	9.65	182
1	110000	8.44	8.9	168
1	120000	8.48	8.94	169
1	130000	9.25	9.75	184
1	140000	9.05	9.54	180
1	150000	8.45	8.91	168
1	160000	8.25	8.7	164
1	170000	8.99	9.48	179
1	180000	9.01	9.49	179
1	190000	8.57	9.03	171
1	200000	8.75	9.22	174
1	210000	8.94	9.42	178
1	220000	8.84	9.32	176
1	230000	8.51	8.97	169
1	240000	8.36	8.81	167
1	250000	8.46	8.92	169
1	260000	8.45	8.91	168
1	270000	7.82	8.25	156
1	280000	7.33	7.72	146
1	290000	7.85	8.27	156
1	300000	8.8	9.28	175
1	310000	8.95	9.43	178
1	320000	9.1	9.59	181
1	330000	9.72	10.2	194
1	340000	10.1	10.6	201
1	350000	9.3	9.8	185
1	360000	9.37	9.88	187
1	370000	10.4	10.9	207
1	380000	10.4	10.9	206
1	390000	9.49	10	189
1	400000	9.34	9.84	186
1	410000	9.48	9.99	189
1	420000	9.43	9.94	188
1	430000	8.7	9.17	173
1	440000	8.49	8.95	169
1	450000	8.75	9.22	174
1	460000	9.04	9.53	180
1	470000	8.86	9.34	177
1	0	10.3	8.02	152
1	-10000	12.6	10.3	196
1	-20000	12.2	9.91	187
1	-30000	10.5	8.19	155
1	-40000	10.6	8.3	157
1	-50000	10.5	8.28	156
1	-60000	9.15	6.89	130
1	-70000	8.79	6.53	123
1	-80000	9.6	7.34	139
1	-90000	9.56	7.3	138
1	-100000	9.16	6.9	130
1	-110000	8.88	6.62	125
1	-120000	9.36	7.1	134
1	-130000	9.81	7.55	143
1	-140000	9.39	7.13	135
1	-150000	9.97	7.71	146
1	-160000	10.8	8.52	161
1	-170000	11.2	8.92	169
1	-180000	11.1	8.83	167
1	-190000	10.4	8.13	154
1	-200000	10.8	8.55	162
1	-210000	11.3	9.06	171
1	-220000	10.9	8.62	163
1	-230000	10.7	8.41	159
1	-240000	11.7	9.47	179
1	-250000	12.8	10.5	199
1	-260000	12.8	10.6	200
1	-270000	12.6	10.3	195
1	-280000	13.2	10.9	207
1	-290000	12.8	10.5	198
1	-300000	11.5	9.25	175
1	-310000	11.3	8.99	170
1	-320000	12	9.74	184
1	-330000	12.3	10.1	191
1	-340000	11.4	9.16	173
1	-350000	11.2	8.97	170
1	-360000	11.8	9.55	181
1	-370000	12.6	10.3	195
1	-380000	12	9.76	184
1	-390000	11.7	9.48	179
1	-400000	12.3	10	189
1	-410000	11.9	9.62	182
1	-420000	11.5	9.23	174
1	-430000	10.9	8.67	164
1	-440000	11.6	9.34	177
1	-450000	11.5	9.2	174
1	-460000	10.7	8.45	160
1	-470000	10.8	8.5	161
2	0	9.42	9.92	188
2	10000	9.42	9.92	188
2	20000	9.9	10.4	197
2	30000	8.61	9.07	171
2	40000	8.11	8.55	162
2	50000	8.87	9.35	177
2	60000	8.71	9.18	174
2	70000	8.27	8.72	165
2	80000	7.66	8.08	153
2	90000	7.99	8.42	159
2	100000	8.16	8.6	163
2	110000	7.52	7.92	150
2	120000	7.75	8.17	154
2	130000	8.42	8.88	168
2	140000	8.37	8.83	167
2	150000	7.56	7.97	151
2	160000	7.31	7.71	146
2	170000	7.82	8.24	156
2	180000	7.65	8.06	152
2	190000	6.75	7.11	134
2	200000	6.92	7.3	138
2	210000	7.4	7.8	147
2	220000	6.72	7.08	134
2	230000	6.79	7.16	135
2	240000	6.77	7.14	135
2	250000	7.24	7.63	144
2	260000	6.77	7.14	135
2	270000	6.24	6.58	124
2	280000	5.83	6.14	116
2	290000	6.48	6.84	129
2	300000	6.24	6.58	124
2	310000	6.28	6.62	125
2	320000	6.39	6.74	127
2	330000	7.26	7.65	145
2	340000	7.56	7.97	151
2	350000	5.97	6.29	119
2	360000	5.63	5.94	112
2	370000	6.01	6.34	120
2	380000	5.85	6.16	116
2	390000	6.18	6.51	123
2	400000	7.35	7.74	146
2	410000	8.44	8.9	168
2	420000	9.34	9.85	186
2	430000	8.7	9.17	173
2	440000	8.63	9.1	172
2	450000	8.63	9.09	172
2	460000	8.85	9.32	176
2	470000	8.05	8.49	160
2	0	8.97	6.71	127
2	-10000	9.27	7.01	132
2	-20000	8.74	6.48	123
2	-30000	8.05	5.79	109
2	-40000	8.63	6.37	120
2	-50000	9.29	7.03	133
2	-60000	7.94	5.68	107
2	-70000	7.31	5.05	95.4
2	-80000	7.72	5.46	103
2	-90000	8.63	6.37	120
2	-100000	9.57	7.31	138
2	-110000	10.3	8.04	152
2	-120000	11.8	9.53	180
2	-130000	12.7	10.5	198
2	-140000	12.3	10	190
2	-150000	11.9	9.6	181
2	-160000	12	9.73	184
2	-170000	11.9	9.63	182
2	-180000	12.2	9.89	187
2	-190000	11.6	9.3	176
2	-200000	11.1	8.84	167
2	-210000	11.1	8.88	168
2	-220000	11.7	9.42	178
2	-230000	11.6	9.38	177
2	-240000	11.9	9.64	182
2	-250000	12.3	10	189
2	-260000	11.5	9.28	175
2	-270000	10.3	8.01	151
2	-280000	10.9	8.63	163
2	-290000	11.3	9.01	170
2	-300000	10.5	8.2	155
2	-310000	10	7.76	147
2	-320000	10.4	8.09	153
2	-330000	11.3	9.07	171
2	-340000	12.3	10	190
2	-350000	12.1	9.81	185
2	-360000	11.2	8.93	169
2	-370000	11.8	9.56	181
2	-380000	10.4	8.17	154
2	-390000	9.7	7.44	141
2	-400000	10.4	8.17	154
2	-410000	11	8.76	166
2	-420000	10.5	8.26	156
2	-430000	10.7	8.47	160
2	-440000	11	8.72	165
2	-450000	10.6	8.35	158
2	-460000	9.67	7.41	140
2	-470000	9.46	7.2	136
3	0	7.75	8.17	154
3	10000	8.59	9.05	171
3	20000	9.27	9.77	185
3	30000	7.78	8.2	155
3	40000	6.84	7.21	136
3	50000	7.42	7.82	148
3	60000	6.61	6.97	132
3	70000	5.88	6.19	117
3	80000	5.99	6.31	119
3	90000	5.8	6.12	116
3	100000	5.68	5.99	113
3	110000	5.21	5.49	104
3	120000	5.09	5.37	102
3	130000	5.75	6.06	115
3	140000	5.83	6.15	116
3	150000	5.46	5.76	109
3	160000	4.93	5.21	98.5
3	170000	5.36	5.65	107
3	180000	5.37	5.66	107
3	190000	4.74	5.03	95
3	200000	4.82	5.11	96.5
3	210000	5.61	5.91	112
3	220000	5.59	5.89	111
3	230000	6.12	6.45	122
3	240000	6.37	6.72	127
3	250000	6.3	6.64	126
3	260000	4.99	5.28	99.8
3	270000	4.62	4.9	92.7
3	280000	4.37	4.65	87.9
3	290000	4.25	4.53	85.7
3	300000	4.61	4.89	92.5
3	310000	5.23	5.51	104
3	320000	5.79	6.1	115
3	330000	7.14	7.53	142
3	340000	7.71	8.12	154
3	350000	7.13	7.52	142
3	360000	7.12	7.5	142
3	370000	8.11	8.55	162
3	380000	8.18	8.62	163
3	390000	7.71	8.13	154
3	400000	7.83	8.26	156
3	410000	8.2	8.64	163
3	420000	8.37	8.82	167
3	430000	7.32	7.71	146
3	440000	6.96	7.34	139
3	450000	7.23	7.62	144
3	460000	7.96	8.39	159
3	470000	7.61	8.02	152
3	0	8.54	6.28	119
3	-10000	8.11	5.85	111
3	-20000	8.68	6.42	121
3	-30000	8.05	5.79	109
3	-40000	8.45	6.19	117
3	-50000	8.94	6.68	126
3	-60000	7.79	5.53	105
3	-70000	7.51	5.25	99.2
3	-80000	8.57	6.31	119
3	-90000	9.11	6.85	130
3	-100000	8.57	6.31	119
3	-110000	7.68	5.42	103
3	-120000	7.83	5.57	105
3	-130000	8.05	5.79	109
3	-140000	7.02	4.76	90
3	-150000	6.88	4.62	87.3
3	-160000	7.82	5.56	105
3	-170000	9.23	6.97	132
3	-180000	10.6	8.33	157
3	-190000	10.7	8.49	160
3	-200000	11.2	8.93	169
3	-210000	12.1	9.85	186
3	-220000	12	9.79	185
3	-230000	11.2	8.95	169
3	-240000	11.7	9.43	178
3	-250000	12	9.76	184
3	-260000	11.8	9.53	180
3	-270000	11.3	9	170
3	-280000	12.1	9.85	186
3	-290000	13.3	11.1	209
3	-300000	13.4	11.1	210
3	-310000	13.1	10.8	205
3	-320000	13.9	11.6	220
3	-330000	14.2	11.9	226
3	-340000	13.3	11	208
3	-350000	11.6	9.33	176
3	-360000	11.5	9.2	174
3	-370000	12.3	10	190
3	-380000	11.7	9.45	179
3	-390000	11.2	8.91	168
3	-400000	11.8	9.53	180
3	-410000	11.8	9.52	180
3	-420000	11.1	8.85	167
3	-430000	11.1	8.88	168
3	-440000	11.6	9.34	176
3	-450000	11.2	8.95	169
3	-460000	10.5	8.21	155
3	-470000	10	7.77	147
4	0	8.34	8.79	166
4	10000	7.06	7.44	141
4	20000	8.79	9.26	175
4	30000	7.36	7.75	147
4	40000	6.51	6.87	130
4	50000	6.99	7.36	139
4	60000	6.16	6.49	123
4	70000	5.3	5.58	106
4	80000	4.94	5.22	98.7
4	90000	4.74	5.03	95.1
4	100000	5.66	5.97	113
4	110000	4.39	4.68	88.5
4	120000	4.66	4.95	93.6
4	130000	5.41	5.7	108
4	140000	5.61	5.91	112
4	150000	5.52	5.82	110
4	160000	5.66	5.97	113
4	170000	5.86	6.17	117
4	180000	5.5	5.8	110
4	190000	4.19	4.48	84.6
4	200000	4.49	4.78	90.4
4	210000	5.33	5.62	106
4	220000	5.47	5.77	109
4	230000	5.04	5.33	101
4	240000	4.48	4.76	90
4	250000	4.78	5.07	95.8
4	260000	4.87	5.16	97.5
4	270000	4.62	4.91	92.8
4	280000	3.41	3.69	69.8
4	290000	4.27	4.56	86.2
4	300000	5.16	5.45	103
4	310000	5.53	5.83	110
4	320000	5.69	6	113
4	330000	6.2	6.54	124
4	340000	6.49	6.84	129
4	350000	5.63	5.94	112
4	360000	5.59	5.89	111
4	370000	6.8	7.17	135
4	380000	6.77	7.14	135
4	390000	6.14	6.47	122
4	400000	6.12	6.45	122
4	410000	6.91	7.29	138
4	420000	7.62	8.03	152
4	430000	6.9	7.28	138
4	440000	6.43	6.78	128
4	450000	5.62	5.93	112
4	460000	6.27	6.61	125
4	470000	5.75	6.06	115
4	0	6.46	4.2	79.4
4	-10000	7.11	4.85	91.6
4	-20000	7.22	4.96	93.7
4	-30000	6.23	3.97	75
4	-40000	6.62	4.36	82.5
4	-50000	7.2	4.94	93.4
4	-60000	6.64	4.38	82.8
4	-70000	7.21	4.95	93.6
4	-80000	8.95	6.69	126
4	-90000	9.87	7.61	144
4	-100000	9.64	7.38	140
4	-110000	9.23	6.97	132
4	-120000	9.39	7.13	135
4	-130000	9.5	7.24	137
4	-140000	8.68	6.42	121
4	-150000	8.4	6.14	116
4	-160000	8.65	6.39	121
4	-170000	8.77	6.51	123
4	-180000	8.51	6.25	118
4	-190000	7.23	4.97	93.9
4	-200000	7.84	5.58	106
4	-210000	9.13	6.87	130
4	-220000	9.37	7.11	134
4	-230000	8.56	6.3	119
4	-240000	9.12	6.86	130
4	-250000	9.96	7.7	145
4	-260000	9.93	7.67	145
4	-270000	9.34	7.08	134
4	-280000	9.76	7.5	142
4	-290000	10.1	7.82	148
4	-300000	9.05	6.79	128
4	-310000	8.45	6.19	117
4	-320000	9.11	6.85	129
4	-330000	9.25	6.99	132
4	-340000	8.85	6.59	125
4	-350000	8.43	6.17	117
4	-360000	8.73	6.47	122
4	-370000	9.73	7.47	141
4	-380000	8.87	6.61	125
4	-390000	8.57	6.31	119
4	-400000	9.16	6.9	130
4	-410000	9.45	7.19	136
4	-420000	9.19	6.93	131
4	-430000	9.09	6.83	129
4	-440000	9.56	7.3	138
4	-450000	9.55	7.29	138
4	-460000	8.89	6.63	125
4	-470000	9.16	6.9	130
5	0	7.89	8.31	157
5	10000	6	6.33	120
5	20000	6.77	7.13	135
5	30000	5.33	5.62	106
5	40000	4.48	4.77	90.1
5	50000	5.32	5.61	106
5	60000	5.43	5.72	108
5	70000	5.23	5.52	104
5	80000	4.97	5.26	99.3
5	90000	5.06	5.34	101
5	100000	5.31	5.6	106
5	110000	4.18	4.47	84.5
5	120000	3.51	3.8	71.8
5	130000	4.5	4.78	90.4
5	140000	4.51	4.8	90.7
5	150000	4.96	5.24	99.1
5	160000	4.83	5.12	96.7
5	170000	5.14	5.43	103
5	180000	4.78	5.07	95.8
5	190000	3.72	4.01	75.7
5	200000	3.56	3.84	72.6
5	210000	4.44	4.73	89.4
5	220000	4.01	4.29	81.1
5	230000	3.72	4	75.7
5	240000	3.54	3.83	72.4
5	250000	3.75	4.03	76.2
5	260000	3.92	4.2	79.4
5	270000	3.15	3.44	65
5	280000	3.06	3.34	63.2
5	290000	3.3	3.58	67.7
5	300000	3.37	3.66	69.1
5	310000	2.96	3.25	61.4
5	320000	2.94	3.23	61.1
5	330000	3.87	4.16	78.6
5	340000	4.48	4.77	90.1
5	350000	3.99	4.28	80.9
5	360000	3.72	4.01	75.8
5	370000	4.63	4.91	92.8
5	380000	4.75	5.04	95.2
5	390000	4.16	4.45	84.1
5	400000	4.3	4.58	86.6
5	410000	4.14	4.42	83.6
5	420000	4.2	4.49	84.9
5	430000	3.26	3.54	67
5	440000	2.95	3.23	61.1
5	450000	2.96	3.25	61.3
5	460000	4.37	4.65	88
5	470000	3.98	4.27	80.7
5	0	5.11	2.93	55.3
5	-10000	5.83	3.57	67.5
5	-20000	6.46	4.2	79.3
5	-30000	5.36	3.1	58.6
5	-40000	5.59	3.33	62.9
5	-50000	6.48	4.22	79.7
5	-60000	5.8	3.54	67
5	-70000	5.28	3.02	57.1
5	-80000	5.87	3.61	68.2
5	-90000	6.39	4.13	78
5	-100000	5.49	3.23	61.1
5	-110000	5.31	3.05	57.6
5	-120000	5.74	3.48	65.8
5	-130000	6.38	4.12	77.9
5	-140000	6.07	3.81	72.1
5	-150000	6.06	3.8	71.9
5	-160000	6.84	4.58	86.6
5	-170000	7.41	5.15	97.4
5	-180000	7.67	5.41	102
5	-190000	7.68	5.42	102
5	-200000	8.41	6.15	116
5	-210000	9.22	6.96	132
5	-220000	9.01	6.75	128
5	-230000	8.28	6.02	114
5	-240000	8.32	6.06	115
5	-250000	8.78	6.52	123
5	-260000	8.33	6.07	115
5	-270000	8.05	5.79	110
5	-280000	8.42	6.16	116
5	-290000	8.64	6.38	121
5	-300000	7.57	5.31	100
5	-310000	6.9	4.64	87.7
5	-320000	7.92	5.66	107
5	-330000	8.83	6.57	124
5	-340000	8.32	6.06	115
5	-350000	7.73	5.47	103
5	-360000	8.32	6.06	114
5	-370000	9.36	7.1	134
5	-380000	8.67	6.41	121
5	-390000	8.03	5.77	109
5	-400000	8.99	6.73	127
5	-410000	9.32	7.06	133
5	-420000	9.01	6.75	128
5	-430000	9.11	6.85	129
5	-440000	9.79	7.53	142
5	-450000	9.53	7.27	137
5	-460000	8.6	6.34	120
5	-470000	8.08	5.82	110
