rep_num	position	torque	torque_compensated	lbs_compensated
1	0	1.62	1.9	36
1	10000	5.93	6.25	118
1	20000	8.84	9.32	176
1	30000	9.56	10.1	190
1	40000	9.63	10.2	192
1	50000	10	10.6	200
1	60000	10.4	11	207
1	70000	10.1	10.7	202
1	80000	9.42	9.93	188
1	90000	9.89	10.4	197
1	100000	10.6	11.1	211
1	110000	10.1	10.6	201
1	120000	9.96	10.5	198
1	130000	10.3	10.8	205
1	140000	9.99	10.5	199
1	150000	9.7	10.2	193
1	160000	9.89	10.4	197
1	170000	10.1	10.6	201
1	180000	10.2	10.8	204
1	190000	10.3	10.8	204
1	200000	10.1	10.6	201
1	210000	10.3	10.9	205
1	220000	10.2	10.8	204
1	230000	9.65	10.2	192
1	240000	9.22	9.72	184
1	250000	9.19	9.69	183
1	260000	9.78	10.3	195
1	270000	9.84	10.4	196
1	280000	10	10.6	200
1	290000	10.2	10.8	204
1	300000	10.1	10.7	202
1	310000	10.3	10.9	206
1	320000	9.62	10.1	192
1	330000	9.52	10	190
1	340000	10.4	10.9	206
1	350000	10.2	10.7	203
1	360000	9.52	10	190
1	370000	10	10.6	200
1	380000	10.8	11.4	215
1	390000	10.3	10.8	205
1	400000	9.65	10.2	192
1	410000	10.1	10.6	201
1	420000	10.2	10.7	203
1	430000	9.55	10.1	190
1	440000	9.22	9.72	184
1	450000	9.33	9.83	186
1	460000	9.65	10.2	192
1	470000	10.4	10.9	207
2	0	11.8	9.51	180
2	-10000	12.3	10	190
2	-20000	12.2	9.92	187
2	-30000	11.2	8.94	169
2	-40000	11.5	9.24	175
2	-50000	11.3	9.01	170
2	-60000	10.6	8.38	158
2	-70000	10.8	8.51	161
2	-80000	10.5	8.25	156
2	-90000	10.2	7.97	151
2	-100000	9.76	7.5	142
2	-110000	9.35	7.09	134
2	-120000	9.03	6.77	128
2	-130000	9.72	7.46	141
2	-140000	10.5	8.25	156
2	-150000	11.1	8.88	168
2	-160000	11.6	9.32	176
2	-170000	12.1	9.88	187
2	-180000	11.6	9.31	176
2	-190000	10.8	8.54	161
2	-200000	11.3	9.04	171
2	-210000	11.8	9.58	181
2	-220000	11.1	8.88	168
2	-230000	11	8.7	164
2	-240000	10.9	8.62	163
2	-250000	11	8.73	165
2	-260000	11.3	9.04	171
2	-270000	11.1	8.83	167
2	-280000	11.2	8.99	170
2	-290000	11.7	9.4	178
2	-300000	10.8	8.54	161
2	-310000	10.2	7.96	150
2	-320000	10.8	8.58	162
2	-330000	11.2	8.92	169
2	-340000	10.6	8.36	158
2	-350000	10.7	8.46	160
2	-360000	12.7	10.4	197
2	-370000	12.9	10.7	202
2	-380000	12	9.76	184
2	-390000	11.9	9.62	182
2	-400000	12.1	9.81	185
2	-410000	12.2	9.99	189
2	-420000	12.3	10	189
2	-430000	12.1	9.86	186
2	-440000	12.7	10.5	198
2	-450000	12.4	10.1	191
2	-460000	11.8	9.59	181
2	-470000	12.4	10.1	192
2	0	10.5	11.1	209
2	10000	9.97	10.5	199
2	20000	10.3	10.9	206
2	30000	9.91	10.4	197
2	40000	9.23	9.73	184
2	50000	9.63	10.1	192
2	60000	9.97	10.5	199
2	70000	9.54	10.1	190
2	80000	9.2	9.7	183
2	90000	9.81	10.3	195
2	100000	10.1	10.7	202
2	110000	9.23	9.73	184
2	120000	8.84	9.32	176
2	130000	9.1	9.59	181
2	140000	9	9.48	179
2	150000	8.57	9.04	171
2	160000	8.26	8.71	165
2	170000	8.19	8.63	163
2	180000	8.29	8.74	165
2	190000	7.99	8.42	159
2	200000	7.49	7.89	149
2	210000	8.25	8.69	164
2	220000	8.75	9.23	174
2	230000	7.88	8.31	157
2	240000	7.19	7.58	143
2	250000	6.49	6.84	129
2	260000	6.84	7.21	136
2	270000	6.52	6.87	130
2	280000	6.18	6.51	123
2	290000	6.17	6.5	123
2	300000	6.45	6.8	128
2	310000	6.05	6.37	120
2	320000	5.91	6.23	118
2	330000	5.83	6.15	116
2	340000	5.64	5.95	112
2	350000	5.92	6.24	118
2	360000	4.9	5.19	98.1
2	370000	6	6.33	120
2	380000	7.7	8.11	153
2	390000	8.42	8.88	168
2	400000	8.05	8.49	160
2	410000	9.05	9.53	180
2	420000	9.78	10.3	195
2	430000	9.18	9.67	183
2	440000	8.63	9.09	172
2	450000	8.39	8.84	167
2	460000	8.64	9.11	172
2	470000	8.8	9.28	175
3	0	9.95	7.69	145
3	-10000	10.1	7.83	148
3	-20000	10.1	7.85	148
3	-30000	9.36	7.1	134
3	-40000	10	7.74	146
3	-50000	10.6	8.35	158
3	-60000	10.2	7.91	150
3	-70000	10.1	7.83	148
3	-80000	10	7.75	146
3	-90000	9.85	7.59	143
3	-100000	9.85	7.59	143
3	-110000	9.82	7.56	143
3	-120000	10.2	7.92	150
3	-130000	10.6	8.37	158
3	-140000	10.3	8.05	152
3	-150000	9.38	7.12	134
3	-160000	9.69	7.43	140
3	-170000	10.3	8.03	152
3	-180000	10.1	7.87	149
3	-190000	10.2	7.91	149
3	-200000	11	8.75	165
3	-210000	11.5	9.22	174
3	-220000	10.8	8.51	161
3	-230000	9.97	7.71	146
3	-240000	10.2	7.93	150
3	-250000	10.4	8.16	154
3	-260000	10.9	8.64	163
3	-270000	11.3	9.04	171
3	-280000	12	9.79	185
3	-290000	12.1	9.82	186
3	-300000	11.1	8.88	168
3	-310000	10.9	8.66	164
3	-320000	11.6	9.38	177
3	-330000	12.1	9.84	186
3	-340000	11.3	9.04	171
3	-350000	10.3	8.08	153
3	-360000	11.3	9.07	171
3	-370000	11.2	8.97	170
3	-380000	10.2	7.94	150
3	-390000	10.2	7.92	150
3	-400000	11	8.75	165
3	-410000	11	8.78	166
3	-420000	11.4	9.18	174
3	-430000	11.4	9.15	173
3	-440000	12	9.73	184
3	-450000	11.7	9.4	178
3	-460000	11.2	8.98	170
3	-470000	11.8	9.51	180
3	0	10.1	10.6	200
3	10000	9.74	10.3	194
3	20000	9.63	10.2	192
3	30000	9.3	9.8	185
3	40000	8.24	8.68	164
3	50000	8.16	8.6	163
3	60000	8.43	8.88	168
3	70000	7.74	8.15	154
3	80000	6.82	7.18	136
3	90000	7.28	7.67	145
3	100000	7.66	8.08	153
3	110000	6.88	7.25	137
3	120000	6.41	6.76	128
3	130000	6.78	7.15	135
3	140000	6.81	7.18	136
3	150000	6.34	6.68	126
3	160000	6.21	6.55	124
3	170000	6.21	6.55	124
3	180000	6.65	7	132
3	190000	6.64	7	132
3	200000	5.91	6.23	118
3	210000	6.52	6.87	130
3	220000	6.37	6.72	127
3	230000	6.46	6.8	129
3	240000	7.38	7.78	147
3	250000	6.97	7.35	139
3	260000	7.38	7.78	147
3	270000	7.55	7.96	150
3	280000	6.5	6.86	130
3	290000	6.84	7.21	136
3	300000	7.54	7.95	150
3	310000	7.89	8.31	157
3	320000	8.06	8.49	161
3	330000	8.67	9.14	173
3	340000	9.35	9.86	186
3	350000	8.8	9.28	175
3	360000	8.03	8.47	160
3	370000	8.82	9.29	176
3	380000	9.4	9.91	187
3	390000	8.87	9.35	177
3	400000	8.12	8.56	162
3	410000	8.3	8.75	165
3	420000	8.33	8.78	166
3	430000	7.58	7.99	151
3	440000	7.06	7.44	141
3	450000	7.13	7.51	142
3	460000	7.35	7.74	146
3	470000	7.26	7.65	145
4	0	8.71	6.45	122
4	-10000	9.2	6.94	131
4	-20000	9.7	7.44	141
4	-30000	9.26	7	132
4	-40000	9.81	7.55	143
4	-50000	10.4	8.16	154
4	-60000	9.88	7.62	144
4	-70000	9.69	7.43	141
4	-80000	10.1	7.88	149
4	-90000	9.29	7.03	133
4	-100000	9.03	6.77	128
4	-110000	9.39	7.13	135
4	-120000	10.1	7.86	149
4	-130000	10.3	8.04	152
4	-140000	9.97	7.71	146
4	-150000	9.78	7.52	142
4	-160000	10	7.76	147
4	-170000	10.5	8.24	156
4	-180000	10.2	7.9	149
4	-190000	9.41	7.15	135
4	-200000	9.64	7.38	140
4	-210000	10.3	8.02	152
4	-220000	9.92	7.66	145
4	-230000	10.2	7.91	149
4	-240000	10.7	8.43	159
4	-250000	10.9	8.63	163
4	-260000	10.7	8.48	160
4	-270000	10.2	7.98	151
4	-280000	10.2	7.96	150
4	-290000	11	8.71	165
4	-300000	11	8.72	165
4	-310000	10.4	8.12	153
4	-320000	10.5	8.21	155
4	-330000	11.8	9.57	181
4	-340000	12.5	10.2	194
4	-350000	12.2	9.93	188
4	-360000	12.4	10.1	191
4	-370000	11.9	9.65	182
4	-380000	11.2	8.91	168
4	-390000	11	8.72	165
4	-400000	11.5	9.23	174
4	-410000	11.1	8.81	166
4	-420000	10.8	8.54	161
4	-430000	10.3	8	151
4	-440000	10.5	8.28	157
4	-450000	10.1	7.82	148
4	-460000	9.6	7.34	139
4	-470000	9.78	7.52	142
4	0	7.82	8.24	156
4	10000	8.41	8.87	168
4	20000	8.87	9.35	177
4	30000	8.2	8.64	163
4	40000	7.17	7.56	143
4	50000	7.68	8.09	153
4	60000	8.04	8.48	160
4	70000	6.94	7.32	138
4	80000	6.42	6.76	128
4	90000	6.65	7.01	132
4	100000	6.93	7.3	138
4	110000	5.93	6.25	118
4	120000	5.15	5.44	103
4	130000	5.9	6.22	118
4	140000	6.3	6.64	126
4	150000	6.06	6.39	121
4	160000	5.47	5.77	109
4	170000	5.59	5.9	111
4	180000	5.7	6.01	114
4	190000	5.41	5.7	108
4	200000	4.96	5.24	99.1
4	210000	5.44	5.73	108
4	220000	5.67	5.98	113
4	230000	4.86	5.14	97.2
4	240000	5.08	5.37	101
4	250000	5.16	5.45	103
4	260000	5.27	5.56	105
4	270000	4.71	4.99	94.4
4	280000	4.05	4.33	81.9
4	290000	2.79	3.08	58.2
4	300000	2.38	2.67	50.4
4	310000	2.67	2.95	55.8
4	320000	2.75	3.03	57.3
4	330000	2.04	2.33	44
4	340000	2.09	2.38	44.9
4	350000	2.3	2.59	48.9
4	360000	4.03	4.31	81.5
4	370000	6.46	6.81	129
4	380000	8.03	8.46	160
4	390000	8.31	8.76	166
4	400000	7.92	8.34	158
4	410000	8.63	9.1	172
4	420000	9.08	9.57	181
4	430000	8.57	9.03	171
4	440000	7.81	8.23	155
4	450000	8.13	8.57	162
4	460000	8.29	8.74	165
4	470000	7.87	8.3	157
5	0	8.75	6.49	123
5	-10000	10.1	7.86	149
5	-20000	11.6	9.38	177
5	-30000	12.1	9.8	185
5	-40000	13.2	10.9	207
5	-50000	12.7	10.5	198
5	-60000	11.7	9.4	178
5	-70000	11.5	9.2	174
5	-80000	11.7	9.44	178
5	-90000	11.6	9.32	176
5	-100000	11.2	8.9	168
5	-110000	10.8	8.55	162
5	-120000	10.5	8.27	156
5	-130000	11	8.7	165
5	-140000	10.1	7.81	148
5	-150000	9.68	7.42	140
5	-160000	10.2	7.97	151
5	-170000	10.6	8.36	158
5	-180000	9.86	7.6	144
5	-190000	9.14	6.88	130
5	-200000	9.36	7.1	134
5	-210000	9.7	7.44	141
5	-220000	9.26	7	132
5	-230000	9.27	7.01	133
5	-240000	9.88	7.62	144
5	-250000	10.7	8.43	159
5	-260000	11.1	8.89	168
5	-270000	11.3	9.04	171
5	-280000	12.3	10	190
5	-290000	12.8	10.6	200
5	-300000	12.2	9.96	188
5	-310000	11.5	9.27	175
5	-320000	11.8	9.57	181
5	-330000	12.1	9.87	187
5	-340000	11.4	9.1	172
5	-350000	10.8	8.54	161
5	-360000	11.4	9.17	173
5	-370000	11.2	8.95	169
5	-380000	10.7	8.44	160
5	-390000	10.6	8.35	158
5	-400000	11	8.73	165
5	-410000	11.3	9.03	171
5	-420000	11.3	9.01	170
5	-430000	11.1	8.87	168
5	-440000	11.8	9.58	181
5	-450000	12	9.69	183
5	-460000	11.4	9.1	172
5	-470000	11.6	9.35	177
5	0	9.19	9.69	183
5	10000	7.9	8.32	157
5	20000	8.53	8.99	170
5	30000	8.03	8.47	160
5	40000	7.35	7.75	146
5	50000	7.22	7.61	144
5	60000	7.39	7.79	147
5	70000	6.64	7	132
5	80000	5.95	6.27	119
5	90000	6.11	6.44	122
5	100000	5.96	6.28	119
5	110000	4.78	5.06	95.7
5	120000	3.92	4.2	79.5
5	130000	4.61	4.9	92.5
5	140000	5.07	5.36	101
5	150000	4.86	5.15	97.2
5	160000	4.36	4.65	87.9
5	170000	4.46	4.75	89.7
5	180000	4.73	5.01	94.8
5	190000	4.31	4.59	86.8
5	200000	3.79	4.07	77
5	210000	4.14	4.43	83.7
5	220000	4.41	4.7	88.8
5	230000	4.01	4.3	81.2
5	240000	3.94	4.23	80
5	250000	3.87	4.16	78.5
5	260000	4.23	4.52	85.4
5	270000	3.7	3.99	75.3
5	280000	3.33	3.61	68.2
5	290000	3.92	4.21	79.5
5	300000	4.26	4.55	85.9
5	310000	4.07	4.36	82.3
5	320000	4.23	4.51	85.3
5	330000	4.13	4.41	83.4
5	340000	4.17	4.45	84.2
5	350000	3.54	3.83	72.3
5	360000	2.95	3.23	61.1
5	370000	3.09	3.38	63.8
5	380000	3.66	3.95	74.6
5	390000	3.29	3.57	67.5
5	400000	2.7	2.99	56.4
5	410000	3.13	3.41	64.5
5	420000	3.8	4.09	77.3
5	430000	3.58	3.86	73
5	440000	3.21	3.5	66.1
5	450000	3.7	3.98	75.3
5	460000	4.08	4.36	82.5
5	470000	3.81	4.09	77.3
6	0	4.74	2.71	51.3
6	-10000	4.68	2.68	50.6
6	-20000	5.26	3.01	56.9
6	-30000	4.69	2.69	50.8
6	-40000	5.84	3.58	67.6
6	-50000	6.4	4.14	78.3
6	-60000	5.96	3.7	70
6	-70000	6.24	3.98	75.2
6	-80000	6.59	4.33	81.8
6	-90000	6.81	4.55	86
6	-100000	6.82	4.56	86.1
6	-110000	7.14	4.88	92.3
6	-120000	7.64	5.38	102
6	-130000	8.59	6.33	120
6	-140000	9.17	6.91	131
6	-150000	9.4	7.14	135
6	-160000	9.92	7.66	145
6	-170000	10.6	8.37	158
6	-180000	10.2	7.95	150
6	-190000	9.75	7.49	142
6	-200000	10.1	7.88	149
6	-210000	10.3	8.08	153
6	-220000	9.82	7.56	143
6	-230000	9.63	7.37	139
6	-240000	10	7.75	146
6	-250000	10.5	8.2	155
6	-260000	10.5	8.28	157
6	-270000	9.79	7.53	142
6	-280000	9.57	7.31	138
6	-290000	10	7.78	147
6	-300000	9.35	7.09	134
6	-310000	8.7	6.44	122
6	-320000	8.96	6.7	127
6	-330000	9.51	7.25	137
6	-340000	9.09	6.83	129
6	-350000	8.43	6.17	117
6	-360000	9.13	6.87	130
6	-370000	9.35	7.09	134
6	-380000	8.91	6.65	126
6	-390000	8.83	6.57	124
6	-400000	9.46	7.2	136
6	-410000	9.48	7.22	136
6	-420000	9.62	7.36	139
6	-430000	9.09	6.83	129
6	-440000	9.61	7.35	139
6	-450000	9.3	7.04	133
6	-460000	8.67	6.41	121
6	-470000	8.45	6.19	117
