rep_num	position	torque	torque_compensated	lbs_compensated
1	0	1.84	2.13	40.2
1	10000	6.64	7	132
1	20000	8.08	8.51	161
1	30000	9.37	9.87	187
1	40000	7.3	7.7	145
1	50000	7.58	7.98	151
1	60000	8.94	9.43	178
1	70000	8.79	9.26	175
1	80000	7.01	7.39	140
1	90000	7.44	7.84	148
1	100000	9.21	9.7	183
1	110000	9.39	9.89	187
1	120000	7.87	8.3	157
1	130000	8.45	8.91	168
1	140000	9.67	10.2	193
1	150000	9.48	9.99	189
1	160000	8.34	8.79	166
1	170000	8.43	8.89	168
1	180000	10	10.6	200
1	190000	10.4	10.9	207
1	200000	8.83	9.3	176
1	210000	9.01	9.5	180
1	220000	10.7	11.2	212
1	230000	10	10.6	200
1	240000	8.52	8.98	170
1	250000	8.34	8.79	166
1	260000	10	10.5	199
1	270000	10.1	10.7	202
1	280000	8.54	9	170
1	290000	8.46	8.92	169
1	300000	10.1	10.6	201
1	310000	10.2	10.8	204
1	320000	8.33	8.78	166
1	330000	8.26	8.71	165
1	340000	10.3	10.8	204
1	350000	10	10.6	200
1	360000	8.73	9.2	174
1	370000	8.8	9.28	175
1	380000	11	11.6	219
1	390000	10.7	11.3	213
1	400000	8.84	9.32	176
1	410000	9.22	9.71	184
1	420000	9.67	10.2	193
1	430000	9.44	9.95	188
1	440000	8.37	8.83	167
1	450000	7.64	8.06	152
1	460000	9.57	10.1	191
1	470000	9.54	10.1	190
2	0	11	8.78	166
2	-10000	11	8.77	166
2	-20000	11.5	9.23	174
2	-30000	11.1	8.85	167
2	-40000	12.8	10.6	200
2	-50000	11.9	9.6	182
2	-60000	9.7	7.44	141
2	-70000	10.3	8.01	151
2	-80000	12	9.75	184
2	-90000	11.8	9.53	180
2	-100000	9.79	7.53	142
2	-110000	10	7.76	147
2	-120000	11.2	8.99	170
2	-130000	10.4	8.14	154
2	-140000	9.62	7.36	139
2	-150000	10.8	8.5	161
2	-160000	12.1	9.81	185
2	-170000	11.9	9.67	183
2	-180000	10.4	8.11	153
2	-190000	10	7.76	147
2	-200000	11.2	8.92	169
2	-210000	11.3	9.08	172
2	-220000	9.81	7.55	143
2	-230000	10.1	7.82	148
2	-240000	11.3	9.04	171
2	-250000	11.5	9.23	174
2	-260000	9.99	7.73	146
2	-270000	10.5	8.24	156
2	-280000	12.7	10.5	198
2	-290000	13.3	11	209
2	-300000	11.7	9.46	179
2	-310000	11.8	9.52	180
2	-320000	12.4	10.2	192
2	-330000	12.6	10.4	196
2	-340000	11.4	9.1	172
2	-350000	11.6	9.36	177
2	-360000	13.5	11.2	212
2	-370000	13.5	11.2	212
2	-380000	12	9.7	183
2	-390000	12.3	10.1	190
2	-400000	14	11.7	221
2	-410000	13.8	11.5	218
2	-420000	12.6	10.3	195
2	-430000	13.1	10.8	205
2	-440000	15	12.7	240
2	-450000	14.6	12.4	234
2	-460000	12.7	10.4	197
2	-470000	13.3	11.1	210
2	0	10.7	11.2	212
2	10000	11.1	11.7	222
2	20000	10.6	11.2	211
2	30000	10.4	10.9	207
2	40000	8.41	8.86	167
2	50000	8.27	8.72	165
2	60000	10	10.5	199
2	70000	9.79	10.3	195
2	80000	7.36	7.75	147
2	90000	7.74	8.16	154
2	100000	9.37	9.88	187
2	110000	8.53	8.99	170
2	120000	7.02	7.4	140
2	130000	7.78	8.2	155
2	140000	9.6	10.1	191
2	150000	8.79	9.27	175
2	160000	7.12	7.5	142
2	170000	7.24	7.63	144
2	180000	8.04	8.48	160
2	190000	8.93	9.42	178
2	200000	7.01	7.39	140
2	210000	7.11	7.5	142
2	220000	8.84	9.32	176
2	230000	8.52	8.98	170
2	240000	6.65	7.01	132
2	250000	6.55	6.9	130
2	260000	8.22	8.67	164
2	270000	8.75	9.22	174
2	280000	7.13	7.51	142
2	290000	7.4	7.81	148
2	300000	9.43	9.94	188
2	310000	9.36	9.87	186
2	320000	7.95	8.38	158
2	330000	7.63	8.04	152
2	340000	9.1	9.59	181
2	350000	9.26	9.76	185
2	360000	7.09	7.47	141
2	370000	7.59	8	151
2	380000	9.41	9.92	187
2	390000	8.94	9.43	178
2	400000	7.4	7.8	147
2	410000	7.83	8.25	156
2	420000	9	9.48	179
2	430000	8.39	8.84	167
2	440000	6.98	7.35	139
2	450000	6.98	7.36	139
2	460000	8.79	9.27	175
2	470000	8.32	8.77	166
3	0	9.69	7.43	140
3	-10000	9.52	7.26	137
3	-20000	9.74	7.48	141
3	-30000	9.32	7.06	134
3	-40000	11.1	8.86	168
3	-50000	10.3	8.09	153
3	-60000	8.3	6.04	114
3	-70000	8.9	6.64	125
3	-80000	10.1	7.88	149
3	-90000	10.1	7.84	148
3	-100000	8.6	6.34	120
3	-110000	9.54	7.28	138
3	-120000	11	8.7	164
3	-130000	11.2	8.97	170
3	-140000	10.2	7.96	150
3	-150000	10.4	8.11	153
3	-160000	11.2	8.94	169
3	-170000	10.9	8.67	164
3	-180000	9.47	7.21	136
3	-190000	9.13	6.87	130
3	-200000	10.4	8.12	153
3	-210000	10.3	8.01	151
3	-220000	8.84	6.58	124
3	-230000	10.6	8.3	157
3	-240000	12.1	9.81	185
3	-250000	12.2	9.89	187
3	-260000	10.5	8.27	156
3	-270000	9.99	7.73	146
3	-280000	11.1	8.86	167
3	-290000	11.9	9.65	182
3	-300000	9.83	7.57	143
3	-310000	9.27	7.01	133
3	-320000	10.7	8.45	160
3	-330000	10.6	8.33	157
3	-340000	9.35	7.09	134
3	-350000	9.08	6.82	129
3	-360000	10.8	8.56	162
3	-370000	10.8	8.59	162
3	-380000	9.52	7.26	137
3	-390000	9.86	7.6	144
3	-400000	11.2	8.9	168
3	-410000	11.3	9.09	172
3	-420000	10	7.79	147
3	-430000	10.2	7.97	151
3	-440000	12.3	10	190
3	-450000	11.8	9.56	181
3	-460000	10.5	8.26	156
3	-470000	11.5	9.24	175
3	0	8.91	9.39	178
3	10000	8.16	8.61	163
3	20000	8.21	8.66	164
3	30000	7.47	7.88	149
3	40000	5.77	6.08	115
3	50000	5.9	6.22	117
3	60000	7.59	8	151
3	70000	6.84	7.21	136
3	80000	5.77	6.09	115
3	90000	6.73	7.1	134
3	100000	8.45	8.91	168
3	110000	7.96	8.39	159
3	120000	6.44	6.79	128
3	130000	6.78	7.15	135
3	140000	7.93	8.36	158
3	150000	7.4	7.8	147
3	160000	6.54	6.89	130
3	170000	6.17	6.51	123
3	180000	7.49	7.9	149
3	190000	7.55	7.96	150
3	200000	5.85	6.17	117
3	210000	6.02	6.34	120
3	220000	7.62	8.03	152
3	230000	7.46	7.86	149
3	240000	5.89	6.2	117
3	250000	5.49	5.78	109
3	260000	7.24	7.63	144
3	270000	7	7.38	140
3	280000	5.15	5.43	103
3	290000	5.29	5.58	105
3	300000	6.87	7.24	137
3	310000	6.53	6.88	130
3	320000	5.54	5.84	110
3	330000	5.36	5.65	107
3	340000	6.97	7.35	139
3	350000	6.91	7.28	138
3	360000	4.85	5.14	97.1
3	370000	5.74	6.05	114
3	380000	8.37	8.82	167
3	390000	8.16	8.6	163
3	400000	6	6.33	120
3	410000	6.32	6.66	126
3	420000	7.92	8.35	158
3	430000	7.6	8.02	151
3	440000	5.73	6.04	114
3	450000	5.84	6.16	116
3	460000	7.58	7.99	151
3	470000	7.15	7.54	142
4	0	8.58	6.32	119
4	-10000	7.15	4.89	92.4
4	-20000	6.74	4.48	84.7
4	-30000	6.36	4.1	77.5
4	-40000	8.58	6.32	119
4	-50000	8.07	5.81	110
4	-60000	5.98	3.72	70.4
4	-70000	6.34	4.08	77.1
4	-80000	7.92	5.66	107
4	-90000	7.6	5.34	101
4	-100000	6.09	3.83	72.4
4	-110000	6.32	4.06	76.7
4	-120000	8.12	5.86	111
4	-130000	8.15	5.89	111
4	-140000	7.26	5	94.5
4	-150000	8.42	6.16	117
4	-160000	10.2	7.95	150
4	-170000	11	8.78	166
4	-180000	10.1	7.84	148
4	-190000	10.3	8.06	152
4	-200000	11.5	9.24	175
4	-210000	11.5	9.28	175
4	-220000	9.65	7.39	140
4	-230000	10.3	8	151
4	-240000	11.5	9.27	175
4	-250000	11.6	9.32	176
4	-260000	10	7.78	147
4	-270000	9.72	7.46	141
4	-280000	11.8	9.5	180
4	-290000	11.5	9.27	175
4	-300000	9.39	7.13	135
4	-310000	9.25	6.99	132
4	-320000	10.8	8.54	161
4	-330000	10.8	8.53	161
4	-340000	9.03	6.77	128
4	-350000	8.97	6.71	127
4	-360000	10.7	8.44	159
4	-370000	10.2	7.93	150
4	-380000	8.54	6.28	119
4	-390000	8.95	6.69	127
4	-400000	10.5	8.25	156
4	-410000	10.5	8.23	156
4	-420000	8.87	6.61	125
4	-430000	9.57	7.31	138
4	-440000	11.7	9.46	179
4	-450000	11.9	9.62	182
4	-460000	9.95	7.69	145
4	-470000	10.6	8.34	158
4	0	8.15	8.6	162
4	10000	7.91	8.34	158
4	20000	8.19	8.63	163
4	30000	7.99	8.42	159
4	40000	5.71	6.02	114
4	50000	5.48	5.77	109
4	60000	6.98	7.35	139
4	70000	6.83	7.2	136
4	80000	4.9	5.18	97.9
4	90000	5.3	5.58	105
4	100000	6.68	7.04	133
4	110000	6.25	6.59	125
4	120000	4.71	5	94.5
4	130000	5.19	5.47	103
4	140000	6.21	6.55	124
4	150000	5.96	6.28	119
4	160000	4.36	4.65	87.8
4	170000	3.99	4.28	80.9
4	180000	5.57	5.87	111
4	190000	5.41	5.71	108
4	200000	3.8	4.08	77.2
4	210000	4.18	4.47	84.5
4	220000	5.57	5.87	111
4	230000	4.9	5.19	98
4	240000	3.92	4.21	79.6
4	250000	3.75	4.03	76.3
4	260000	5.77	6.09	115
4	270000	5.79	6.11	115
4	280000	4.06	4.34	82.1
4	290000	4.33	4.61	87.2
4	300000	6.21	6.54	124
4	310000	5.83	6.14	116
4	320000	4.26	4.54	85.9
4	330000	4.21	4.49	84.9
4	340000	6.09	6.42	121
4	350000	6.03	6.35	120
4	360000	3.87	4.16	78.6
4	370000	4.34	4.63	87.5
4	380000	6.06	6.38	121
4	390000	6.53	6.89	130
4	400000	5.27	5.55	105
4	410000	5.93	6.25	118
4	420000	7.31	7.71	146
4	430000	6.89	7.26	137
4	440000	5.69	6	113
4	450000	5.42	5.72	108
4	460000	7.05	7.43	140
4	470000	6.56	6.91	131
5	0	7.66	5.4	102
5	-10000	7.59	5.33	101
5	-20000	6.57	4.31	81.5
5	-30000	5.8	3.54	66.9
5	-40000	7.93	5.67	107
5	-50000	6.93	4.67	88.2
5	-60000	5.35	3.09	58.5
5	-70000	5.67	3.41	64.5
5	-80000	7.06	4.8	90.7
5	-90000	7.23	4.97	94
5	-100000	5.95	3.69	69.8
5	-110000	6.47	4.21	79.6
5	-120000	7.75	5.49	104
5	-130000	7.72	5.46	103
5	-140000	6.14	3.88	73.4
5	-150000	6.45	4.19	79.1
5	-160000	7.15	4.89	92.4
5	-170000	7.43	5.17	97.7
5	-180000	6.25	3.99	75.5
5	-190000	6.67	4.41	83.3
5	-200000	8.75	6.49	123
5	-210000	9.11	6.85	130
5	-220000	7.24	4.98	94.1
5	-230000	7.46	5.2	98.3
5	-240000	8.66	6.4	121
5	-250000	9.57	7.31	138
5	-260000	8.83	6.57	124
5	-270000	8.84	6.58	124
5	-280000	10.3	8.02	152
5	-290000	10.3	8.08	153
5	-300000	8.32	6.06	115
5	-310000	8.52	6.26	118
5	-320000	9.62	7.36	139
5	-330000	10.4	8.1	153
5	-340000	8.69	6.43	122
5	-350000	8.87	6.61	125
5	-360000	10.6	8.33	157
5	-370000	9.97	7.71	146
5	-380000	8.14	5.88	111
5	-390000	8.72	6.46	122
5	-400000	10.3	8.04	152
5	-410000	9.69	7.43	141
5	-420000	8.34	6.08	115
5	-430000	8.44	6.18	117
5	-440000	9.58	7.32	138
5	-450000	9.35	7.09	134
5	-460000	7.17	4.91	92.8
5	-470000	7.61	5.35	101
5	0	5.27	5.55	105
5	10000	5.98	6.3	119
5	20000	6.21	6.55	124
5	30000	6.11	6.44	122
5	40000	4.17	4.46	84.2
5	50000	4.48	4.77	90.1
5	60000	6.02	6.35	120
5	70000	5.64	5.94	112
5	80000	3.68	3.96	74.9
5	90000	3.86	4.15	78.4
5	100000	5.44	5.74	108
5	110000	5.19	5.47	103
5	120000	3.38	3.67	69.3
5	130000	3.68	3.97	75
5	140000	5.24	5.53	104
5	150000	5.04	5.33	101
5	160000	4.24	4.52	85.5
5	170000	3.88	4.17	78.7
5	180000	5.14	5.42	102
5	190000	4.76	5.04	95.3
5	200000	3.08	3.36	63.6
5	210000	3.19	3.48	65.7
5	220000	4.53	4.81	91
5	230000	4.18	4.47	84.4
5	240000	2.27	2.56	48.4
5	250000	2.12	2.41	45.5
5	260000	4.06	4.34	82.1
5	270000	3.8	4.09	77.2
5	280000	1.91	2.2	41.5
5	290000	2.08	2.37	44.7
5	300000	3.76	4.04	76.4
5	310000	3.41	3.7	69.9
5	320000	2.23	2.52	47.6
5	330000	2.17	2.46	46.4
5	340000	4.85	5.14	97.1
5	350000	4.63	4.91	92.8
5	360000	3.21	3.49	66
5	370000	3.49	3.77	71.3
5	380000	5.31	5.59	106
5	390000	4.95	5.23	98.9
5	400000	3.81	4.09	77.4
5	410000	4.52	4.8	90.8
5	420000	5.92	6.24	118
5	430000	5.55	5.86	111
5	440000	3.93	4.22	79.7
5	450000	4.16	4.45	84
5	460000	6.02	6.35	120
5	470000	5.69	5.99	113
6	0	6.58	4.32	81.6
6	-10000	6.15	3.89	73.6
6	-20000	5.67	3.41	64.5
6	-30000	5.36	3.1	58.5
6	-40000	7.39	5.13	96.9
6	-50000	7.31	5.05	95.4
6	-60000	5.95	3.69	69.7
6	-70000	6.41	4.15	78.4
6	-80000	8.45	6.19	117
6	-90000	8.57	6.31	119
6	-100000	6.67	4.41	83.4
6	-110000	6.76	4.5	85.1
6	-120000	7.84	5.58	105
6	-130000	7.71	5.45	103
6	-140000	5.83	3.57	67.4
6	-150000	6.13	3.87	73.1
6	-160000	7.38	5.12	96.7
6	-170000	8.04	5.78	109
6	-180000	6.55	4.29	81.1
6	-190000	6.37	4.11	77.6
6	-200000	7.7	5.44	103
6	-210000	7.96	5.7	108
6	-220000	6.5	4.24	80.1
6	-230000	6.99	4.73	89.5
6	-240000	8.08	5.82	110
6	-250000	7.99	5.73	108
6	-260000	6.9	4.64	87.7
6	-270000	6.62	4.36	82.5
6	-280000	8.66	6.4	121
6	-290000	8.89	6.63	125
6	-300000	7.24	4.98	94.2
6	-310000	7.14	4.88	92.2
6	-320000	8.66	6.4	121
6	-330000	8.51	6.25	118
6	-340000	6.92	4.66	88.1
6	-350000	6.04	3.78	71.5
6	-360000	7.72	5.46	103
6	-370000	7.43	5.17	97.7
6	-380000	5.75	3.49	65.9
6	-390000	5.38	3.12	59
6	-400000	6.83	4.57	86.4
6	-410000	6.66	4.4	83.3
6	-420000	4.17	2.39	45.1
6	-430000	2.61	1.5	28.3
6	-440000	3.58	2.05	38.8
6	-450000	3.07	1.76	33.2
6	-460000	0.798	0.457	8.64
6	-470000	1.54	0.884	16.7
