rep_num	position	torque	torque_compensated	lbs_compensated
1	0	6.35	6.69	126
1	10000	8.75	9.22	174
1	20000	10.5	11	208
1	30000	9.45	9.96	188
1	40000	8.72	9.19	174
1	50000	9.54	10.1	190
1	60000	9.42	9.93	188
1	70000	8.06	8.49	160
1	80000	8.58	9.05	171
1	90000	9.46	9.97	188
1	100000	10	10.6	199
1	110000	8.78	9.25	175
1	120000	8.96	9.45	179
1	130000	9.54	10.1	190
1	140000	9.28	9.78	185
1	150000	8.15	8.59	162
1	160000	7.64	8.05	152
1	170000	8.48	8.94	169
1	180000	8.83	9.31	176
1	190000	7.49	7.9	149
1	200000	7.46	7.87	149
1	210000	8.77	9.25	175
1	220000	9.16	9.65	182
1	230000	8.52	8.98	170
1	240000	8.76	9.23	174
1	250000	9.34	9.85	186
1	260000	8.75	9.23	174
1	270000	8.07	8.5	161
1	280000	8.27	8.72	165
1	290000	8.78	9.26	175
1	300000	9.32	9.83	186
1	310000	8.76	9.23	174
1	320000	7.62	8.03	152
1	330000	8.52	8.98	170
1	340000	8.91	9.39	177
1	350000	8.08	8.51	161
1	360000	8.48	8.94	169
1	370000	9.8	10.3	195
1	380000	10.1	10.7	202
1	390000	9.25	9.75	184
1	400000	9.29	9.79	185
1	410000	10.1	10.6	200
1	420000	10.1	10.6	201
1	430000	9.29	9.79	185
1	440000	9.33	9.84	186
1	450000	8.9	9.38	177
1	460000	9.78	10.3	195
1	470000	9.22	9.72	184
1	0	11.2	8.92	169
1	-10000	12.9	10.6	200
1	-20000	12.5	10.3	194
1	-30000	11.6	9.37	177
1	-40000	12.2	9.95	188
1	-50000	12.9	10.6	201
1	-60000	11.5	9.22	174
1	-70000	10.4	8.18	155
1	-80000	11.3	9.07	171
1	-90000	12.3	10	190
1	-100000	11.7	9.41	178
1	-110000	11.6	9.38	177
1	-120000	11.4	9.17	173
1	-130000	12.3	10.1	191
1	-140000	12.9	10.6	201
1	-150000	12.1	9.82	186
1	-160000	11.9	9.62	182
1	-170000	12.2	9.9	187
1	-180000	12.6	10.3	194
1	-190000	12.3	10.1	190
1	-200000	11.5	9.2	174
1	-210000	11.9	9.67	183
1	-220000	11.9	9.63	182
1	-230000	11.8	9.58	181
1	-240000	13	10.8	204
1	-250000	13.1	10.8	204
1	-260000	11.7	9.49	179
1	-270000	11.6	9.33	176
1	-280000	13.3	11	208
1	-290000	13.7	11.4	216
1	-300000	13.3	11.1	209
1	-310000	12.9	10.7	201
1	-320000	14.1	11.8	223
1	-330000	14.2	11.9	226
1	-340000	13.2	11	207
1	-350000	12.5	10.3	194
1	-360000	13.8	11.5	218
1	-370000	15.3	13.1	247
1	-380000	15.3	13	247
1	-390000	14.5	12.2	231
1	-400000	14.8	12.6	238
1	-410000	14.3	12	228
1	-420000	13.9	11.6	220
1	-430000	14.4	12.2	230
1	-440000	14.9	12.6	238
1	-450000	14.2	12	226
1	-460000	13.2	10.9	206
1	-470000	12.7	10.4	197
2	0	10.4	11	207
2	10000	9.06	9.55	181
2	20000	10.2	10.7	203
2	30000	9.03	9.52	180
2	40000	8.42	8.87	168
2	50000	9.51	10	189
2	60000	9.23	9.73	184
2	70000	8.23	8.68	164
2	80000	8.15	8.59	162
2	90000	9.09	9.59	181
2	100000	8.49	8.95	169
2	110000	6.95	7.33	138
2	120000	7.4	7.8	147
2	130000	7.29	7.68	145
2	140000	7.42	7.82	148
2	150000	6.25	6.59	125
2	160000	6.29	6.63	125
2	170000	8.5	8.96	169
2	180000	8.75	9.22	174
2	190000	7.84	8.27	156
2	200000	7.83	8.25	156
2	210000	8.6	9.06	171
2	220000	8.53	8.99	170
2	230000	7.78	8.2	155
2	240000	7.66	8.08	153
2	250000	7.63	8.05	152
2	260000	7.36	7.76	147
2	270000	6.14	6.47	122
2	280000	6.52	6.87	130
2	290000	7.22	7.61	144
2	300000	7.57	7.98	151
2	310000	6.91	7.28	138
2	320000	6.48	6.83	129
2	330000	7.97	8.4	159
2	340000	8.4	8.86	167
2	350000	7.64	8.05	152
2	360000	7.61	8.02	152
2	370000	8.95	9.43	178
2	380000	9.08	9.57	181
2	390000	8.54	9	170
2	400000	8.62	9.09	172
2	410000	9.39	9.9	187
2	420000	9.86	10.4	196
2	430000	8.14	8.59	162
2	440000	8.22	8.66	164
2	450000	7.67	8.08	153
2	460000	8.73	9.2	174
2	470000	9.27	9.78	185
2	0	10.6	8.37	158
2	-10000	10.9	8.64	163
2	-20000	11.2	8.91	168
2	-30000	9.48	7.22	137
2	-40000	9.76	7.5	142
2	-50000	10.1	7.79	147
2	-60000	9.38	7.12	135
2	-70000	8.89	6.63	125
2	-80000	10.3	8.05	152
2	-90000	10.7	8.49	160
2	-100000	10.5	8.25	156
2	-110000	11.1	8.79	166
2	-120000	11.4	9.17	173
2	-130000	12.3	10.1	190
2	-140000	13.2	11	207
2	-150000	12.5	10.2	193
2	-160000	12.5	10.3	194
2	-170000	12.1	9.86	186
2	-180000	11.8	9.54	180
2	-190000	10.6	8.3	157
2	-200000	10.8	8.49	161
2	-210000	12.2	9.93	188
2	-220000	12.5	10.2	193
2	-230000	11.6	9.3	176
2	-240000	11.8	9.55	180
2	-250000	12.6	10.4	196
2	-260000	12.4	10.1	191
2	-270000	11.8	9.54	180
2	-280000	11.8	9.54	180
2	-290000	12.5	10.3	194
2	-300000	12.8	10.5	199
2	-310000	12.6	10.4	196
2	-320000	13	10.7	202
2	-330000	13.3	11	209
2	-340000	11.6	9.31	176
2	-350000	11.3	9	170
2	-360000	12	9.7	183
2	-370000	12.7	10.4	197
2	-380000	12.3	10	190
2	-390000	11.7	9.47	179
2	-400000	12.8	10.5	199
2	-410000	12.7	10.4	197
2	-420000	11.5	9.25	175
2	-430000	12.1	9.81	185
2	-440000	12.7	10.4	197
2	-450000	12.8	10.6	200
2	-460000	11.7	9.47	179
2	-470000	10.4	8.15	154
3	0	8.99	9.48	179
3	10000	7.54	7.95	150
3	20000	8.95	9.43	178
3	30000	7.8	8.22	155
3	40000	6.82	7.19	136
3	50000	7.76	8.18	155
3	60000	7.56	7.97	151
3	70000	6.42	6.77	128
3	80000	6.19	6.53	123
3	90000	6.81	7.18	136
3	100000	6.73	7.09	134
3	110000	5.13	5.42	102
3	120000	5.88	6.2	117
3	130000	7.74	8.15	154
3	140000	7.81	8.23	156
3	150000	6.79	7.15	135
3	160000	5.67	5.98	113
3	170000	6.91	7.28	138
3	180000	7.34	7.74	146
3	190000	6.18	6.52	123
3	200000	6.65	7.01	132
3	210000	8.49	8.95	169
3	220000	7.98	8.41	159
3	230000	7.54	7.94	150
3	240000	7.46	7.86	149
3	250000	7.77	8.19	155
3	260000	7.61	8.02	152
3	270000	7.17	7.56	143
3	280000	6.86	7.23	137
3	290000	6.74	7.1	134
3	300000	6.41	6.75	128
3	310000	5.96	6.28	119
3	320000	5.6	5.9	111
3	330000	7.08	7.46	141
3	340000	7.74	8.16	154
3	350000	6.68	7.04	133
3	360000	7.1	7.49	142
3	370000	8.21	8.65	163
3	380000	8.79	9.26	175
3	390000	8.24	8.68	164
3	400000	8.29	8.74	165
3	410000	8.83	9.31	176
3	420000	8.66	9.13	172
3	430000	7.47	7.87	149
3	440000	7.34	7.74	146
3	450000	7.17	7.56	143
3	460000	8.6	9.07	171
3	470000	8.48	8.94	169
3	0	10.2	7.9	149
3	-10000	11.7	9.48	179
3	-20000	11.8	9.55	180
3	-30000	10.3	8.02	152
3	-40000	10.6	8.37	158
3	-50000	11.5	9.23	174
3	-60000	10.4	8.12	153
3	-70000	9.7	7.44	141
3	-80000	11	8.7	164
3	-90000	11.8	9.57	181
3	-100000	10.7	8.43	159
3	-110000	10.1	7.84	148
3	-120000	10.5	8.2	155
3	-130000	11	8.71	165
3	-140000	10.9	8.59	162
3	-150000	10.4	8.1	153
3	-160000	11.2	8.98	170
3	-170000	12.5	10.2	194
3	-180000	11.8	9.55	180
3	-190000	10.8	8.56	162
3	-200000	10.8	8.59	162
3	-210000	11.6	9.35	177
3	-220000	11.2	8.94	169
3	-230000	11	8.77	166
3	-240000	12	9.75	184
3	-250000	12.1	9.85	186
3	-260000	10.8	8.54	161
3	-270000	9.8	7.54	143
3	-280000	11	8.7	164
3	-290000	12.1	9.85	186
3	-300000	11.6	9.32	176
3	-310000	10.4	8.17	154
3	-320000	10.6	8.35	158
3	-330000	11.5	9.2	174
3	-340000	11.1	8.84	167
3	-350000	11	8.74	165
3	-360000	11.8	9.55	180
3	-370000	12.4	10.1	191
3	-380000	11.5	9.28	175
3	-390000	10.6	8.37	158
3	-400000	11.9	9.63	182
3	-410000	11.7	9.42	178
3	-420000	10.5	8.25	156
3	-430000	10.6	8.36	158
3	-440000	11.2	8.91	168
3	-450000	11.1	8.83	167
3	-460000	10.1	7.81	148
3	-470000	8.99	6.73	127
4	0	7.45	7.86	148
4	10000	7.49	7.9	149
4	20000	8.85	9.33	176
4	30000	7.86	8.28	157
4	40000	7.73	8.15	154
4	50000	9.24	9.74	184
4	60000	8.97	9.45	179
4	70000	7.8	8.22	155
4	80000	7.41	7.81	148
4	90000	8.29	8.74	165
4	100000	8.19	8.64	163
4	110000	6.49	6.84	129
4	120000	6.65	7.01	133
4	130000	7.36	7.76	147
4	140000	7.22	7.61	144
4	150000	6.42	6.77	128
4	160000	6.19	6.52	123
4	170000	7.02	7.39	140
4	180000	6.67	7.03	133
4	190000	5	5.28	99.8
4	200000	4.89	5.18	97.8
4	210000	5.85	6.17	117
4	220000	4.79	5.08	96
4	230000	3.99	4.28	80.9
4	240000	4.27	4.55	86
4	250000	5.47	5.77	109
4	260000	4.99	5.28	99.8
4	270000	3.8	4.09	77.3
4	280000	3.74	4.03	76.2
4	290000	4.19	4.47	84.6
4	300000	4.35	4.64	87.6
4	310000	3.59	3.88	73.3
4	320000	2.81	3.1	58.6
4	330000	4.25	4.54	85.7
4	340000	4.76	5.05	95.4
4	350000	3.77	4.06	76.7
4	360000	3.16	3.44	65.1
4	370000	4.04	4.33	81.8
4	380000	3.97	4.26	80.5
4	390000	3.11	3.39	64.2
4	400000	3.66	3.95	74.6
4	410000	4.81	5.1	96.3
4	420000	5.5	5.8	110
4	430000	4.65	4.94	93.3
4	440000	5.07	5.35	101
4	450000	5.93	6.26	118
4	460000	6.87	7.24	137
4	470000	6.17	6.5	123
4	0	7.37	5.11	96.6
4	-10000	6.96	4.7	88.9
4	-20000	7.31	5.05	95.5
4	-30000	6.49	4.23	79.9
4	-40000	7.19	4.93	93.1
4	-50000	7.7	5.44	103
4	-60000	6.7	4.44	83.8
4	-70000	5.97	3.71	70.2
4	-80000	6.87	4.61	87.2
4	-90000	7.08	4.82	91.1
4	-100000	6.41	4.15	78.5
4	-110000	6.79	4.53	85.7
4	-120000	8.4	6.14	116
4	-130000	9.45	7.19	136
4	-140000	9.64	7.38	139
4	-150000	8.58	6.32	119
4	-160000	8.97	6.71	127
4	-170000	8.85	6.59	125
4	-180000	8.76	6.5	123
4	-190000	8.03	5.77	109
4	-200000	8.49	6.23	118
4	-210000	9.79	7.53	142
4	-220000	9.71	7.45	141
4	-230000	9.1	6.84	129
4	-240000	10.2	7.98	151
4	-250000	11.1	8.87	168
4	-260000	10.7	8.4	159
4	-270000	10.3	8.03	152
4	-280000	10.8	8.55	162
4	-290000	11.3	9	170
4	-300000	10.6	8.31	157
4	-310000	9.34	7.08	134
4	-320000	9.65	7.39	140
4	-330000	10.2	7.9	149
4	-340000	9.53	7.27	137
4	-350000	10.1	7.83	148
4	-360000	11.5	9.24	175
4	-370000	12.8	10.6	200
4	-380000	12.6	10.3	195
4	-390000	11.8	9.57	181
4	-400000	12.7	10.4	197
4	-410000	13.1	10.9	206
4	-420000	12.3	10	189
4	-430000	11.9	9.61	182
4	-440000	11.7	9.44	178
4	-450000	11.6	9.3	176
4	-460000	10.3	8.06	152
4	-470000	8.94	6.68	126
5	0	7.38	7.78	147
5	10000	5.93	6.25	118
5	20000	6.8	7.17	135
5	30000	5.45	5.74	109
5	40000	4.82	5.11	96.5
5	50000	5.34	5.63	106
5	60000	5.4	5.69	108
5	70000	4.87	5.16	97.5
5	80000	4.02	4.3	81.4
5	90000	4.62	4.91	92.8
5	100000	4.75	5.04	95.2
5	110000	3.37	3.66	69.2
5	120000	3.61	3.9	73.7
5	130000	4.13	4.41	83.4
5	140000	4.2	4.48	84.7
5	150000	3.47	3.75	71
5	160000	3.05	3.33	63
5	170000	4.06	4.35	82.1
5	180000	4.41	4.7	88.8
5	190000	3.52	3.81	71.9
5	200000	3.77	4.06	76.7
5	210000	4.26	4.55	85.9
5	220000	4.16	4.45	84.1
5	230000	3.72	4	75.7
5	240000	3.45	3.74	70.7
5	250000	4.16	4.45	84.1
5	260000	3.76	4.04	76.4
5	270000	3.36	3.64	68.8
5	280000	3.39	3.67	69.5
5	290000	3.17	3.45	65.3
5	300000	3.13	3.42	64.6
5	310000	2.86	3.15	59.5
5	320000	2.54	2.82	53.4
5	330000	3.21	3.49	66
5	340000	3.55	3.84	72.6
5	350000	2.62	2.9	54.9
5	360000	2.81	3.1	58.6
5	370000	3.67	3.96	74.8
5	380000	3.99	4.28	80.9
5	390000	3.16	3.45	65.2
5	400000	3.16	3.44	65.1
5	410000	4.07	4.36	82.4
5	420000	3.77	4.06	76.7
5	430000	2.42	2.71	51.2
5	440000	3.08	3.36	63.6
5	450000	3.42	3.7	70
5	460000	4.62	4.9	92.7
5	470000	3.9	4.19	79.2
5	0	5.04	2.88	54.5
5	-10000	5.61	3.35	63.4
5	-20000	6.12	3.86	72.9
5	-30000	5.51	3.25	61.4
5	-40000	6.05	3.79	71.7
5	-50000	6.44	4.18	79
5	-60000	5.86	3.6	68
5	-70000	5.38	3.12	59
5	-80000	6.34	4.08	77
5	-90000	6.68	4.42	83.5
5	-100000	5.9	3.64	68.8
5	-110000	5.78	3.52	66.5
5	-120000	6.09	3.83	72.3
5	-130000	6.96	4.7	88.8
5	-140000	6.79	4.53	85.6
5	-150000	6.41	4.15	78.3
5	-160000	7.49	5.23	98.8
5	-170000	8.35	6.09	115
5	-180000	8.2	5.94	112
5	-190000	7.27	5.01	94.6
5	-200000	7.2	4.94	93.3
5	-210000	7.87	5.61	106
5	-220000	7.38	5.12	96.8
5	-230000	6.61	4.35	82.2
5	-240000	7.52	5.26	99.5
5	-250000	7.89	5.63	106
5	-260000	7.8	5.54	105
5	-270000	7.84	5.58	105
5	-280000	9.33	7.07	134
5	-290000	9.98	7.72	146
5	-300000	9.86	7.6	144
5	-310000	9.04	6.78	128
5	-320000	9.43	7.17	136
5	-330000	10.2	7.98	151
5	-340000	9.59	7.33	138
5	-350000	9.02	6.76	128
5	-360000	9.59	7.33	138
5	-370000	10	7.78	147
5	-380000	9.24	6.98	132
5	-390000	8.55	6.29	119
5	-400000	9.76	7.5	142
5	-410000	9.92	7.66	145
5	-420000	9.6	7.34	139
5	-430000	9.02	6.76	128
5	-440000	9.06	6.8	128
5	-450000	8.93	6.67	126
5	-460000	8.37	6.11	115
5	-470000	7.1	4.84	91.5
