rep_num	position	torque	torque_compensated	lbs_compensated
1	0	4.04	4.33	81.8
1	10000	9.62	10.1	192
1	20000	10.8	11.4	216
1	30000	10.6	11.1	210
1	40000	10.3	10.8	205
1	50000	11.1	11.7	221
1	60000	11.3	11.9	225
1	70000	10.5	11.1	210
1	80000	9.8	10.3	195
1	90000	9.51	10	189
1	100000	9.95	10.5	198
1	110000	9.74	10.3	194
1	120000	9.59	10.1	191
1	130000	10	10.6	200
1	140000	9.9	10.4	197
1	150000	9.92	10.5	198
1	160000	9.95	10.5	198
1	170000	9.68	10.2	193
1	180000	9.81	10.3	195
1	190000	9.97	10.5	199
1	200000	9.46	9.97	188
1	210000	9.73	10.3	194
1	220000	9.42	9.93	188
1	230000	9.18	9.68	183
1	240000	9.24	9.74	184
1	250000	8.8	9.28	175
1	260000	8.92	9.4	178
1	270000	8.12	8.56	162
1	280000	8.22	8.67	164
1	290000	8.54	9.01	170
1	300000	8.76	9.24	175
1	310000	8.33	8.78	166
1	320000	8.23	8.67	164
1	330000	8.18	8.62	163
1	340000	8.94	9.42	178
1	350000	8.74	9.21	174
1	360000	8.57	9.03	171
1	370000	8.59	9.06	171
1	380000	9.37	9.88	187
1	390000	9.75	10.3	194
1	400000	9.4	9.91	187
1	410000	9.79	10.3	195
1	420000	10.1	10.6	201
1	430000	9.9	10.4	197
1	440000	10	10.5	199
1	450000	10.3	10.9	206
1	460000	10.8	11.4	215
1	470000	9.88	10.4	197
2	0	11.6	9.3	176
2	-10000	12.6	10.4	196
2	-20000	12	9.76	184
2	-30000	11.2	8.94	169
2	-40000	12	9.75	184
2	-50000	12.4	10.2	192
2	-60000	12.7	10.5	198
2	-70000	13.2	10.9	207
2	-80000	12.7	10.4	197
2	-90000	11.8	9.55	181
2	-100000	11.6	9.34	176
2	-110000	12	9.73	184
2	-120000	12	9.71	183
2	-130000	12.4	10.2	192
2	-140000	12	9.79	185
2	-150000	11.6	9.34	177
2	-160000	12.1	9.82	186
2	-170000	12.7	10.4	197
2	-180000	12.9	10.6	201
2	-190000	13.6	11.4	215
2	-200000	14.2	11.9	226
2	-210000	14.4	12.1	229
2	-220000	14	11.8	222
2	-230000	14.2	11.9	225
2	-240000	14.3	12	227
2	-250000	13.8	11.5	218
2	-260000	13.6	11.4	215
2	-270000	12.9	10.6	201
2	-280000	12.7	10.5	198
2	-290000	13.7	11.5	217
2	-300000	13.4	11.1	210
2	-310000	13.4	11.1	210
2	-320000	14.3	12.1	228
2	-330000	14.8	12.5	237
2	-340000	15	12.8	242
2	-350000	14.8	12.6	237
2	-360000	14.8	12.5	237
2	-370000	14.3	12	228
2	-380000	14	11.8	222
2	-390000	13.9	11.7	221
2	-400000	14.7	12.4	235
2	-410000	14.8	12.5	237
2	-420000	14.8	12.5	237
2	-430000	15.3	13.1	247
2	-440000	15.3	13	246
2	-450000	15	12.7	240
2	-460000	14.2	11.9	225
2	-470000	14.2	12	226
2	0	12.6	13.3	251
2	10000	11.9	12.6	237
2	20000	11.5	12.1	229
2	30000	11.2	11.8	222
2	40000	10	10.6	200
2	50000	9.78	10.3	195
2	60000	9.37	9.88	187
2	70000	8.73	9.2	174
2	80000	8.52	8.98	170
2	90000	8.95	9.44	178
2	100000	10.2	10.7	203
2	110000	10.2	10.8	203
2	120000	10	10.5	199
2	130000	10.4	11	207
2	140000	10.3	10.8	204
2	150000	9.94	10.5	198
2	160000	9.75	10.3	194
2	170000	9.77	10.3	195
2	180000	9.72	10.2	194
2	190000	9.54	10.1	190
2	200000	9.36	9.86	186
2	210000	9.46	9.98	189
2	220000	8.76	9.23	174
2	230000	8.64	9.11	172
2	240000	8.68	9.15	173
2	250000	8.02	8.45	160
2	260000	8.26	8.71	165
2	270000	7.37	7.77	147
2	280000	7.72	8.14	154
2	290000	7.26	7.65	145
2	300000	7.88	8.3	157
2	310000	9.04	9.52	180
2	320000	9.3	9.8	185
2	330000	9.13	9.63	182
2	340000	9.55	10.1	190
2	350000	9.4	9.91	187
2	360000	9.33	9.83	186
2	370000	9.67	10.2	193
2	380000	10.6	11.2	212
2	390000	10.6	11.2	211
2	400000	10.2	10.7	203
2	410000	10.4	10.9	206
2	420000	10.3	10.9	205
2	430000	9.47	9.98	189
2	440000	9.34	9.85	186
2	450000	9.32	9.82	186
2	460000	9.24	9.74	184
2	470000	8.07	8.51	161
3	0	10.1	7.85	148
3	-10000	6.24	3.98	75.2
3	-20000	5.63	3.37	63.8
3	-30000	5.63	3.37	63.8
3	-40000	4.59	2.63	49.7
3	-50000	4.12	2.36	44.6
3	-60000	3.35	1.92	36.3
3	-70000	3.66	2.1	39.6
3	-80000	4.19	2.4	45.4
3	-90000	4.78	2.74	51.7
3	-100000	6.77	4.51	85.2
3	-110000	9.97	7.71	146
3	-120000	10.7	8.49	160
3	-130000	10.8	8.54	161
3	-140000	10.9	8.62	163
3	-150000	11	8.74	165
3	-160000	11.6	9.34	177
3	-170000	11.8	9.49	179
3	-180000	12.3	10.1	190
3	-190000	12.8	10.6	200
3	-200000	12.4	10.2	192
3	-210000	12.4	10.1	191
3	-220000	11.2	8.93	169
3	-230000	11.7	9.41	178
3	-240000	12.6	10.3	195
3	-250000	13	10.7	203
3	-260000	13	10.7	202
3	-270000	13.2	10.9	207
3	-280000	14	11.7	221
3	-290000	14.6	12.3	233
3	-300000	13.6	11.3	214
3	-310000	12.8	10.6	200
3	-320000	13.6	11.3	214
3	-330000	13.1	10.8	204
3	-340000	12.3	10	189
3	-350000	12.2	9.96	188
3	-360000	12.2	9.95	188
3	-370000	12	9.75	184
3	-380000	11.5	9.26	175
3	-390000	11.9	9.65	182
3	-400000	12.6	10.3	195
3	-410000	12.3	10.1	190
3	-420000	12.2	9.99	189
3	-430000	12.9	10.6	201
3	-440000	13.1	10.9	205
3	-450000	13.3	11	208
3	-460000	12.7	10.4	197
3	-470000	12.6	10.3	195
3	0	11	11.6	219
3	10000	10.7	11.3	214
3	20000	10.5	11.1	210
3	30000	10.6	11.1	211
3	40000	9.76	10.3	194
3	50000	9.92	10.5	198
3	60000	10.2	10.8	204
3	70000	9.78	10.3	195
3	80000	8.93	9.42	178
3	90000	9.54	10.1	190
3	100000	9.8	10.3	195
3	110000	8.98	9.47	179
3	120000	8.48	8.94	169
3	130000	8.92	9.4	178
3	140000	9.31	9.82	186
3	150000	8.73	9.2	174
3	160000	8.78	9.26	175
3	170000	9.05	9.54	180
3	180000	9.06	9.55	180
3	190000	9.04	9.53	180
3	200000	8.52	8.98	170
3	210000	8.82	9.3	176
3	220000	8.55	9.02	170
3	230000	8.29	8.74	165
3	240000	7.65	8.06	152
3	250000	7.49	7.89	149
3	260000	8.03	8.47	160
3	270000	8.29	8.74	165
3	280000	8.12	8.56	162
3	290000	8.15	8.59	162
3	300000	8	8.43	159
3	310000	7.98	8.41	159
3	320000	7.81	8.23	156
3	330000	7.58	7.99	151
3	340000	8.38	8.84	167
3	350000	8.06	8.5	161
3	360000	7.69	8.11	153
3	370000	8.3	8.75	165
3	380000	8.87	9.35	177
3	390000	8.78	9.26	175
3	400000	8.75	9.22	174
3	410000	9.28	9.79	185
3	420000	9.57	10.1	191
3	430000	8.99	9.48	179
3	440000	8.89	9.37	177
3	450000	9.17	9.67	183
3	460000	9.74	10.3	194
3	470000	8.64	9.11	172
4	0	10.2	7.99	151
4	-10000	11.8	9.49	179
4	-20000	11.9	9.66	183
4	-30000	11.6	9.36	177
4	-40000	12.5	10.3	194
4	-50000	12.3	10.1	190
4	-60000	11	8.75	165
4	-70000	10.7	8.43	159
4	-80000	10.6	8.38	158
4	-90000	10.6	8.38	158
4	-100000	10.4	8.1	153
4	-110000	10.1	7.83	148
4	-120000	9.92	7.66	145
4	-130000	10.2	7.97	151
4	-140000	10.2	7.96	150
4	-150000	9.67	7.41	140
4	-160000	10.2	7.98	151
4	-170000	11.4	9.09	172
4	-180000	11.8	9.5	179
4	-190000	11.5	9.23	174
4	-200000	12.1	9.84	186
4	-210000	12.4	10.1	192
4	-220000	12.4	10.2	192
4	-230000	12.1	9.85	186
4	-240000	12.4	10.1	191
4	-250000	12.7	10.4	197
4	-260000	13.3	11.1	210
4	-270000	13.6	11.3	214
4	-280000	13.8	11.5	217
4	-290000	14.9	12.6	239
4	-300000	15.1	12.8	242
4	-310000	15	12.7	240
4	-320000	15.4	13.2	249
4	-330000	14.9	12.6	239
4	-340000	14.6	12.3	233
4	-350000	14.6	12.4	234
4	-360000	14.7	12.4	235
4	-370000	14	11.8	223
4	-380000	13.3	11.1	210
4	-390000	13.1	10.8	204
4	-400000	13.3	11	208
4	-410000	12.9	10.6	200
4	-420000	12.7	10.4	197
4	-430000	13.2	10.9	206
4	-440000	13.3	11	209
4	-450000	12.8	10.5	199
4	-460000	12.3	10.1	190
4	-470000	12.3	10	189
4	0	10.7	11.3	214
4	10000	9.43	9.94	188
4	20000	8.98	9.46	179
4	30000	8.22	8.67	164
4	40000	7.19	7.57	143
4	50000	7.74	8.16	154
4	60000	8.16	8.6	163
4	70000	7.58	7.99	151
4	80000	6.79	7.15	135
4	90000	6.86	7.23	137
4	100000	7.38	7.78	147
4	110000	6.8	7.17	135
4	120000	6.53	6.88	130
4	130000	6.92	7.29	138
4	140000	6.98	7.35	139
4	150000	6.22	6.55	124
4	160000	5.88	6.2	117
4	170000	6.07	6.4	121
4	180000	6.51	6.86	130
4	190000	7.47	7.88	149
4	200000	7.28	7.68	145
4	210000	7.65	8.06	152
4	220000	7.44	7.84	148
4	230000	7.05	7.43	140
4	240000	6.53	6.89	130
4	250000	6.21	6.55	124
4	260000	6.18	6.51	123
4	270000	5.87	6.19	117
4	280000	5.78	6.09	115
4	290000	5.86	6.18	117
4	300000	6.08	6.41	121
4	310000	5.54	5.84	110
4	320000	5.3	5.59	106
4	330000	4.94	5.23	98.8
4	340000	5.24	5.53	104
4	350000	4.87	5.15	97.4
4	360000	4.43	4.72	89.2
4	370000	4.5	4.79	90.5
4	380000	4.94	5.23	98.8
4	390000	4.17	4.46	84.3
4	400000	4.23	4.52	85.4
4	410000	4.68	4.97	93.9
4	420000	5.64	5.95	112
4	430000	5.71	6.02	114
4	440000	5.75	6.07	115
4	450000	6.02	6.35	120
4	460000	6.62	6.98	132
4	470000	6.6	6.95	131
5	0	8.32	6.06	114
5	-10000	8.51	6.25	118
5	-20000	8.12	5.86	111
5	-30000	8.36	6.1	115
5	-40000	8.47	6.21	117
5	-50000	8.23	5.97	113
5	-60000	7.53	5.27	99.7
5	-70000	7.52	5.26	99.4
5	-80000	8.11	5.85	110
5	-90000	8.04	5.78	109
5	-100000	8.02	5.76	109
5	-110000	8.85	6.59	125
5	-120000	9.8	7.54	143
5	-130000	9.9	7.64	144
5	-140000	9.07	6.81	129
5	-150000	9.01	6.75	128
5	-160000	9.32	7.06	134
5	-170000	9.35	7.09	134
5	-180000	9.4	7.14	135
5	-190000	9.43	7.17	135
5	-200000	9.39	7.13	135
5	-210000	9.58	7.32	138
5	-220000	9.84	7.58	143
5	-230000	10.3	8.05	152
5	-240000	10.8	8.52	161
5	-250000	11.1	8.89	168
5	-260000	11.5	9.24	175
5	-270000	11.4	9.18	174
5	-280000	11.8	9.58	181
5	-290000	12.3	10	190
5	-300000	11.7	9.44	178
5	-310000	11.7	9.48	179
5	-320000	12.4	10.2	192
5	-330000	12.4	10.1	192
5	-340000	11.9	9.63	182
5	-350000	11.9	9.64	182
5	-360000	12.2	9.89	187
5	-370000	11.6	9.35	177
5	-380000	10.9	8.68	164
5	-390000	11.2	8.98	170
5	-400000	11.8	9.55	180
5	-410000	11.6	9.39	177
5	-420000	10.8	8.54	161
5	-430000	11	8.7	164
5	-440000	11.1	8.84	167
5	-450000	10.8	8.57	162
5	-460000	10.2	7.91	150
5	-470000	9.91	7.65	145
5	0	8.09	8.53	161
5	10000	6.94	7.32	138
5	20000	6.39	6.74	127
5	30000	6.11	6.44	122
5	40000	5.62	5.93	112
5	50000	5.75	6.06	115
5	60000	5.83	6.14	116
5	70000	5.52	5.82	110
5	80000	4.98	5.27	99.5
5	90000	4.77	5.05	95.5
5	100000	5.05	5.34	101
5	110000	4.5	4.78	90.4
5	120000	4.15	4.44	83.9
5	130000	4.19	4.48	84.6
5	140000	4.21	4.49	84.9
5	150000	3.84	4.13	78
5	160000	3.62	3.91	73.8
5	170000	3.81	4.1	77.5
5	180000	4.01	4.3	81.2
5	190000	3.84	4.13	78
5	200000	3.59	3.88	73.3
5	210000	4.09	4.37	82.7
5	220000	4.51	4.8	90.7
5	230000	4.69	4.98	94
5	240000	4.45	4.74	89.6
5	250000	4.36	4.65	87.9
5	260000	4.8	5.09	96.2
5	270000	4.91	5.2	98.3
5	280000	4.66	4.94	93.4
5	290000	4.62	4.9	92.7
5	300000	4.6	4.89	92.3
5	310000	4.52	4.81	90.9
5	320000	4.21	4.5	85.1
5	330000	4.08	4.37	82.5
5	340000	4.25	4.53	85.7
5	350000	4.14	4.42	83.6
5	360000	3.45	3.73	70.5
5	370000	3.77	4.05	76.6
5	380000	4	4.29	81.1
5	390000	3.43	3.71	70.2
5	400000	2.77	3.06	57.8
5	410000	3.25	3.53	66.8
5	420000	3.93	4.22	79.7
5	430000	3.26	3.54	66.9
5	440000	2.97	3.26	61.6
5	450000	3.47	3.75	70.9
5	460000	3.81	4.09	77.3
5	470000	3.2	3.48	65.8
6	0	4.89	2.8	52.9
6	-10000	6.65	4.39	83
6	-20000	6.18	3.92	74.1
6	-30000	5.95	3.69	69.8
6	-40000	6.22	3.96	74.8
6	-50000	5.97	3.71	70
6	-60000	5.29	3.03	57.3
6	-70000	5.33	3.07	58
6	-80000	5.82	3.56	67.2
6	-90000	5.56	3.3	62.3
6	-100000	5.76	3.5	66.1
6	-110000	5.55	3.29	62.2
6	-120000	5.55	3.29	62.2
6	-130000	5.8	3.54	67
6	-140000	5.45	3.19	60.2
6	-150000	5.59	3.33	63
6	-160000	6.32	4.06	76.7
6	-170000	7	4.74	89.5
6	-180000	7.08	4.82	91.1
6	-190000	7.47	5.21	98.5
6	-200000	7.65	5.39	102
6	-210000	7.27	5.01	94.7
6	-220000	6.89	4.63	87.6
6	-230000	6.82	4.56	86.1
6	-240000	7.17	4.91	92.7
6	-250000	7.84	5.58	105
6	-260000	8.27	6.01	114
6	-270000	8.3	6.04	114
6	-280000	8.02	5.76	109
6	-290000	8.17	5.91	112
6	-300000	8.4	6.14	116
6	-310000	8.68	6.42	121
6	-320000	10	7.76	147
6	-330000	9.93	7.67	145
6	-340000	9.77	7.51	142
6	-350000	10.2	7.99	151
6	-360000	10.6	8.31	157
6	-370000	10.2	7.91	150
6	-380000	9.63	7.37	139
6	-390000	9.48	7.22	137
6	-400000	9.42	7.16	135
6	-410000	9.32	7.06	133
6	-420000	9.97	7.71	146
6	-430000	10.4	8.15	154
6	-440000	11	8.75	165
6	-450000	11	8.76	166
6	-460000	10.3	7.99	151
6	-470000	9.41	7.15	135
