rep_num	position	torque	torque_compensated	lbs_compensated
1	0	2.06	2.34	44.3
1	10000	7.59	8	151
1	20000	9.32	9.83	186
1	30000	9.33	9.83	186
1	40000	8.39	8.84	167
1	50000	9.19	9.69	183
1	60000	10	10.6	200
1	70000	9.45	9.96	188
1	80000	8.41	8.87	168
1	90000	9.18	9.67	183
1	100000	10.1	10.7	202
1	110000	9.48	10	189
1	120000	8.99	9.47	179
1	130000	9.42	9.93	188
1	140000	9.95	10.5	198
1	150000	9.59	10.1	191
1	160000	9.28	9.78	185
1	170000	9.39	9.9	187
1	180000	9.4	9.91	187
1	190000	9.77	10.3	195
1	200000	8.49	8.95	169
1	210000	8.87	9.35	177
1	220000	9.81	10.3	195
1	230000	9.21	9.71	183
1	240000	9.05	9.54	180
1	250000	9.33	9.83	186
1	260000	10	10.6	200
1	270000	9.53	10	190
1	280000	8.72	9.2	174
1	290000	9.48	10	189
1	300000	10.5	11	208
1	310000	9.58	10.1	191
1	320000	9.22	9.72	184
1	330000	9.71	10.2	193
1	340000	10.7	11.3	214
1	350000	10.3	10.8	205
1	360000	9.35	9.85	186
1	370000	10.3	10.8	205
1	380000	11.2	11.8	224
1	390000	10.9	11.5	217
1	400000	9.75	10.3	194
1	410000	9.9	10.4	197
1	420000	10.8	11.4	215
1	430000	10.1	10.6	201
1	440000	9.01	9.5	180
1	450000	9.13	9.63	182
1	460000	9.9	10.4	197
1	470000	9.8	10.3	195
2	0	11.3	9.08	172
2	-10000	12	9.78	185
2	-20000	13	10.8	203
2	-30000	11.8	9.52	180
2	-40000	11.8	9.51	180
2	-50000	12.3	10	189
2	-60000	12.7	10.5	198
2	-70000	13.3	11	208
2	-80000	13.6	11.3	214
2	-90000	13.2	10.9	206
2	-100000	11.9	9.67	183
2	-110000	11.2	8.94	169
2	-120000	11.9	9.66	183
2	-130000	12.8	10.6	199
2	-140000	11.6	9.36	177
2	-150000	11.3	9.05	171
2	-160000	13.1	10.8	204
2	-170000	14.2	12	226
2	-180000	13.2	11	207
2	-190000	12	9.72	184
2	-200000	12.2	9.96	188
2	-210000	13.1	10.8	204
2	-220000	13.2	10.9	206
2	-230000	13	10.7	202
2	-240000	12.6	10.4	196
2	-250000	13.1	10.8	204
2	-260000	13	10.8	204
2	-270000	12.3	10	189
2	-280000	13.1	10.8	204
2	-290000	14.1	11.8	224
2	-300000	13.4	11.2	211
2	-310000	12.3	10	189
2	-320000	12.5	10.2	193
2	-330000	13.1	10.8	204
2	-340000	12.7	10.4	197
2	-350000	11.9	9.6	181
2	-360000	13.1	10.8	204
2	-370000	12.7	10.5	198
2	-380000	11.7	9.47	179
2	-390000	11.2	8.98	170
2	-400000	11.6	9.33	176
2	-410000	12	9.76	185
2	-420000	11.7	9.45	179
2	-430000	12.4	10.1	191
2	-440000	13	10.8	203
2	-450000	12.4	10.2	192
2	-460000	12.7	10.4	197
2	-470000	13.9	11.6	220
2	0	11.4	12	227
2	10000	9.3	9.8	185
2	20000	9.13	9.62	182
2	30000	9.62	10.1	192
2	40000	8.23	8.67	164
2	50000	8.75	9.22	174
2	60000	9.93	10.5	198
2	70000	9.58	10.1	191
2	80000	8.78	9.25	175
2	90000	9.38	9.89	187
2	100000	10.1	10.6	201
2	110000	9.42	9.93	188
2	120000	8.45	8.91	168
2	130000	8.6	9.07	171
2	140000	9.08	9.57	181
2	150000	8.77	9.25	175
2	160000	8.67	9.14	173
2	170000	8.84	9.32	176
2	180000	9.87	10.4	197
2	190000	9.59	10.1	191
2	200000	8.24	8.69	164
2	210000	7.88	8.31	157
2	220000	8.08	8.51	161
2	230000	7.45	7.85	148
2	240000	6.55	6.9	130
2	250000	6.25	6.59	125
2	260000	6.88	7.25	137
2	270000	6.22	6.55	124
2	280000	6.09	6.42	121
2	290000	7.14	7.53	142
2	300000	7.65	8.07	152
2	310000	6.9	7.27	137
2	320000	6.18	6.51	123
2	330000	7.08	7.47	141
2	340000	8.8	9.28	175
2	350000	9.43	9.94	188
2	360000	9.21	9.71	184
2	370000	9.55	10.1	190
2	380000	10.6	11.2	211
2	390000	10.2	10.8	204
2	400000	8.91	9.39	177
2	410000	9.28	9.79	185
2	420000	9.97	10.5	199
2	430000	8.85	9.33	176
2	440000	8.48	8.94	169
2	450000	8.61	9.08	172
2	460000	9.28	9.78	185
2	470000	8.71	9.19	174
3	0	10.3	8	151
3	-10000	10.1	7.86	148
3	-20000	10.3	8.01	151
3	-30000	10.4	8.15	154
3	-40000	12.9	10.7	202
3	-50000	13.7	11.5	216
3	-60000	12.6	10.3	195
3	-70000	11.6	9.33	176
3	-80000	11.6	9.3	176
3	-90000	11.9	9.66	183
3	-100000	11.9	9.59	181
3	-110000	10.7	8.44	159
3	-120000	11	8.78	166
3	-130000	11	8.7	164
3	-140000	10.9	8.64	163
3	-150000	10.2	7.9	149
3	-160000	10.5	8.2	155
3	-170000	11.3	9.01	170
3	-180000	11.5	9.27	175
3	-190000	11.3	8.99	170
3	-200000	11.9	9.62	182
3	-210000	12.8	10.5	199
3	-220000	11.8	9.51	180
3	-230000	11	8.78	166
3	-240000	11.5	9.28	175
3	-250000	12.4	10.1	191
3	-260000	12.1	9.84	186
3	-270000	12.1	9.85	186
3	-280000	12.8	10.5	199
3	-290000	13.3	11	208
3	-300000	12.9	10.7	201
3	-310000	12.3	10	190
3	-320000	13.2	10.9	207
3	-330000	13.8	11.5	218
3	-340000	13.2	10.9	207
3	-350000	12.2	9.97	189
3	-360000	12.9	10.6	201
3	-370000	12.7	10.5	198
3	-380000	12.1	9.86	186
3	-390000	11.8	9.55	180
3	-400000	12.4	10.1	191
3	-410000	12.4	10.1	192
3	-420000	11.9	9.65	182
3	-430000	11.8	9.52	180
3	-440000	12.3	10.1	191
3	-450000	12.2	9.96	188
3	-460000	11.7	9.4	178
3	-470000	12.1	9.89	187
3	0	9.91	10.4	197
3	10000	10.1	10.6	201
3	20000	9.46	9.97	188
3	30000	9.19	9.68	183
3	40000	8.04	8.47	160
3	50000	8.08	8.52	161
3	60000	8.32	8.77	166
3	70000	7.4	7.79	147
3	80000	6.18	6.51	123
3	90000	6.51	6.86	130
3	100000	7.44	7.84	148
3	110000	6.96	7.34	139
3	120000	6.32	6.66	126
3	130000	6.27	6.6	125
3	140000	6.76	7.13	135
3	150000	5.54	5.84	110
3	160000	5.04	5.33	101
3	170000	5.06	5.35	101
3	180000	5.58	5.89	111
3	190000	5.64	5.94	112
3	200000	3.92	4.21	79.6
3	210000	4.95	5.23	98.9
3	220000	5.58	5.88	111
3	230000	5.59	5.9	111
3	240000	5.52	5.82	110
3	250000	5.97	6.29	119
3	260000	7.49	7.9	149
3	270000	7.48	7.89	149
3	280000	6.84	7.21	136
3	290000	7.55	7.96	150
3	300000	8.88	9.36	177
3	310000	9.58	10.1	191
3	320000	8.96	9.45	179
3	330000	8.51	8.97	170
3	340000	9.57	10.1	191
3	350000	9.41	9.92	187
3	360000	9.1	9.59	181
3	370000	9.23	9.73	184
3	380000	10.2	10.8	204
3	390000	9.82	10.4	196
3	400000	8.92	9.4	178
3	410000	9.29	9.79	185
3	420000	10	10.5	199
3	430000	9.11	9.61	182
3	440000	8.17	8.61	163
3	450000	8.36	8.82	167
3	460000	9.54	10.1	190
3	470000	9.41	9.92	187
4	0	10.8	8.55	162
4	-10000	12.9	10.6	200
4	-20000	13.7	11.5	217
4	-30000	13.7	11.4	216
4	-40000	14.3	12	227
4	-50000	14.3	12	228
4	-60000	13	10.7	202
4	-70000	13.1	10.9	206
4	-80000	13.6	11.3	214
4	-90000	13.9	11.7	220
4	-100000	13.3	11	208
4	-110000	12.6	10.4	196
4	-120000	12.9	10.6	201
4	-130000	13.3	11.1	210
4	-140000	13	10.7	202
4	-150000	12.8	10.5	199
4	-160000	12.8	10.5	199
4	-170000	13.2	11	207
4	-180000	12.6	10.4	196
4	-190000	12.5	10.2	193
4	-200000	13	10.7	202
4	-210000	13.1	10.9	205
4	-220000	12.1	9.83	186
4	-230000	12.3	10	189
4	-240000	13	10.8	203
4	-250000	14	11.7	221
4	-260000	13.8	11.6	219
4	-270000	13.9	11.6	219
4	-280000	14.2	11.9	226
4	-290000	14.9	12.7	240
4	-300000	14.1	11.8	223
4	-310000	13.7	11.4	216
4	-320000	14.4	12.2	230
4	-330000	15.3	13.1	247
4	-340000	14.5	12.3	232
4	-350000	13.4	11.2	211
4	-360000	14.6	12.3	232
4	-370000	14.4	12.2	230
4	-380000	13.7	11.5	217
4	-390000	13.5	11.3	213
4	-400000	13.4	11.1	210
4	-410000	13.3	11	208
4	-420000	12.7	10.4	197
4	-430000	13.1	10.8	205
4	-440000	14.1	11.9	224
4	-450000	13.7	11.4	216
4	-460000	12.6	10.3	196
4	-470000	13	10.7	203
4	0	10.7	11.3	213
4	10000	9.61	10.1	191
4	20000	9.42	9.93	188
4	30000	9.01	9.5	179
4	40000	7.68	8.1	153
4	50000	7.87	8.29	157
4	60000	8.57	9.03	171
4	70000	7.62	8.04	152
4	80000	6.1	6.43	122
4	90000	6.66	7.02	133
4	100000	7.48	7.89	149
4	110000	7.44	7.84	148
4	120000	6.06	6.39	121
4	130000	6.29	6.63	125
4	140000	6.9	7.27	137
4	150000	6.14	6.48	122
4	160000	5.56	5.86	111
4	170000	5.74	6.05	114
4	180000	6.52	6.88	130
4	190000	6.37	6.72	127
4	200000	5.17	5.46	103
4	210000	5.15	5.43	103
4	220000	5.46	5.76	109
4	230000	5.07	5.36	101
4	240000	4.13	4.42	83.5
4	250000	3.95	4.24	80.1
4	260000	4.83	5.12	96.7
4	270000	4.25	4.54	85.8
4	280000	4.18	4.47	84.4
4	290000	4.95	5.24	99
4	300000	5.94	6.26	118
4	310000	6	6.33	120
4	320000	5.58	5.88	111
4	330000	5.15	5.44	103
4	340000	5.65	5.96	113
4	350000	5.05	5.33	101
4	360000	4.2	4.49	84.8
4	370000	4.48	4.77	90.1
4	380000	5.76	6.07	115
4	390000	5.74	6.05	114
4	400000	4.2	4.49	84.8
4	410000	4.94	5.22	98.7
4	420000	4.97	5.26	99.4
4	430000	5.51	5.8	110
4	440000	5.13	5.42	102
4	450000	4.27	4.56	86.1
4	460000	5.21	5.5	104
4	470000	5.77	6.09	115
5	0	6.83	4.57	86.3
5	-10000	6.62	4.36	82.3
5	-20000	7.13	4.87	92.1
5	-30000	5.94	3.68	69.5
5	-40000	6.99	4.73	89.4
5	-50000	8.07	5.81	110
5	-60000	8.21	5.95	112
5	-70000	9.66	7.4	140
5	-80000	10.2	7.91	150
5	-90000	9.8	7.54	142
5	-100000	8.55	6.29	119
5	-110000	8.24	5.98	113
5	-120000	8.65	6.39	121
5	-130000	8.78	6.52	123
5	-140000	8.37	6.11	115
5	-150000	8.52	6.26	118
5	-160000	9.77	7.51	142
5	-170000	11.3	9.06	171
5	-180000	11.1	8.81	167
5	-190000	11.5	9.26	175
5	-200000	11.8	9.59	181
5	-210000	12.4	10.1	191
5	-220000	10.7	8.42	159
5	-230000	10.2	7.97	151
5	-240000	10.6	8.34	158
5	-250000	11.4	9.09	172
5	-260000	11.4	9.16	173
5	-270000	11.2	8.98	170
5	-280000	11.9	9.6	181
5	-290000	12.2	9.98	189
5	-300000	11.6	9.3	176
5	-310000	11.3	9.01	170
5	-320000	12.1	9.86	186
5	-330000	12.7	10.5	198
5	-340000	12.5	10.3	194
5	-350000	11.9	9.62	182
5	-360000	13.1	10.9	205
5	-370000	13.3	11.1	209
5	-380000	13.1	10.8	204
5	-390000	12.4	10.1	191
5	-400000	12.5	10.2	193
5	-410000	12.5	10.2	193
5	-420000	12.1	9.83	186
5	-430000	11.5	9.27	175
5	-440000	12	9.73	184
5	-450000	12.2	9.97	188
5	-460000	11	8.74	165
5	-470000	10.8	8.5	161
5	0	8.37	8.82	167
5	10000	7.47	7.87	149
5	20000	7.34	7.74	146
5	30000	7.09	7.48	141
5	40000	5.64	5.95	112
5	50000	5.59	5.89	111
5	60000	6.44	6.79	128
5	70000	5.82	6.13	116
5	80000	4.52	4.8	90.8
5	90000	4.57	4.85	91.8
5	100000	5	5.28	99.9
5	110000	4.35	4.64	87.6
5	120000	3.86	4.15	78.3
5	130000	4.74	5.03	95.1
5	140000	5.06	5.34	101
5	150000	4.72	5.01	94.7
5	160000	4.36	4.64	87.8
5	170000	4.33	4.62	87.3
5	180000	4.57	4.85	91.7
5	190000	4.87	5.16	97.4
5	200000	3.43	3.72	70.3
5	210000	3.77	4.05	76.6
5	220000	3.72	4.01	75.8
5	230000	3.68	3.97	75
5	240000	3.59	3.87	73.2
5	250000	3.78	4.06	76.8
5	260000	4.7	4.99	94.3
5	270000	4.14	4.43	83.7
5	280000	3.03	3.31	62.6
5	290000	3.52	3.81	72
5	300000	4.05	4.33	81.9
5	310000	4.34	4.62	87.4
5	320000	3.61	3.9	73.7
5	330000	3.29	3.58	67.6
5	340000	4.31	4.59	86.8
5	350000	4.01	4.3	81.2
5	360000	3.35	3.64	68.7
5	370000	3.53	3.81	72.1
5	380000	4.57	4.86	91.9
5	390000	3.7	3.98	75.3
5	400000	3.53	3.82	72.2
5	410000	4.16	4.45	84
5	420000	4.97	5.25	99.3
5	430000	4.91	5.2	98.3
5	440000	4.32	4.6	87
5	450000	4.96	5.24	99.1
5	460000	5.47	5.76	109
5	470000	4.9	5.19	98.1
6	0	6.53	4.27	80.8
6	-10000	6.33	4.07	76.9
6	-20000	6.81	4.55	86
6	-30000	6.18	3.92	74
6	-40000	7.38	5.12	96.8
6	-50000	8.21	5.95	112
6	-60000	7.79	5.53	104
6	-70000	7.98	5.72	108
6	-80000	8.03	5.77	109
6	-90000	7.77	5.51	104
6	-100000	7.49	5.23	98.9
6	-110000	7.12	4.86	91.9
6	-120000	7.35	5.09	96.3
6	-130000	7.74	5.48	104
6	-140000	7.33	5.07	95.9
6	-150000	6.48	4.22	79.8
6	-160000	6.91	4.65	87.9
6	-170000	8.17	5.91	112
6	-180000	7.81	5.55	105
6	-190000	7.19	4.93	93.2
6	-200000	7.53	5.27	99.7
6	-210000	8.07	5.81	110
6	-220000	7.45	5.19	98
6	-230000	7.28	5.02	94.9
6	-240000	7.4	5.14	97.2
6	-250000	8.15	5.89	111
6	-260000	8.7	6.44	122
6	-270000	8.8	6.54	124
6	-280000	10.5	8.26	156
6	-290000	12.1	9.82	186
6	-300000	11.9	9.61	182
6	-310000	11.4	9.1	172
6	-320000	12.2	9.95	188
6	-330000	12.5	10.2	193
6	-340000	11.2	8.96	169
6	-350000	10.5	8.22	155
6	-360000	11.3	9.08	172
6	-370000	11.4	9.11	172
6	-380000	10.3	8.01	151
6	-390000	9.85	7.59	143
6	-400000	10.2	7.98	151
6	-410000	10.5	8.21	155
6	-420000	10.1	7.87	149
6	-430000	10.1	7.83	148
6	-440000	10.6	8.37	158
6	-450000	10.3	8.09	153
6	-460000	9.72	7.46	141
6	-470000	9.56	7.3	138
