rep_num	position	torque	torque_compensated	lbs_compensated
1	0	3.48	3.76	71.1
1	10000	9.25	9.75	184
1	20000	8.72	9.19	174
1	30000	9.54	10.1	190
1	40000	6.97	7.35	139
1	50000	7.13	7.51	142
1	60000	9.68	10.2	193
1	70000	9.34	9.84	186
1	80000	6.61	6.97	132
1	90000	6.84	7.21	136
1	100000	8.71	9.18	174
1	110000	8.09	8.53	161
1	120000	6.64	7	132
1	130000	6.87	7.24	137
1	140000	9.19	9.68	183
1	150000	9.04	9.53	180
1	160000	6.72	7.09	134
1	170000	6.89	7.27	137
1	180000	9.21	9.71	184
1	190000	9.47	9.99	189
1	200000	7.43	7.83	148
1	210000	7.22	7.61	144
1	220000	9.09	9.58	181
1	230000	9.28	9.79	185
1	240000	7.26	7.65	145
1	250000	7.17	7.56	143
1	260000	9.31	9.82	186
1	270000	9.42	9.93	188
1	280000	8.2	8.64	163
1	290000	7.87	8.29	157
1	300000	9.93	10.5	198
1	310000	10.2	10.8	203
1	320000	8.19	8.63	163
1	330000	7.82	8.24	156
1	340000	10.2	10.7	203
1	350000	10.2	10.8	204
1	360000	8.02	8.45	160
1	370000	7.8	8.23	155
1	380000	10.2	10.8	204
1	390000	9.9	10.4	197
1	400000	7.32	7.71	146
1	410000	7.92	8.35	158
1	420000	10.1	10.7	202
1	430000	9.9	10.4	197
1	440000	7.94	8.37	158
1	450000	7.51	7.92	150
1	460000	9.99	10.5	199
1	470000	9.29	9.8	185
2	0	11.5	9.19	174
2	-10000	10.2	7.97	151
2	-20000	10.4	8.18	155
2	-30000	10.5	8.27	156
2	-40000	12.5	10.2	193
2	-50000	11	8.72	165
2	-60000	8.25	5.99	113
2	-70000	9.46	7.2	136
2	-80000	11.4	9.1	172
2	-90000	10.2	7.96	150
2	-100000	8.22	5.96	113
2	-110000	8.91	6.65	126
2	-120000	11.5	9.26	175
2	-130000	11.6	9.35	177
2	-140000	8.66	6.4	121
2	-150000	9.02	6.76	128
2	-160000	11.5	9.21	174
2	-170000	11.5	9.19	174
2	-180000	9.27	7.01	133
2	-190000	10.2	7.96	150
2	-200000	12.2	9.91	187
2	-210000	11.8	9.56	181
2	-220000	10.2	7.92	150
2	-230000	11	8.73	165
2	-240000	12	9.74	184
2	-250000	10.9	8.63	163
2	-260000	9.74	7.48	141
2	-270000	10.6	8.35	158
2	-280000	12.1	9.82	186
2	-290000	11.9	9.69	183
2	-300000	9.23	6.97	132
2	-310000	9.9	7.64	144
2	-320000	12.7	10.5	198
2	-330000	12	9.75	184
2	-340000	9.39	7.13	135
2	-350000	10.2	7.93	150
2	-360000	12.5	10.3	194
2	-370000	11.4	9.14	173
2	-380000	9.23	6.97	132
2	-390000	9.98	7.72	146
2	-400000	13	10.7	202
2	-410000	12.3	10	190
2	-420000	10.5	8.28	156
2	-430000	11.6	9.39	177
2	-440000	13.6	11.3	214
2	-450000	13.8	11.5	217
2	-460000	10.2	7.92	150
2	-470000	11.7	9.49	179
2	0	9.66	10.2	193
2	10000	9.73	10.3	194
2	20000	9.23	9.73	184
2	30000	9.7	10.2	193
2	40000	6.2	6.54	124
2	50000	5.99	6.32	119
2	60000	8.16	8.6	163
2	70000	7.52	7.93	150
2	80000	4.4	4.69	88.7
2	90000	5.79	6.11	115
2	100000	8.94	9.43	178
2	110000	8.81	9.29	176
2	120000	6.44	6.78	128
2	130000	6.16	6.5	123
2	140000	7.65	8.07	152
2	150000	7.49	7.89	149
2	160000	5.96	6.29	119
2	170000	5.66	5.96	113
2	180000	7.67	8.08	153
2	190000	8.25	8.7	164
2	200000	5.74	6.05	114
2	210000	5.03	5.32	101
2	220000	7.02	7.39	140
2	230000	6.66	7.02	133
2	240000	4.75	5.03	95.1
2	250000	4.05	4.33	81.9
2	260000	6.99	7.36	139
2	270000	7.5	7.91	149
2	280000	5.25	5.53	105
2	290000	5.49	5.78	109
2	300000	8.57	9.04	171
2	310000	8.09	8.53	161
2	320000	6.56	6.92	131
2	330000	6.81	7.18	136
2	340000	9.32	9.82	186
2	350000	10.1	10.6	201
2	360000	7.83	8.26	156
2	370000	7.83	8.25	156
2	380000	10.3	10.9	205
2	390000	10.6	11.1	210
2	400000	8.49	8.95	169
2	410000	8.58	9.04	171
2	420000	10.4	11	207
2	430000	9.79	10.3	195
2	440000	7.39	7.79	147
2	450000	7.23	7.62	144
2	460000	10.6	11.1	211
2	470000	9.14	9.63	182
3	0	10.6	8.39	159
3	-10000	9.73	7.47	141
3	-20000	8.93	6.67	126
3	-30000	9.2	6.94	131
3	-40000	11.9	9.59	181
3	-50000	10.7	8.49	160
3	-60000	8.09	5.83	110
3	-70000	9.29	7.03	133
3	-80000	11.7	9.41	178
3	-90000	10.6	8.34	158
3	-100000	7.96	5.7	108
3	-110000	9.16	6.9	130
3	-120000	10.9	8.65	163
3	-130000	10.2	7.96	150
3	-140000	8.17	5.91	112
3	-150000	9.26	7	132
3	-160000	12.1	9.79	185
3	-170000	12.4	10.1	191
3	-180000	9.93	7.67	145
3	-190000	10.3	8.01	151
3	-200000	13	10.7	203
3	-210000	12.7	10.4	197
3	-220000	10	7.75	146
3	-230000	10.5	8.19	155
3	-240000	12.7	10.5	198
3	-250000	12.5	10.3	194
3	-260000	11.4	9.17	173
3	-270000	11.7	9.45	179
3	-280000	13.4	11.1	210
3	-290000	13.2	10.9	206
3	-300000	10.9	8.64	163
3	-310000	11.2	8.9	168
3	-320000	13.8	11.5	218
3	-330000	13	10.7	202
3	-340000	10.9	8.66	164
3	-350000	12.1	9.85	186
3	-360000	14.7	12.5	236
3	-370000	13	10.7	203
3	-380000	10.6	8.31	157
3	-390000	11.4	9.15	173
3	-400000	13.2	11	208
3	-410000	12.2	9.96	188
3	-420000	9.98	7.72	146
3	-430000	10.9	8.59	162
3	-440000	13.8	11.6	219
3	-450000	13.9	11.6	219
3	-460000	10.2	7.96	151
3	-470000	11.6	9.36	177
3	0	9.21	9.71	183
3	10000	9.63	10.2	192
3	20000	8.49	8.94	169
3	30000	9.3	9.8	185
3	40000	6.4	6.74	127
3	50000	6.14	6.47	122
3	60000	8.17	8.61	163
3	70000	7.43	7.83	148
3	80000	5.21	5.5	104
3	90000	5.42	5.71	108
3	100000	8.22	8.66	164
3	110000	8.21	8.65	163
3	120000	6.49	6.84	129
3	130000	6.62	6.98	132
3	140000	8.73	9.2	174
3	150000	8.59	9.06	171
3	160000	6.76	7.13	135
3	170000	6.41	6.76	128
3	180000	7.56	7.97	151
3	190000	7.38	7.78	147
3	200000	4.73	5.02	94.9
3	210000	3.99	4.28	80.9
3	220000	6.95	7.33	139
3	230000	7.14	7.53	142
3	240000	4.6	4.88	92.3
3	250000	4.38	4.67	88.2
3	260000	6.07	6.4	121
3	270000	6.8	7.17	135
3	280000	4.99	5.28	99.7
3	290000	4.23	4.52	85.4
3	300000	5.85	6.17	117
3	310000	6.26	6.6	125
3	320000	4.44	4.72	89.3
3	330000	4.62	4.91	92.8
3	340000	7.27	7.66	145
3	350000	8.22	8.66	164
3	360000	6.36	6.7	127
3	370000	6.47	6.82	129
3	380000	8.61	9.07	172
3	390000	8.69	9.16	173
3	400000	5.62	5.92	112
3	410000	5.95	6.27	119
3	420000	8.72	9.19	174
3	430000	8.32	8.77	166
3	440000	6.43	6.78	128
3	450000	6.45	6.8	129
3	460000	9.09	9.58	181
3	470000	7.08	7.46	141
4	0	8.33	6.07	115
4	-10000	7.88	5.62	106
4	-20000	6.71	4.45	84.1
4	-30000	6.75	4.49	84.9
4	-40000	9.4	7.14	135
4	-50000	8.02	5.76	109
4	-60000	6.17	3.91	73.8
4	-70000	7.43	5.17	97.7
4	-80000	11	8.75	165
4	-90000	11.2	8.91	168
4	-100000	9.66	7.4	140
4	-110000	10.8	8.51	161
4	-120000	12.1	9.79	185
4	-130000	10.6	8.35	158
4	-140000	8.47	6.21	117
4	-150000	8.72	6.46	122
4	-160000	10.5	8.24	156
4	-170000	9.9	7.64	144
4	-180000	7.77	5.51	104
4	-190000	8.64	6.38	121
4	-200000	10.9	8.6	163
4	-210000	11.3	9.06	171
4	-220000	9.29	7.03	133
4	-230000	10.5	8.21	155
4	-240000	13.2	10.9	207
4	-250000	13	10.7	202
4	-260000	10.8	8.52	161
4	-270000	10.9	8.61	163
4	-280000	12.5	10.2	193
4	-290000	12.5	10.3	194
4	-300000	11	8.73	165
4	-310000	11.5	9.2	174
4	-320000	13.2	10.9	206
4	-330000	12.1	9.83	186
4	-340000	9.48	7.22	137
4	-350000	9.82	7.56	143
4	-360000	12.7	10.5	198
4	-370000	12.1	9.82	186
4	-380000	9.29	7.03	133
4	-390000	11	8.77	166
4	-400000	13.9	11.6	220
4	-410000	12.6	10.3	195
4	-420000	10.4	8.12	153
4	-430000	11.1	8.86	167
4	-440000	12.9	10.6	201
4	-450000	13	10.8	204
4	-460000	9.37	7.11	134
4	-470000	10.8	8.52	161
4	0	8.54	9	170
4	10000	8.37	8.82	167
4	20000	7.05	7.43	141
4	30000	7.54	7.95	150
4	40000	5.1	5.38	102
4	50000	4.49	4.78	90.3
4	60000	6.47	6.82	129
4	70000	6.23	6.57	124
4	80000	4.5	4.78	90.4
4	90000	4.11	4.39	83
4	100000	6.59	6.94	131
4	110000	6.49	6.84	129
4	120000	4.24	4.53	85.5
4	130000	4.48	4.77	90.1
4	140000	7.35	7.75	146
4	150000	7.6	8.02	151
4	160000	5.44	5.74	108
4	170000	5.05	5.33	101
4	180000	7.22	7.61	144
4	190000	7.51	7.92	150
4	200000	4.32	4.6	87
4	210000	3.93	4.22	79.8
4	220000	5.9	6.22	118
4	230000	5.58	5.89	111
4	240000	3.48	3.76	71.1
4	250000	2.71	3	56.6
4	260000	4.32	4.6	87
4	270000	4.86	5.15	97.2
4	280000	2.7	2.99	56.5
4	290000	3.28	3.57	67.4
4	300000	5.87	6.19	117
4	310000	6.27	6.61	125
4	320000	4.07	4.36	82.3
4	330000	3.11	3.4	64.2
4	340000	5.91	6.23	118
4	350000	6.17	6.51	123
4	360000	3.29	3.57	67.5
4	370000	3.03	3.31	62.6
4	380000	5.94	6.26	118
4	390000	5.84	6.16	116
4	400000	3.94	4.23	79.9
4	410000	3.82	4.1	77.6
4	420000	6.54	6.89	130
4	430000	6.51	6.86	130
4	440000	4.54	4.83	91.3
4	450000	4.14	4.43	83.7
4	460000	7.19	7.58	143
4	470000	6.28	6.62	125
5	0	7.49	5.23	98.8
5	-10000	6.89	4.63	87.5
5	-20000	6.37	4.11	77.6
5	-30000	6.16	3.9	73.7
5	-40000	8.35	6.09	115
5	-50000	7.57	5.31	100
5	-60000	5.8	3.54	67
5	-70000	6.79	4.53	85.6
5	-80000	9.21	6.95	131
5	-90000	7.9	5.64	107
5	-100000	6.15	3.89	73.5
5	-110000	6.54	4.28	81
5	-120000	8.68	6.42	121
5	-130000	8.06	5.8	110
5	-140000	6.67	4.41	83.4
5	-150000	8.04	5.78	109
5	-160000	10.2	7.9	149
5	-170000	10	7.79	147
5	-180000	7.35	5.09	96.2
5	-190000	7.92	5.66	107
5	-200000	10.2	7.9	149
5	-210000	9.25	6.99	132
5	-220000	7.64	5.38	102
5	-230000	8.75	6.49	123
5	-240000	10.5	8.24	156
5	-250000	9.69	7.43	141
5	-260000	7.63	5.37	102
5	-270000	7.93	5.67	107
5	-280000	10.8	8.49	161
5	-290000	11.2	8.95	169
5	-300000	9.17	6.91	131
5	-310000	9.26	7	132
5	-320000	12.2	9.94	188
5	-330000	12.5	10.3	194
5	-340000	10.1	7.8	147
5	-350000	10.2	7.98	151
5	-360000	12.6	10.3	195
5	-370000	11.7	9.43	178
5	-380000	9.8	7.54	143
5	-390000	10.8	8.52	161
5	-400000	12.7	10.4	197
5	-410000	11.5	9.21	174
5	-420000	9.15	6.89	130
5	-430000	10.1	7.86	148
5	-440000	12.6	10.3	195
5	-450000	12.7	10.5	198
5	-460000	9.04	6.78	128
5	-470000	10.1	7.83	148
5	0	7.63	8.05	152
5	10000	7.11	7.5	142
5	20000	6.07	6.4	121
5	30000	6.84	7.21	136
5	40000	4.38	4.67	88.3
5	50000	4.32	4.6	87
5	60000	6.88	7.25	137
5	70000	6.38	6.72	127
5	80000	3.74	4.03	76.1
5	90000	3.74	4.02	76.1
5	100000	5.99	6.31	119
5	110000	5.54	5.84	110
5	120000	2.76	3.05	57.6
5	130000	2.68	2.97	56.1
5	140000	4.77	5.06	95.6
5	150000	4.81	5.09	96.3
5	160000	2.34	2.62	49.6
5	170000	1.8	2.08	39.3
5	180000	4.09	4.38	82.7
5	190000	4.1	4.39	82.9
5	200000	1.51	1.79	33.9
5	210000	1.74	2.03	38.3
5	220000	5.07	5.35	101
5	230000	5.69	6	113
5	240000	3.21	3.5	66.1
5	250000	2.89	3.18	60
5	260000	4.75	5.04	95.2
5	270000	4.7	4.98	94.1
5	280000	2.64	2.93	55.3
5	290000	2.67	2.96	55.9
5	300000	4.46	4.74	89.6
5	310000	4.31	4.59	86.8
5	320000	2.59	2.87	54.3
5	330000	2.56	2.85	53.9
5	340000	5.05	5.34	101
5	350000	5.2	5.48	104
5	360000	2.78	3.06	57.9
5	370000	2.38	2.66	50.3
5	380000	5.24	5.53	104
5	390000	5.13	5.42	102
5	400000	3.58	3.86	73
5	410000	3.34	3.63	68.5
5	420000	5.6	5.9	111
5	430000	5.56	5.86	111
5	440000	3.67	3.96	74.8
5	450000	3.44	3.73	70.5
5	460000	6.7	7.07	134
5	470000	5.59	5.89	111
6	0	6.97	4.71	89
6	-10000	5.41	3.15	59.6
6	-20000	4.68	2.68	50.7
6	-30000	4.61	2.64	49.9
6	-40000	7.07	4.81	90.8
6	-50000	6.2	3.94	74.6
6	-60000	4.12	2.36	44.6
6	-70000	4.98	2.85	53.9
6	-80000	7.26	5	94.5
6	-90000	6.31	4.05	76.6
6	-100000	3.89	2.23	42.1
6	-110000	4.86	2.78	52.6
6	-120000	7.17	4.91	92.9
6	-130000	6.62	4.36	82.3
6	-140000	4.5	2.58	48.7
6	-150000	5.97	3.71	70
6	-160000	8.62	6.36	120
6	-170000	8.49	6.23	118
6	-180000	6.94	4.68	88.4
6	-190000	8.07	5.81	110
6	-200000	10.2	7.94	150
6	-210000	9.86	7.6	144
6	-220000	7.07	4.81	91
6	-230000	7.71	5.45	103
6	-240000	9.75	7.49	141
6	-250000	9.23	6.97	132
6	-260000	7.26	5	94.5
6	-270000	7.78	5.52	104
6	-280000	10.9	8.61	163
6	-290000	11.3	9.02	170
6	-300000	8.83	6.57	124
6	-310000	9.26	7	132
6	-320000	12	9.7	183
6	-330000	11.3	9.06	171
6	-340000	8.61	6.35	120
6	-350000	9.46	7.2	136
6	-360000	12.4	10.1	191
6	-370000	11.4	9.14	173
6	-380000	9	6.74	127
6	-390000	8.54	6.28	119
6	-400000	11.2	8.92	169
6	-410000	10.8	8.53	161
6	-420000	8.86	6.6	125
6	-430000	9.52	7.26	137
6	-440000	11.6	9.35	177
6	-450000	11.5	9.26	175
6	-460000	8.2	5.94	112
6	-470000	8.66	6.4	121
