rep_num	position	torque	torque_compensated	lbs_compensated
1	0	5.08	5.36	101
1	10000	7.55	7.96	150
1	20000	8.21	8.66	164
1	30000	8.59	9.05	171
1	40000	8.11	8.55	162
1	50000	8.27	8.72	165
1	60000	8.93	9.41	178
1	70000	8.34	8.79	166
1	80000	7.77	8.19	155
1	90000	7.95	8.38	158
1	100000	8.48	8.93	169
1	110000	7.64	8.05	152
1	120000	6.85	7.22	136
1	130000	6.86	7.23	137
1	140000	7.2	7.59	143
1	150000	6.59	6.95	131
1	160000	5.5	5.8	110
1	170000	5.99	6.31	119
1	180000	7.51	7.92	150
1	190000	8.04	8.48	160
1	200000	7.43	7.84	148
1	210000	7.54	7.95	150
1	220000	8.01	8.44	160
1	230000	7.55	7.96	150
1	240000	7.69	8.1	153
1	250000	7.91	8.34	158
1	260000	8.27	8.71	165
1	270000	7.54	7.95	150
1	280000	7.19	7.58	143
1	290000	7.5	7.91	149
1	300000	8.04	8.47	160
1	310000	8.11	8.55	162
1	320000	7.96	8.4	159
1	330000	8.02	8.45	160
1	340000	8.59	9.05	171
1	350000	8.56	9.02	170
1	360000	8.22	8.66	164
1	370000	8.9	9.38	177
1	380000	9.43	9.94	188
1	390000	8.79	9.26	175
1	400000	8.34	8.8	166
1	410000	8.86	9.34	176
1	420000	9.12	9.62	182
1	430000	8.41	8.86	168
1	440000	7.92	8.34	158
1	450000	8.19	8.63	163
1	460000	8.73	9.21	174
1	470000	7.89	8.32	157
2	0	9.6	7.34	139
2	-10000	11.1	8.84	167
2	-20000	11.3	9	170
2	-30000	10.7	8.44	160
2	-40000	11.5	9.25	175
2	-50000	11.5	9.26	175
2	-60000	10.5	8.23	156
2	-70000	10.8	8.53	161
2	-80000	10.7	8.42	159
2	-90000	10	7.78	147
2	-100000	9.18	6.92	131
2	-110000	9.36	7.1	134
2	-120000	10.5	8.23	156
2	-130000	10.8	8.57	162
2	-140000	10.5	8.26	156
2	-150000	10.3	8.03	152
2	-160000	10.4	8.1	153
2	-170000	10.3	8.03	152
2	-180000	9.94	7.68	145
2	-190000	9.34	7.08	134
2	-200000	9.8	7.54	142
2	-210000	10.9	8.65	163
2	-220000	10.2	7.98	151
2	-230000	10.4	8.14	154
2	-240000	10.9	8.64	163
2	-250000	10.6	8.38	158
2	-260000	10.5	8.23	155
2	-270000	10.3	8	151
2	-280000	10.5	8.22	155
2	-290000	11.2	8.95	169
2	-300000	11.2	8.94	169
2	-310000	11	8.77	166
2	-320000	11.4	9.18	173
2	-330000	11.2	8.91	168
2	-340000	10.6	8.37	158
2	-350000	10.6	8.32	157
2	-360000	11.8	9.59	181
2	-370000	11.7	9.45	179
2	-380000	10.6	8.37	158
2	-390000	10.3	8.02	151
2	-400000	11.1	8.86	168
2	-410000	11.4	9.17	173
2	-420000	11.1	8.84	167
2	-430000	11.1	8.82	167
2	-440000	11.9	9.59	181
2	-450000	11.9	9.64	182
2	-460000	11.1	8.88	168
2	-470000	10.5	8.21	155
2	0	8.46	8.92	169
2	10000	7.51	7.92	150
2	20000	8.07	8.5	161
2	30000	8.03	8.47	160
2	40000	7.18	7.57	143
2	50000	7.36	7.76	147
2	60000	7.79	8.22	155
2	70000	7.66	8.07	153
2	80000	6.87	7.25	137
2	90000	7.34	7.74	146
2	100000	7.67	8.09	153
2	110000	7	7.37	139
2	120000	6.99	7.37	139
2	130000	7.36	7.76	147
2	140000	7.59	8	151
2	150000	7.24	7.63	144
2	160000	6.65	7.01	133
2	170000	6.72	7.08	134
2	180000	6.73	7.09	134
2	190000	6.83	7.19	136
2	200000	5.65	5.95	113
2	210000	6.67	7.03	133
2	220000	8.11	8.55	162
2	230000	7.26	7.66	145
2	240000	6.51	6.86	130
2	250000	6.22	6.55	124
2	260000	6.42	6.76	128
2	270000	5.95	6.27	118
2	280000	5.8	6.12	116
2	290000	6.29	6.63	125
2	300000	6.66	7.02	133
2	310000	7.18	7.57	143
2	320000	6.97	7.34	139
2	330000	6.99	7.37	139
2	340000	8.29	8.74	165
2	350000	8.37	8.82	167
2	360000	7.51	7.92	150
2	370000	7.71	8.12	154
2	380000	8.53	8.99	170
2	390000	7.82	8.24	156
2	400000	7.08	7.47	141
2	410000	7.58	7.99	151
2	420000	8.19	8.63	163
2	430000	7.6	8.01	151
2	440000	7.19	7.58	143
2	450000	7.63	8.04	152
2	460000	8.31	8.76	166
2	470000	7.7	8.12	153
3	0	9.37	7.11	134
3	-10000	8.67	6.41	121
3	-20000	8.82	6.56	124
3	-30000	8.49	6.23	118
3	-40000	9.95	7.69	145
3	-50000	10.3	8.09	153
3	-60000	8.88	6.62	125
3	-70000	8.6	6.34	120
3	-80000	8.83	6.57	124
3	-90000	8.31	6.05	114
3	-100000	7.65	5.39	102
3	-110000	7.7	5.44	103
3	-120000	9.8	7.54	143
3	-130000	10.8	8.52	161
3	-140000	10.4	8.13	154
3	-150000	10.1	7.83	148
3	-160000	10.2	7.97	151
3	-170000	9.76	7.5	142
3	-180000	9.74	7.48	141
3	-190000	9.64	7.38	139
3	-200000	10.3	8.02	152
3	-210000	11	8.75	165
3	-220000	10.5	8.25	156
3	-230000	10.3	8.01	151
3	-240000	10.2	7.95	150
3	-250000	10.3	8.06	152
3	-260000	10.1	7.82	148
3	-270000	9.86	7.6	144
3	-280000	9.67	7.41	140
3	-290000	9.89	7.63	144
3	-300000	9.4	7.14	135
3	-310000	9.52	7.26	137
3	-320000	10.5	8.29	157
3	-330000	11	8.74	165
3	-340000	10.4	8.13	154
3	-350000	9.47	7.21	136
3	-360000	10.2	7.91	150
3	-370000	10.2	7.93	150
3	-380000	9.51	7.25	137
3	-390000	10.1	7.88	149
3	-400000	11.2	8.93	169
3	-410000	11.1	8.84	167
3	-420000	10.1	7.85	148
3	-430000	10.3	8.08	153
3	-440000	11	8.7	164
3	-450000	10.5	8.23	155
3	-460000	10.2	7.97	151
3	-470000	10.4	8.18	155
3	0	8.65	9.12	172
3	10000	7.99	8.42	159
3	20000	7.82	8.24	156
3	30000	7.16	7.55	143
3	40000	5.7	6.01	114
3	50000	5.74	6.05	114
3	60000	6.39	6.74	127
3	70000	5.52	5.82	110
3	80000	4.49	4.78	90.3
3	90000	5.8	6.12	116
3	100000	6.86	7.23	137
3	110000	6.64	7	132
3	120000	6.32	6.67	126
3	130000	6.56	6.91	131
3	140000	6.17	6.51	123
3	150000	5.39	5.68	107
3	160000	3.25	3.54	66.9
3	170000	2.35	2.63	49.8
3	180000	3.23	3.51	66.4
3	190000	3.79	4.07	77
3	200000	3.3	3.59	67.8
3	210000	3.45	3.74	70.7
3	220000	4.59	4.88	92.2
3	230000	5.01	5.29	100
3	240000	3.99	4.28	80.8
3	250000	2.73	3.01	56.9
3	260000	2.48	2.76	52.2
3	270000	2.54	2.83	53.5
3	280000	2.05	2.34	44.2
3	290000	2.1	2.38	45
3	300000	3.55	3.84	72.6
3	310000	5.07	5.36	101
3	320000	6.3	6.64	126
3	330000	7.58	7.99	151
3	340000	9.34	9.84	186
3	350000	9.31	9.82	186
3	360000	8.86	9.34	177
3	370000	9.03	9.52	180
3	380000	9.71	10.2	194
3	390000	9.47	9.98	189
3	400000	8.88	9.36	177
3	410000	9.19	9.69	183
3	420000	8.87	9.35	177
3	430000	8.22	8.67	164
3	440000	8.18	8.62	163
3	450000	8.56	9.02	170
3	460000	8.9	9.38	177
3	470000	8.21	8.66	164
4	0	9.8	7.54	142
4	-10000	9.85	7.59	143
4	-20000	9.15	6.89	130
4	-30000	8.61	6.35	120
4	-40000	9.11	6.85	130
4	-50000	8.99	6.73	127
4	-60000	8.34	6.08	115
4	-70000	8.18	5.92	112
4	-80000	9.01	6.75	128
4	-90000	8.89	6.63	125
4	-100000	8.12	5.86	111
4	-110000	8.43	6.17	117
4	-120000	8.84	6.58	124
4	-130000	8.71	6.45	122
4	-140000	8.37	6.11	115
4	-150000	8.78	6.52	123
4	-160000	9.32	7.06	133
4	-170000	9.96	7.7	146
4	-180000	9.93	7.67	145
4	-190000	9.65	7.39	140
4	-200000	9.59	7.33	139
4	-210000	10.2	7.89	149
4	-220000	9.94	7.68	145
4	-230000	9.71	7.45	141
4	-240000	10	7.74	146
4	-250000	10.6	8.34	158
4	-260000	10.5	8.19	155
4	-270000	10	7.75	147
4	-280000	10.2	7.94	150
4	-290000	10.6	8.36	158
4	-300000	9.74	7.48	141
4	-310000	9.26	7	132
4	-320000	9.81	7.55	143
4	-330000	10.1	7.82	148
4	-340000	9.88	7.62	144
4	-350000	10.1	7.85	148
4	-360000	11.3	9.04	171
4	-370000	10.8	8.59	162
4	-380000	10.1	7.83	148
4	-390000	9.5	7.24	137
4	-400000	9.73	7.47	141
4	-410000	10.3	8.09	153
4	-420000	10.5	8.28	156
4	-430000	10.5	8.21	155
4	-440000	10.5	8.28	157
4	-450000	10.4	8.12	153
4	-460000	9.83	7.57	143
4	-470000	9.67	7.41	140
4	0	7.83	8.26	156
4	10000	7.4	7.8	147
4	20000	7.43	7.83	148
4	30000	7.27	7.66	145
4	40000	6.28	6.62	125
4	50000	6.34	6.68	126
4	60000	6.88	7.25	137
4	70000	6.1	6.43	121
4	80000	5.28	5.57	105
4	90000	5.75	6.06	115
4	100000	5.83	6.15	116
4	110000	4.86	5.15	97.3
4	120000	4.09	4.37	82.7
4	130000	4.53	4.82	91
4	140000	4.77	5.05	95.5
4	150000	4.77	5.05	95.5
4	160000	4.26	4.55	85.9
4	170000	4.52	4.81	90.9
4	180000	4.38	4.67	88.2
4	190000	3.5	3.78	71.5
4	200000	3.24	3.52	66.6
4	210000	3.86	4.14	78.3
4	220000	4.68	4.97	93.9
4	230000	4.5	4.78	90.4
4	240000	4.2	4.48	84.7
4	250000	3.86	4.14	78.3
4	260000	4.19	4.48	84.7
4	270000	3.74	4.03	76.1
4	280000	3.36	3.64	68.9
4	290000	3.72	4.01	75.7
4	300000	4.61	4.89	92.5
4	310000	4.84	5.13	96.9
4	320000	4.91	5.2	98.3
4	330000	5.06	5.35	101
4	340000	5.59	5.89	111
4	350000	5.12	5.4	102
4	360000	4.91	5.2	98.2
4	370000	4.93	5.22	98.7
4	380000	5.4	5.69	108
4	390000	4.62	4.9	92.6
4	400000	5.21	5.49	104
4	410000	6.2	6.53	123
4	420000	6.45	6.8	128
4	430000	6.45	6.79	128
4	440000	6.85	7.22	136
4	450000	7.68	8.1	153
4	460000	7.91	8.34	158
4	470000	7.56	7.97	151
5	0	8.77	6.51	123
5	-10000	7.71	5.45	103
5	-20000	7.86	5.6	106
5	-30000	7.35	5.09	96.2
5	-40000	7.53	5.27	99.6
5	-50000	7.63	5.37	101
5	-60000	7.54	5.28	99.8
5	-70000	8.1	5.84	110
5	-80000	8.2	5.94	112
5	-90000	7.92	5.66	107
5	-100000	6.99	4.73	89.5
5	-110000	7.16	4.9	92.6
5	-120000	7.4	5.14	97.1
5	-130000	7.54	5.28	99.7
5	-140000	6.97	4.71	89
5	-150000	7.68	5.42	102
5	-160000	9.18	6.92	131
5	-170000	9.67	7.41	140
5	-180000	9.68	7.42	140
5	-190000	9.19	6.93	131
5	-200000	9.08	6.82	129
5	-210000	9.04	6.78	128
5	-220000	8.97	6.71	127
5	-230000	9.63	7.37	139
5	-240000	10.1	7.86	149
5	-250000	10.3	8.07	153
5	-260000	10.1	7.87	149
5	-270000	9.86	7.6	144
5	-280000	10.2	7.95	150
5	-290000	10.4	8.19	155
5	-300000	9.73	7.47	141
5	-310000	9.38	7.12	135
5	-320000	10.2	7.97	151
5	-330000	10.7	8.41	159
5	-340000	10.1	7.8	147
5	-350000	9.39	7.13	135
5	-360000	10.2	7.96	150
5	-370000	10.7	8.44	160
5	-380000	10.8	8.56	162
5	-390000	11	8.71	165
5	-400000	11.2	8.98	170
5	-410000	11.3	8.99	170
5	-420000	10.8	8.51	161
5	-430000	10.5	8.19	155
5	-440000	11.5	9.27	175
5	-450000	11.4	9.14	173
5	-460000	10.4	8.16	154
5	-470000	10.1	7.8	147
5	0	7.88	8.31	157
5	10000	6.78	7.15	135
5	20000	6.72	7.08	134
5	30000	6.15	6.49	123
5	40000	4.74	5.03	95
5	50000	4.85	5.13	97
5	60000	5.41	5.7	108
5	70000	4.48	4.77	90.2
5	80000	3.68	3.97	75
5	90000	4.19	4.47	84.6
5	100000	4.45	4.73	89.4
5	110000	3.81	4.09	77.3
5	120000	3.66	3.95	74.6
5	130000	4.63	4.91	92.9
5	140000	4.75	5.03	95.1
5	150000	4.11	4.4	83.2
5	160000	3.98	4.26	80.5
5	170000	4.34	4.62	87.4
5	180000	4.58	4.86	91.9
5	190000	4.47	4.75	89.8
5	200000	3.8	4.09	77.2
5	210000	3.99	4.28	80.9
5	220000	4.79	5.07	95.9
5	230000	3.93	4.21	79.6
5	240000	3.77	4.05	76.6
5	250000	3.26	3.55	67
5	260000	3.6	3.88	73.4
5	270000	2.95	3.24	61.2
5	280000	2.6	2.88	54.5
5	290000	3.34	3.63	68.6
5	300000	4.28	4.57	86.3
5	310000	4.59	4.87	92.1
5	320000	4.6	4.88	92.3
5	330000	5.02	5.31	100
5	340000	5.78	6.09	115
5	350000	5.38	5.67	107
5	360000	4.37	4.66	88
5	370000	3.69	3.97	75.1
5	380000	4.87	5.15	97.4
5	390000	4.24	4.53	85.6
5	400000	3.65	3.93	74.3
5	410000	4.14	4.42	83.6
5	420000	4.83	5.12	96.7
5	430000	4.48	4.76	90
5	440000	3.83	4.12	77.9
5	450000	4.74	5.03	95.1
5	460000	5.15	5.44	103
5	470000	4.62	4.91	92.8
6	0	6.02	3.76	71.1
6	-10000	6.03	3.77	71.3
6	-20000	5.76	3.5	66.2
6	-30000	4.89	2.8	53
6	-40000	5.32	3.06	57.9
6	-50000	5.43	3.17	59.9
6	-60000	5.12	2.93	55.4
6	-70000	5.52	3.26	61.7
6	-80000	6.68	4.42	83.5
6	-90000	7.43	5.17	97.7
6	-100000	6.39	4.13	78
6	-110000	5.87	3.61	68.1
6	-120000	6.41	4.15	78.5
6	-130000	6.79	4.53	85.6
6	-140000	6.43	4.17	78.9
6	-150000	6.48	4.22	79.8
6	-160000	7.03	4.77	90.2
6	-170000	7.39	5.13	97
6	-180000	6.66	4.4	83.1
6	-190000	6.96	4.7	88.9
6	-200000	7.9	5.64	107
6	-210000	8.68	6.42	121
6	-220000	7.72	5.46	103
6	-230000	7.23	4.97	93.9
6	-240000	7.25	4.99	94.3
6	-250000	7.67	5.41	102
6	-260000	7.55	5.29	100
6	-270000	8.03	5.77	109
6	-280000	8.59	6.33	120
6	-290000	9.71	7.45	141
6	-300000	9.6	7.34	139
6	-310000	9.49	7.23	137
6	-320000	10.2	7.95	150
6	-330000	10.4	8.16	154
6	-340000	9.52	7.26	137
6	-350000	9.02	6.76	128
6	-360000	9.52	7.26	137
6	-370000	9.55	7.29	138
6	-380000	8.41	6.15	116
6	-390000	8.11	5.85	111
6	-400000	8.89	6.63	125
6	-410000	8.84	6.58	124
6	-420000	8.52	6.26	118
6	-430000	8.53	6.27	119
6	-440000	8.94	6.68	126
6	-450000	8.3	6.04	114
6	-460000	7.62	5.36	101
6	-470000	7.6	5.34	101
