rep_num	position	torque	torque_compensated	lbs_compensated
1	0	6.82	7.18	136
1	10000	9.65	10.2	192
1	20000	9.16	9.66	183
1	30000	8.22	8.67	164
1	40000	8.43	8.88	168
1	50000	9.47	9.98	189
1	60000	9.35	9.86	186
1	70000	8.76	9.24	175
1	80000	8.32	8.77	166
1	90000	9.17	9.67	183
1	100000	9.66	10.2	193
1	110000	8.78	9.26	175
1	120000	8.46	8.92	169
1	130000	9.14	9.64	182
1	140000	8.99	9.47	179
1	150000	8.55	9.01	170
1	160000	8.58	9.05	171
1	170000	8.72	9.19	174
1	180000	8.27	8.72	165
1	190000	8.63	9.09	172
1	200000	8.57	9.04	171
1	210000	9.24	9.74	184
1	220000	9.47	9.98	189
1	230000	9.15	9.65	182
1	240000	9.4	9.91	187
1	250000	9.32	9.83	186
1	260000	9.69	10.2	193
1	270000	9.68	10.2	193
1	280000	9.52	10	190
1	290000	9.92	10.5	198
1	300000	10.5	11.1	209
1	310000	10.7	11.3	213
1	320000	10.6	11.2	211
1	330000	10.6	11.2	211
1	340000	11	11.6	219
1	350000	10.6	11.1	211
1	360000	10.1	10.7	202
1	370000	10.8	11.4	215
1	380000	11.2	11.8	224
1	390000	10.4	11	208
1	400000	9.69	10.2	193
1	410000	10.4	10.9	206
1	420000	10.4	10.9	207
1	430000	9.9	10.4	197
1	440000	9.41	9.92	187
1	450000	9.31	9.82	186
1	460000	9.54	10.1	190
1	470000	9.32	9.82	186
2	0	11.4	9.11	172
2	-10000	12	9.7	183
2	-20000	12.3	10.1	190
2	-30000	11.3	9.01	170
2	-40000	12.4	10.2	192
2	-50000	11.7	9.46	179
2	-60000	10.6	8.3	157
2	-70000	11	8.73	165
2	-80000	11.3	9.04	171
2	-90000	11.1	8.88	168
2	-100000	11	8.76	165
2	-110000	11.7	9.43	178
2	-120000	12.3	10.1	190
2	-130000	12.8	10.5	199
2	-140000	12.5	10.2	193
2	-150000	11.9	9.65	182
2	-160000	12.2	9.91	187
2	-170000	12	9.75	184
2	-180000	11.5	9.25	175
2	-190000	11.2	8.99	170
2	-200000	12.1	9.87	187
2	-210000	12.8	10.5	198
2	-220000	12.3	10	189
2	-230000	11.7	9.42	178
2	-240000	11.6	9.36	177
2	-250000	11.8	9.59	181
2	-260000	11.8	9.49	179
2	-270000	11.2	8.92	169
2	-280000	11.2	8.92	169
2	-290000	12	9.78	185
2	-300000	12.2	9.92	188
2	-310000	12.4	10.1	192
2	-320000	13.1	10.8	204
2	-330000	13.2	11	207
2	-340000	12.2	9.93	188
2	-350000	12.3	10	189
2	-360000	13.5	11.2	212
2	-370000	13.2	11	207
2	-380000	12.6	10.3	195
2	-390000	12.2	9.97	189
2	-400000	13	10.7	203
2	-410000	13.1	10.8	205
2	-420000	13.2	11	207
2	-430000	12.9	10.7	202
2	-440000	13.6	11.4	215
2	-450000	13.5	11.2	212
2	-460000	13.1	10.8	204
2	-470000	12.8	10.6	200
2	0	10.9	11.4	216
2	10000	10.9	11.5	217
2	20000	11.1	11.7	221
2	30000	10.8	11.4	216
2	40000	9.83	10.4	196
2	50000	9.99	10.5	199
2	60000	10.6	11.2	212
2	70000	9.95	10.5	198
2	80000	9.58	10.1	191
2	90000	9.62	10.1	192
2	100000	9.64	10.2	192
2	110000	9.33	9.84	186
2	120000	9.03	9.52	180
2	130000	8.84	9.32	176
2	140000	8.88	9.36	177
2	150000	8.44	8.9	168
2	160000	8.14	8.58	162
2	170000	7.83	8.25	156
2	180000	8.23	8.67	164
2	190000	8.42	8.87	168
2	200000	8.13	8.57	162
2	210000	8.31	8.76	166
2	220000	8.3	8.74	165
2	230000	7.87	8.29	157
2	240000	8.14	8.58	162
2	250000	8.79	9.27	175
2	260000	9.15	9.65	182
2	270000	8.48	8.94	169
2	280000	8.07	8.5	161
2	290000	8.44	8.9	168
2	300000	9.5	10	189
2	310000	9.84	10.4	196
2	320000	8.66	9.12	172
2	330000	8.66	9.12	172
2	340000	9.37	9.88	187
2	350000	9.14	9.63	182
2	360000	8.47	8.92	169
2	370000	9.16	9.65	182
2	380000	9.35	9.85	186
2	390000	8.97	9.46	179
2	400000	8.6	9.06	171
2	410000	9.08	9.57	181
2	420000	8.84	9.32	176
2	430000	8.41	8.86	168
2	440000	8.14	8.58	162
2	450000	8.54	9	170
2	460000	8.97	9.45	179
2	470000	8.89	9.37	177
3	0	11	8.69	164
3	-10000	11.3	9.03	171
3	-20000	10.7	8.39	159
3	-30000	9.86	7.6	144
3	-40000	10.5	8.21	155
3	-50000	10.3	8.03	152
3	-60000	9.79	7.53	142
3	-70000	9.44	7.18	136
3	-80000	9.8	7.54	142
3	-90000	9.83	7.57	143
3	-100000	10.1	7.83	148
3	-110000	10.4	8.11	153
3	-120000	10.9	8.61	163
3	-130000	10.3	8.05	152
3	-140000	10.5	8.24	156
3	-150000	11	8.75	165
3	-160000	11.2	8.98	170
3	-170000	11.9	9.6	181
3	-180000	11.5	9.24	175
3	-190000	11.7	9.43	178
3	-200000	12.2	9.94	188
3	-210000	12.3	10.1	191
3	-220000	12.6	10.4	196
3	-230000	12.3	10.1	191
3	-240000	12.2	9.94	188
3	-250000	12.2	9.97	188
3	-260000	11.7	9.45	179
3	-270000	11.5	9.27	175
3	-280000	11.5	9.24	175
3	-290000	12.1	9.83	186
3	-300000	12.6	10.4	196
3	-310000	12.9	10.6	201
3	-320000	13.4	11.1	211
3	-330000	13.9	11.7	221
3	-340000	13.4	11.1	210
3	-350000	13	10.7	202
3	-360000	13.3	11.1	209
3	-370000	12.7	10.4	197
3	-380000	12	9.78	185
3	-390000	11.6	9.3	176
3	-400000	12.3	10	189
3	-410000	12.5	10.2	193
3	-420000	12.6	10.3	195
3	-430000	12.8	10.6	200
3	-440000	13.1	10.9	206
3	-450000	13.1	10.8	205
3	-460000	12.2	9.98	189
3	-470000	11.8	9.5	180
3	0	9.93	10.5	198
3	10000	10.3	10.9	205
3	20000	10.7	11.3	214
3	30000	10.5	11.1	210
3	40000	9.8	10.3	195
3	50000	9.92	10.5	198
3	60000	10.2	10.7	203
3	70000	9.85	10.4	196
3	80000	9.24	9.74	184
3	90000	9.41	9.92	187
3	100000	9.85	10.4	196
3	110000	9.47	9.99	189
3	120000	8.99	9.47	179
3	130000	9.08	9.57	181
3	140000	9.08	9.57	181
3	150000	8.75	9.23	174
3	160000	8.64	9.11	172
3	170000	8.66	9.13	173
3	180000	8.64	9.11	172
3	190000	8.58	9.04	171
3	200000	8.18	8.62	163
3	210000	8.43	8.89	168
3	220000	8.98	9.46	179
3	230000	8.54	9	170
3	240000	8.33	8.78	166
3	250000	8.52	8.98	170
3	260000	8.71	9.18	174
3	270000	8.73	9.21	174
3	280000	8.29	8.73	165
3	290000	8.47	8.93	169
3	300000	9.14	9.64	182
3	310000	9.25	9.75	184
3	320000	8.99	9.48	179
3	330000	8.91	9.39	178
3	340000	9.24	9.74	184
3	350000	9.35	9.85	186
3	360000	8.72	9.19	174
3	370000	8.82	9.29	176
3	380000	8.93	9.41	178
3	390000	8.43	8.88	168
3	400000	7.47	7.87	149
3	410000	7.71	8.12	154
3	420000	7.4	7.8	147
3	430000	6.79	7.15	135
3	440000	6.87	7.24	137
3	450000	6.76	7.13	135
3	460000	6.7	7.06	134
3	470000	7.23	7.62	144
4	0	8.74	6.48	122
4	-10000	10.3	8.03	152
4	-20000	10.8	8.51	161
4	-30000	10.7	8.42	159
4	-40000	12	9.72	184
4	-50000	12.2	9.93	188
4	-60000	11.7	9.47	179
4	-70000	11.5	9.27	175
4	-80000	12.4	10.1	191
4	-90000	12.8	10.6	200
4	-100000	12.1	9.84	186
4	-110000	11.7	9.47	179
4	-120000	12	9.79	185
4	-130000	12.2	9.91	187
4	-140000	12	9.71	183
4	-150000	11.8	9.55	181
4	-160000	12.3	10	190
4	-170000	12.4	10.1	191
4	-180000	12.1	9.85	186
4	-190000	12.2	9.98	189
4	-200000	12.9	10.7	201
4	-210000	12.9	10.7	202
4	-220000	12.9	10.6	200
4	-230000	12.4	10.2	192
4	-240000	12.5	10.2	194
4	-250000	12.7	10.5	198
4	-260000	12.3	10.1	190
4	-270000	12.1	9.84	186
4	-280000	12.5	10.2	193
4	-290000	13.1	10.9	205
4	-300000	12.8	10.6	200
4	-310000	12.4	10.1	191
4	-320000	12.6	10.3	195
4	-330000	13.1	10.9	206
4	-340000	12.4	10.1	191
4	-350000	11.9	9.67	183
4	-360000	12.6	10.4	196
4	-370000	12.9	10.6	201
4	-380000	13.2	10.9	206
4	-390000	13.3	11.1	209
4	-400000	13.8	11.5	217
4	-410000	13.3	11	209
4	-420000	12.6	10.4	196
4	-430000	12.3	10	189
4	-440000	12.5	10.3	194
4	-450000	12.5	10.3	194
4	-460000	12.4	10.2	192
4	-470000	12	9.69	183
4	0	9.64	10.2	192
4	10000	9.43	9.94	188
4	20000	9.57	10.1	191
4	30000	9.17	9.67	183
4	40000	8.3	8.74	165
4	50000	8.67	9.14	173
4	60000	8.77	9.24	175
4	70000	8.24	8.68	164
4	80000	7.86	8.28	157
4	90000	8.56	9.02	170
4	100000	9.1	9.6	181
4	110000	8.44	8.89	168
4	120000	8.14	8.58	162
4	130000	8.28	8.72	165
4	140000	8.5	8.96	169
4	150000	8.3	8.75	165
4	160000	7.88	8.31	157
4	170000	7.97	8.4	159
4	180000	7.69	8.1	153
4	190000	7.59	8	151
4	200000	7.03	7.41	140
4	210000	6.97	7.35	139
4	220000	7.34	7.74	146
4	230000	6.86	7.23	137
4	240000	6.47	6.82	129
4	250000	6.34	6.69	126
4	260000	6.77	7.14	135
4	270000	6.68	7.04	133
4	280000	6.11	6.44	122
4	290000	5.84	6.15	116
4	300000	6.26	6.6	125
4	310000	6.24	6.58	124
4	320000	6.06	6.38	121
4	330000	6.24	6.58	124
4	340000	6.47	6.82	129
4	350000	6.06	6.39	121
4	360000	5.29	5.58	105
4	370000	5.07	5.35	101
4	380000	5.93	6.25	118
4	390000	5.77	6.08	115
4	400000	5.46	5.76	109
4	410000	6.31	6.65	126
4	420000	6.56	6.92	131
4	430000	6.29	6.63	125
4	440000	5.96	6.29	119
4	450000	6.02	6.34	120
4	460000	6.41	6.76	128
4	470000	5.88	6.2	117
5	0	7.6	5.34	101
5	-10000	8.92	6.66	126
5	-20000	8.72	6.46	122
5	-30000	8.48	6.22	118
5	-40000	8.9	6.64	125
5	-50000	8.23	5.97	113
5	-60000	7.59	5.33	101
5	-70000	7.67	5.41	102
5	-80000	7.79	5.53	104
5	-90000	7.9	5.64	107
5	-100000	7.35	5.09	96.3
5	-110000	7.28	5.02	94.9
5	-120000	8.03	5.77	109
5	-130000	8.77	6.51	123
5	-140000	9.04	6.78	128
5	-150000	9.46	7.2	136
5	-160000	10.1	7.86	149
5	-170000	10.6	8.34	158
5	-180000	10	7.77	147
5	-190000	9.57	7.31	138
5	-200000	10.6	8.34	158
5	-210000	11.4	9.19	174
5	-220000	11.4	9.11	172
5	-230000	11.8	9.49	179
5	-240000	11.9	9.6	181
5	-250000	12.4	10.2	192
5	-260000	12.1	9.81	185
5	-270000	12.1	9.85	186
5	-280000	12.2	9.97	189
5	-290000	12.5	10.2	194
5	-300000	12.4	10.1	192
5	-310000	12.2	9.98	189
5	-320000	12.7	10.5	198
5	-330000	12.7	10.4	197
5	-340000	11.9	9.64	182
5	-350000	11.6	9.33	176
5	-360000	12.6	10.3	195
5	-370000	12.7	10.4	197
5	-380000	11.8	9.59	181
5	-390000	11.3	9.01	170
5	-400000	11.5	9.26	175
5	-410000	11.6	9.31	176
5	-420000	11.5	9.25	175
5	-430000	11.9	9.66	183
5	-440000	12.3	10	189
5	-450000	11.6	9.32	176
5	-460000	11.2	8.93	169
5	-470000	10.8	8.52	161
5	0	8.72	9.19	174
5	10000	7.97	8.4	159
5	20000	8.04	8.47	160
5	30000	7.31	7.7	146
5	40000	6.04	6.37	120
5	50000	5.58	5.88	111
5	60000	5.85	6.17	117
5	70000	5.7	6.01	114
5	80000	5.3	5.59	106
5	90000	5.85	6.17	117
5	100000	6.11	6.44	122
5	110000	6.19	6.52	123
5	120000	6.22	6.56	124
5	130000	6.32	6.67	126
5	140000	6.36	6.71	127
5	150000	6.32	6.67	126
5	160000	6.18	6.52	123
5	170000	6.16	6.49	123
5	180000	5.95	6.27	119
5	190000	5.82	6.14	116
5	200000	5.35	5.64	107
5	210000	5.23	5.52	104
5	220000	5.28	5.57	105
5	230000	4.61	4.9	92.6
5	240000	4.23	4.52	85.4
5	250000	3.01	3.3	62.3
5	260000	1.77	2.06	38.9
5	270000	0.803	1.09	20.6
5	280000	0.239	0.525	9.91
5	290000	0.598	0.884	16.7
5	300000	2.26	2.55	48.1
5	310000	3.55	3.83	72.4
5	320000	4.8	5.09	96.2
5	330000	5.45	5.74	108
5	340000	5.73	6.04	114
5	350000	5.73	6.04	114
5	360000	5.07	5.36	101
5	370000	5.46	5.76	109
5	380000	5.9	6.22	118
5	390000	5.63	5.93	112
5	400000	5.2	5.48	104
5	410000	5.77	6.08	115
5	420000	6	6.32	119
5	430000	5.54	5.84	110
5	440000	5.3	5.58	106
5	450000	5.98	6.3	119
5	460000	6.17	6.5	123
5	470000	5.96	6.28	119
6	0	7.83	5.57	105
6	-10000	7.66	5.4	102
6	-20000	7.9	5.64	107
6	-30000	7.45	5.19	98.1
6	-40000	8.05	5.79	109
6	-50000	7.7	5.44	103
6	-60000	7.25	4.99	94.3
6	-70000	7.51	5.25	99.2
6	-80000	8.38	6.12	116
6	-90000	8.34	6.08	115
6	-100000	7.62	5.36	101
6	-110000	7.82	5.56	105
6	-120000	8.11	5.85	111
6	-130000	8	5.74	108
6	-140000	7.9	5.64	107
6	-150000	7.99	5.73	108
6	-160000	8.24	5.98	113
6	-170000	8.31	6.05	114
6	-180000	7.91	5.65	107
6	-190000	7.78	5.52	104
6	-200000	7.92	5.66	107
6	-210000	8.06	5.8	110
6	-220000	7.96	5.7	108
6	-230000	8.24	5.98	113
6	-240000	8.33	6.07	115
6	-250000	8.78	6.52	123
6	-260000	8.81	6.55	124
6	-270000	8.09	5.83	110
6	-280000	8.31	6.05	114
6	-290000	9.51	7.25	137
6	-300000	9.48	7.22	137
6	-310000	9.46	7.2	136
6	-320000	10.3	8.07	152
6	-330000	11.7	9.48	179
6	-340000	11.3	9.05	171
6	-350000	10.9	8.68	164
6	-360000	11.8	9.55	181
6	-370000	11.4	9.13	173
6	-380000	10.6	8.36	158
6	-390000	10.2	7.96	151
6	-400000	9.93	7.67	145
6	-410000	9.7	7.44	141
6	-420000	9.06	6.8	129
6	-430000	9.09	6.83	129
6	-440000	9.64	7.38	140
6	-450000	8.25	5.99	113
6	-460000	7.1	4.84	91.5
6	-470000	6.99	4.73	89.4
