rep_num	position	torque	torque_compensated	lbs_compensated
1	0	7.53	7.93	150
1	10000	9.4	9.91	187
1	20000	10.6	11.2	212
1	30000	9.58	10.1	191
1	40000	8.1	8.53	161
1	50000	9.67	10.2	193
1	60000	10.3	10.9	205
1	70000	8.77	9.24	175
1	80000	8.06	8.5	161
1	90000	9.4	9.91	187
1	100000	10.2	10.8	204
1	110000	8.48	8.94	169
1	120000	8.09	8.53	161
1	130000	9.6	10.1	191
1	140000	9.94	10.5	198
1	150000	8.66	9.13	173
1	160000	8.01	8.44	160
1	170000	8.98	9.46	179
1	180000	9.33	9.84	186
1	190000	8.42	8.87	168
1	200000	7.21	7.6	144
1	210000	8.6	9.07	171
1	220000	9.45	9.96	188
1	230000	8.32	8.77	166
1	240000	7.57	7.98	151
1	250000	8.61	9.08	172
1	260000	9.3	9.81	185
1	270000	8.24	8.68	164
1	280000	7.87	8.29	157
1	290000	9.53	10	190
1	300000	10.5	11.1	209
1	310000	9.44	9.95	188
1	320000	9.31	9.82	186
1	330000	10.5	11.1	209
1	340000	11.1	11.7	221
1	350000	9.84	10.4	196
1	360000	9.39	9.9	187
1	370000	10.7	11.3	213
1	380000	11.5	12.1	230
1	390000	10.1	10.7	202
1	400000	9.17	9.67	183
1	410000	11	11.5	218
1	420000	11.3	11.9	225
1	430000	9.27	9.77	185
1	440000	8.63	9.09	172
1	450000	8.75	9.22	174
1	460000	10.2	10.8	203
1	470000	8.39	8.84	167
2	0	10.3	8.06	152
2	-10000	10.4	8.15	154
2	-20000	11.9	9.6	181
2	-30000	9.75	7.49	142
2	-40000	10.8	8.53	161
2	-50000	11.4	9.18	174
2	-60000	10.3	8.01	151
2	-70000	9.39	7.13	135
2	-80000	9.7	7.44	141
2	-90000	10.9	8.63	163
2	-100000	9.91	7.65	145
2	-110000	8.64	6.38	121
2	-120000	9.39	7.13	135
2	-130000	11.1	8.79	166
2	-140000	11.1	8.84	167
2	-150000	9.97	7.71	146
2	-160000	10.5	8.19	155
2	-170000	12.2	9.91	187
2	-180000	11.3	9.04	171
2	-190000	9.95	7.69	145
2	-200000	11.1	8.81	167
2	-210000	12.3	10	189
2	-220000	12.1	9.86	186
2	-230000	10.5	8.25	156
2	-240000	11.3	9.02	170
2	-250000	13	10.8	204
2	-260000	12.2	9.9	187
2	-270000	10.6	8.36	158
2	-280000	11	8.73	165
2	-290000	12.8	10.5	199
2	-300000	12	9.71	183
2	-310000	10.3	8.03	152
2	-320000	11	8.71	165
2	-330000	12.5	10.2	194
2	-340000	11.5	9.23	174
2	-350000	9.77	7.51	142
2	-360000	11.1	8.84	167
2	-370000	11.6	9.33	176
2	-380000	10.9	8.63	163
2	-390000	9.33	7.07	134
2	-400000	10.2	7.9	149
2	-410000	11.4	9.14	173
2	-420000	11.2	8.89	168
2	-430000	9.61	7.35	139
2	-440000	9.67	7.41	140
2	-450000	10.6	8.31	157
2	-460000	10.1	7.88	149
2	-470000	9.84	7.58	143
2	0	8.58	9.04	171
2	10000	7.51	7.92	150
2	20000	9.66	10.2	192
2	30000	8.2	8.65	163
2	40000	6.69	7.05	133
2	50000	8.13	8.57	162
2	60000	9	9.49	179
2	70000	7.77	8.19	155
2	80000	6.74	7.11	134
2	90000	8.33	8.78	166
2	100000	9.16	9.66	182
2	110000	7.23	7.62	144
2	120000	6.37	6.72	127
2	130000	8.03	8.47	160
2	140000	8	8.43	159
2	150000	6.55	6.91	131
2	160000	6.56	6.91	131
2	170000	7.95	8.38	158
2	180000	8.36	8.81	167
2	190000	7.36	7.76	147
2	200000	6.89	7.26	137
2	210000	8.26	8.7	165
2	220000	8.86	9.34	176
2	230000	6.86	7.23	137
2	240000	6.52	6.88	130
2	250000	8.47	8.92	169
2	260000	9.1	9.59	181
2	270000	7.87	8.3	157
2	280000	7.65	8.07	152
2	290000	9.32	9.82	186
2	300000	9.95	10.5	198
2	310000	9.64	10.2	192
2	320000	9.6	10.1	191
2	330000	11.2	11.8	222
2	340000	11.9	12.6	237
2	350000	10.5	11	209
2	360000	9.12	9.61	182
2	370000	10.6	11.2	211
2	380000	10.8	11.4	215
2	390000	9.11	9.6	181
2	400000	8.1	8.54	161
2	410000	9.73	10.3	194
2	420000	9.96	10.5	198
2	430000	8.22	8.67	164
2	440000	8.05	8.48	160
2	450000	8.16	8.61	163
2	460000	9.38	9.89	187
2	470000	8.33	8.78	166
3	0	10	7.77	147
3	-10000	8.93	6.67	126
3	-20000	10.5	8.24	156
3	-30000	7.92	5.66	107
3	-40000	8.49	6.23	118
3	-50000	10.1	7.87	149
3	-60000	9.64	7.38	140
3	-70000	8.65	6.39	121
3	-80000	9.16	6.9	130
3	-90000	10.6	8.31	157
3	-100000	9.84	7.58	143
3	-110000	8.07	5.81	110
3	-120000	8.78	6.52	123
3	-130000	10.6	8.3	157
3	-140000	10.3	8.08	153
3	-150000	9.2	6.94	131
3	-160000	9.83	7.57	143
3	-170000	11.4	9.1	172
3	-180000	10.4	8.19	155
3	-190000	9.23	6.97	132
3	-200000	9.7	7.44	141
3	-210000	10.9	8.62	163
3	-220000	10.3	8.05	152
3	-230000	9.4	7.14	135
3	-240000	10.1	7.82	148
3	-250000	12	9.71	183
3	-260000	11.3	9.01	170
3	-270000	9.7	7.44	141
3	-280000	10.9	8.6	162
3	-290000	12.4	10.1	191
3	-300000	11.3	9.07	172
3	-310000	9.58	7.32	138
3	-320000	10.5	8.2	155
3	-330000	11.7	9.45	179
3	-340000	10.9	8.65	164
3	-350000	9.11	6.85	129
3	-360000	10.6	8.35	158
3	-370000	11.3	9.07	171
3	-380000	10.5	8.23	156
3	-390000	9.09	6.83	129
3	-400000	9.73	7.47	141
3	-410000	11.6	9.3	176
3	-420000	11.6	9.35	177
3	-430000	10.3	8.08	153
3	-440000	11.3	9.02	170
3	-450000	11.2	8.99	170
3	-460000	9.86	7.6	144
3	-470000	8.97	6.71	127
3	0	8.17	8.61	163
3	10000	7.65	8.06	152
3	20000	9.08	9.57	181
3	30000	7.81	8.23	156
3	40000	6.6	6.96	131
3	50000	7.89	8.32	157
3	60000	8.88	9.36	177
3	70000	7.39	7.79	147
3	80000	7.03	7.41	140
3	90000	8.51	8.97	170
3	100000	8.7	9.17	173
3	110000	7.16	7.55	143
3	120000	6.83	7.2	136
3	130000	8.62	9.08	172
3	140000	8.48	8.93	169
3	150000	7.55	7.96	150
3	160000	7.01	7.39	140
3	170000	7.75	8.17	154
3	180000	8.1	8.54	161
3	190000	7.08	7.46	141
3	200000	5.78	6.1	115
3	210000	7.05	7.43	140
3	220000	8.19	8.64	163
3	230000	7.31	7.71	146
3	240000	7.13	7.52	142
3	250000	8.34	8.79	166
3	260000	9.04	9.53	180
3	270000	7.47	7.88	149
3	280000	7.24	7.63	144
3	290000	8.81	9.28	175
3	300000	9.13	9.62	182
3	310000	7.79	8.21	155
3	320000	7.15	7.53	142
3	330000	8.42	8.87	168
3	340000	8.75	9.23	174
3	350000	7.31	7.7	146
3	360000	6.49	6.84	129
3	370000	8.33	8.78	166
3	380000	9.74	10.3	194
3	390000	8.75	9.22	174
3	400000	7.92	8.35	158
3	410000	9.42	9.93	188
3	420000	9.54	10.1	190
3	430000	7.72	8.13	154
3	440000	6.97	7.35	139
3	450000	7.53	7.94	150
3	460000	8.54	9	170
3	470000	7.36	7.75	147
4	0	9.13	6.87	130
4	-10000	10.4	8.16	154
4	-20000	11.4	9.12	172
4	-30000	9.71	7.45	141
4	-40000	10.7	8.46	160
4	-50000	11.6	9.32	176
4	-60000	10.6	8.35	158
4	-70000	9.14	6.88	130
4	-80000	10	7.76	147
4	-90000	11.7	9.47	179
4	-100000	11.6	9.39	177
4	-110000	10.4	8.14	154
4	-120000	11	8.69	164
4	-130000	12.2	9.92	187
4	-140000	11.4	9.14	173
4	-150000	9.86	7.6	144
4	-160000	10.1	7.88	149
4	-170000	11.4	9.1	172
4	-180000	10.3	8.07	152
4	-190000	8.75	6.49	123
4	-200000	9.65	7.39	140
4	-210000	11.2	8.9	168
4	-220000	11	8.69	164
4	-230000	9.29	7.03	133
4	-240000	10.1	7.82	148
4	-250000	11.7	9.43	178
4	-260000	11.6	9.35	177
4	-270000	9.73	7.47	141
4	-280000	11.3	9.05	171
4	-290000	12.1	9.87	187
4	-300000	11.6	9.33	176
4	-310000	10.1	7.85	148
4	-320000	11.7	9.43	178
4	-330000	13.4	11.1	210
4	-340000	12	9.78	185
4	-350000	10.1	7.84	148
4	-360000	11.1	8.88	168
4	-370000	11.8	9.52	180
4	-380000	11.3	9.03	171
4	-390000	9.8	7.54	143
4	-400000	10.9	8.62	163
4	-410000	12.2	9.95	188
4	-420000	11.8	9.55	181
4	-430000	10.3	8.05	152
4	-440000	11.5	9.28	175
4	-450000	11.8	9.52	180
4	-460000	11.3	9	170
4	-470000	10.4	8.19	155
4	0	8.85	9.33	176
4	10000	7.89	8.32	157
4	20000	9.83	10.4	196
4	30000	8.33	8.78	166
4	40000	7.42	7.82	148
4	50000	8.22	8.66	164
4	60000	8.85	9.33	176
4	70000	6.88	7.26	137
4	80000	6.08	6.41	121
4	90000	7.02	7.4	140
4	100000	7.57	7.98	151
4	110000	5.69	6	113
4	120000	4.84	5.12	96.8
4	130000	6.24	6.57	124
4	140000	6.27	6.61	125
4	150000	4.77	5.05	95.5
4	160000	4.67	4.96	93.7
4	170000	6.01	6.34	120
4	180000	6.13	6.46	122
4	190000	4.92	5.21	98.4
4	200000	4.6	4.88	92.3
4	210000	6.03	6.36	120
4	220000	6.23	6.57	124
4	230000	4.51	4.8	90.6
4	240000	4.05	4.33	81.9
4	250000	4.96	5.25	99.2
4	260000	5.58	5.88	111
4	270000	3.78	4.06	76.8
4	280000	3.41	3.69	69.8
4	290000	4.84	5.13	97
4	300000	6.01	6.34	120
4	310000	4.68	4.96	93.8
4	320000	3.98	4.27	80.6
4	330000	5.3	5.59	106
4	340000	5.58	5.88	111
4	350000	4.28	4.57	86.3
4	360000	3.72	4.01	75.8
4	370000	5.15	5.44	103
4	380000	6.05	6.37	120
4	390000	4.52	4.81	90.9
4	400000	3.64	3.92	74.2
4	410000	5.09	5.37	102
4	420000	5.67	5.98	113
4	430000	4.53	4.81	91
4	440000	4.66	4.95	93.5
4	450000	5.35	5.64	107
4	460000	6.48	6.83	129
4	470000	4.98	5.27	99.6
5	0	6.67	4.41	83.3
5	-10000	6.64	4.38	82.7
5	-20000	8.21	5.95	112
5	-30000	6.6	4.34	82
5	-40000	7.76	5.5	104
5	-50000	8.52	6.26	118
5	-60000	7.66	5.4	102
5	-70000	5.93	3.67	69.3
5	-80000	6.24	3.98	75.1
5	-90000	7.6	5.34	101
5	-100000	7.17	4.91	92.8
5	-110000	6.54	4.28	80.8
5	-120000	8.02	5.76	109
5	-130000	9.74	7.48	141
5	-140000	9.57	7.31	138
5	-150000	8.85	6.59	125
5	-160000	10.3	8.01	151
5	-170000	11.7	9.45	179
5	-180000	11	8.78	166
5	-190000	9.31	7.05	133
5	-200000	10.1	7.88	149
5	-210000	12	9.75	184
5	-220000	11.8	9.53	180
5	-230000	10	7.74	146
5	-240000	9.99	7.73	146
5	-250000	11.5	9.28	175
5	-260000	11.1	8.81	167
5	-270000	9.3	7.04	133
5	-280000	10.4	8.1	153
5	-290000	12.6	10.4	196
5	-300000	11.8	9.58	181
5	-310000	10.1	7.79	147
5	-320000	10.5	8.19	155
5	-330000	12.5	10.2	193
5	-340000	12.1	9.82	186
5	-350000	10.5	8.21	155
5	-360000	11.2	8.99	170
5	-370000	12.4	10.2	192
5	-380000	12.5	10.3	194
5	-390000	11	8.74	165
5	-400000	11.8	9.58	181
5	-410000	12.8	10.5	199
5	-420000	12.3	10	189
5	-430000	10.7	8.45	160
5	-440000	11.8	9.49	179
5	-450000	11.8	9.55	181
5	-460000	10.6	8.39	159
5	-470000	9.69	7.43	140
5	0	7.7	8.12	153
5	10000	6.85	7.22	137
5	20000	7.86	8.28	157
5	30000	6.34	6.68	126
5	40000	5.07	5.36	101
5	50000	6.68	7.04	133
5	60000	6.94	7.32	138
5	70000	4.46	4.74	89.6
5	80000	3.74	4.02	76
5	90000	5.93	6.25	118
5	100000	6.39	6.73	127
5	110000	4.5	4.78	90.4
5	120000	3.93	4.22	79.7
5	130000	5.36	5.65	107
5	140000	5.6	5.9	112
5	150000	3.79	4.07	77
5	160000	3.39	3.68	69.6
5	170000	4.86	5.15	97.3
5	180000	4.84	5.12	96.8
5	190000	3.37	3.65	69
5	200000	2.72	3	56.8
5	210000	3.65	3.94	74.4
5	220000	4.59	4.87	92.1
5	230000	2.71	3	56.7
5	240000	2.77	3.05	57.7
5	250000	4.55	4.84	91.5
5	260000	5.58	5.88	111
5	270000	4.73	5.01	94.8
5	280000	3.75	4.04	76.3
5	290000	4.93	5.22	98.7
5	300000	5.57	5.87	111
5	310000	4.1	4.38	82.8
5	320000	3.73	4.02	76
5	330000	5	5.28	99.8
5	340000	5.18	5.47	103
5	350000	3.83	4.11	77.8
5	360000	2.97	3.26	61.6
5	370000	4.56	4.85	91.6
5	380000	5.4	5.69	108
5	390000	3.58	3.87	73.1
5	400000	2.99	3.28	62
5	410000	4.97	5.25	99.3
5	420000	5.55	5.85	111
5	430000	3.66	3.95	74.6
5	440000	2.82	3.1	58.7
5	450000	3.42	3.7	70
5	460000	4.64	4.92	93
5	470000	3.23	3.52	66.5
6	0	4.63	2.65	50.1
6	-10000	3.75	2.15	40.6
6	-20000	6.52	4.26	80.5
6	-30000	5.38	3.12	59
6	-40000	6.04	3.78	71.5
6	-50000	7.05	4.79	90.5
6	-60000	5.78	3.52	66.4
6	-70000	4.76	2.73	51.5
6	-80000	5.43	3.17	60
6	-90000	6.56	4.3	81.3
6	-100000	5.74	3.48	65.8
6	-110000	4.43	2.54	48
6	-120000	5.31	3.05	57.7
6	-130000	7.19	4.93	93.1
6	-140000	6.66	4.4	83.2
6	-150000	5.8	3.54	66.9
6	-160000	6.63	4.37	82.7
6	-170000	7.83	5.57	105
6	-180000	6.9	4.64	87.7
6	-190000	5.72	3.46	65.4
6	-200000	6.47	4.21	79.7
6	-210000	7.83	5.57	105
6	-220000	6.85	4.59	86.7
6	-230000	5.51	3.25	61.4
6	-240000	6.43	4.17	78.9
6	-250000	7.84	5.58	105
6	-260000	7.35	5.09	96.1
6	-270000	6.03	3.77	71.3
6	-280000	7.07	4.81	90.9
6	-290000	8.91	6.65	126
6	-300000	8.94	6.68	126
6	-310000	7.95	5.69	107
6	-320000	9.16	6.9	130
6	-330000	10.4	8.17	155
6	-340000	9.24	6.98	132
6	-350000	7.25	4.99	94.3
6	-360000	8.55	6.29	119
6	-370000	8.89	6.63	125
6	-380000	7.73	5.47	103
6	-390000	6.09	3.83	72.3
6	-400000	6.99	4.73	89.4
6	-410000	7.73	5.47	103
6	-420000	7.14	4.88	92.2
6	-430000	5.88	3.62	68.4
6	-440000	6.71	4.45	84.1
6	-450000	5.41	3.15	59.6
6	-460000	3.95	2.26	42.8
6	-470000	2.29	1.31	24.8
