rep_num	position	torque	torque_compensated	lbs_compensated
1	0	8.95	9.43	178
1	10000	10.7	11.3	213
1	20000	10.3	10.8	204
1	30000	10.2	10.8	204
1	40000	9.52	10	190
1	50000	9.63	10.1	192
1	60000	10.4	11	207
1	70000	10.5	11	209
1	80000	9.08	9.57	181
1	90000	9.07	9.56	181
1	100000	10.2	10.8	204
1	110000	10.1	10.6	201
1	120000	9.27	9.77	185
1	130000	9.55	10.1	190
1	140000	9.93	10.5	198
1	150000	9.94	10.5	198
1	160000	9.36	9.86	186
1	170000	9.68	10.2	193
1	180000	10.4	11	208
1	190000	10.4	10.9	206
1	200000	9.64	10.2	192
1	210000	9.86	10.4	196
1	220000	10.3	10.9	206
1	230000	10.8	11.3	214
1	240000	10.1	10.6	201
1	250000	10.1	10.6	200
1	260000	11.1	11.7	222
1	270000	10.8	11.4	216
1	280000	10.4	11	207
1	290000	10.7	11.3	213
1	300000	11.4	12	227
1	310000	11.6	12.2	230
1	320000	10.8	11.3	214
1	330000	10.6	11.1	210
1	340000	11.3	11.9	225
1	350000	11.1	11.7	221
1	360000	10.1	10.7	202
1	370000	10.1	10.7	202
1	380000	10.8	11.4	215
1	390000	10.5	11.1	210
1	400000	9.15	9.64	182
1	410000	9.05	9.54	180
1	420000	9.92	10.5	198
1	430000	9.05	9.54	180
1	440000	8.11	8.55	162
1	450000	8.38	8.84	167
1	460000	9.59	10.1	191
1	470000	9.61	10.1	191
2	0	11.2	8.93	169
2	-10000	11.2	8.95	169
2	-20000	11	8.76	166
2	-30000	11.1	8.81	167
2	-40000	11.8	9.53	180
2	-50000	11.1	8.85	167
2	-60000	9.75	7.49	142
2	-70000	10.2	7.96	150
2	-80000	11	8.7	164
2	-90000	11.4	9.15	173
2	-100000	10.8	8.53	161
2	-110000	11.2	8.92	169
2	-120000	11.8	9.56	181
2	-130000	12.3	10	189
2	-140000	11.6	9.37	177
2	-150000	11.3	9.08	172
2	-160000	11.9	9.6	181
2	-170000	12.5	10.3	194
2	-180000	11.8	9.54	180
2	-190000	10.7	8.48	160
2	-200000	11.2	8.94	169
2	-210000	11.6	9.3	176
2	-220000	11.8	9.5	180
2	-230000	11.4	9.12	172
2	-240000	11.8	9.54	180
2	-250000	11.8	9.52	180
2	-260000	10.8	8.57	162
2	-270000	10.6	8.36	158
2	-280000	11.7	9.44	178
2	-290000	12.5	10.3	194
2	-300000	11	8.74	165
2	-310000	10.6	8.32	157
2	-320000	12.3	10	190
2	-330000	12.4	10.1	191
2	-340000	11.6	9.31	176
2	-350000	11.5	9.22	174
2	-360000	12	9.71	183
2	-370000	11.8	9.51	180
2	-380000	11.1	8.87	168
2	-390000	11.3	9.02	170
2	-400000	11.6	9.35	177
2	-410000	11.2	8.95	169
2	-420000	11.1	8.86	167
2	-430000	11.3	9.05	171
2	-440000	12	9.69	183
2	-450000	12.1	9.79	185
2	-460000	10.9	8.62	163
2	-470000	12.3	10	189
2	0	11	11.6	218
2	10000	11.3	11.9	225
2	20000	10.6	11.2	212
2	30000	11	11.5	218
2	40000	9.97	10.5	199
2	50000	9.55	10.1	190
2	60000	10.5	11	209
2	70000	10.1	10.6	200
2	80000	8.54	9	170
2	90000	9.03	9.52	180
2	100000	9.65	10.2	192
2	110000	9.06	9.55	181
2	120000	8.1	8.53	161
2	130000	8.01	8.45	160
2	140000	8.59	9.05	171
2	150000	8.3	8.74	165
2	160000	7.76	8.18	155
2	170000	7.78	8.2	155
2	180000	8.83	9.3	176
2	190000	8.83	9.31	176
2	200000	7.82	8.24	156
2	210000	7.85	8.27	156
2	220000	7.96	8.39	159
2	230000	8.32	8.77	166
2	240000	7.99	8.42	159
2	250000	8.13	8.57	162
2	260000	8.85	9.33	176
2	270000	8.43	8.89	168
2	280000	7.93	8.36	158
2	290000	8.25	8.69	164
2	300000	9.16	9.65	182
2	310000	9.84	10.4	196
2	320000	9.62	10.1	192
2	330000	9.6	10.1	191
2	340000	10.6	11.1	210
2	350000	9.97	10.5	199
2	360000	8.46	8.92	169
2	370000	8.37	8.83	167
2	380000	8.74	9.22	174
2	390000	8.41	8.86	167
2	400000	7.28	7.67	145
2	410000	7.58	7.99	151
2	420000	8.33	8.79	166
2	430000	7.66	8.08	153
2	440000	6.75	7.12	134
2	450000	6.87	7.25	137
2	460000	7.72	8.14	154
2	470000	6.91	7.28	138
3	0	7.94	5.68	107
3	-10000	6.56	4.3	81.3
3	-20000	4.06	2.32	43.9
3	-30000	4.28	2.45	46.3
3	-40000	5.37	3.11	58.8
3	-50000	6.83	4.57	86.5
3	-60000	6.96	4.7	88.8
3	-70000	7.9	5.64	107
3	-80000	8.44	6.18	117
3	-90000	8.5	6.24	118
3	-100000	7.99	5.73	108
3	-110000	8.63	6.37	120
3	-120000	9.19	6.93	131
3	-130000	9.27	7.01	132
3	-140000	8.11	5.85	111
3	-150000	8.17	5.91	112
3	-160000	10.1	7.84	148
3	-170000	10.4	8.1	153
3	-180000	9.31	7.05	133
3	-190000	8.95	6.69	126
3	-200000	9.11	6.85	129
3	-210000	8.94	6.68	126
3	-220000	8.79	6.53	123
3	-230000	9.58	7.32	138
3	-240000	10.5	8.22	155
3	-250000	10.9	8.68	164
3	-260000	10.2	7.92	150
3	-270000	10.1	7.87	149
3	-280000	11.1	8.87	168
3	-290000	11.3	9.08	172
3	-300000	9.84	7.58	143
3	-310000	10.1	7.79	147
3	-320000	11	8.73	165
3	-330000	10.9	8.62	163
3	-340000	10.7	8.43	159
3	-350000	10.9	8.61	163
3	-360000	11.5	9.22	174
3	-370000	11.2	8.9	168
3	-380000	10.1	7.8	147
3	-390000	10.5	8.2	155
3	-400000	11.9	9.67	183
3	-410000	11.7	9.46	179
3	-420000	11.2	8.95	169
3	-430000	11.6	9.39	177
3	-440000	12.2	9.92	187
3	-450000	12.1	9.8	185
3	-460000	10.8	8.5	161
3	-470000	10.9	8.63	163
3	0	9.6	10.1	191
3	10000	8.73	9.2	174
3	20000	8.52	8.98	170
3	30000	8.62	9.09	172
3	40000	7.41	7.81	148
3	50000	7.59	8	151
3	60000	8.46	8.91	168
3	70000	8.02	8.45	160
3	80000	6.63	6.98	132
3	90000	6.79	7.16	135
3	100000	7.92	8.34	158
3	110000	8.1	8.54	161
3	120000	7.03	7.41	140
3	130000	7.16	7.55	143
3	140000	7.15	7.54	143
3	150000	6.86	7.23	137
3	160000	6.13	6.46	122
3	170000	6.26	6.6	125
3	180000	6.61	6.96	132
3	190000	6.54	6.89	130
3	200000	5.05	5.33	101
3	210000	4.95	5.23	98.9
3	220000	5.23	5.52	104
3	230000	6.31	6.66	126
3	240000	6.27	6.61	125
3	250000	5.95	6.27	119
3	260000	7.35	7.74	146
3	270000	7.32	7.71	146
3	280000	6.86	7.23	137
3	290000	6.24	6.58	124
3	300000	6.87	7.24	137
3	310000	6.86	7.23	137
3	320000	5.38	5.67	107
3	330000	5.42	5.71	108
3	340000	6.11	6.45	122
3	350000	6.13	6.46	122
3	360000	6.6	6.96	132
3	370000	7.11	7.5	142
3	380000	8.54	9	170
3	390000	8.62	9.09	172
3	400000	6.96	7.33	139
3	410000	7.02	7.4	140
3	420000	7.67	8.08	153
3	430000	7.07	7.46	141
3	440000	6.35	6.7	127
3	450000	6.22	6.55	124
3	460000	7.88	8.3	157
3	470000	7.64	8.05	152
4	0	8.63	6.37	120
4	-10000	7.03	4.77	90.2
4	-20000	6.96	4.7	88.9
4	-30000	7.52	5.26	99.3
4	-40000	8.13	5.87	111
4	-50000	7.74	5.48	104
4	-60000	6.46	4.2	79.3
4	-70000	6.56	4.3	81.2
4	-80000	7.45	5.19	98.1
4	-90000	7.43	5.17	97.6
4	-100000	6.53	4.27	80.8
4	-110000	7.04	4.78	90.3
4	-120000	7.56	5.3	100
4	-130000	7.89	5.63	106
4	-140000	7.17	4.91	92.7
4	-150000	7.29	5.03	95
4	-160000	8.24	5.98	113
4	-170000	8.61	6.35	120
4	-180000	7.97	5.71	108
4	-190000	7.53	5.27	99.6
4	-200000	8.49	6.23	118
4	-210000	8.86	6.6	125
4	-220000	8.52	6.26	118
4	-230000	8.71	6.45	122
4	-240000	9.96	7.7	146
4	-250000	10.6	8.31	157
4	-260000	9.87	7.61	144
4	-270000	9.39	7.13	135
4	-280000	10.4	8.17	154
4	-290000	10.7	8.4	159
4	-300000	10.1	7.86	149
4	-310000	10.2	7.99	151
4	-320000	11.5	9.22	174
4	-330000	11.2	8.91	168
4	-340000	10	7.79	147
4	-350000	10.3	8.05	152
4	-360000	10.9	8.65	163
4	-370000	10.8	8.49	160
4	-380000	9.53	7.27	137
4	-390000	10.1	7.87	149
4	-400000	10.8	8.54	161
4	-410000	10.6	8.38	158
4	-420000	10.1	7.84	148
4	-430000	10.5	8.26	156
4	-440000	11.2	8.92	169
4	-450000	11.3	9.02	171
4	-460000	9.9	7.64	144
4	-470000	10.2	7.9	149
4	0	8.7	9.17	173
4	10000	8.49	8.95	169
4	20000	7.82	8.24	156
4	30000	7.93	8.36	158
4	40000	6.85	7.23	137
4	50000	6.41	6.75	128
4	60000	7.51	7.92	150
4	70000	7.86	8.28	157
4	80000	7.25	7.65	145
4	90000	7.35	7.75	146
4	100000	8.57	9.03	171
4	110000	7.77	8.19	155
4	120000	5.91	6.23	118
4	130000	5.98	6.3	119
4	140000	6.71	7.08	134
4	150000	6.79	7.15	135
4	160000	6.04	6.36	120
4	170000	5.9	6.22	117
4	180000	6.55	6.91	131
4	190000	6.44	6.79	128
4	200000	5.52	5.82	110
4	210000	5.18	5.46	103
4	220000	4.93	5.22	98.6
4	230000	5.47	5.77	109
4	240000	4.78	5.07	95.8
4	250000	4.57	4.86	91.8
4	260000	5.46	5.76	109
4	270000	5.5	5.79	110
4	280000	4.93	5.22	98.7
4	290000	5.27	5.56	105
4	300000	5.87	6.18	117
4	310000	5.68	5.99	113
4	320000	5.15	5.43	103
4	330000	4.7	4.99	94.3
4	340000	5.98	6.31	119
4	350000	6.34	6.68	126
4	360000	5.37	5.66	107
4	370000	5.21	5.5	104
4	380000	6.69	7.05	133
4	390000	6.94	7.31	138
4	400000	5.73	6.03	114
4	410000	6.15	6.48	122
4	420000	7.44	7.85	148
4	430000	6.87	7.24	137
4	440000	5.67	5.98	113
4	450000	6.15	6.49	123
4	460000	7.63	8.04	152
4	470000	7.26	7.65	145
5	0	8.11	5.85	111
5	-10000	6.62	4.36	82.5
5	-20000	6.21	3.95	74.6
5	-30000	5.93	3.67	69.3
5	-40000	6.8	4.54	85.9
5	-50000	6.36	4.1	77.5
5	-60000	4.74	2.72	51.3
5	-70000	5.46	3.2	60.5
5	-80000	6.54	4.28	80.9
5	-90000	6.3	4.04	76.3
5	-100000	6	3.74	70.6
5	-110000	6.25	3.99	75.5
5	-120000	7.2	4.94	93.3
5	-130000	7.67	5.41	102
5	-140000	7.38	5.12	96.8
5	-150000	7.66	5.4	102
5	-160000	9.18	6.92	131
5	-170000	10.1	7.85	148
5	-180000	9.61	7.35	139
5	-190000	9.56	7.3	138
5	-200000	10.5	8.26	156
5	-210000	10.8	8.56	162
5	-220000	10.1	7.83	148
5	-230000	9.98	7.72	146
5	-240000	10.6	8.34	158
5	-250000	11.1	8.85	167
5	-260000	10.8	8.56	162
5	-270000	10.9	8.61	163
5	-280000	11.6	9.35	177
5	-290000	12	9.72	184
5	-300000	11	8.73	165
5	-310000	10.7	8.46	160
5	-320000	12	9.79	185
5	-330000	11.6	9.35	177
5	-340000	10.6	8.34	158
5	-350000	10.5	8.26	156
5	-360000	11.7	9.49	179
5	-370000	11.3	9.05	171
5	-380000	10	7.76	147
5	-390000	10.4	8.17	154
5	-400000	11.6	9.38	177
5	-410000	11.4	9.1	172
5	-420000	10.8	8.52	161
5	-430000	10.8	8.56	162
5	-440000	11.2	8.97	170
5	-450000	11.2	8.98	170
5	-460000	10.3	8	151
5	-470000	11	8.7	165
5	0	9.55	10.1	190
5	10000	9.13	9.62	182
5	20000	8.56	9.03	171
5	30000	8.87	9.35	177
5	40000	7.75	8.16	154
5	50000	7.74	8.16	154
5	60000	8.49	8.95	169
5	70000	8.55	9.01	170
5	80000	7.07	7.46	141
5	90000	7.55	7.96	150
5	100000	8.49	8.95	169
5	110000	7.87	8.3	157
5	120000	6.84	7.21	136
5	130000	6.72	7.08	134
5	140000	6.78	7.15	135
5	150000	6.35	6.69	126
5	160000	5.75	6.07	115
5	170000	5.82	6.13	116
5	180000	6.55	6.9	130
5	190000	6.35	6.69	126
5	200000	4.98	5.27	99.6
5	210000	5.02	5.31	100
5	220000	5.5	5.79	110
5	230000	5.5	5.8	110
5	240000	4.36	4.65	87.8
5	250000	3.89	4.18	79
5	260000	4.52	4.81	90.9
5	270000	4.13	4.41	83.4
5	280000	3.5	3.79	71.6
5	290000	3.83	4.12	77.8
5	300000	4.63	4.92	92.9
5	310000	5.16	5.44	103
5	320000	4.52	4.81	90.9
5	330000	4.6	4.89	92.4
5	340000	5.34	5.63	106
5	350000	5.42	5.71	108
5	360000	4.97	5.26	99.4
5	370000	5.46	5.76	109
5	380000	6.32	6.66	126
5	390000	6.04	6.37	120
5	400000	5.27	5.56	105
5	410000	5.24	5.53	104
5	420000	6.28	6.62	125
5	430000	6.01	6.34	120
5	440000	5.15	5.43	103
5	450000	5.62	5.92	112
5	460000	6.79	7.16	135
5	470000	6.05	6.38	121
6	0	6.98	4.72	89.2
6	-10000	6.06	3.8	71.8
6	-20000	6.01	3.75	70.9
6	-30000	6.31	4.05	76.5
6	-40000	7.3	5.04	95.3
6	-50000	6.74	4.48	84.7
6	-60000	5.57	3.31	62.5
6	-70000	5.72	3.46	65.4
6	-80000	6.24	3.98	75.2
6	-90000	6.18	3.92	74.1
6	-100000	5.32	3.06	57.8
6	-110000	5.76	3.5	66.1
6	-120000	6.31	4.05	76.6
6	-130000	6.33	4.07	76.9
6	-140000	5.27	3.02	57
6	-150000	5.34	3.08	58.3
6	-160000	6.68	4.42	83.6
6	-170000	6.71	4.45	84.1
6	-180000	5.52	3.26	61.7
6	-190000	5.62	3.36	63.4
6	-200000	7.44	5.18	97.8
6	-210000	8.13	5.87	111
6	-220000	7.47	5.21	98.5
6	-230000	7.12	4.86	91.8
6	-240000	8.18	5.92	112
6	-250000	8.3	6.04	114
6	-260000	7.51	5.25	99.2
6	-270000	7.3	5.04	95.2
6	-280000	8.18	5.92	112
6	-290000	8.53	6.27	119
6	-300000	7.39	5.13	96.9
6	-310000	7.55	5.29	100
6	-320000	9.5	7.24	137
6	-330000	9.71	7.45	141
6	-340000	8.79	6.53	124
6	-350000	8.61	6.35	120
6	-360000	9.23	6.97	132
6	-370000	8.76	6.5	123
6	-380000	7.62	5.36	101
6	-390000	7.93	5.67	107
6	-400000	8.61	6.35	120
6	-410000	8.26	6	113
6	-420000	8.12	5.86	111
6	-430000	8.7	6.44	122
6	-440000	8.58	6.32	119
6	-450000	8.42	6.16	116
6	-460000	7	4.74	89.5
6	-470000	7.75	5.49	104
