rep_num	position	torque	torque_compensated	lbs_compensated
1	0	7.05	7.43	140
1	10000	9.22	9.72	184
1	20000	8.72	9.19	174
1	30000	9.46	9.97	188
1	40000	9.15	9.65	182
1	50000	8.65	9.12	172
1	60000	9.34	9.85	186
1	70000	9.84	10.4	196
1	80000	9.22	9.72	184
1	90000	8.72	9.19	174
1	100000	9.36	9.87	186
1	110000	9.88	10.4	197
1	120000	9.69	10.2	193
1	130000	9.33	9.83	186
1	140000	9.74	10.3	194
1	150000	10.6	11.2	211
1	160000	10.2	10.8	204
1	170000	9.51	10	189
1	180000	9.85	10.4	196
1	190000	10.7	11.3	213
1	200000	9.87	10.4	197
1	210000	9.35	9.86	186
1	220000	9.42	9.93	188
1	230000	8.98	9.47	179
1	240000	9.03	9.52	180
1	250000	8.61	9.07	171
1	260000	8.87	9.35	177
1	270000	9.18	9.68	183
1	280000	8.8	9.28	175
1	290000	7.98	8.41	159
1	300000	8.77	9.25	175
1	310000	9.46	9.97	188
1	320000	8.91	9.39	177
1	330000	8.2	8.64	163
1	340000	8.73	9.2	174
1	350000	9.31	9.81	185
1	360000	8.61	9.08	172
1	370000	8.37	8.82	167
1	380000	9.25	9.75	184
1	390000	9.67	10.2	193
1	400000	9.18	9.68	183
1	410000	8.7	9.18	173
1	420000	8.96	9.45	179
1	430000	9.19	9.69	183
1	440000	9.08	9.57	181
1	450000	8.61	9.08	172
1	460000	8.96	9.45	179
1	470000	8.7	9.17	173
2	0	9.68	7.42	140
2	-10000	11	8.74	165
2	-20000	10.7	8.47	160
2	-30000	11.6	9.29	176
2	-40000	12.9	10.6	201
2	-50000	12.5	10.3	194
2	-60000	12.6	10.4	196
2	-70000	13.7	11.4	215
2	-80000	14.4	12.1	229
2	-90000	13.3	11	209
2	-100000	12.5	10.2	193
2	-110000	12.8	10.6	200
2	-120000	13.5	11.3	213
2	-130000	12.8	10.5	199
2	-140000	12.2	9.94	188
2	-150000	12.9	10.6	201
2	-160000	12.8	10.5	199
2	-170000	11.6	9.36	177
2	-180000	10.8	8.51	161
2	-190000	11.1	8.83	167
2	-200000	11.4	9.19	174
2	-210000	10.6	8.36	158
2	-220000	9.97	7.71	146
2	-230000	11.5	9.26	175
2	-240000	12.3	10	190
2	-250000	11.2	8.94	169
2	-260000	11	8.77	166
2	-270000	11.4	9.18	173
2	-280000	11.5	9.28	175
2	-290000	11.3	9.06	171
2	-300000	10.6	8.36	158
2	-310000	11.2	8.98	170
2	-320000	11.8	9.51	180
2	-330000	10.8	8.55	162
2	-340000	10.3	8.02	151
2	-350000	11.2	8.94	169
2	-360000	12.3	10	189
2	-370000	11.4	9.19	174
2	-380000	11.2	8.96	169
2	-390000	11.8	9.51	180
2	-400000	12.1	9.8	185
2	-410000	10.9	8.69	164
2	-420000	12	9.76	184
2	-430000	13.8	11.6	219
2	-440000	14.5	12.3	232
2	-450000	14.3	12	227
2	-460000	12.6	10.4	196
2	-470000	13.1	10.9	206
2	0	11.4	12	227
2	10000	10.7	11.2	212
2	20000	9.91	10.4	197
2	30000	10.5	11.1	209
2	40000	9.35	9.86	186
2	50000	8.81	9.28	175
2	60000	9.18	9.67	183
2	70000	8.99	9.47	179
2	80000	8.28	8.73	165
2	90000	7.97	8.4	159
2	100000	8.36	8.81	166
2	110000	8.72	9.19	174
2	120000	7.43	7.83	148
2	130000	6.83	7.2	136
2	140000	6.49	6.84	129
2	150000	6.85	7.22	136
2	160000	6.45	6.8	128
2	170000	5.61	5.92	112
2	180000	6.44	6.78	128
2	190000	7.46	7.86	149
2	200000	6.54	6.89	130
2	210000	6.08	6.41	121
2	220000	6.62	6.98	132
2	230000	7.14	7.52	142
2	240000	7.05	7.44	141
2	250000	6.46	6.81	129
2	260000	6.47	6.82	129
2	270000	7.38	7.77	147
2	280000	6.91	7.28	138
2	290000	6.45	6.8	129
2	300000	7.17	7.56	143
2	310000	7.81	8.23	155
2	320000	7.29	7.68	145
2	330000	7.8	8.22	155
2	340000	8.93	9.41	178
2	350000	10.2	10.7	203
2	360000	9.6	10.1	191
2	370000	9.21	9.71	183
2	380000	9.47	9.98	189
2	390000	9.82	10.3	196
2	400000	8.46	8.92	169
2	410000	8.27	8.71	165
2	420000	8.52	8.98	170
2	430000	9.3	9.81	185
2	440000	8.36	8.81	167
2	450000	7.77	8.19	155
2	460000	8.32	8.77	166
2	470000	7.93	8.35	158
3	0	9.08	6.82	129
3	-10000	10.1	7.83	148
3	-20000	8.94	6.68	126
3	-30000	9.81	7.55	143
3	-40000	10.8	8.5	161
3	-50000	10.3	8.01	151
3	-60000	10.6	8.3	157
3	-70000	12	9.69	183
3	-80000	13	10.8	203
3	-90000	12.2	9.97	189
3	-100000	10.8	8.56	162
3	-110000	10.9	8.67	164
3	-120000	11.6	9.38	177
3	-130000	11.3	9.03	171
3	-140000	11.1	8.83	167
3	-150000	12.1	9.8	185
3	-160000	12.9	10.6	200
3	-170000	12	9.7	183
3	-180000	11.5	9.22	174
3	-190000	12.3	10.1	191
3	-200000	12.7	10.5	198
3	-210000	12.2	9.97	188
3	-220000	12.1	9.87	187
3	-230000	12.2	9.99	189
3	-240000	12.2	9.89	187
3	-250000	11.7	9.42	178
3	-260000	11.3	9.03	171
3	-270000	11.8	9.58	181
3	-280000	11.7	9.46	179
3	-290000	11.3	9.08	172
3	-300000	11.3	9.02	171
3	-310000	11.9	9.61	182
3	-320000	12	9.77	185
3	-330000	11.8	9.54	180
3	-340000	11.8	9.51	180
3	-350000	12.3	10.1	190
3	-360000	13	10.8	204
3	-370000	11.4	9.11	172
3	-380000	10.8	8.51	161
3	-390000	11.4	9.16	173
3	-400000	12.3	10	190
3	-410000	11	8.79	166
3	-420000	11.1	8.82	167
3	-430000	12	9.7	183
3	-440000	11.5	9.23	174
3	-450000	10.6	8.36	158
3	-460000	9.73	7.47	141
3	-470000	10.1	7.87	149
3	0	8.55	9.01	170
3	10000	9.01	9.5	180
3	20000	9.03	9.52	180
3	30000	9.74	10.3	194
3	40000	8.56	9.02	171
3	50000	8.01	8.44	160
3	60000	8.26	8.71	165
3	70000	8.57	9.03	171
3	80000	7.77	8.19	155
3	90000	7.44	7.84	148
3	100000	7.67	8.08	153
3	110000	8.67	9.13	173
3	120000	8.59	9.06	171
3	130000	7.8	8.22	155
3	140000	7.75	8.17	154
3	150000	9.02	9.51	180
3	160000	8.9	9.38	177
3	170000	8.19	8.63	163
3	180000	8.21	8.65	164
3	190000	8.74	9.21	174
3	200000	7.84	8.26	156
3	210000	7.33	7.73	146
3	220000	7.5	7.9	149
3	230000	8.01	8.44	160
3	240000	7.39	7.79	147
3	250000	6.44	6.79	128
3	260000	6.88	7.25	137
3	270000	7.68	8.09	153
3	280000	6.96	7.34	139
3	290000	5.89	6.21	117
3	300000	6.51	6.86	130
3	310000	7.42	7.82	148
3	320000	6.62	6.98	132
3	330000	6.05	6.37	120
3	340000	6.79	7.16	135
3	350000	7.82	8.24	156
3	360000	6.85	7.22	136
3	370000	6.41	6.76	128
3	380000	7.36	7.76	147
3	390000	8.02	8.45	160
3	400000	7.29	7.68	145
3	410000	7.12	7.51	142
3	420000	6.4	6.75	128
3	430000	6.88	7.25	137
3	440000	5.87	6.18	117
3	450000	6.14	6.47	122
3	460000	7.11	7.5	142
3	470000	7.05	7.44	141
4	0	7.9	5.64	107
4	-10000	8.09	5.83	110
4	-20000	8.21	5.95	112
4	-30000	8.56	6.3	119
4	-40000	8.68	6.42	121
4	-50000	8.12	5.86	111
4	-60000	8.19	5.93	112
4	-70000	8.72	6.46	122
4	-80000	8.88	6.62	125
4	-90000	7.51	5.25	99.2
4	-100000	7.27	5.01	94.7
4	-110000	8.14	5.88	111
4	-120000	8.67	6.41	121
4	-130000	8.78	6.52	123
4	-140000	9.31	7.05	133
4	-150000	10.3	8.05	152
4	-160000	10.3	8.01	151
4	-170000	9.8	7.54	143
4	-180000	9.57	7.31	138
4	-190000	10.3	8.07	153
4	-200000	10.8	8.55	162
4	-210000	10.2	7.89	149
4	-220000	9.56	7.3	138
4	-230000	10.2	7.99	151
4	-240000	10.5	8.22	155
4	-250000	9.82	7.56	143
4	-260000	9.52	7.26	137
4	-270000	10.1	7.82	148
4	-280000	10.6	8.34	158
4	-290000	10.6	8.36	158
4	-300000	10.7	8.43	159
4	-310000	11.2	8.96	169
4	-320000	11.4	9.15	173
4	-330000	10.6	8.39	159
4	-340000	10.5	8.19	155
4	-350000	10.8	8.53	161
4	-360000	11.5	9.28	175
4	-370000	10.4	8.15	154
4	-380000	10.1	7.86	149
4	-390000	10.7	8.48	160
4	-400000	11.2	8.97	169
4	-410000	10.5	8.24	156
4	-420000	10.4	8.12	153
4	-430000	11.5	9.19	174
4	-440000	11.7	9.44	178
4	-450000	11.3	9.02	170
4	-460000	10.4	8.12	154
4	-470000	11.4	9.18	173
4	0	9.78	10.3	195
4	10000	8.31	8.76	166
4	20000	7.12	7.51	142
4	30000	7.39	7.79	147
4	40000	6.39	6.73	127
4	50000	5.9	6.22	118
4	60000	6.38	6.72	127
4	70000	6.66	7.02	133
4	80000	5.93	6.25	118
4	90000	5.45	5.74	109
4	100000	5.51	5.81	110
4	110000	6.04	6.37	120
4	120000	5.93	6.25	118
4	130000	5.36	5.65	107
4	140000	5.64	5.94	112
4	150000	6.44	6.79	128
4	160000	5.93	6.25	118
4	170000	4.96	5.25	99.2
4	180000	5.16	5.44	103
4	190000	6.08	6.41	121
4	200000	5.35	5.63	106
4	210000	4.69	4.98	94.1
4	220000	4.91	5.2	98.3
4	230000	5.11	5.39	102
4	240000	4.28	4.57	86.4
4	250000	3.66	3.95	74.6
4	260000	4.12	4.41	83.3
4	270000	5.41	5.7	108
4	280000	5.14	5.43	103
4	290000	4.6	4.89	92.4
4	300000	5.11	5.4	102
4	310000	5.49	5.78	109
4	320000	5.25	5.54	105
4	330000	4.76	5.05	95.4
4	340000	5.27	5.56	105
4	350000	5.79	6.11	115
4	360000	4.24	4.53	85.6
4	370000	4.08	4.37	82.5
4	380000	4.41	4.7	88.8
4	390000	4.92	5.21	98.5
4	400000	3.99	4.27	80.8
4	410000	3.9	4.19	79.1
4	420000	4.7	4.98	94.1
4	430000	4.85	5.14	97.1
4	440000	4.76	5.04	95.3
4	450000	4.78	5.07	95.8
4	460000	5.8	6.11	116
4	470000	5.68	5.99	113
5	0	6.98	4.72	89.3
5	-10000	7.05	4.79	90.5
5	-20000	6.23	3.97	75
5	-30000	6.86	4.6	87
5	-40000	7.67	5.41	102
5	-50000	6.52	4.26	80.5
5	-60000	6.1	3.84	72.5
5	-70000	7.02	4.76	90
5	-80000	7.4	5.14	97.2
5	-90000	6.57	4.31	81.4
5	-100000	6	3.74	70.6
5	-110000	6.92	4.66	88.1
5	-120000	8.56	6.3	119
5	-130000	8.74	6.48	123
5	-140000	8.95	6.69	127
5	-150000	9.74	7.48	141
5	-160000	9.7	7.44	141
5	-170000	8.5	6.24	118
5	-180000	8.1	5.84	110
5	-190000	8.7	6.44	122
5	-200000	8.96	6.7	127
5	-210000	8.59	6.33	120
5	-220000	8.15	5.89	111
5	-230000	8.79	6.53	123
5	-240000	9.16	6.9	130
5	-250000	9.19	6.93	131
5	-260000	9.38	7.12	135
5	-270000	10.1	7.82	148
5	-280000	10.8	8.53	161
5	-290000	10.4	8.15	154
5	-300000	10.1	7.83	148
5	-310000	10.8	8.56	162
5	-320000	11.3	9.07	171
5	-330000	10.7	8.41	159
5	-340000	9.54	7.28	138
5	-350000	9.75	7.49	142
5	-360000	10.5	8.21	155
5	-370000	9.69	7.43	140
5	-380000	9.72	7.46	141
5	-390000	10.5	8.26	156
5	-400000	11.1	8.85	167
5	-410000	10.6	8.33	157
5	-420000	10.2	7.95	150
5	-430000	11	8.69	164
5	-440000	11.3	9.06	171
5	-450000	11	8.72	165
5	-460000	10.3	7.99	151
5	-470000	10.9	8.65	164
5	0	9.29	9.79	185
5	10000	7.41	7.81	148
5	20000	6.33	6.68	126
5	30000	6.52	6.87	130
5	40000	5.7	6.01	114
5	50000	4.7	4.99	94.3
5	60000	4.3	4.59	86.7
5	70000	2.76	3.05	57.6
5	80000	0.796	1.08	20.4
5	90000	0.163	0.449	8.48
5	100000	0.591	0.877	16.6
5	110000	1.19	1.47	27.8
5	120000	0.66	0.946	17.9
5	130000	0.308	0.594	11.2
5	140000	1.22	1.51	28.5
5	150000	2.85	3.14	59.4
5	160000	3.68	3.97	75
5	170000	4.26	4.55	85.9
5	180000	5.24	5.52	104
5	190000	6.45	6.8	128
5	200000	6.47	6.82	129
5	210000	5.92	6.24	118
5	220000	6.46	6.81	129
5	230000	6.95	7.33	139
5	240000	6.06	6.39	121
5	250000	5.06	5.35	101
5	260000	5.43	5.72	108
5	270000	6.08	6.41	121
5	280000	5.44	5.73	108
5	290000	4.77	5.06	95.6
5	300000	5.26	5.54	105
5	310000	6.03	6.35	120
5	320000	5.02	5.3	100
5	330000	4.38	4.66	88.2
5	340000	5.03	5.32	100
5	350000	5.03	5.32	100
5	360000	4.47	4.75	89.8
5	370000	3.51	3.8	71.8
5	380000	4.4	4.69	88.6
5	390000	4.95	5.24	99
5	400000	4.04	4.33	81.8
5	410000	3.96	4.25	80.3
5	420000	4.18	4.47	84.4
5	430000	4.89	5.18	97.8
5	440000	4.05	4.33	81.9
5	450000	4.34	4.63	87.4
5	460000	4.95	5.24	99
5	470000	4.89	5.18	97.8
6	0	6.51	4.25	80.2
6	-10000	5.7	3.44	65
6	-20000	4.66	2.67	50.5
6	-30000	4.9	2.81	53
6	-40000	5.59	3.33	63
6	-50000	4.98	2.85	53.9
6	-60000	4.56	2.61	49.4
6	-70000	5.4	3.14	59.4
6	-80000	5.72	3.46	65.4
6	-90000	4.81	2.75	52
6	-100000	4.76	2.73	51.5
6	-110000	5.85	3.59	67.9
6	-120000	6.5	4.24	80.1
6	-130000	6.24	3.98	75.3
6	-140000	6.37	4.11	77.7
6	-150000	7.7	5.44	103
6	-160000	8.23	5.97	113
6	-170000	7.29	5.03	95
6	-180000	6.73	4.47	84.4
6	-190000	7	4.74	89.6
6	-200000	7.09	4.83	91.3
6	-210000	6.6	4.34	82
6	-220000	6.42	4.16	78.6
6	-230000	7.26	5	94.6
6	-240000	7.28	5.02	95
6	-250000	6.8	4.54	85.8
6	-260000	7.2	4.94	93.3
6	-270000	8.32	6.06	115
6	-280000	8.98	6.72	127
6	-290000	8.72	6.46	122
6	-300000	8.5	6.24	118
6	-310000	9.09	6.83	129
6	-320000	9.48	7.22	137
6	-330000	9.45	7.19	136
6	-340000	9.27	7.01	132
6	-350000	10.3	7.99	151
6	-360000	11	8.7	164
6	-370000	9.5	7.24	137
6	-380000	9.3	7.04	133
6	-390000	9.9	7.64	144
6	-400000	10.2	7.96	150
6	-410000	9.51	7.25	137
6	-420000	9.34	7.08	134
6	-430000	10.2	7.93	150
6	-440000	10.3	8.07	152
6	-450000	9.9	7.64	144
6	-460000	8.95	6.69	126
6	-470000	9.52	7.26	137
