rep_num	position	torque	torque_compensated	lbs_compensated
1	0	2.61	2.9	54.8
1	10000	1.67	1.95	36.9
1	20000	0.31	0.596	11.3
1	30000	0.219	0.505	9.55
1	40000	0.485	0.771	14.6
1	50000	0.235	0.521	9.85
1	60000	0.36	0.646	12.2
1	70000	0.228	0.514	9.71
1	80000	0.204	0.49	9.27
1	90000	0.317	0.603	11.4
1	100000	0.636	0.922	17.4
1	110000	0.315	0.601	11.4
1	120000	0.289	0.575	10.9
1	130000	0.517	0.803	15.2
1	140000	0.584	0.87	16.5
1	150000	0.364	0.65	12.3
1	160000	0.326	0.612	11.6
1	170000	0.202	0.488	9.23
1	180000	0.358	0.644	12.2
1	190000	0.284	0.57	10.8
1	200000	0.505	0.791	14.9
1	210000	0.303	0.589	11.1
1	220000	0.24	0.526	9.93
1	230000	0.322	0.608	11.5
1	240000	0.261	0.547	10.3
1	250000	0.27	0.556	10.5
1	260000	0.798	1.08	20.5
1	270000	1.49	1.77	33.5
1	280000	1.91	2.2	41.5
1	290000	2.57	2.85	53.9
1	300000	2.7	2.99	56.4
1	310000	1.94	2.23	42.1
1	320000	1.22	1.51	28.5
1	330000	1.84	2.13	40.2
1	340000	3.25	3.53	66.8
1	350000	4.52	4.81	90.9
1	360000	6.25	6.59	125
1	370000	7.95	8.38	158
1	380000	9.05	9.54	180
1	390000	9.03	9.52	180
1	400000	8.97	9.46	179
1	410000	9.41	9.92	187
1	420000	9.85	10.4	196
1	430000	9.68	10.2	193
1	440000	9.07	9.56	181
1	450000	9.27	9.77	185
1	460000	10.4	11	208
1	470000	9.78	10.3	195
2	0	10.8	8.53	161
2	-10000	12	9.7	183
2	-20000	11.8	9.5	180
2	-30000	11.3	9.01	170
2	-40000	11	8.7	164
2	-50000	10.4	8.12	154
2	-60000	8.59	6.33	120
2	-70000	8.75	6.49	123
2	-80000	8.97	6.71	127
2	-90000	9.23	6.97	132
2	-100000	9.39	7.13	135
2	-110000	9.46	7.2	136
2	-120000	9.7	7.44	141
2	-130000	10.3	8.04	152
2	-140000	10.1	7.8	147
2	-150000	9.99	7.73	146
2	-160000	10.5	8.22	155
2	-170000	10.7	8.42	159
2	-180000	10.4	8.09	153
2	-190000	10.3	8.05	152
2	-200000	10.8	8.52	161
2	-210000	11.5	9.26	175
2	-220000	11.3	9.06	171
2	-230000	11.6	9.37	177
2	-240000	12.3	10.1	190
2	-250000	13.4	11.2	211
2	-260000	13.9	11.7	220
2	-270000	13.7	11.4	215
2	-280000	13.6	11.4	215
2	-290000	14	11.8	223
2	-300000	12.8	10.5	199
2	-310000	11.6	9.36	177
2	-320000	12	9.76	184
2	-330000	11.7	9.47	179
2	-340000	11.2	8.95	169
2	-350000	10.5	8.25	156
2	-360000	11	8.76	166
2	-370000	11.2	8.95	169
2	-380000	10.4	8.16	154
2	-390000	10.4	8.1	153
2	-400000	10.8	8.5	161
2	-410000	10.9	8.62	163
2	-420000	11.4	9.1	172
2	-430000	11.9	9.63	182
2	-440000	12.4	10.2	193
2	-450000	12.2	9.95	188
2	-460000	11.8	9.49	179
2	-470000	11.8	9.49	179
2	0	10.1	10.6	200
2	10000	10.1	10.7	202
2	20000	10	10.6	200
2	30000	10	10.5	199
2	40000	8.57	9.04	171
2	50000	8.82	9.3	176
2	60000	9.4	9.91	187
2	70000	9.24	9.74	184
2	80000	8.86	9.34	177
2	90000	9.15	9.65	182
2	100000	9.32	9.83	186
2	110000	8	8.43	159
2	120000	7.66	8.07	153
2	130000	7.72	8.14	154
2	140000	7.24	7.63	144
2	150000	6.9	7.28	138
2	160000	7.78	8.2	155
2	170000	7.9	8.33	157
2	180000	7.82	8.24	156
2	190000	8.23	8.68	164
2	200000	7.12	7.5	142
2	210000	7.5	7.91	149
2	220000	7.14	7.52	142
2	230000	6.48	6.83	129
2	240000	5.81	6.12	116
2	250000	6.28	6.61	125
2	260000	6.67	7.04	133
2	270000	6.43	6.78	128
2	280000	6.3	6.64	125
2	290000	5.99	6.31	119
2	300000	6.78	7.15	135
2	310000	5.81	6.13	116
2	320000	6.37	6.72	127
2	330000	7.15	7.54	142
2	340000	7.96	8.39	159
2	350000	7.85	8.27	156
2	360000	7.57	7.98	151
2	370000	8.48	8.94	169
2	380000	9.05	9.54	180
2	390000	8.26	8.71	165
2	400000	7.44	7.85	148
2	410000	7.81	8.23	156
2	420000	8.72	9.19	174
2	430000	8.34	8.8	166
2	440000	8.55	9.02	170
2	450000	8.73	9.2	174
2	460000	8.95	9.44	178
2	470000	7.74	8.16	154
3	0	8.45	6.19	117
3	-10000	8.1	5.84	110
3	-20000	7.89	5.63	106
3	-30000	7.37	5.11	96.6
3	-40000	9.55	7.29	138
3	-50000	10.3	8.08	153
3	-60000	10.8	8.55	162
3	-70000	10.9	8.68	164
3	-80000	11.3	9.05	171
3	-90000	11.6	9.37	177
3	-100000	11.2	8.93	169
3	-110000	11.3	9.07	171
3	-120000	11.4	9.09	172
3	-130000	11.7	9.46	179
3	-140000	11.9	9.64	182
3	-150000	11.5	9.24	175
3	-160000	11.1	8.82	167
3	-170000	11.3	9.04	171
3	-180000	10.8	8.54	161
3	-190000	10.5	8.26	156
3	-200000	11.2	8.94	169
3	-210000	11.5	9.22	174
3	-220000	10.7	8.47	160
3	-230000	10.5	8.23	156
3	-240000	10.9	8.68	164
3	-250000	11.8	9.49	179
3	-260000	11.6	9.33	176
3	-270000	11.2	8.9	168
3	-280000	11.1	8.87	168
3	-290000	11.6	9.37	177
3	-300000	11.2	8.99	170
3	-310000	11.1	8.8	166
3	-320000	11.9	9.64	182
3	-330000	11.1	8.85	167
3	-340000	10.5	8.2	155
3	-350000	10.4	8.1	153
3	-360000	10.3	8.03	152
3	-370000	10.5	8.22	155
3	-380000	10.1	7.81	148
3	-390000	10.1	7.87	149
3	-400000	10.2	7.91	149
3	-410000	10.2	7.92	150
3	-420000	10.1	7.88	149
3	-430000	10.6	8.32	157
3	-440000	11.2	8.91	168
3	-450000	11.4	9.19	174
3	-460000	11.4	9.13	173
3	-470000	11.9	9.65	182
3	0	10.2	10.7	202
3	10000	8.69	9.16	173
3	20000	9.11	9.6	181
3	30000	8.52	8.98	170
3	40000	7.6	8.01	151
3	50000	8.27	8.72	165
3	60000	8.73	9.21	174
3	70000	8.09	8.53	161
3	80000	6.92	7.29	138
3	90000	7.33	7.73	146
3	100000	6.94	7.32	138
3	110000	6.13	6.47	122
3	120000	5.62	5.93	112
3	130000	5.81	6.12	116
3	140000	5.84	6.15	116
3	150000	5.05	5.34	101
3	160000	5.54	5.84	110
3	170000	6.24	6.58	124
3	180000	6.09	6.42	121
3	190000	5.63	5.94	112
3	200000	5.57	5.87	111
3	210000	6.29	6.63	125
3	220000	7.04	7.42	140
3	230000	7.22	7.61	144
3	240000	7.07	7.46	141
3	250000	6.85	7.22	137
3	260000	7.12	7.5	142
3	270000	7.06	7.44	141
3	280000	7.37	7.77	147
3	290000	7.73	8.15	154
3	300000	8.14	8.58	162
3	310000	7.62	8.03	152
3	320000	7.7	8.11	153
3	330000	7.6	8.01	151
3	340000	7.95	8.38	158
3	350000	7.19	7.58	143
3	360000	6.26	6.59	125
3	370000	6.71	7.08	134
3	380000	7.31	7.7	146
3	390000	5.98	6.3	119
3	400000	5.88	6.2	117
3	410000	6.14	6.47	122
3	420000	6.76	7.12	135
3	430000	6.2	6.54	124
3	440000	5.59	5.89	111
3	450000	5.9	6.22	118
3	460000	6.05	6.38	121
3	470000	5.63	5.94	112
4	0	6.85	4.59	86.8
4	-10000	5.95	3.69	69.8
4	-20000	5.75	3.49	66
4	-30000	5.9	3.64	68.7
4	-40000	7.44	5.18	98
4	-50000	7.36	5.1	96.5
4	-60000	6.52	4.26	80.6
4	-70000	6.59	4.33	81.8
4	-80000	6.78	4.52	85.4
4	-90000	7.3	5.04	95.3
4	-100000	7.51	5.25	99.3
4	-110000	7.9	5.64	107
4	-120000	8	5.74	108
4	-130000	8.23	5.97	113
4	-140000	7.8	5.54	105
4	-150000	7.39	5.13	96.9
4	-160000	7.85	5.59	106
4	-170000	8.48	6.22	118
4	-180000	8.36	6.1	115
4	-190000	8.59	6.33	120
4	-200000	9.05	6.79	128
4	-210000	9.69	7.43	140
4	-220000	9.94	7.68	145
4	-230000	9.79	7.53	142
4	-240000	10.4	8.11	153
4	-250000	11	8.77	166
4	-260000	11.2	8.93	169
4	-270000	10.5	8.24	156
4	-280000	10.7	8.44	159
4	-290000	11.7	9.44	178
4	-300000	11	8.74	165
4	-310000	10.2	7.99	151
4	-320000	10.9	8.6	163
4	-330000	11.3	9.04	171
4	-340000	10.6	8.29	157
4	-350000	10	7.75	147
4	-360000	10.3	8.03	152
4	-370000	10.6	8.34	158
4	-380000	9.86	7.6	144
4	-390000	9.5	7.24	137
4	-400000	10.4	8.17	154
4	-410000	10.9	8.64	163
4	-420000	10.5	8.22	155
4	-430000	10.1	7.88	149
4	-440000	10.3	8.07	153
4	-450000	10.3	8.03	152
4	-460000	9.74	7.48	141
4	-470000	9.73	7.47	141
4	0	8.6	9.07	171
4	10000	7.57	7.98	151
4	20000	7.55	7.95	150
4	30000	7.99	8.42	159
4	40000	7.84	8.27	156
4	50000	7.92	8.35	158
4	60000	7.7	8.11	153
4	70000	6.61	6.97	132
4	80000	6.11	6.44	122
4	90000	6.75	7.11	134
4	100000	6.87	7.24	137
4	110000	5.71	6.02	114
4	120000	5.48	5.77	109
4	130000	6.13	6.46	122
4	140000	5.98	6.31	119
4	150000	5.29	5.58	105
4	160000	5.5	5.8	110
4	170000	5.69	5.99	113
4	180000	5.8	6.11	116
4	190000	5.92	6.24	118
4	200000	5.33	5.62	106
4	210000	5.69	5.99	113
4	220000	5.92	6.24	118
4	230000	5.27	5.56	105
4	240000	4.75	5.03	95.1
4	250000	5.12	5.4	102
4	260000	5.62	5.92	112
4	270000	4.73	5.02	94.8
4	280000	4.66	4.95	93.6
4	290000	4.98	5.26	99.5
4	300000	5.05	5.34	101
4	310000	4.76	5.05	95.4
4	320000	4.97	5.26	99.3
4	330000	4.88	5.17	97.7
4	340000	5.22	5.5	104
4	350000	5.22	5.5	104
4	360000	5.05	5.34	101
4	370000	5.19	5.48	104
4	380000	5.27	5.55	105
4	390000	5.27	5.56	105
4	400000	5.08	5.37	101
4	410000	5.74	6.05	114
4	420000	6.6	6.96	132
4	430000	6.13	6.46	122
4	440000	5.87	6.19	117
4	450000	5.61	5.91	112
4	460000	6.44	6.79	128
4	470000	4.93	5.22	98.7
5	0	5.86	3.6	68
5	-10000	6.47	4.21	79.5
5	-20000	6.19	3.93	74.3
5	-30000	6.01	3.75	70.9
5	-40000	6.66	4.4	83.2
5	-50000	6.69	4.43	83.8
5	-60000	5.9	3.64	68.7
5	-70000	5.8	3.54	66.9
5	-80000	6.08	3.82	72.3
5	-90000	6.19	3.93	74.3
5	-100000	5.92	3.66	69.2
5	-110000	5.62	3.36	63.5
5	-120000	6.11	3.85	72.8
5	-130000	7.2	4.94	93.3
5	-140000	7.63	5.37	101
5	-150000	7.83	5.57	105
5	-160000	8.28	6.02	114
5	-170000	8.12	5.86	111
5	-180000	7.28	5.02	94.9
5	-190000	6.76	4.5	85
5	-200000	7.62	5.36	101
5	-210000	8.25	5.99	113
5	-220000	8.22	5.96	113
5	-230000	8.12	5.86	111
5	-240000	8.82	6.56	124
5	-250000	9.9	7.64	144
5	-260000	10.3	8.05	152
5	-270000	9.98	7.72	146
5	-280000	10.4	8.17	154
5	-290000	11.1	8.86	168
5	-300000	10.6	8.39	159
5	-310000	10.2	7.97	151
5	-320000	10.7	8.44	160
5	-330000	11	8.72	165
5	-340000	10.1	7.89	149
5	-350000	9.76	7.5	142
5	-360000	10	7.76	147
5	-370000	10.2	7.92	150
5	-380000	9.76	7.5	142
5	-390000	9.57	7.31	138
5	-400000	10.1	7.83	148
5	-410000	10.2	7.94	150
5	-420000	10.1	7.88	149
5	-430000	10.2	7.93	150
5	-440000	10.3	8.08	153
5	-450000	10.1	7.81	148
5	-460000	9.75	7.49	141
5	-470000	9.45	7.19	136
5	0	7.92	8.34	158
5	10000	7.19	7.58	143
5	20000	7.19	7.58	143
5	30000	6.74	7.1	134
5	40000	6.07	6.4	121
5	50000	5.92	6.23	118
5	60000	6.14	6.47	122
5	70000	5.57	5.87	111
5	80000	5.58	5.89	111
5	90000	6.14	6.48	122
5	100000	6.36	6.71	127
5	110000	5.33	5.62	106
5	120000	4.82	5.1	96.4
5	130000	4.98	5.27	99.5
5	140000	4.94	5.23	98.8
5	150000	4.36	4.64	87.8
5	160000	4.21	4.5	85
5	170000	4.72	5	94.5
5	180000	4.75	5.03	95.2
5	190000	4.38	4.67	88.3
5	200000	3.93	4.22	79.7
5	210000	4.19	4.48	84.6
5	220000	4.27	4.55	86
5	230000	3.89	4.17	78.9
5	240000	3.53	3.82	72.2
5	250000	3.71	3.99	75.5
5	260000	3.68	3.96	74.9
5	270000	2.63	2.92	55.2
5	280000	2.88	3.17	59.9
5	290000	3.87	4.15	78.5
5	300000	4.62	4.91	92.8
5	310000	4.67	4.95	93.6
5	320000	4.7	4.99	94.3
5	330000	5.03	5.31	100
5	340000	5.79	6.1	115
5	350000	5.46	5.75	109
5	360000	4.99	5.28	99.7
5	370000	5.17	5.46	103
5	380000	5.26	5.55	105
5	390000	4.42	4.71	89
5	400000	4.17	4.46	84.3
5	410000	4.05	4.34	82
5	420000	4.66	4.94	93.4
5	430000	3.95	4.24	80.1
5	440000	4.18	4.47	84.5
5	450000	4.69	4.97	94
5	460000	5.42	5.71	108
5	470000	4.16	4.44	84
6	0	5.21	2.99	56.5
6	-10000	6.07	3.81	72.1
6	-20000	5.81	3.55	67.1
6	-30000	5.32	3.06	57.8
6	-40000	5.6	3.34	63.1
6	-50000	6.3	4.04	76.3
6	-60000	6.51	4.25	80.3
6	-70000	7.13	4.87	92.1
6	-80000	7.16	4.9	92.6
6	-90000	7.38	5.12	96.8
6	-100000	7.01	4.75	89.7
6	-110000	6.55	4.29	81
6	-120000	6.11	3.85	72.7
6	-130000	7.03	4.77	90.2
6	-140000	6.69	4.43	83.8
6	-150000	6.76	4.5	85.1
6	-160000	7.07	4.81	90.9
6	-170000	7.35	5.09	96.3
6	-180000	7.12	4.86	91.9
6	-190000	7.47	5.21	98.5
6	-200000	8.27	6.01	114
6	-210000	9.11	6.85	129
6	-220000	9.19	6.93	131
6	-230000	8.93	6.67	126
6	-240000	9.28	7.02	133
6	-250000	10	7.77	147
6	-260000	10.2	7.99	151
6	-270000	9.93	7.67	145
6	-280000	10.1	7.88	149
6	-290000	11.2	8.94	169
6	-300000	10.3	8.08	153
6	-310000	9.82	7.56	143
6	-320000	10.7	8.39	159
6	-330000	10.7	8.42	159
6	-340000	10.3	8.05	152
6	-350000	9.92	7.66	145
6	-360000	10.6	8.35	158
6	-370000	10.9	8.67	164
6	-380000	10.2	7.93	150
6	-390000	9.83	7.57	143
6	-400000	9.98	7.72	146
6	-410000	10.2	7.9	149
6	-420000	10.3	8.06	152
6	-430000	10.5	8.26	156
6	-440000	10.7	8.43	159
6	-450000	10.4	8.18	155
6	-460000	10	7.74	146
6	-470000	9.74	7.48	141
