rep_num	position	torque	torque_compensated	lbs_compensated
1	0	7.05	7.44	141
1	10000	8.14	8.58	162
1	20000	8.19	8.64	163
1	30000	8.47	8.93	169
1	40000	8.32	8.77	166
1	50000	8.03	8.47	160
1	60000	8.86	9.34	176
1	70000	9.42	9.93	188
1	80000	8.92	9.4	178
1	90000	8.79	9.27	175
1	100000	9.3	9.8	185
1	110000	9.16	9.66	183
1	120000	8.67	9.14	173
1	130000	8.95	9.44	178
1	140000	9.38	9.88	187
1	150000	9.17	9.67	183
1	160000	8.6	9.07	171
1	170000	8.52	8.98	170
1	180000	8.74	9.21	174
1	190000	8.76	9.24	175
1	200000	8.58	9.05	171
1	210000	8.53	9	170
1	220000	8.86	9.34	177
1	230000	8.96	9.44	178
1	240000	8.34	8.79	166
1	250000	8.71	9.18	174
1	260000	9.43	9.94	188
1	270000	9.32	9.83	186
1	280000	9.5	10	189
1	290000	9.98	10.5	199
1	300000	10.4	11	208
1	310000	10.1	10.6	200
1	320000	9.31	9.81	185
1	330000	9.44	9.95	188
1	340000	9.79	10.3	195
1	350000	9.42	9.93	188
1	360000	9.21	9.71	184
1	370000	9.18	9.68	183
1	380000	9.59	10.1	191
1	390000	9.52	10	190
1	400000	8.52	8.98	170
1	410000	8.6	9.07	171
1	420000	9.25	9.75	184
1	430000	8.72	9.19	174
1	440000	8.24	8.69	164
1	450000	8.27	8.71	165
1	460000	9.21	9.71	183
1	470000	9.02	9.51	180
2	0	10.2	7.98	151
2	-10000	11.2	8.91	168
2	-20000	11.1	8.8	166
2	-30000	11.1	8.82	167
2	-40000	11.2	8.9	168
2	-50000	11	8.78	166
2	-60000	10.5	8.25	156
2	-70000	10.6	8.38	158
2	-80000	11.2	8.91	168
2	-90000	11.6	9.33	176
2	-100000	11.7	9.39	178
2	-110000	12	9.72	184
2	-120000	12.1	9.88	187
2	-130000	12.9	10.6	201
2	-140000	13.1	10.9	206
2	-150000	13	10.8	204
2	-160000	13.6	11.4	215
2	-170000	12.9	10.6	201
2	-180000	12.5	10.2	194
2	-190000	12.8	10.5	199
2	-200000	13.1	10.8	204
2	-210000	12.5	10.3	194
2	-220000	11.8	9.5	180
2	-230000	11.8	9.5	180
2	-240000	12.6	10.3	195
2	-250000	12.9	10.6	201
2	-260000	12.4	10.1	191
2	-270000	12	9.69	183
2	-280000	12	9.76	185
2	-290000	12.1	9.85	186
2	-300000	11.3	9.02	170
2	-310000	11.8	9.58	181
2	-320000	13.1	10.8	205
2	-330000	12.3	10	189
2	-340000	11.3	9.02	171
2	-350000	11.2	8.93	169
2	-360000	11.1	8.84	167
2	-370000	11.1	8.81	166
2	-380000	10.5	8.23	156
2	-390000	10.5	8.26	156
2	-400000	10.5	8.2	155
2	-410000	10.6	8.38	158
2	-420000	11.1	8.81	167
2	-430000	11.7	9.46	179
2	-440000	12	9.75	184
2	-450000	12	9.71	184
2	-460000	11.5	9.27	175
2	-470000	11.6	9.37	177
2	0	9.72	10.2	194
2	10000	9.91	10.4	197
2	20000	9.37	9.87	187
2	30000	8.85	9.33	176
2	40000	8.46	8.91	168
2	50000	8.03	8.47	160
2	60000	8.5	8.96	169
2	70000	8.65	9.12	172
2	80000	8.15	8.59	162
2	90000	8.32	8.77	166
2	100000	9.53	10	190
2	110000	9.41	9.92	187
2	120000	8.52	8.98	170
2	130000	8.53	8.99	170
2	140000	9.57	10.1	191
2	150000	9.41	9.92	187
2	160000	9.02	9.5	180
2	170000	8.73	9.2	174
2	180000	9.35	9.85	186
2	190000	9.3	9.8	185
2	200000	9.03	9.52	180
2	210000	9	9.49	179
2	220000	9.5	10	189
2	230000	9.76	10.3	195
2	240000	8.42	8.88	168
2	250000	8.41	8.87	168
2	260000	8.99	9.47	179
2	270000	8.74	9.21	174
2	280000	8.75	9.22	174
2	290000	8.63	9.1	172
2	300000	8.92	9.4	178
2	310000	9.09	9.58	181
2	320000	8.68	9.15	173
2	330000	8.27	8.71	165
2	340000	8.7	9.17	173
2	350000	8.47	8.93	169
2	360000	7.9	8.33	157
2	370000	7.37	7.77	147
2	380000	7.76	8.18	155
2	390000	7.64	8.05	152
2	400000	6.98	7.36	139
2	410000	7.41	7.81	148
2	420000	8.08	8.51	161
2	430000	7.17	7.56	143
2	440000	6.37	6.71	127
2	450000	6.51	6.86	130
2	460000	7.17	7.55	143
2	470000	7.11	7.49	142
3	0	8.32	6.06	115
3	-10000	9.99	7.73	146
3	-20000	10.3	8.06	152
3	-30000	10.8	8.52	161
3	-40000	10.7	8.41	159
3	-50000	10.7	8.4	159
3	-60000	10.2	7.94	150
3	-70000	10.4	8.14	154
3	-80000	10.3	8.04	152
3	-90000	10.3	8.06	152
3	-100000	9.99	7.73	146
3	-110000	9.97	7.71	146
3	-120000	10.3	8.08	153
3	-130000	10.6	8.37	158
3	-140000	10.4	8.11	153
3	-150000	9.9	7.64	144
3	-160000	10	7.74	146
3	-170000	10.5	8.22	155
3	-180000	10.3	8.08	153
3	-190000	10.4	8.12	154
3	-200000	10.9	8.62	163
3	-210000	10.9	8.67	164
3	-220000	11.2	8.97	170
3	-230000	11.4	9.17	173
3	-240000	12	9.76	185
3	-250000	12.2	9.92	188
3	-260000	12.4	10.1	191
3	-270000	11.8	9.55	181
3	-280000	11.8	9.59	181
3	-290000	12.6	10.3	195
3	-300000	12.2	9.94	188
3	-310000	11.5	9.21	174
3	-320000	12.2	9.9	187
3	-330000	11.7	9.43	178
3	-340000	11.3	9.04	171
3	-350000	11.3	9.03	171
3	-360000	11	8.7	164
3	-370000	10.9	8.68	164
3	-380000	10.3	8.01	151
3	-390000	10.4	8.12	153
3	-400000	11	8.78	166
3	-410000	11.2	8.97	169
3	-420000	11.3	9.03	171
3	-430000	11.1	8.86	168
3	-440000	11.3	9.07	171
3	-450000	12	9.75	184
3	-460000	11.2	8.99	170
3	-470000	11	8.73	165
3	0	8.83	9.31	176
3	10000	9.02	9.5	180
3	20000	8.87	9.35	177
3	30000	9.16	9.65	182
3	40000	8.72	9.19	174
3	50000	7.83	8.25	156
3	60000	8.23	8.67	164
3	70000	8.18	8.62	163
3	80000	7	7.38	139
3	90000	7.66	8.07	153
3	100000	8.77	9.25	175
3	110000	8.61	9.07	172
3	120000	8.27	8.71	165
3	130000	8.73	9.2	174
3	140000	8.86	9.34	176
3	150000	8.3	8.75	165
3	160000	7.98	8.42	159
3	170000	8.18	8.62	163
3	180000	8.65	9.11	172
3	190000	8.24	8.68	164
3	200000	7.95	8.38	158
3	210000	8.11	8.55	162
3	220000	8.32	8.77	166
3	230000	8.36	8.82	167
3	240000	7.65	8.06	152
3	250000	7.81	8.24	156
3	260000	8.56	9.02	171
3	270000	8.96	9.45	179
3	280000	8.93	9.41	178
3	290000	8.63	9.09	172
3	300000	8.86	9.34	177
3	310000	8.76	9.23	175
3	320000	7.95	8.38	158
3	330000	7.66	8.08	153
3	340000	8.31	8.76	166
3	350000	8.19	8.63	163
3	360000	7.29	7.68	145
3	370000	7.29	7.68	145
3	380000	8.59	9.06	171
3	390000	8.88	9.36	177
3	400000	7.96	8.39	158
3	410000	8.01	8.44	159
3	420000	8.32	8.77	166
3	430000	7.45	7.85	148
3	440000	7.01	7.39	140
3	450000	7.31	7.71	146
3	460000	8.28	8.73	165
3	470000	7.59	8	151
4	0	8.99	6.73	127
4	-10000	10.2	7.97	151
4	-20000	10.6	8.38	158
4	-30000	10.9	8.69	164
4	-40000	11.1	8.86	168
4	-50000	11.2	8.97	170
4	-60000	10.9	8.69	164
4	-70000	11.4	9.1	172
4	-80000	11.3	9.09	172
4	-90000	10.9	8.67	164
4	-100000	10.5	8.2	155
4	-110000	10.2	7.91	150
4	-120000	10.4	8.12	153
4	-130000	10.7	8.46	160
4	-140000	10.3	8.01	151
4	-150000	9.96	7.7	145
4	-160000	10.3	8.02	152
4	-170000	10.2	7.99	151
4	-180000	10.3	8.08	153
4	-190000	10.7	8.44	160
4	-200000	11.1	8.83	167
4	-210000	10.9	8.66	164
4	-220000	10.6	8.36	158
4	-230000	10.5	8.27	156
4	-240000	10.9	8.66	164
4	-250000	11.1	8.81	166
4	-260000	10.8	8.55	162
4	-270000	10.2	7.92	150
4	-280000	10.1	7.88	149
4	-290000	10.8	8.53	161
4	-300000	10.8	8.59	162
4	-310000	11.3	9.05	171
4	-320000	12.3	10	189
4	-330000	11.6	9.31	176
4	-340000	11	8.72	165
4	-350000	11.1	8.84	167
4	-360000	10.8	8.58	162
4	-370000	10.7	8.41	159
4	-380000	10.1	7.79	147
4	-390000	10.1	7.88	149
4	-400000	10.7	8.47	160
4	-410000	10.7	8.44	159
4	-420000	10.8	8.52	161
4	-430000	11	8.7	164
4	-440000	11.2	8.9	168
4	-450000	11.4	9.18	174
4	-460000	10.9	8.63	163
4	-470000	10.6	8.38	158
4	0	9.04	9.53	180
4	10000	8.44	8.9	168
4	20000	7.78	8.2	155
4	30000	7.83	8.25	156
4	40000	7.31	7.7	146
4	50000	6.83	7.2	136
4	60000	7.52	7.93	150
4	70000	7.78	8.2	155
4	80000	7.34	7.73	146
4	90000	7.34	7.73	146
4	100000	7.94	8.37	158
4	110000	7.29	7.68	145
4	120000	6.79	7.16	135
4	130000	7.36	7.76	147
4	140000	7.9	8.32	157
4	150000	7.44	7.84	148
4	160000	7.01	7.38	140
4	170000	6.43	6.77	128
4	180000	6.32	6.67	126
4	190000	5.75	6.06	115
4	200000	5.76	6.07	115
4	210000	5.66	5.97	113
4	220000	5.28	5.57	105
4	230000	4.82	5.11	96.5
4	240000	4.12	4.41	83.3
4	250000	4.69	4.97	94
4	260000	5.2	5.49	104
4	270000	5.28	5.57	105
4	280000	5.02	5.3	100
4	290000	5.18	5.47	103
4	300000	5.43	5.73	108
4	310000	5.77	6.09	115
4	320000	5.56	5.86	111
4	330000	5.28	5.56	105
4	340000	5.31	5.6	106
4	350000	5.79	6.1	115
4	360000	5.55	5.85	111
4	370000	5.08	5.37	102
4	380000	5.36	5.65	107
4	390000	5.63	5.93	112
4	400000	5.46	5.76	109
4	410000	5.82	6.13	116
4	420000	6.83	7.2	136
4	430000	6.54	6.9	130
4	440000	6.08	6.41	121
4	450000	6.37	6.71	127
4	460000	7.14	7.53	142
4	470000	6.73	7.09	134
5	0	7.61	5.35	101
5	-10000	7.13	4.87	92.1
5	-20000	6.57	4.31	81.5
5	-30000	5.97	3.71	70.1
5	-40000	5.77	3.51	66.3
5	-50000	5.61	3.35	63.4
5	-60000	5.01	2.87	54.2
5	-70000	5.65	3.39	64.1
5	-80000	7.31	5.05	95.5
5	-90000	7.12	4.86	91.8
5	-100000	6.49	4.23	79.9
5	-110000	6.5	4.24	80.1
5	-120000	7.38	5.12	96.8
5	-130000	7.99	5.73	108
5	-140000	8.03	5.77	109
5	-150000	7.84	5.58	106
5	-160000	8.31	6.05	114
5	-170000	7.99	5.73	108
5	-180000	7.69	5.43	103
5	-190000	7.72	5.46	103
5	-200000	8.04	5.78	109
5	-210000	8.09	5.83	110
5	-220000	8.24	5.98	113
5	-230000	8.15	5.89	111
5	-240000	8.83	6.57	124
5	-250000	9.26	7	132
5	-260000	9.2	6.94	131
5	-270000	9.14	6.88	130
5	-280000	9.74	7.48	141
5	-290000	10.5	8.2	155
5	-300000	9.82	7.56	143
5	-310000	9.76	7.5	142
5	-320000	10.5	8.23	155
5	-330000	10.3	8.01	151
5	-340000	9.63	7.37	139
5	-350000	9.78	7.52	142
5	-360000	10.2	7.92	150
5	-370000	10.3	8.03	152
5	-380000	9.8	7.54	143
5	-390000	9.81	7.55	143
5	-400000	9.82	7.56	143
5	-410000	9.88	7.62	144
5	-420000	9.91	7.65	145
5	-430000	10.4	8.11	153
5	-440000	10.6	8.33	157
5	-450000	10.3	8.02	152
5	-460000	9.69	7.43	140
5	-470000	9.55	7.29	138
5	0	8.01	8.44	160
5	10000	7.37	7.76	147
5	20000	6.98	7.36	139
5	30000	6.85	7.22	136
5	40000	6.08	6.41	121
5	50000	5.65	5.95	112
5	60000	5.89	6.2	117
5	70000	5.49	5.79	109
5	80000	4.78	5.07	95.7
5	90000	4.98	5.27	99.5
5	100000	5.09	5.38	102
5	110000	4.46	4.75	89.8
5	120000	4.14	4.43	83.7
5	130000	4.61	4.9	92.5
5	140000	4.71	5	94.4
5	150000	4.24	4.52	85.5
5	160000	4.02	4.31	81.4
5	170000	4.03	4.31	81.5
5	180000	3.96	4.25	80.3
5	190000	3.76	4.05	76.5
5	200000	3.11	3.4	64.2
5	210000	3.68	3.97	75
5	220000	3.8	4.09	77.3
5	230000	4.08	4.37	82.6
5	240000	3.39	3.68	69.5
5	250000	3.4	3.68	69.6
5	260000	3.61	3.89	73.6
5	270000	3.21	3.49	66
5	280000	3.09	3.37	63.7
5	290000	3.32	3.61	68.1
5	300000	3.54	3.83	72.4
5	310000	3.57	3.86	72.9
5	320000	3.48	3.77	71.2
5	330000	3.2	3.48	65.8
5	340000	3.38	3.67	69.4
5	350000	3.53	3.82	72.2
5	360000	3.55	3.84	72.5
5	370000	4.1	4.39	82.9
5	380000	5.03	5.32	100
5	390000	5.13	5.42	102
5	400000	4.7	4.99	94.2
5	410000	4.92	5.21	98.5
5	420000	5.66	5.96	113
5	430000	5.31	5.6	106
5	440000	4.82	5.11	96.5
5	450000	5.41	5.71	108
5	460000	5.86	6.18	117
5	470000	5.19	5.48	104
6	0	6.59	4.33	81.8
6	-10000	6.36	4.1	77.5
6	-20000	6.47	4.21	79.6
6	-30000	6.73	4.47	84.5
6	-40000	6.62	4.36	82.4
6	-50000	5.97	3.71	70
6	-60000	5.35	3.09	58.5
6	-70000	5.23	3	56.7
6	-80000	5.54	3.28	62.1
6	-90000	5.34	3.08	58.1
6	-100000	5.04	2.89	54.5
6	-110000	5.6	3.34	63.1
6	-120000	5.98	3.72	70.3
6	-130000	5.73	3.47	65.6
6	-140000	5.06	2.9	54.8
6	-150000	4.93	2.82	53.4
6	-160000	5.68	3.42	64.6
6	-170000	6.12	3.86	73
6	-180000	6.2	3.94	74.5
6	-190000	6.56	4.3	81.3
6	-200000	7.31	5.05	95.5
6	-210000	7.65	5.39	102
6	-220000	7.04	4.78	90.4
6	-230000	6.49	4.23	79.9
6	-240000	6.68	4.42	83.5
6	-250000	7.2	4.94	93.3
6	-260000	7.24	4.98	94.1
6	-270000	6.93	4.67	88.3
6	-280000	7.32	5.06	95.6
6	-290000	7.57	5.31	100
6	-300000	7.19	4.93	93.1
6	-310000	7.16	4.9	92.6
6	-320000	7.85	5.59	106
6	-330000	7.94	5.68	107
6	-340000	7.75	5.49	104
6	-350000	8.73	6.47	122
6	-360000	8.93	6.67	126
6	-370000	9.01	6.75	128
6	-380000	8.73	6.47	122
6	-390000	9.05	6.79	128
6	-400000	9.61	7.35	139
6	-410000	9.88	7.62	144
6	-420000	9.9	7.64	144
6	-430000	10.3	8.04	152
6	-440000	10.5	8.2	155
6	-450000	10.6	8.33	157
6	-460000	9.77	7.51	142
6	-470000	9.42	7.16	135
