rep_num	position	torque	torque_compensated	lbs_compensated
1	0	7.77	8.19	155
1	10000	8.72	9.19	174
1	20000	8.4	8.85	167
1	30000	9.13	9.62	182
1	40000	9.09	9.59	181
1	50000	8.64	9.1	172
1	60000	8.87	9.35	177
1	70000	8.77	9.25	175
1	80000	8.8	9.28	175
1	90000	8.4	8.86	167
1	100000	8.65	9.11	172
1	110000	8.73	9.21	174
1	120000	8.76	9.23	175
1	130000	8.92	9.4	178
1	140000	8.39	8.84	167
1	150000	8.46	8.92	169
1	160000	8.86	9.34	176
1	170000	8.48	8.94	169
1	180000	8.1	8.53	161
1	190000	8.51	8.97	169
1	200000	8.39	8.85	167
1	210000	8.34	8.79	166
1	220000	8.14	8.58	162
1	230000	8.71	9.18	174
1	240000	8.77	9.24	175
1	250000	8.23	8.68	164
1	260000	8.25	8.69	164
1	270000	8.7	9.17	173
1	280000	9.26	9.76	185
1	290000	8.55	9.01	170
1	300000	8.17	8.61	163
1	310000	8.84	9.32	176
1	320000	9.15	9.64	182
1	330000	8.54	9.01	170
1	340000	8.83	9.31	176
1	350000	9.35	9.85	186
1	360000	9.76	10.3	194
1	370000	9.64	10.2	192
1	380000	9.59	10.1	191
1	390000	9.83	10.4	196
1	400000	9.83	10.4	196
1	410000	9.42	9.93	188
1	420000	9.11	9.6	181
1	430000	8.79	9.27	175
1	440000	9.09	9.58	181
1	450000	9.13	9.62	182
1	460000	8.79	9.27	175
1	470000	9.62	10.1	192
2	0	10.4	8.1	153
2	-10000	11.1	8.81	166
2	-20000	10.4	8.18	155
2	-30000	11.1	8.84	167
2	-40000	11	8.79	166
2	-50000	11	8.7	164
2	-60000	11.2	8.97	169
2	-70000	12.2	9.91	187
2	-80000	11.8	9.53	180
2	-90000	11.1	8.84	167
2	-100000	11.2	8.94	169
2	-110000	11.4	9.13	173
2	-120000	11.1	8.88	168
2	-130000	11.1	8.84	167
2	-140000	11.2	8.95	169
2	-150000	11	8.79	166
2	-160000	10.9	8.65	163
2	-170000	11.2	8.94	169
2	-180000	11.5	9.25	175
2	-190000	11.7	9.41	178
2	-200000	11.2	8.94	169
2	-210000	11.1	8.86	167
2	-220000	11.2	8.99	170
2	-230000	11.1	8.86	168
2	-240000	10.8	8.54	161
2	-250000	10.9	8.61	163
2	-260000	11.4	9.17	173
2	-270000	10.7	8.46	160
2	-280000	10.1	7.85	148
2	-290000	10.7	8.42	159
2	-300000	11.1	8.83	167
2	-310000	11.5	9.29	175
2	-320000	11.7	9.48	179
2	-330000	11.4	9.1	172
2	-340000	11.5	9.21	174
2	-350000	11.9	9.63	182
2	-360000	11.5	9.24	175
2	-370000	10.7	8.48	160
2	-380000	10.7	8.47	160
2	-390000	11.4	9.18	173
2	-400000	11.2	8.93	169
2	-410000	10.6	8.36	158
2	-420000	11.2	8.91	168
2	-430000	11.8	9.49	179
2	-440000	11.5	9.21	174
2	-450000	11.6	9.38	177
2	-460000	12.1	9.83	186
2	-470000	12.9	10.6	200
2	0	10.2	10.7	203
2	10000	8.9	9.38	177
2	20000	8.46	8.92	169
2	30000	8.87	9.35	177
2	40000	8.69	9.16	173
2	50000	8.34	8.8	166
2	60000	8.18	8.62	163
2	70000	8.48	8.94	169
2	80000	8.2	8.65	163
2	90000	7.87	8.29	157
2	100000	7.77	8.19	155
2	110000	7.73	8.15	154
2	120000	7.77	8.19	155
2	130000	8.05	8.49	160
2	140000	7.47	7.87	149
2	150000	7.51	7.92	150
2	160000	7.34	7.73	146
2	170000	7.28	7.68	145
2	180000	6.79	7.15	135
2	190000	6.67	7.03	133
2	200000	6.19	6.52	123
2	210000	6.81	7.18	136
2	220000	6.79	7.15	135
2	230000	7.26	7.65	145
2	240000	6.96	7.33	139
2	250000	6.29	6.63	125
2	260000	6.59	6.95	131
2	270000	6.64	7	132
2	280000	7.14	7.53	142
2	290000	6.55	6.9	131
2	300000	6.06	6.39	121
2	310000	6.49	6.84	129
2	320000	7.11	7.5	142
2	330000	6.31	6.66	126
2	340000	6.24	6.58	124
2	350000	6.09	6.42	121
2	360000	7.39	7.79	147
2	370000	8.45	8.91	168
2	380000	9.25	9.75	184
2	390000	9.57	10.1	191
2	400000	9.34	9.84	186
2	410000	9.61	10.1	191
2	420000	9.32	9.82	186
2	430000	8.99	9.47	179
2	440000	8.98	9.46	179
2	450000	8.8	9.28	175
2	460000	8.2	8.65	163
2	470000	9.11	9.6	181
3	0	10.1	7.82	148
3	-10000	11.1	8.83	167
3	-20000	11.1	8.81	166
3	-30000	11.3	9.01	170
3	-40000	11.3	9.03	171
3	-50000	11.2	8.91	168
3	-60000	11	8.78	166
3	-70000	11.2	8.94	169
3	-80000	10.7	8.44	160
3	-90000	9.62	7.36	139
3	-100000	9.74	7.48	141
3	-110000	10.1	7.84	148
3	-120000	9.54	7.28	138
3	-130000	9.41	7.15	135
3	-140000	9.76	7.5	142
3	-150000	9.53	7.27	137
3	-160000	9.12	6.86	130
3	-170000	9.44	7.18	136
3	-180000	9.83	7.57	143
3	-190000	10.2	7.94	150
3	-200000	10	7.75	147
3	-210000	9.78	7.52	142
3	-220000	10	7.74	146
3	-230000	9.89	7.63	144
3	-240000	9.81	7.55	143
3	-250000	9.57	7.31	138
3	-260000	10.3	8.07	153
3	-270000	10.1	7.87	149
3	-280000	10.4	8.1	153
3	-290000	10.9	8.67	164
3	-300000	10.9	8.6	163
3	-310000	10.2	7.93	150
3	-320000	10.4	8.12	153
3	-330000	9.94	7.68	145
3	-340000	10.5	8.23	156
3	-350000	10.3	8.09	153
3	-360000	10.7	8.46	160
3	-370000	10.7	8.48	160
3	-380000	11	8.76	166
3	-390000	11.7	9.42	178
3	-400000	11.6	9.32	176
3	-410000	11.5	9.21	174
3	-420000	12.4	10.2	192
3	-430000	13.2	10.9	206
3	-440000	13.2	10.9	206
3	-450000	12.7	10.4	197
3	-460000	12.4	10.2	192
3	-470000	12.6	10.3	195
3	0	10.2	10.8	204
3	10000	9.59	10.1	191
3	20000	8.68	9.15	173
3	30000	8.98	9.46	179
3	40000	8.94	9.43	178
3	50000	8.55	9.01	170
3	60000	8.32	8.77	166
3	70000	8.01	8.44	160
3	80000	7.88	8.31	157
3	90000	7.56	7.97	151
3	100000	7.36	7.76	147
3	110000	7.63	8.04	152
3	120000	8.41	8.87	168
3	130000	8.36	8.81	167
3	140000	7.58	7.99	151
3	150000	7.66	8.08	153
3	160000	8.1	8.54	161
3	170000	8.22	8.66	164
3	180000	7.73	8.15	154
3	190000	8.11	8.55	162
3	200000	8.47	8.93	169
3	210000	8.22	8.67	164
3	220000	7.8	8.22	155
3	230000	8.37	8.82	167
3	240000	8.47	8.93	169
3	250000	7.81	8.23	156
3	260000	8.3	8.75	165
3	270000	9.31	9.81	185
3	280000	9.6	10.1	191
3	290000	9.29	9.79	185
3	300000	8.5	8.96	169
3	310000	8.97	9.46	179
3	320000	9.04	9.53	180
3	330000	8.5	8.96	169
3	340000	9.15	9.64	182
3	350000	9.33	9.84	186
3	360000	9.1	9.59	181
3	370000	8.5	8.96	169
3	380000	8.64	9.1	172
3	390000	8.54	9	170
3	400000	7.76	8.18	155
3	410000	6.6	6.96	131
3	420000	5.03	5.32	101
3	430000	6.08	6.41	121
3	440000	4.33	4.62	87.3
3	450000	4.21	4.49	84.9
3	460000	5.06	5.35	101
3	470000	7.09	7.48	141
4	0	8.31	6.05	114
4	-10000	10.6	8.37	158
4	-20000	10.3	8.07	153
4	-30000	10.4	8.12	154
4	-40000	9.81	7.55	143
4	-50000	9.35	7.09	134
4	-60000	9.44	7.18	136
4	-70000	9.69	7.43	140
4	-80000	9.74	7.48	141
4	-90000	9.41	7.15	135
4	-100000	9.9	7.64	144
4	-110000	10.2	7.9	149
4	-120000	9.53	7.27	137
4	-130000	9.34	7.08	134
4	-140000	9.5	7.24	137
4	-150000	9.87	7.61	144
4	-160000	9.81	7.55	143
4	-170000	9.82	7.56	143
4	-180000	10	7.78	147
4	-190000	10	7.77	147
4	-200000	9.58	7.32	138
4	-210000	9.46	7.2	136
4	-220000	10.2	7.98	151
4	-230000	10.2	7.98	151
4	-240000	9.64	7.38	139
4	-250000	9.35	7.09	134
4	-260000	9.76	7.5	142
4	-270000	9.75	7.49	142
4	-280000	9.69	7.43	140
4	-290000	9.94	7.68	145
4	-300000	10.2	7.96	150
4	-310000	10.1	7.87	149
4	-320000	10.5	8.26	156
4	-330000	10.4	8.12	154
4	-340000	10.6	8.35	158
4	-350000	10.6	8.3	157
4	-360000	10	7.76	147
4	-370000	9.25	6.99	132
4	-380000	9.5	7.24	137
4	-390000	10.3	8.02	152
4	-400000	10.1	7.88	149
4	-410000	9.92	7.66	145
4	-420000	11.1	8.88	168
4	-430000	11.7	9.46	179
4	-440000	11.2	8.94	169
4	-450000	11	8.74	165
4	-460000	11.1	8.84	167
4	-470000	11.6	9.35	177
4	0	9.21	9.71	184
4	10000	8.24	8.69	164
4	20000	7.81	8.23	156
4	30000	7.88	8.31	157
4	40000	7.72	8.13	154
4	50000	7.53	7.93	150
4	60000	7.88	8.31	157
4	70000	8.06	8.49	161
4	80000	7.63	8.04	152
4	90000	7.12	7.51	142
4	100000	6.91	7.28	138
4	110000	7.14	7.53	142
4	120000	7.53	7.94	150
4	130000	7.51	7.91	150
4	140000	7.02	7.4	140
4	150000	7.5	7.9	149
4	160000	7.92	8.35	158
4	170000	7.89	8.32	157
4	180000	7.47	7.87	149
4	190000	7.92	8.35	158
4	200000	8.11	8.55	162
4	210000	7.69	8.1	153
4	220000	7.01	7.39	140
4	230000	7.85	8.27	156
4	240000	8.02	8.46	160
4	250000	7.29	7.68	145
4	260000	7.37	7.77	147
4	270000	7.42	7.82	148
4	280000	7.17	7.56	143
4	290000	6.39	6.74	127
4	300000	5.64	5.94	112
4	310000	6.2	6.54	124
4	320000	6.37	6.72	127
4	330000	5.58	5.88	111
4	340000	5.34	5.63	106
4	350000	5.4	5.69	108
4	360000	5.83	6.14	116
4	370000	5.6	5.91	112
4	380000	5.3	5.59	106
4	390000	5.76	6.07	115
4	400000	5.99	6.31	119
4	410000	5.14	5.43	103
4	420000	5.4	5.69	108
4	430000	5.47	5.77	109
4	440000	5.53	5.83	110
4	450000	6.41	6.75	128
4	460000	6.57	6.92	131
4	470000	7.3	7.69	145
5	0	7.68	5.42	102
5	-10000	7.11	4.85	91.7
5	-20000	6.53	4.27	80.6
5	-30000	7.35	5.09	96.1
5	-40000	7.39	5.13	96.9
5	-50000	7.16	4.9	92.6
5	-60000	7.22	4.96	93.7
5	-70000	7.18	4.92	92.9
5	-80000	6.83	4.57	86.4
5	-90000	6.15	3.89	73.5
5	-100000	6.73	4.47	84.5
5	-110000	7.39	5.13	97
5	-120000	6.91	4.65	87.9
5	-130000	6.96	4.7	88.9
5	-140000	7.36	5.1	96.3
5	-150000	7.57	5.31	100
5	-160000	7.59	5.33	101
5	-170000	8.01	5.75	109
5	-180000	8.54	6.28	119
5	-190000	8.9	6.64	125
5	-200000	8.48	6.22	118
5	-210000	8.91	6.65	126
5	-220000	9.7	7.44	141
5	-230000	10.1	7.84	148
5	-240000	10.1	7.87	149
5	-250000	10.1	7.85	148
5	-260000	10.9	8.6	163
5	-270000	10.8	8.58	162
5	-280000	10.5	8.29	157
5	-290000	10.8	8.58	162
5	-300000	11.5	9.23	174
5	-310000	11.7	9.45	179
5	-320000	12	9.7	183
5	-330000	11.6	9.34	176
5	-340000	11.9	9.66	182
5	-350000	12.1	9.8	185
5	-360000	11.7	9.41	178
5	-370000	11	8.75	165
5	-380000	11.1	8.81	166
5	-390000	11.7	9.46	179
5	-400000	11.6	9.38	177
5	-410000	11.2	8.97	169
5	-420000	11.6	9.31	176
5	-430000	11.8	9.57	181
5	-440000	11.8	9.52	180
5	-450000	11.4	9.11	172
5	-460000	11.1	8.87	168
5	-470000	11.2	8.98	170
5	0	8.67	9.14	173
5	10000	6.82	7.18	136
5	20000	6.57	6.93	131
5	30000	7.5	7.9	149
5	40000	7.23	7.63	144
5	50000	6.65	7.01	132
5	60000	6.25	6.59	125
5	70000	6.41	6.76	128
5	80000	6.14	6.48	122
5	90000	5.62	5.92	112
5	100000	5.93	6.25	118
5	110000	5.84	6.16	116
5	120000	4.95	5.23	98.9
5	130000	4.71	4.99	94.4
5	140000	4.32	4.6	87
5	150000	4.89	5.18	97.9
5	160000	6.11	6.44	122
5	170000	5.81	6.12	116
5	180000	5.3	5.59	106
5	190000	5.53	5.83	110
5	200000	4.76	5.05	95.4
5	210000	4.62	4.91	92.8
5	220000	4.14	4.43	83.7
5	230000	4.66	4.94	93.4
5	240000	5.05	5.34	101
5	250000	4.55	4.84	91.4
5	260000	4.21	4.5	85.1
5	270000	4.63	4.91	92.8
5	280000	5.06	5.35	101
5	290000	4.95	5.24	99
5	300000	4.64	4.93	93.2
5	310000	5.11	5.4	102
5	320000	4.94	5.23	98.8
5	330000	4.38	4.67	88.3
5	340000	3.97	4.26	80.5
5	350000	3.91	4.19	79.3
5	360000	3.91	4.2	79.3
5	370000	3.28	3.56	67.3
5	380000	1.74	2.03	38.4
5	390000	1.74	2.02	38.2
5	400000	1.65	1.94	36.6
5	410000	0.868	1.15	21.8
5	420000	0.973	1.26	23.8
5	430000	1.25	1.53	29
5	440000	2.88	3.17	59.9
5	450000	4.88	5.17	97.7
5	460000	6.12	6.45	122
5	470000	6.76	7.13	135
6	0	7.33	5.07	95.8
6	-10000	6.75	4.49	84.8
6	-20000	5.65	3.39	64
6	-30000	5.62	3.36	63.5
6	-40000	5.31	3.05	57.7
6	-50000	5.04	2.89	54.6
6	-60000	4.87	2.79	52.7
6	-70000	5.52	3.26	61.7
6	-80000	5.86	3.6	68.1
6	-90000	5.69	3.43	64.9
6	-100000	5.84	3.58	67.7
6	-110000	6.39	4.13	78
6	-120000	6.02	3.76	71
6	-130000	6.04	3.78	71.4
6	-140000	7.17	4.91	92.8
6	-150000	8.19	5.93	112
6	-160000	8.27	6.01	114
6	-170000	8.08	5.82	110
6	-180000	7.79	5.53	105
6	-190000	7.59	5.33	101
6	-200000	7.4	5.14	97.1
6	-210000	7.15	4.89	92.4
6	-220000	7.24	4.98	94
6	-230000	7.14	4.88	92.2
6	-240000	7.23	4.97	94
6	-250000	7.34	5.08	96
6	-260000	8.71	6.45	122
6	-270000	8.97	6.71	127
6	-280000	9.41	7.15	135
6	-290000	10.2	7.97	151
6	-300000	10.1	7.84	148
6	-310000	9.54	7.28	138
6	-320000	9.74	7.48	141
6	-330000	9.49	7.23	137
6	-340000	10	7.76	147
6	-350000	10.4	8.13	154
6	-360000	10.6	8.34	158
6	-370000	10.1	7.87	149
6	-380000	10.2	7.92	150
6	-390000	10.4	8.11	153
6	-400000	10.2	7.96	150
6	-410000	10	7.74	146
6	-420000	10.4	8.15	154
6	-430000	10.4	8.15	154
6	-440000	10.2	7.9	149
6	-450000	10.6	8.29	157
6	-460000	10.8	8.51	161
6	-470000	11.1	8.81	167
