rep_num	position	torque	torque_compensated	lbs_compensated
1	0	2.5	2.79	52.6
1	10000	8.02	8.45	160
1	20000	8.16	8.61	163
1	30000	8.2	8.65	163
1	40000	7.8	8.22	155
1	50000	8.25	8.69	164
1	60000	9.03	9.51	180
1	70000	8.96	9.45	179
1	80000	7.91	8.34	158
1	90000	8.7	9.17	173
1	100000	9.68	10.2	193
1	110000	9.23	9.73	184
1	120000	8.45	8.91	168
1	130000	9.14	9.63	182
1	140000	9.24	9.74	184
1	150000	8.93	9.42	178
1	160000	8.67	9.14	173
1	170000	8.98	9.47	179
1	180000	9.45	9.96	188
1	190000	9.39	9.89	187
1	200000	8.94	9.42	178
1	210000	9.15	9.64	182
1	220000	9.03	9.52	180
1	230000	8.94	9.43	178
1	240000	8.72	9.19	174
1	250000	8.72	9.19	174
1	260000	9.09	9.58	181
1	270000	8.75	9.23	174
1	280000	8.83	9.31	176
1	290000	9.4	9.9	187
1	300000	9.86	10.4	197
1	310000	10.2	10.8	203
1	320000	9.81	10.3	196
1	330000	9.82	10.4	196
1	340000	10.7	11.3	214
1	350000	10.7	11.3	213
1	360000	10.1	10.6	201
1	370000	9.93	10.5	198
1	380000	10.7	11.3	213
1	390000	10.2	10.7	203
1	400000	9.38	9.89	187
1	410000	9.68	10.2	193
1	420000	10.2	10.8	203
1	430000	9.22	9.71	184
1	440000	8.57	9.04	171
1	450000	8.7	9.17	173
1	460000	9.6	10.1	191
1	470000	9.88	10.4	197
2	0	11	8.74	165
2	-10000	11.6	9.39	177
2	-20000	11.9	9.6	181
2	-30000	11.6	9.31	176
2	-40000	12.5	10.2	193
2	-50000	12.3	10	189
2	-60000	10.8	8.52	161
2	-70000	10.4	8.14	154
2	-80000	10.3	8.08	153
2	-90000	10.2	7.94	150
2	-100000	9.56	7.3	138
2	-110000	9.59	7.33	138
2	-120000	10	7.75	146
2	-130000	10.6	8.38	158
2	-140000	10.3	8.08	153
2	-150000	10.1	7.84	148
2	-160000	10.3	8.04	152
2	-170000	10.6	8.36	158
2	-180000	10	7.78	147
2	-190000	9.94	7.68	145
2	-200000	10.3	8.02	152
2	-210000	10.7	8.47	160
2	-220000	10.3	8.03	152
2	-230000	9.89	7.63	144
2	-240000	10.4	8.17	154
2	-250000	11	8.77	166
2	-260000	10.7	8.43	159
2	-270000	10.2	7.99	151
2	-280000	10.8	8.49	161
2	-290000	11.3	9	170
2	-300000	10.9	8.68	164
2	-310000	10.7	8.46	160
2	-320000	11.7	9.42	178
2	-330000	11.3	9.04	171
2	-340000	10.9	8.59	162
2	-350000	11.2	8.98	170
2	-360000	12.2	9.9	187
2	-370000	11.8	9.57	181
2	-380000	10.9	8.66	164
2	-390000	10.9	8.63	163
2	-400000	10.9	8.68	164
2	-410000	11.5	9.25	175
2	-420000	11.6	9.29	176
2	-430000	11.5	9.19	174
2	-440000	11.5	9.26	175
2	-450000	11.6	9.32	176
2	-460000	10.6	8.37	158
2	-470000	11.3	9.01	170
2	0	8.94	9.43	178
2	10000	9.43	9.94	188
2	20000	9.27	9.77	185
2	30000	9.13	9.63	182
2	40000	7.98	8.41	159
2	50000	8.22	8.66	164
2	60000	8.96	9.44	178
2	70000	8.5	8.96	169
2	80000	7.89	8.32	157
2	90000	8.4	8.86	167
2	100000	9.17	9.66	183
2	110000	8.47	8.93	169
2	120000	8.22	8.67	164
2	130000	9.04	9.52	180
2	140000	9.31	9.82	186
2	150000	9.15	9.65	182
2	160000	8.46	8.91	168
2	170000	8.41	8.86	167
2	180000	8.89	9.37	177
2	190000	8.6	9.07	171
2	200000	8.03	8.47	160
2	210000	8.57	9.03	171
2	220000	9.25	9.74	184
2	230000	8.99	9.48	179
2	240000	8.21	8.65	163
2	250000	7.96	8.39	159
2	260000	8.93	9.41	178
2	270000	8.44	8.9	168
2	280000	8.01	8.45	160
2	290000	8.35	8.8	166
2	300000	8.94	9.42	178
2	310000	9.2	9.7	183
2	320000	9.35	9.85	186
2	330000	9.56	10.1	190
2	340000	10.6	11.1	211
2	350000	10.5	11.1	209
2	360000	9.9	10.4	197
2	370000	9.8	10.3	195
2	380000	10.3	10.9	205
2	390000	9.93	10.5	198
2	400000	9.15	9.65	182
2	410000	9.62	10.1	192
2	420000	10.2	10.7	203
2	430000	9.5	10	189
2	440000	8.87	9.35	177
2	450000	9.43	9.94	188
2	460000	9.74	10.3	194
2	470000	9.62	10.1	192
3	0	11.1	8.88	168
3	-10000	12.5	10.3	194
3	-20000	12.3	10.1	190
3	-30000	10.5	8.27	156
3	-40000	11.6	9.35	177
3	-50000	11.4	9.17	173
3	-60000	9.85	7.59	143
3	-70000	10.2	7.92	150
3	-80000	10.8	8.5	161
3	-90000	10.8	8.56	162
3	-100000	10.2	7.98	151
3	-110000	10.4	8.11	153
3	-120000	10.6	8.37	158
3	-130000	9.82	7.56	143
3	-140000	9.08	6.82	129
3	-150000	9.23	6.97	132
3	-160000	9.75	7.49	142
3	-170000	10.7	8.44	160
3	-180000	10.5	8.29	157
3	-190000	10.7	8.44	160
3	-200000	11.1	8.89	168
3	-210000	11.5	9.23	174
3	-220000	10.9	8.63	163
3	-230000	10.4	8.16	154
3	-240000	10.7	8.46	160
3	-250000	10.5	8.24	156
3	-260000	9.8	7.54	142
3	-270000	9.34	7.08	134
3	-280000	10.3	8	151
3	-290000	10.7	8.47	160
3	-300000	10.1	7.82	148
3	-310000	9.48	7.22	137
3	-320000	10.9	8.67	164
3	-330000	11.8	9.53	180
3	-340000	11.8	9.58	181
3	-350000	11.5	9.25	175
3	-360000	11.6	9.38	177
3	-370000	11.7	9.4	178
3	-380000	10.6	8.37	158
3	-390000	10.5	8.29	157
3	-400000	10.7	8.39	159
3	-410000	10.5	8.29	157
3	-420000	10.1	7.85	148
3	-430000	10.3	8.07	153
3	-440000	10.4	8.17	154
3	-450000	11	8.71	165
3	-460000	10	7.78	147
3	-470000	10.5	8.28	156
3	0	8.84	9.32	176
3	10000	8.82	9.29	176
3	20000	8.56	9.02	170
3	30000	8.35	8.8	166
3	40000	8.11	8.55	162
3	50000	8.31	8.76	166
3	60000	8.8	9.27	175
3	70000	8.14	8.58	162
3	80000	7.42	7.82	148
3	90000	7.85	8.27	156
3	100000	8.28	8.73	165
3	110000	7.87	8.29	157
3	120000	7.41	7.81	148
3	130000	7.95	8.38	158
3	140000	8.23	8.68	164
3	150000	7.95	8.38	158
3	160000	7.58	7.99	151
3	170000	8.14	8.58	162
3	180000	8.13	8.57	162
3	190000	7.67	8.09	153
3	200000	7.48	7.88	149
3	210000	7.63	8.05	152
3	220000	7.91	8.34	158
3	230000	7.74	8.16	154
3	240000	7.22	7.61	144
3	250000	7.19	7.58	143
3	260000	7.28	7.68	145
3	270000	7.21	7.6	144
3	280000	7.54	7.95	150
3	290000	8.15	8.59	162
3	300000	8.41	8.86	168
3	310000	8.71	9.19	174
3	320000	8.43	8.88	168
3	330000	8.81	9.29	176
3	340000	9.46	9.98	189
3	350000	9.02	9.51	180
3	360000	8.14	8.58	162
3	370000	8.12	8.56	162
3	380000	8.19	8.64	163
3	390000	7.81	8.23	156
3	400000	7.04	7.43	140
3	410000	7.42	7.83	148
3	420000	8.33	8.79	166
3	430000	8.12	8.56	162
3	440000	7.4	7.8	148
3	450000	7.29	7.69	145
3	460000	7.38	7.78	147
3	470000	7.38	7.78	147
4	0	8.58	6.32	119
4	-10000	10.2	7.94	150
4	-20000	11.2	8.95	169
4	-30000	11.2	8.98	170
4	-40000	11	8.73	165
4	-50000	11.3	9.05	171
4	-60000	10.4	8.17	154
4	-70000	10.1	7.84	148
4	-80000	10.1	7.84	148
4	-90000	9.97	7.71	146
4	-100000	9.74	7.48	141
4	-110000	9.12	6.86	130
4	-120000	9.18	6.92	131
4	-130000	9.81	7.55	143
4	-140000	9.73	7.47	141
4	-150000	8.91	6.65	126
4	-160000	9.52	7.26	137
4	-170000	10.3	8.05	152
4	-180000	10	7.75	146
4	-190000	9.45	7.19	136
4	-200000	9.61	7.35	139
4	-210000	10.3	8.01	151
4	-220000	9.72	7.46	141
4	-230000	9.27	7.01	133
4	-240000	9.56	7.3	138
4	-250000	9.97	7.71	146
4	-260000	9.8	7.54	143
4	-270000	9.12	6.86	130
4	-280000	9.94	7.68	145
4	-290000	11	8.78	166
4	-300000	10.5	8.21	155
4	-310000	9.71	7.45	141
4	-320000	10.8	8.58	162
4	-330000	10.9	8.59	162
4	-340000	10.2	7.97	151
4	-350000	9.92	7.66	145
4	-360000	10.4	8.15	154
4	-370000	11.2	8.97	170
4	-380000	10.9	8.64	163
4	-390000	10.5	8.19	155
4	-400000	10.6	8.38	158
4	-410000	10.6	8.39	159
4	-420000	10.2	7.9	149
4	-430000	10.2	7.96	150
4	-440000	10.5	8.21	155
4	-450000	10.5	8.26	156
4	-460000	9.83	7.57	143
4	-470000	10.1	7.84	148
4	0	8.11	8.55	162
4	10000	8.82	9.3	176
4	20000	8.31	8.76	166
4	30000	8.38	8.83	167
4	40000	7.87	8.29	157
4	50000	7.91	8.34	158
4	60000	8.11	8.55	162
4	70000	7.84	8.26	156
4	80000	6.7	7.06	133
4	90000	7.12	7.51	142
4	100000	8.05	8.49	160
4	110000	7.69	8.1	153
4	120000	7.26	7.65	145
4	130000	7.67	8.09	153
4	140000	7.99	8.42	159
4	150000	7.61	8.02	152
4	160000	7.54	7.95	150
4	170000	7.71	8.13	154
4	180000	7.98	8.41	159
4	190000	7.98	8.41	159
4	200000	7.43	7.83	148
4	210000	7.45	7.85	148
4	220000	7.79	8.21	155
4	230000	8.3	8.74	165
4	240000	7.39	7.79	147
4	250000	7.07	7.45	141
4	260000	6.98	7.36	139
4	270000	6.57	6.93	131
4	280000	6.18	6.52	123
4	290000	6.38	6.72	127
4	300000	6.72	7.08	134
4	310000	7.05	7.43	140
4	320000	6.8	7.16	135
4	330000	6.83	7.2	136
4	340000	7.79	8.21	155
4	350000	7.97	8.4	159
4	360000	7.38	7.78	147
4	370000	7.42	7.82	148
4	380000	8.53	8.99	170
4	390000	8.81	9.29	176
4	400000	7.78	8.2	155
4	410000	7.23	7.62	144
4	420000	7.89	8.31	157
4	430000	7.48	7.89	149
4	440000	6.66	7.02	133
4	450000	6.76	7.13	135
4	460000	7.63	8.04	152
4	470000	7.55	7.96	150
5	0	8.66	6.4	121
5	-10000	9.71	7.45	141
5	-20000	11.2	8.98	170
5	-30000	11.8	9.53	180
5	-40000	12.8	10.5	199
5	-50000	14	11.7	221
5	-60000	13.7	11.4	215
5	-70000	14.1	11.8	224
5	-80000	14.6	12.3	233
5	-90000	14.5	12.3	232
5	-100000	14	11.8	223
5	-110000	13.1	10.8	205
5	-120000	12.7	10.4	197
5	-130000	12.7	10.4	197
5	-140000	12	9.71	183
5	-150000	11.8	9.58	181
5	-160000	12.4	10.1	191
5	-170000	13.2	10.9	207
5	-180000	13	10.8	203
5	-190000	12.3	10.1	190
5	-200000	12.1	9.84	186
5	-210000	12.3	10	189
5	-220000	11.8	9.54	180
5	-230000	11.5	9.26	175
5	-240000	11.3	8.99	170
5	-250000	11.3	9.04	171
5	-260000	11.2	8.93	169
5	-270000	10.3	8.06	152
5	-280000	10.3	8.05	152
5	-290000	11.1	8.86	167
5	-300000	10.2	7.94	150
5	-310000	9.29	7.03	133
5	-320000	10.3	8.04	152
5	-330000	10.8	8.51	161
5	-340000	10.3	8.07	153
5	-350000	10.5	8.29	157
5	-360000	11.2	8.96	169
5	-370000	11.1	8.88	168
5	-380000	10	7.75	147
5	-390000	9.95	7.69	145
5	-400000	10.5	8.27	156
5	-410000	10.4	8.14	154
5	-420000	10.4	8.13	154
5	-430000	10.6	8.3	157
5	-440000	10.9	8.67	164
5	-450000	11.5	9.24	175
5	-460000	10.9	8.6	162
5	-470000	10.5	8.28	157
5	0	8.5	8.96	169
5	10000	7.49	7.89	149
5	20000	6.58	6.94	131
5	30000	6.5	6.85	129
5	40000	5.34	5.63	106
5	50000	4.86	5.14	97.2
5	60000	5.41	5.7	108
5	70000	5.77	6.08	115
5	80000	5.36	5.64	107
5	90000	5.52	5.82	110
5	100000	6.21	6.54	124
5	110000	5.97	6.3	119
5	120000	4.93	5.22	98.6
5	130000	5.31	5.6	106
5	140000	5.15	5.44	103
5	150000	4.28	4.56	86.3
5	160000	4	4.29	81
5	170000	4.12	4.4	83.2
5	180000	4.89	5.18	97.9
5	190000	4.71	4.99	94.4
5	200000	4.28	4.56	86.2
5	210000	4.55	4.84	91.5
5	220000	4.94	5.22	98.7
5	230000	4.67	4.95	93.6
5	240000	3.81	4.1	77.4
5	250000	3.67	3.95	74.7
5	260000	3.89	4.17	78.9
5	270000	3.21	3.49	66
5	280000	2.84	3.13	59.1
5	290000	3.61	3.9	73.6
5	300000	4.65	4.94	93.3
5	310000	4.89	5.17	97.7
5	320000	4.66	4.95	93.5
5	330000	4.15	4.44	83.9
5	340000	5.35	5.64	107
5	350000	4.9	5.18	98
5	360000	4.48	4.77	90.2
5	370000	4.86	5.14	97.2
5	380000	5.59	5.89	111
5	390000	5.31	5.59	106
5	400000	4.48	4.76	90
5	410000	5.13	5.42	102
5	420000	6.15	6.48	123
5	430000	6.17	6.5	123
5	440000	5.92	6.24	118
5	450000	6.29	6.63	125
5	460000	6.92	7.29	138
5	470000	6.67	7.03	133
6	0	7.7	5.44	103
6	-10000	7.6	5.34	101
6	-20000	8.37	6.11	116
6	-30000	7.8	5.54	105
6	-40000	7.82	5.56	105
6	-50000	7.67	5.41	102
6	-60000	6.9	4.64	87.7
6	-70000	7.07	4.81	90.9
6	-80000	7.67	5.41	102
6	-90000	8.02	5.76	109
6	-100000	7.3	5.04	95.2
6	-110000	6.78	4.52	85.4
6	-120000	7.1	4.84	91.5
6	-130000	7.9	5.64	107
6	-140000	7.61	5.35	101
6	-150000	7.58	5.32	100
6	-160000	8.38	6.12	116
6	-170000	9.25	6.99	132
6	-180000	8.95	6.69	126
6	-190000	8.64	6.38	121
6	-200000	9.28	7.02	133
6	-210000	10.4	8.19	155
6	-220000	10.6	8.34	158
6	-230000	10.6	8.31	157
6	-240000	10.9	8.68	164
6	-250000	10.8	8.54	161
6	-260000	10.7	8.42	159
6	-270000	10.4	8.15	154
6	-280000	10.9	8.68	164
6	-290000	12.3	10	189
6	-300000	11.8	9.55	180
6	-310000	11.5	9.23	174
6	-320000	12.4	10.2	193
6	-330000	12.7	10.5	198
6	-340000	12.3	10	189
6	-350000	12	9.71	184
6	-360000	12.6	10.3	195
6	-370000	13.1	10.9	205
6	-380000	12.3	10.1	190
6	-390000	12.1	9.89	187
6	-400000	13	10.8	204
6	-410000	13	10.7	203
6	-420000	12.7	10.4	196
6	-430000	11.5	9.28	175
6	-440000	11.3	9.05	171
6	-450000	11.4	9.15	173
6	-460000	10.4	8.13	154
6	-470000	10.1	7.86	149
