rep_num	position	torque	torque_compensated	lbs_compensated
1	0	4.53	4.82	91.1
1	10000	8.93	9.41	178
1	20000	9.46	9.97	189
1	30000	10.5	11	209
1	40000	10.5	11.1	209
1	50000	10	10.6	200
1	60000	10	10.6	200
1	70000	10.8	11.4	215
1	80000	11.5	12.1	229
1	90000	10.3	10.9	206
1	100000	9.92	10.5	198
1	110000	11.1	11.7	222
1	120000	11	11.6	219
1	130000	9.76	10.3	194
1	140000	9.91	10.4	197
1	150000	10.7	11.3	214
1	160000	10.4	11	208
1	170000	9.22	9.71	184
1	180000	9.49	10	189
1	190000	10.1	10.6	201
1	200000	9.79	10.3	195
1	210000	9.06	9.55	180
1	220000	8.84	9.32	176
1	230000	9.65	10.2	192
1	240000	9.29	9.79	185
1	250000	8.8	9.28	175
1	260000	8.92	9.4	178
1	270000	9.83	10.4	196
1	280000	9.46	9.97	188
1	290000	8.63	9.1	172
1	300000	9.09	9.59	181
1	310000	10.2	10.8	203
1	320000	10.2	10.8	204
1	330000	9.53	10	190
1	340000	9.55	10.1	190
1	350000	10.4	10.9	207
1	360000	10.3	10.9	206
1	370000	9.93	10.5	198
1	380000	9.67	10.2	193
1	390000	10.2	10.8	204
1	400000	10.5	11.1	210
1	410000	9.96	10.5	198
1	420000	9.73	10.3	194
1	430000	10.7	11.3	213
1	440000	10.3	10.9	206
1	450000	10.2	10.7	203
1	460000	10.4	11	207
1	470000	10.9	11.5	217
2	0	13	10.7	203
2	-10000	12.2	9.97	188
2	-20000	11.7	9.49	179
2	-30000	11.9	9.69	183
2	-40000	11.4	9.18	173
2	-50000	10.8	8.56	162
2	-60000	10.4	8.13	154
2	-70000	10.8	8.54	161
2	-80000	10.8	8.51	161
2	-90000	10.4	8.19	155
2	-100000	10.2	7.93	150
2	-110000	10.9	8.6	163
2	-120000	11	8.77	166
2	-130000	10.5	8.25	156
2	-140000	11.2	8.89	168
2	-150000	12.8	10.5	199
2	-160000	12.7	10.4	197
2	-170000	11.7	9.48	179
2	-180000	11.4	9.14	173
2	-190000	11.7	9.44	178
2	-200000	11.5	9.2	174
2	-210000	11.1	8.86	167
2	-220000	11.9	9.62	182
2	-230000	12.5	10.2	194
2	-240000	12.4	10.2	192
2	-250000	11.8	9.56	181
2	-260000	12	9.71	184
2	-270000	12.4	10.1	191
2	-280000	12.2	9.92	187
2	-290000	11.6	9.29	176
2	-300000	12.7	10.4	197
2	-310000	13.5	11.3	213
2	-320000	13.2	11	207
2	-330000	12.7	10.4	196
2	-340000	12.5	10.2	193
2	-350000	12.8	10.5	199
2	-360000	12.5	10.3	194
2	-370000	11.6	9.38	177
2	-380000	11.6	9.35	177
2	-390000	12.4	10.1	191
2	-400000	12.3	10.1	190
2	-410000	11.6	9.3	176
2	-420000	11.3	9.07	171
2	-430000	12.1	9.81	185
2	-440000	11.8	9.55	181
2	-450000	11.8	9.58	181
2	-460000	12	9.69	183
2	-470000	13.1	10.9	205
2	0	11.7	12.3	232
2	10000	11.8	12.4	234
2	20000	10.7	11.3	214
2	30000	10.7	11.3	213
2	40000	10.8	11.4	215
2	50000	10.5	11.1	209
2	60000	10	10.6	200
2	70000	10.4	11	207
2	80000	10.5	11.1	210
2	90000	9.51	10	189
2	100000	8.94	9.43	178
2	110000	9.71	10.2	193
2	120000	9.37	9.88	187
2	130000	8.19	8.64	163
2	140000	8.21	8.65	163
2	150000	9.25	9.75	184
2	160000	9.22	9.72	184
2	170000	8.06	8.49	161
2	180000	8.22	8.67	164
2	190000	9.13	9.62	182
2	200000	8.96	9.44	178
2	210000	8.3	8.75	165
2	220000	8.08	8.52	161
2	230000	9.13	9.63	182
2	240000	9.03	9.51	180
2	250000	8.05	8.49	160
2	260000	7.95	8.38	158
2	270000	8.65	9.12	172
2	280000	8.69	9.16	173
2	290000	8.23	8.68	164
2	300000	8.34	8.79	166
2	310000	8.59	9.06	171
2	320000	8.27	8.72	165
2	330000	7.79	8.22	155
2	340000	7.82	8.24	156
2	350000	8.59	9.06	171
2	360000	8.73	9.21	174
2	370000	8.24	8.69	164
2	380000	8.34	8.79	166
2	390000	9.49	10	189
2	400000	10.1	10.7	202
2	410000	9.62	10.1	192
2	420000	9.36	9.86	186
2	430000	9.96	10.5	198
2	440000	9.65	10.2	192
2	450000	9.37	9.88	187
2	460000	9.19	9.69	183
2	470000	9.34	9.85	186
3	0	11.4	9.12	172
3	-10000	11.4	9.11	172
3	-20000	11	8.76	166
3	-30000	11.5	9.19	174
3	-40000	11.5	9.25	175
3	-50000	11.8	9.53	180
3	-60000	12.1	9.87	187
3	-70000	13	10.8	204
3	-80000	13.6	11.3	214
3	-90000	12.9	10.6	201
3	-100000	13.1	10.8	204
3	-110000	13.9	11.6	219
3	-120000	13.7	11.4	216
3	-130000	12.6	10.3	195
3	-140000	12.5	10.2	193
3	-150000	13.3	11.1	209
3	-160000	13.5	11.2	212
3	-170000	12.5	10.3	194
3	-180000	12.4	10.1	192
3	-190000	13.3	11	209
3	-200000	12.9	10.6	200
3	-210000	11.5	9.28	175
3	-220000	11.2	8.9	168
3	-230000	11.6	9.29	176
3	-240000	11.8	9.52	180
3	-250000	11.1	8.85	167
3	-260000	10.9	8.64	163
3	-270000	11.7	9.44	178
3	-280000	11.6	9.32	176
3	-290000	10.4	8.16	154
3	-300000	11.2	8.97	170
3	-310000	12.2	9.91	187
3	-320000	11.5	9.25	175
3	-330000	11	8.76	166
3	-340000	11.4	9.13	173
3	-350000	12.2	9.96	188
3	-360000	11.8	9.57	181
3	-370000	11.4	9.11	172
3	-380000	11.3	9.08	172
3	-390000	12.3	10	189
3	-400000	12.8	10.6	200
3	-410000	13.6	11.4	215
3	-420000	14.6	12.3	232
3	-430000	16.4	14.1	267
3	-440000	17.1	14.8	280
3	-450000	16.3	14	265
3	-460000	15.1	12.9	243
3	-470000	15.3	13.1	247
3	0	13.1	13.8	261
3	10000	11.6	12.2	231
3	20000	10.7	11.3	213
3	30000	11	11.6	220
3	40000	10.5	11.1	210
3	50000	9.33	9.83	186
3	60000	8.74	9.22	174
3	70000	9.37	9.88	187
3	80000	9.33	9.83	186
3	90000	8.44	8.9	168
3	100000	8.07	8.51	161
3	110000	8.97	9.46	179
3	120000	8.55	9.01	170
3	130000	7.45	7.85	148
3	140000	7.29	7.69	145
3	150000	8.56	9.02	170
3	160000	8.62	9.08	172
3	170000	7.78	8.2	155
3	180000	8.14	8.59	162
3	190000	8.99	9.47	179
3	200000	9.13	9.62	182
3	210000	8.58	9.05	171
3	220000	8.47	8.93	169
3	230000	9.01	9.5	180
3	240000	8.35	8.8	166
3	250000	6.82	7.18	136
3	260000	6.39	6.74	127
3	270000	6.89	7.27	137
3	280000	6.84	7.21	136
3	290000	6.12	6.45	122
3	300000	5.85	6.17	117
3	310000	6.25	6.59	124
3	320000	6.37	6.71	127
3	330000	5.3	5.58	106
3	340000	5.14	5.42	102
3	350000	5.54	5.84	110
3	360000	5.55	5.85	111
3	370000	5.26	5.55	105
3	380000	5.3	5.59	106
3	390000	6.41	6.75	128
3	400000	7.04	7.42	140
3	410000	6.28	6.62	125
3	420000	6.29	6.63	125
3	430000	8.12	8.56	162
3	440000	8.29	8.74	165
3	450000	7.93	8.36	158
3	460000	7.9	8.33	157
3	470000	8.35	8.8	166
4	0	10.2	7.95	150
4	-10000	9.04	6.78	128
4	-20000	8.05	5.79	109
4	-30000	8.56	6.3	119
4	-40000	7.88	5.62	106
4	-50000	7.62	5.36	101
4	-60000	7.29	5.03	95.1
4	-70000	7.66	5.4	102
4	-80000	7.61	5.35	101
4	-90000	6.72	4.46	84.3
4	-100000	7.7	5.44	103
4	-110000	8.73	6.47	122
4	-120000	8.75	6.49	123
4	-130000	7.74	5.48	104
4	-140000	8.2	5.94	112
4	-150000	9.28	7.02	133
4	-160000	9.55	7.29	138
4	-170000	8.55	6.29	119
4	-180000	8.91	6.65	126
4	-190000	10.4	8.09	153
4	-200000	10.3	8.08	153
4	-210000	9.77	7.51	142
4	-220000	10.1	7.85	148
4	-230000	11	8.76	166
4	-240000	10.2	7.94	150
4	-250000	9.6	7.34	139
4	-260000	9.98	7.72	146
4	-270000	10.7	8.47	160
4	-280000	11	8.77	166
4	-290000	10.5	8.23	156
4	-300000	11.3	9.06	171
4	-310000	12	9.79	185
4	-320000	11.9	9.67	183
4	-330000	11.4	9.12	172
4	-340000	12.1	9.81	185
4	-350000	13	10.7	202
4	-360000	12.9	10.7	201
4	-370000	12.3	10.1	190
4	-380000	11.7	9.49	179
4	-390000	12.3	10	189
4	-400000	12	9.79	185
4	-410000	11.5	9.2	174
4	-420000	11.2	8.89	168
4	-430000	12.7	10.4	197
4	-440000	13.3	11	208
4	-450000	12.8	10.5	199
4	-460000	12.4	10.1	191
4	-470000	13.2	11	207
4	0	11.2	11.8	223
4	10000	10.3	10.8	205
4	20000	9.05	9.54	180
4	30000	9.33	9.84	186
4	40000	8.7	9.18	173
4	50000	7.76	8.18	155
4	60000	7.22	7.61	144
4	70000	8.13	8.56	162
4	80000	8.28	8.73	165
4	90000	7.33	7.72	146
4	100000	6.95	7.33	139
4	110000	7.52	7.93	150
4	120000	7.18	7.57	143
4	130000	6.33	6.67	126
4	140000	6.21	6.54	124
4	150000	7.34	7.73	146
4	160000	7.4	7.8	147
4	170000	6.44	6.78	128
4	180000	6.6	6.95	131
4	190000	7.27	7.66	145
4	200000	6.72	7.08	134
4	210000	5.49	5.79	109
4	220000	4.79	5.08	96
4	230000	5.15	5.44	103
4	240000	4.27	4.56	86.1
4	250000	3.16	3.45	65.2
4	260000	3.38	3.67	69.3
4	270000	4.46	4.75	89.7
4	280000	4.72	5.01	94.6
4	290000	4.47	4.75	89.9
4	300000	4.27	4.56	86.2
4	310000	5.14	5.42	103
4	320000	5.09	5.38	102
4	330000	3.91	4.2	79.4
4	340000	4.23	4.51	85.3
4	350000	4.72	5.01	94.6
4	360000	4.77	5.05	95.5
4	370000	4.3	4.59	86.7
4	380000	3.76	4.05	76.5
4	390000	4.89	5.18	97.8
4	400000	5.07	5.36	101
4	410000	3.42	3.71	70.1
4	420000	4.14	4.43	83.6
4	430000	5.53	5.83	110
4	440000	5.58	5.88	111
4	450000	5.68	5.99	113
4	460000	5.93	6.25	118
4	470000	6.3	6.64	126
5	0	7.77	5.51	104
5	-10000	7.29	5.03	95
5	-20000	6.27	4.01	75.8
5	-30000	6.59	4.33	81.8
5	-40000	6.16	3.9	73.7
5	-50000	5.57	3.31	62.6
5	-60000	5.63	3.37	63.7
5	-70000	6.41	4.15	78.4
5	-80000	6.56	4.3	81.3
5	-90000	6.43	4.17	78.8
5	-100000	7.39	5.13	96.9
5	-110000	8.69	6.43	122
5	-120000	8.61	6.35	120
5	-130000	7.87	5.61	106
5	-140000	7.85	5.59	106
5	-150000	8.75	6.49	123
5	-160000	8.04	5.78	109
5	-170000	7.09	4.83	91.2
5	-180000	7.43	5.17	97.8
5	-190000	8.47	6.21	117
5	-200000	8.4	6.14	116
5	-210000	7.52	5.26	99.4
5	-220000	8.42	6.16	116
5	-230000	9.99	7.73	146
5	-240000	10.4	8.17	154
5	-250000	9.71	7.45	141
5	-260000	10.2	7.97	151
5	-270000	11.2	8.95	169
5	-280000	10.5	8.23	156
5	-290000	9.56	7.3	138
5	-300000	9.79	7.53	142
5	-310000	10.4	8.15	154
5	-320000	10.2	7.98	151
5	-330000	9.54	7.28	138
5	-340000	9.93	7.67	145
5	-350000	10.5	8.27	156
5	-360000	10.5	8.19	155
5	-370000	10.3	8.05	152
5	-380000	10.4	8.16	154
5	-390000	11.1	8.8	166
5	-400000	10.7	8.48	160
5	-410000	9.89	7.63	144
5	-420000	9.7	7.44	141
5	-430000	10.4	8.18	155
5	-440000	10.2	7.92	150
5	-450000	10.3	8.01	151
5	-460000	10.2	7.89	149
5	-470000	11	8.74	165
5	0	9.31	9.82	186
5	10000	7.79	8.22	155
5	20000	7.37	7.77	147
5	30000	7.94	8.37	158
5	40000	7.99	8.42	159
5	50000	6.86	7.23	137
5	60000	6.29	6.63	125
5	70000	7.01	7.39	140
5	80000	6.9	7.27	137
5	90000	5.89	6.21	117
5	100000	5.28	5.56	105
5	110000	5.09	5.37	102
5	120000	4.95	5.24	99
5	130000	4.19	4.47	84.5
5	140000	4.3	4.59	86.7
5	150000	5.18	5.47	103
5	160000	4.34	4.62	87.4
5	170000	2.22	2.51	47.4
5	180000	1.6	1.89	35.6
5	190000	2.45	2.73	51.7
5	200000	2.05	2.34	44.2
5	210000	0.982	1.27	24
5	220000	0.715	1	18.9
5	230000	2.04	2.33	44
5	240000	3.92	4.2	79.4
5	250000	4.27	4.55	86
5	260000	5.21	5.5	104
5	270000	6.21	6.55	124
5	280000	5.91	6.23	118
5	290000	5.27	5.56	105
5	300000	5.04	5.33	101
5	310000	5.73	6.04	114
5	320000	5.45	5.75	109
5	330000	4.59	4.88	92.2
5	340000	4.44	4.72	89.2
5	350000	5.08	5.36	101
5	360000	4.85	5.14	97.1
5	370000	4.31	4.59	86.8
5	380000	3.91	4.2	79.3
5	390000	4.97	5.25	99.3
5	400000	5.23	5.52	104
5	410000	4.46	4.75	89.7
5	420000	4.3	4.59	86.7
5	430000	5.21	5.5	104
5	440000	5.38	5.67	107
5	450000	5.28	5.56	105
5	460000	5.34	5.63	106
5	470000	5.8	6.12	116
6	0	7.24	4.98	94.2
6	-10000	6.2	3.94	74.4
6	-20000	5.55	3.29	62.1
6	-30000	5.96	3.7	69.9
6	-40000	5.75	3.49	65.9
6	-50000	5.21	2.98	56.4
6	-60000	5.11	2.93	55.4
6	-70000	5.75	3.49	65.9
6	-80000	5.71	3.45	65.3
6	-90000	5.02	2.87	54.3
6	-100000	5.18	2.97	56.1
6	-110000	5.84	3.58	67.6
6	-120000	5.67	3.41	64.4
6	-130000	5.04	2.89	54.6
6	-140000	4.94	2.83	53.5
6	-150000	5.93	3.67	69.4
6	-160000	5.71	3.45	65.3
6	-170000	4.95	2.83	53.5
6	-180000	5.39	3.13	59.1
6	-190000	6.76	4.5	85.1
6	-200000	7.71	5.45	103
6	-210000	7.31	5.05	95.5
6	-220000	7.31	5.05	95.4
6	-230000	7.69	5.43	103
6	-240000	7.33	5.07	95.7
6	-250000	6.47	4.21	79.6
6	-260000	6.57	4.31	81.4
6	-270000	7.25	4.99	94.2
6	-280000	7.28	5.02	94.8
6	-290000	6.52	4.26	80.5
6	-300000	7.01	4.75	89.8
6	-310000	7.67	5.41	102
6	-320000	7.01	4.75	89.7
6	-330000	6.63	4.37	82.7
6	-340000	7.63	5.37	102
6	-350000	8.97	6.71	127
6	-360000	9.46	7.2	136
6	-370000	9.79	7.53	142
6	-380000	9.74	7.48	141
6	-390000	10.3	8.08	153
6	-400000	9.71	7.45	141
6	-410000	8.87	6.61	125
6	-420000	8.44	6.18	117
6	-430000	9.54	7.28	138
6	-440000	9.51	7.25	137
6	-450000	9.38	7.12	135
6	-460000	9.15	6.89	130
6	-470000	10	7.74	146
