rep_num	position	torque	torque_compensated	lbs_compensated
1	0	3.39	3.67	69.4
1	10000	4.39	4.67	88.3
1	20000	6.42	6.77	128
1	30000	7.63	8.04	152
1	40000	8.5	8.95	169
1	50000	9.03	9.51	180
1	60000	8.7	9.17	173
1	70000	9.1	9.6	181
1	80000	9.09	9.58	181
1	90000	8.94	9.42	178
1	100000	8.98	9.46	179
1	110000	9.29	9.79	185
1	120000	8.9	9.38	177
1	130000	8.71	9.18	173
1	140000	9.02	9.51	180
1	150000	8.91	9.39	177
1	160000	8.01	8.44	160
1	170000	7.97	8.4	159
1	180000	8.62	9.09	172
1	190000	8.91	9.39	177
1	200000	8.77	9.24	175
1	210000	9	9.49	179
1	220000	8.83	9.31	176
1	230000	8.73	9.21	174
1	240000	7.94	8.36	158
1	250000	8.06	8.49	161
1	260000	8.66	9.13	173
1	270000	8.53	8.99	170
1	280000	8.24	8.68	164
1	290000	8.4	8.86	167
1	300000	8.53	8.99	170
1	310000	8.29	8.74	165
1	320000	8.15	8.59	162
1	330000	8.3	8.75	165
1	340000	8.49	8.95	169
1	350000	8.64	9.11	172
1	360000	8.58	9.04	171
1	370000	8.76	9.23	174
1	380000	8.57	9.04	171
1	390000	8.81	9.28	175
1	400000	9.14	9.63	182
1	410000	9.03	9.52	180
1	420000	8.81	9.29	176
1	430000	9.27	9.77	185
1	440000	9.32	9.82	186
1	450000	9.52	10	190
1	460000	9.93	10.5	198
1	470000	9.63	10.2	192
1	480000	9.57	10.1	191
1	490000	9.15	9.64	182
1	500000	9.59	10.1	191
2	0	11.1	8.84	167
2	-10000	9.96	7.7	145
2	-20000	10.1	7.8	147
2	-30000	10.2	7.95	150
2	-40000	9.78	7.52	142
2	-50000	10.3	8.05	152
2	-60000	10.6	8.39	158
2	-70000	10.5	8.28	157
2	-80000	11	8.7	164
2	-90000	10.8	8.53	161
2	-100000	11	8.76	166
2	-110000	11.2	8.9	168
2	-120000	11.2	8.92	169
2	-130000	10.9	8.62	163
2	-140000	10.7	8.49	160
2	-150000	10.5	8.25	156
2	-160000	10.3	8	151
2	-170000	10.3	8	151
2	-180000	10.8	8.57	162
2	-190000	10.5	8.27	156
2	-200000	10.1	7.81	148
2	-210000	10.1	7.88	149
2	-220000	10.5	8.28	157
2	-230000	10.7	8.48	160
2	-240000	10.5	8.21	155
2	-250000	10.6	8.35	158
2	-260000	11	8.73	165
2	-270000	11.4	9.15	173
2	-280000	11.4	9.1	172
2	-290000	11.6	9.38	177
2	-300000	11.9	9.68	183
2	-310000	11.7	9.4	178
2	-320000	11	8.72	165
2	-330000	11.2	8.99	170
2	-340000	11.2	8.98	170
2	-350000	10.7	8.41	159
2	-360000	10.4	8.16	154
2	-370000	10.7	8.4	159
2	-380000	10.8	8.57	162
2	-390000	11.3	9.08	172
2	-400000	11.9	9.66	183
2	-410000	12	9.71	184
2	-420000	12.3	10	189
2	-430000	12.4	10.1	191
2	-440000	12.6	10.4	196
2	-450000	12.7	10.5	198
2	-460000	13.1	10.8	205
2	-470000	13.4	11.1	210
2	-480000	13.1	10.9	205
2	-490000	11.9	9.64	182
2	-500000	11.9	9.62	182
2	0	10.6	11.2	212
2	10000	9.27	9.77	185
2	20000	9.13	9.62	182
2	30000	9.13	9.63	182
2	40000	8.92	9.4	178
2	50000	8.67	9.13	173
2	60000	8.62	9.09	172
2	70000	8.66	9.12	172
2	80000	9.07	9.56	181
2	90000	8.85	9.33	176
2	100000	8.87	9.35	177
2	110000	9.33	9.84	186
2	120000	9.06	9.55	181
2	130000	8.67	9.14	173
2	140000	8.78	9.25	175
2	150000	8.62	9.08	172
2	160000	8.26	8.71	165
2	170000	7.86	8.28	157
2	180000	8.24	8.69	164
2	190000	8.42	8.88	168
2	200000	7.92	8.34	158
2	210000	7.98	8.41	159
2	220000	8.06	8.5	161
2	230000	8.21	8.65	164
2	240000	8.15	8.59	162
2	250000	8.07	8.51	161
2	260000	8.41	8.86	167
2	270000	8.27	8.71	165
2	280000	8.14	8.58	162
2	290000	8.31	8.76	166
2	300000	8.45	8.91	168
2	310000	8.38	8.83	167
2	320000	8.27	8.72	165
2	330000	8.61	9.07	171
2	340000	8.33	8.78	166
2	350000	8.16	8.6	163
2	360000	8.31	8.75	165
2	370000	8.38	8.83	167
2	380000	7.99	8.42	159
2	390000	8.22	8.66	164
2	400000	8.5	8.96	169
2	410000	8.38	8.83	167
2	420000	8.32	8.77	166
2	430000	8.91	9.39	177
2	440000	8.76	9.23	174
2	450000	8.99	9.47	179
2	460000	9.34	9.84	186
2	470000	9.59	10.1	191
2	480000	9.97	10.5	199
2	490000	9.96	10.5	198
2	500000	9.85	10.4	196
3	0	12	9.72	184
3	-10000	13	10.7	202
3	-20000	13.1	10.8	205
3	-30000	12.8	10.5	199
3	-40000	12.2	9.97	188
3	-50000	12.2	9.93	188
3	-60000	11.8	9.59	181
3	-70000	11.3	9	170
3	-80000	11.2	8.99	170
3	-90000	10.8	8.5	161
3	-100000	10.5	8.25	156
3	-110000	10.4	8.09	153
3	-120000	10.4	8.18	155
3	-130000	10.4	8.13	154
3	-140000	10.3	8.05	152
3	-150000	10.2	7.92	150
3	-160000	10.3	8	151
3	-170000	10.1	7.89	149
3	-180000	10.5	8.22	155
3	-190000	10.1	7.88	149
3	-200000	9.66	7.4	140
3	-210000	9.82	7.56	143
3	-220000	10.5	8.19	155
3	-230000	11	8.73	165
3	-240000	11	8.77	166
3	-250000	11.3	9	170
3	-260000	11.3	9.04	171
3	-270000	11.1	8.84	167
3	-280000	10.7	8.46	160
3	-290000	10.8	8.49	161
3	-300000	11.2	8.93	169
3	-310000	11.1	8.86	167
3	-320000	10.3	8.08	153
3	-330000	10.5	8.19	155
3	-340000	11.3	9.08	172
3	-350000	11.5	9.24	175
3	-360000	11.2	8.97	170
3	-370000	10.9	8.62	163
3	-380000	11.1	8.86	167
3	-390000	11.1	8.87	168
3	-400000	11.3	9.03	171
3	-410000	11.2	8.94	169
3	-420000	11.3	9.05	171
3	-430000	11.4	9.1	172
3	-440000	11.6	9.35	177
3	-450000	11.5	9.22	174
3	-460000	11.4	9.17	173
3	-470000	11.4	9.15	173
3	-480000	11.5	9.21	174
3	-490000	10.9	8.6	163
3	-500000	10.7	8.39	159
3	0	9.48	9.99	189
3	10000	9.49	10	189
3	20000	9.32	9.82	186
3	30000	9.22	9.72	184
3	40000	9.13	9.63	182
3	50000	8.94	9.42	178
3	60000	8.82	9.29	176
3	70000	8.82	9.29	176
3	80000	8.85	9.33	176
3	90000	8.47	8.92	169
3	100000	8.39	8.84	167
3	110000	8.62	9.08	172
3	120000	8.17	8.61	163
3	130000	7.78	8.21	155
3	140000	8.22	8.66	164
3	150000	8.23	8.68	164
3	160000	7.68	8.09	153
3	170000	7.49	7.89	149
3	180000	7.8	8.22	155
3	190000	7.86	8.29	157
3	200000	7.53	7.94	150
3	210000	7.82	8.24	156
3	220000	7.88	8.31	157
3	230000	7.74	8.16	154
3	240000	7.32	7.71	146
3	250000	7.04	7.42	140
3	260000	7.43	7.83	148
3	270000	7.24	7.63	144
3	280000	7.06	7.44	141
3	290000	7.2	7.59	143
3	300000	7.62	8.03	152
3	310000	7.72	8.14	154
3	320000	7.61	8.03	152
3	330000	7.5	7.9	149
3	340000	7.42	7.82	148
3	350000	7.23	7.62	144
3	360000	6.91	7.28	138
3	370000	6.44	6.78	128
3	380000	5.66	5.96	113
3	390000	5.39	5.68	107
3	400000	5.54	5.84	110
3	410000	4.32	4.61	87.1
3	420000	4.63	4.92	92.9
3	430000	5.1	5.38	102
3	440000	5.03	5.31	100
3	450000	5.68	5.99	113
3	460000	6.67	7.03	133
3	470000	7.11	7.49	142
3	480000	7.71	8.12	154
3	490000	8.11	8.54	161
3	500000	8.53	8.99	170
4	0	10.4	8.13	154
4	-10000	10.2	7.89	149
4	-20000	10.3	7.99	151
4	-30000	10.3	8.04	152
4	-40000	9.89	7.63	144
4	-50000	10.4	8.14	154
4	-60000	10.3	8.06	152
4	-70000	9.79	7.53	142
4	-80000	9.87	7.61	144
4	-90000	9.71	7.45	141
4	-100000	10	7.75	146
4	-110000	9.56	7.3	138
4	-120000	9.49	7.23	137
4	-130000	9.22	6.96	132
4	-140000	9.37	7.11	134
4	-150000	9.93	7.67	145
4	-160000	9.94	7.68	145
4	-170000	10.2	7.95	150
4	-180000	10.8	8.56	162
4	-190000	10.9	8.62	163
4	-200000	10.7	8.47	160
4	-210000	10.8	8.54	161
4	-220000	11.2	8.92	169
4	-230000	11.4	9.14	173
4	-240000	11.3	9.02	171
4	-250000	11.3	9.08	172
4	-260000	11.4	9.12	172
4	-270000	11.7	9.43	178
4	-280000	11.1	8.8	166
4	-290000	11	8.77	166
4	-300000	11.2	8.94	169
4	-310000	11.2	8.94	169
4	-320000	10.8	8.55	162
4	-330000	10.9	8.66	164
4	-340000	11.2	8.93	169
4	-350000	10.9	8.69	164
4	-360000	11	8.72	165
4	-370000	11.3	9	170
4	-380000	11.2	8.94	169
4	-390000	11.1	8.85	167
4	-400000	11.6	9.3	176
4	-410000	11.4	9.13	173
4	-420000	11.5	9.27	175
4	-430000	11.3	9.06	171
4	-440000	11.2	8.99	170
4	-450000	10.9	8.6	163
4	-460000	10.9	8.68	164
4	-470000	11.6	9.35	177
4	-480000	12	9.75	184
4	-490000	11.3	9.06	171
4	-500000	11.4	9.17	173
4	0	9.52	10	190
4	10000	8.79	9.27	175
4	20000	8.41	8.87	168
4	30000	8.19	8.64	163
4	40000	7.78	8.2	155
4	50000	7.42	7.82	148
4	60000	7.2	7.59	143
4	70000	7.21	7.6	144
4	80000	7.11	7.49	142
4	90000	6.7	7.06	133
4	100000	6.59	6.94	131
4	110000	7.11	7.5	142
4	120000	6.77	7.14	135
4	130000	6.57	6.92	131
4	140000	6.75	7.11	134
4	150000	6.78	7.15	135
4	160000	6.38	6.73	127
4	170000	6.17	6.5	123
4	180000	6.14	6.48	122
4	190000	6.02	6.35	120
4	200000	5.64	5.95	112
4	210000	5.75	6.06	114
4	220000	5.53	5.83	110
4	230000	5.44	5.73	108
4	240000	5.22	5.51	104
4	250000	4.12	4.4	83.2
4	260000	2.85	3.13	59.2
4	270000	2.57	2.86	54
4	280000	1.9	2.18	41.3
4	290000	2.07	2.36	44.6
4	300000	2.01	2.3	43.5
4	310000	1.92	2.2	41.6
4	320000	2.12	2.41	45.6
4	330000	2.29	2.58	48.8
4	340000	2.7	2.98	56.4
4	350000	3.66	3.95	74.6
4	360000	4.74	5.03	95.1
4	370000	4.81	5.1	96.3
4	380000	4.9	5.19	98.1
4	390000	5.16	5.45	103
4	400000	5.52	5.82	110
4	410000	5.55	5.85	111
4	420000	5.85	6.17	117
4	430000	6.18	6.52	123
4	440000	6.03	6.36	120
4	450000	5.96	6.28	119
4	460000	6.45	6.8	129
4	470000	6.29	6.63	125
4	480000	6.37	6.71	127
4	490000	6.03	6.36	120
4	500000	5.49	5.78	109
5	0	6.73	4.47	84.5
5	-10000	6.94	4.68	88.5
5	-20000	6.67	4.41	83.3
5	-30000	6.39	4.13	78
5	-40000	6.28	4.02	76
5	-50000	7.06	4.8	90.8
5	-60000	7.23	4.97	94
5	-70000	6.85	4.59	86.8
5	-80000	6.72	4.46	84.3
5	-90000	6.6	4.34	81.9
5	-100000	6.98	4.72	89.2
5	-110000	7.1	4.84	91.5
5	-120000	6.87	4.61	87.2
5	-130000	6.5	4.24	80.1
5	-140000	6.67	4.41	83.4
5	-150000	6.88	4.62	87.2
5	-160000	7.17	4.91	92.9
5	-170000	7.42	5.16	97.6
5	-180000	7.87	5.61	106
5	-190000	7.8	5.54	105
5	-200000	7.72	5.46	103
5	-210000	7.75	5.49	104
5	-220000	8.61	6.35	120
5	-230000	9.21	6.95	131
5	-240000	9.48	7.22	136
5	-250000	9.53	7.27	137
5	-260000	9.73	7.47	141
5	-270000	9.92	7.66	145
5	-280000	9.48	7.22	136
5	-290000	9.77	7.51	142
5	-300000	10.2	7.94	150
5	-310000	9.96	7.7	145
5	-320000	9.37	7.11	134
5	-330000	9.57	7.31	138
5	-340000	10.1	7.82	148
5	-350000	9.98	7.72	146
5	-360000	9.5	7.24	137
5	-370000	9.69	7.43	140
5	-380000	9.87	7.61	144
5	-390000	9.62	7.36	139
5	-400000	9.74	7.48	141
5	-410000	9.33	7.07	134
5	-420000	9.65	7.39	140
5	-430000	9.75	7.49	142
5	-440000	9.65	7.39	140
5	-450000	9.33	7.07	134
5	-460000	9.59	7.33	139
5	-470000	10	7.74	146
5	-480000	10	7.76	147
5	-490000	9.47	7.21	136
5	-500000	9.24	6.98	132
5	0	7.69	8.11	153
5	10000	7.12	7.51	142
5	20000	6.63	6.99	132
5	30000	6.66	7.02	133
5	40000	6.26	6.6	125
5	50000	5.76	6.07	115
5	60000	5.18	5.47	103
5	70000	4.87	5.15	97.4
5	80000	4.62	4.91	92.8
5	90000	3.95	4.23	80
5	100000	3.87	4.15	78.5
5	110000	4.47	4.75	89.8
5	120000	4.64	4.93	93.1
5	130000	4.28	4.57	86.4
5	140000	4.39	4.68	88.4
5	150000	4.22	4.51	85.2
5	160000	3.79	4.08	77
5	170000	3.74	4.02	76
5	180000	3.94	4.22	79.8
5	190000	3.92	4.21	79.6
5	200000	3.77	4.05	76.6
5	210000	3.82	4.1	77.5
5	220000	3.64	3.93	74.3
5	230000	3.67	3.95	74.7
5	240000	3.36	3.65	69
5	250000	3.07	3.36	63.4
5	260000	3.21	3.5	66.1
5	270000	3.26	3.54	67
5	280000	2.75	3.03	57.3
5	290000	2.56	2.85	53.8
5	300000	2.83	3.11	58.8
5	310000	2.9	3.18	60.2
5	320000	2.97	3.26	61.5
5	330000	3.1	3.38	63.9
5	340000	3.17	3.45	65.2
5	350000	3.38	3.66	69.3
5	360000	3.31	3.59	67.9
5	370000	3.13	3.42	64.6
5	380000	3.16	3.45	65.1
5	390000	3.39	3.68	69.5
5	400000	3.66	3.95	74.6
5	410000	3.38	3.67	69.3
5	420000	3.5	3.78	71.5
5	430000	3.99	4.27	80.8
5	440000	3.91	4.2	79.3
5	450000	3.85	4.14	78.2
5	460000	4.01	4.3	81.3
5	470000	4.31	4.59	86.8
5	480000	4.22	4.51	85.2
5	490000	4.03	4.32	81.6
5	500000	4.24	4.53	85.5
6	0	5.42	3.16	59.7
6	-10000	4.64	2.66	50.2
6	-20000	4.94	2.83	53.5
6	-30000	4.71	2.7	51
6	-40000	4.34	2.49	47
6	-50000	4.76	2.73	51.6
6	-60000	4.96	2.84	53.7
6	-70000	5.08	2.91	55
6	-80000	5.28	3.03	57.2
6	-90000	5.33	3.07	58.1
6	-100000	5.68	3.42	64.7
6	-110000	5.49	3.23	61.1
6	-120000	5.44	3.18	60.1
6	-130000	5.25	3.01	56.9
6	-140000	5.3	3.04	57.5
6	-150000	5.5	3.24	61.2
6	-160000	5.44	3.18	60
6	-170000	5.23	3	56.6
6	-180000	5.52	3.26	61.7
6	-190000	5.37	3.11	58.8
6	-200000	5.28	3.02	57.1
6	-210000	5.27	3.02	57.1
6	-220000	5.56	3.3	62.4
6	-230000	5.65	3.39	64.1
6	-240000	5.39	3.13	59.2
6	-250000	5.58	3.32	62.7
6	-260000	6.15	3.89	73.4
6	-270000	6.56	4.3	81.3
6	-280000	5.98	3.72	70.3
6	-290000	5.99	3.73	70.5
6	-300000	6.6	4.34	82
6	-310000	6.73	4.47	84.4
6	-320000	6.49	4.23	79.9
6	-330000	6.66	4.4	83.1
6	-340000	6.96	4.7	88.7
6	-350000	7.05	4.79	90.5
6	-360000	6.84	4.58	86.5
6	-370000	7.41	5.15	97.3
6	-380000	7.73	5.47	103
6	-390000	7.88	5.62	106
6	-400000	7.44	5.18	97.8
6	-410000	7.06	4.8	90.8
6	-420000	6.78	4.52	85.4
6	-430000	7.03	4.77	90.1
6	-440000	7.1	4.84	91.6
6	-450000	7.17	4.91	92.7
6	-460000	7.52	5.26	99.4
6	-470000	7.99	5.73	108
6	-480000	8.53	6.27	118
6	-490000	8.39	6.13	116
6	-500000	8.44	6.18	117
