rep_num	position	torque	torque_compensated	lbs_compensated
1	0	6.63	6.99	132
1	10000	6.64	7	132
1	20000	8.9	9.38	177
1	30000	9.65	10.2	192
1	40000	9.45	9.96	188
1	50000	9.67	10.2	193
1	60000	9.19	9.69	183
1	70000	9.32	9.82	186
1	80000	9.6	10.1	191
1	90000	9.75	10.3	194
1	100000	9.56	10.1	190
1	110000	9.9	10.4	197
1	120000	10.6	11.2	211
1	130000	10.1	10.6	201
1	140000	9.88	10.4	197
1	150000	10.1	10.7	201
1	160000	10.5	11.1	209
1	170000	9.91	10.4	197
1	180000	10.1	10.6	201
1	190000	10.7	11.2	212
1	200000	11.2	11.9	224
1	210000	10.6	11.2	211
1	220000	10.6	11.2	212
1	230000	11.5	12.1	229
1	240000	11.2	11.8	223
1	250000	10	10.5	199
1	260000	9.65	10.2	192
1	270000	10.6	11.2	212
1	280000	11.2	11.8	223
1	290000	10.1	10.6	201
1	300000	9.78	10.3	195
1	310000	10.4	11	208
1	320000	10	10.6	200
1	330000	9.28	9.78	185
1	340000	8.98	9.46	179
1	350000	9.7	10.2	193
1	360000	9.42	9.93	188
1	370000	8.95	9.43	178
1	380000	7.97	8.4	159
1	390000	8.51	8.97	169
1	400000	8.61	9.07	171
1	410000	8.47	8.93	169
1	420000	7.97	8.4	159
1	430000	8.96	9.44	178
1	440000	9.43	9.94	188
1	450000	9.13	9.62	182
1	460000	8.92	9.41	178
1	470000	9.5	10	189
1	480000	10.2	10.7	203
1	490000	9.49	10	189
1	500000	9.77	10.3	195
2	0	10.9	8.63	163
2	-10000	11.8	9.52	180
2	-20000	12.1	9.83	186
2	-30000	13.1	10.9	205
2	-40000	12.7	10.5	198
2	-50000	12.2	9.99	189
2	-60000	13.3	11	208
2	-70000	13.1	10.9	206
2	-80000	12.5	10.3	194
2	-90000	11.7	9.46	179
2	-100000	11.8	9.56	181
2	-110000	12.3	10	190
2	-120000	11.9	9.64	182
2	-130000	11.7	9.48	179
2	-140000	12.2	9.9	187
2	-150000	12.8	10.5	198
2	-160000	13	10.7	202
2	-170000	11.8	9.51	180
2	-180000	11.8	9.49	179
2	-190000	12.4	10.1	192
2	-200000	12.4	10.2	192
2	-210000	12.2	9.91	187
2	-220000	12.4	10.2	192
2	-230000	13.2	10.9	207
2	-240000	12.8	10.6	200
2	-250000	12.2	9.93	188
2	-260000	12.2	9.91	187
2	-270000	13.1	10.8	205
2	-280000	13.9	11.7	221
2	-290000	13.7	11.4	216
2	-300000	14	11.8	222
2	-310000	14.9	12.7	240
2	-320000	14.6	12.3	233
2	-330000	13.8	11.6	218
2	-340000	14.4	12.2	230
2	-350000	15.4	13.2	249
2	-360000	15.5	13.3	251
2	-370000	15.2	12.9	244
2	-380000	16	13.7	259
2	-390000	16.3	14	265
2	-400000	15.9	13.6	258
2	-410000	15.2	12.9	244
2	-420000	15.3	13	246
2	-430000	15.7	13.4	254
2	-440000	15.2	12.9	245
2	-450000	15.3	13	246
2	-460000	15.7	13.5	254
2	-470000	16.1	13.9	262
2	-480000	15.9	13.6	257
2	-490000	16	13.7	260
2	-500000	16.3	14	265
2	0	14.2	15	284
2	10000	11.9	12.5	236
2	20000	12.3	13	246
2	30000	12.8	13.5	256
2	40000	12.6	13.3	250
2	50000	12	12.6	238
2	60000	11.7	12.4	233
2	70000	11.9	12.6	238
2	80000	11.9	12.5	237
2	90000	11.4	12	227
2	100000	11	11.6	219
2	110000	11.6	12.2	231
2	120000	11.8	12.5	235
2	130000	11	11.6	220
2	140000	10.3	10.8	205
2	150000	11.2	11.8	222
2	160000	11	11.6	219
2	170000	10	10.6	200
2	180000	10.1	10.6	201
2	190000	10.7	11.3	214
2	200000	10.3	10.9	206
2	210000	9.09	9.58	181
2	220000	9.63	10.2	192
2	230000	10.5	11.1	209
2	240000	10.5	11	209
2	250000	9.77	10.3	195
2	260000	9.39	9.9	187
2	270000	10.5	11.1	210
2	280000	10.9	11.4	216
2	290000	9.79	10.3	195
2	300000	9.86	10.4	196
2	310000	10.1	10.7	201
2	320000	9.71	10.2	194
2	330000	8.92	9.4	178
2	340000	8.71	9.19	174
2	350000	8.79	9.26	175
2	360000	8.88	9.36	177
2	370000	8.24	8.69	164
2	380000	8.13	8.56	162
2	390000	8.36	8.81	167
2	400000	8.4	8.85	167
2	410000	7.99	8.43	159
2	420000	7.89	8.31	157
2	430000	8.55	9.01	170
2	440000	8.82	9.29	176
2	450000	7.94	8.37	158
2	460000	7.9	8.32	157
2	470000	8.74	9.22	174
2	480000	9.8	10.3	195
2	490000	9.76	10.3	194
2	500000	10.1	10.7	202
3	0	11.5	9.24	175
3	-10000	12.5	10.2	193
3	-20000	12.2	9.98	189
3	-30000	12.3	10	189
3	-40000	12	9.73	184
3	-50000	10.8	8.53	161
3	-60000	11.5	9.21	174
3	-70000	11.8	9.5	180
3	-80000	11.6	9.3	176
3	-90000	11.2	8.9	168
3	-100000	11.5	9.26	175
3	-110000	12.2	9.99	189
3	-120000	12.7	10.4	197
3	-130000	13.1	10.8	204
3	-140000	13.7	11.4	216
3	-150000	14	11.8	223
3	-160000	13.9	11.7	220
3	-170000	13	10.8	203
3	-180000	13.2	10.9	206
3	-190000	13.3	11	208
3	-200000	12.8	10.5	199
3	-210000	11.9	9.66	183
3	-220000	12.3	10	189
3	-230000	13.1	10.9	206
3	-240000	13.4	11.2	211
3	-250000	13.3	11	209
3	-260000	13.5	11.2	212
3	-270000	14.3	12.1	228
3	-280000	14.7	12.5	236
3	-290000	14.4	12.1	229
3	-300000	14.9	12.6	238
3	-310000	15.9	13.6	257
3	-320000	15.9	13.6	257
3	-330000	15	12.8	241
3	-340000	14.9	12.7	239
3	-350000	15.8	13.6	256
3	-360000	15.3	13	246
3	-370000	14.8	12.6	237
3	-380000	15.4	13.2	249
3	-390000	15.4	13.2	249
3	-400000	15.1	12.8	242
3	-410000	14	11.8	222
3	-420000	14.6	12.3	233
3	-430000	15	12.7	240
3	-440000	14.5	12.2	231
3	-450000	14.2	11.9	225
3	-460000	14.3	12	228
3	-470000	13.9	11.7	221
3	-480000	13.9	11.7	221
3	-490000	14.8	12.5	236
3	-500000	15.5	13.2	250
3	0	13.1	13.8	261
3	10000	11.5	12.1	229
3	20000	12.5	13.2	249
3	30000	11.9	12.6	238
3	40000	11.5	12.1	229
3	50000	10.8	11.3	215
3	60000	10.7	11.3	213
3	70000	11	11.6	220
3	80000	11.4	12	228
3	90000	10.4	11	207
3	100000	9.78	10.3	195
3	110000	10.6	11.1	211
3	120000	11.1	11.7	222
3	130000	10.3	10.8	204
3	140000	9.74	10.3	194
3	150000	10.7	11.3	213
3	160000	10.7	11.3	213
3	170000	10	10.6	200
3	180000	10	10.5	199
3	190000	10.3	10.8	205
3	200000	10	10.6	200
3	210000	8.99	9.48	179
3	220000	9.11	9.6	181
3	230000	9.84	10.4	196
3	240000	9.39	9.9	187
3	250000	8.74	9.21	174
3	260000	8.51	8.96	169
3	270000	9.14	9.64	182
3	280000	9.11	9.6	182
3	290000	7.8	8.22	155
3	300000	7.56	7.97	151
3	310000	7.67	8.09	153
3	320000	7.43	7.84	148
3	330000	6.72	7.08	134
3	340000	6.34	6.68	126
3	350000	6.68	7.04	133
3	360000	6.95	7.33	139
3	370000	6.46	6.81	129
3	380000	6.09	6.42	121
3	390000	6.33	6.67	126
3	400000	6.23	6.57	124
3	410000	5.77	6.08	115
3	420000	5.63	5.94	112
3	430000	6.42	6.77	128
3	440000	7.43	7.83	148
3	450000	6.06	6.38	121
3	460000	5.84	6.15	116
3	470000	6.38	6.72	127
3	480000	7.51	7.92	150
3	490000	7.65	8.06	152
3	500000	8.06	8.49	161
4	0	8.95	6.69	126
4	-10000	8.59	6.33	120
4	-20000	8.72	6.46	122
4	-30000	10.2	7.91	149
4	-40000	10.5	8.24	156
4	-50000	9.63	7.37	139
4	-60000	9.74	7.48	141
4	-70000	9.91	7.65	145
4	-80000	9.75	7.49	142
4	-90000	9.5	7.24	137
4	-100000	10.1	7.88	149
4	-110000	10.8	8.56	162
4	-120000	10.5	8.28	157
4	-130000	10.1	7.79	147
4	-140000	11.5	9.2	174
4	-150000	12.3	10.1	190
4	-160000	12.2	9.94	188
4	-170000	12.4	10.2	192
4	-180000	12.7	10.4	197
4	-190000	13	10.7	203
4	-200000	12.6	10.3	195
4	-210000	11.4	9.14	173
4	-220000	11.6	9.31	176
4	-230000	12.1	9.84	186
4	-240000	12	9.78	185
4	-250000	11.9	9.61	182
4	-260000	12.4	10.1	191
4	-270000	13.1	10.8	204
4	-280000	12.9	10.6	201
4	-290000	12.1	9.81	185
4	-300000	11.8	9.56	181
4	-310000	12.2	9.93	188
4	-320000	12.2	9.98	189
4	-330000	11	8.77	166
4	-340000	11.2	8.94	169
4	-350000	12.3	10	189
4	-360000	12	9.72	184
4	-370000	11	8.76	166
4	-380000	11.6	9.3	176
4	-390000	11.5	9.28	175
4	-400000	11.7	9.47	179
4	-410000	11.2	8.92	169
4	-420000	11.7	9.42	178
4	-430000	11.9	9.66	183
4	-440000	12	9.72	184
4	-450000	12.1	9.8	185
4	-460000	12.6	10.3	195
4	-470000	12.4	10.2	192
4	-480000	11.9	9.68	183
4	-490000	12.3	10.1	190
4	-500000	12.9	10.7	202
4	0	11.2	11.8	222
4	10000	10.4	11	207
4	20000	9.48	10	189
4	30000	9.49	10	189
4	40000	9.55	10.1	190
4	50000	9.18	9.67	183
4	60000	8.95	9.43	178
4	70000	9.06	9.55	181
4	80000	9.24	9.74	184
4	90000	8.68	9.15	173
4	100000	8.21	8.65	164
4	110000	8.47	8.92	169
4	120000	8.82	9.3	176
4	130000	7.74	8.16	154
4	140000	7.37	7.77	147
4	150000	8.48	8.93	169
4	160000	8.7	9.17	173
4	170000	8.09	8.53	161
4	180000	7.89	8.32	157
4	190000	8.31	8.76	166
4	200000	8.05	8.48	160
4	210000	7.05	7.43	140
4	220000	7.14	7.52	142
4	230000	7.43	7.83	148
4	240000	7.06	7.44	141
4	250000	6.14	6.47	122
4	260000	5.11	5.39	102
4	270000	4.67	4.96	93.7
4	280000	4.67	4.95	93.6
4	290000	3.87	4.16	78.6
4	300000	3.89	4.18	79
4	310000	4.84	5.12	96.8
4	320000	4.59	4.88	92.1
4	330000	4.82	5.1	96.4
4	340000	5.24	5.53	105
4	350000	6.12	6.45	122
4	360000	6.04	6.36	120
4	370000	5.25	5.54	105
4	380000	4.76	5.04	95.3
4	390000	5.11	5.39	102
4	400000	5.3	5.59	106
4	410000	4.99	5.28	99.8
4	420000	4.55	4.83	91.3
4	430000	5.2	5.49	104
4	440000	5.85	6.17	117
4	450000	5.26	5.55	105
4	460000	5.41	5.7	108
4	470000	5.96	6.28	119
4	480000	6.27	6.61	125
4	490000	6.27	6.61	125
4	500000	6.35	6.69	126
5	0	7.2	4.94	93.4
5	-10000	8.25	5.99	113
5	-20000	7.74	5.48	104
5	-30000	8.76	6.5	123
5	-40000	8.35	6.09	115
5	-50000	7.75	5.49	104
5	-60000	8.06	5.8	110
5	-70000	8.17	5.91	112
5	-80000	7.91	5.65	107
5	-90000	7.57	5.31	100
5	-100000	8.22	5.96	113
5	-110000	8.67	6.41	121
5	-120000	8.19	5.93	112
5	-130000	7.94	5.68	107
5	-140000	8.81	6.55	124
5	-150000	9.55	7.29	138
5	-160000	10.2	7.98	151
5	-170000	10.3	8.01	151
5	-180000	11.3	9.07	171
5	-190000	12.6	10.3	195
5	-200000	13.2	10.9	206
5	-210000	12.5	10.2	193
5	-220000	12.7	10.4	197
5	-230000	13.2	10.9	207
5	-240000	13.1	10.9	205
5	-250000	12.7	10.5	198
5	-260000	12.4	10.1	191
5	-270000	12.4	10.1	192
5	-280000	12	9.76	185
5	-290000	11.1	8.83	167
5	-300000	11.1	8.86	167
5	-310000	11.5	9.25	175
5	-320000	11.4	9.17	173
5	-330000	10.5	8.2	155
5	-340000	10.6	8.32	157
5	-350000	11.7	9.44	178
5	-360000	11.2	8.97	170
5	-370000	10.1	7.87	149
5	-380000	10.4	8.18	155
5	-390000	10.6	8.33	158
5	-400000	10.3	8.06	152
5	-410000	9.59	7.33	139
5	-420000	9.95	7.69	145
5	-430000	11.2	8.95	169
5	-440000	11.6	9.39	177
5	-450000	11.7	9.48	179
5	-460000	12.6	10.3	195
5	-470000	12.1	9.87	187
5	-480000	11.3	9.08	172
5	-490000	11.4	9.16	173
5	-500000	11.6	9.36	177
5	0	9.55	10.1	190
5	10000	8.31	8.76	166
5	20000	8.58	9.04	171
5	30000	8.28	8.73	165
5	40000	8.43	8.89	168
5	50000	7.78	8.2	155
5	60000	7.68	8.1	153
5	70000	8.14	8.59	162
5	80000	8.13	8.57	162
5	90000	7.73	8.15	154
5	100000	7.43	7.84	148
5	110000	8.28	8.73	165
5	120000	8.34	8.79	166
5	130000	7.39	7.78	147
5	140000	6.97	7.35	139
5	150000	7.83	8.25	156
5	160000	7.48	7.88	149
5	170000	6.73	7.09	134
5	180000	6.79	7.16	135
5	190000	7.24	7.63	144
5	200000	7.02	7.4	140
5	210000	5.94	6.27	118
5	220000	5.84	6.16	116
5	230000	6.12	6.45	122
5	240000	5.49	5.79	109
5	250000	4.42	4.71	89
5	260000	4.08	4.37	82.6
5	270000	4.52	4.8	90.7
5	280000	4.47	4.76	89.9
5	290000	3.46	3.74	70.7
5	300000	3.43	3.72	70.2
5	310000	4.17	4.46	84.3
5	320000	4.2	4.49	84.8
5	330000	3.73	4.01	75.8
5	340000	3.56	3.84	72.7
5	350000	4.34	4.63	87.4
5	360000	4.5	4.79	90.5
5	370000	4.07	4.36	82.4
5	380000	3.86	4.14	78.3
5	390000	4.14	4.43	83.7
5	400000	4.39	4.67	88.3
5	410000	4.1	4.39	82.9
5	420000	3.63	3.92	74.1
5	430000	4.2	4.48	84.7
5	440000	4.75	5.04	95.2
5	450000	3.74	4.03	76.1
5	460000	4.05	4.33	81.9
5	470000	4.14	4.43	83.7
5	480000	4.7	4.98	94.2
5	490000	4.05	4.34	81.9
5	500000	4.08	4.37	82.6
6	0	4.86	2.78	52.6
6	-10000	6.54	4.28	81
6	-20000	6.35	4.09	77.4
6	-30000	6.78	4.52	85.3
6	-40000	6.7	4.44	84
6	-50000	6.29	4.03	76.2
6	-60000	6.7	4.44	83.9
6	-70000	7.2	4.94	93.4
6	-80000	6.73	4.47	84.5
6	-90000	5.8	3.54	66.8
6	-100000	6.33	4.07	76.9
6	-110000	6.81	4.55	86
6	-120000	6.45	4.19	79.3
6	-130000	6.35	4.09	77.3
6	-140000	7.01	4.75	89.8
6	-150000	7.83	5.57	105
6	-160000	7.6	5.34	101
6	-170000	7.18	4.92	93.1
6	-180000	7.56	5.3	100
6	-190000	8.47	6.21	117
6	-200000	8.91	6.65	126
6	-210000	8.51	6.25	118
6	-220000	8.64	6.38	121
6	-230000	9.49	7.23	137
6	-240000	9.8	7.54	143
6	-250000	9.23	6.97	132
6	-260000	9.01	6.75	128
6	-270000	9.62	7.36	139
6	-280000	9.24	6.98	132
6	-290000	8.06	5.8	110
6	-300000	8.15	5.89	111
6	-310000	8.81	6.55	124
6	-320000	8.84	6.58	124
6	-330000	8.1	5.84	110
6	-340000	8.38	6.12	116
6	-350000	9.28	7.02	133
6	-360000	8.9	6.64	126
6	-370000	8.19	5.93	112
6	-380000	8.75	6.49	123
6	-390000	8.84	6.58	124
6	-400000	8.73	6.47	122
6	-410000	8.39	6.13	116
6	-420000	9.2	6.94	131
6	-430000	10.1	7.85	148
6	-440000	11.5	9.2	174
6	-450000	12.3	9.99	189
6	-460000	13.1	10.8	204
6	-470000	13	10.7	203
6	-480000	12.4	10.2	192
6	-490000	12.3	10.1	190
6	-500000	11.9	9.6	181
