rep_num	position	torque	torque_compensated	lbs_compensated
1	0	5.48	5.77	109
1	10000	6.19	6.52	123
1	20000	8.18	8.62	163
1	30000	9.07	9.56	181
1	40000	8.89	9.37	177
1	50000	9.09	9.58	181
1	60000	8.65	9.12	172
1	70000	8.61	9.07	171
1	80000	8.49	8.95	169
1	90000	9.19	9.69	183
1	100000	9.72	10.2	194
1	110000	9.07	9.56	181
1	120000	9.05	9.54	180
1	130000	9.65	10.2	192
1	140000	9.41	9.92	187
1	150000	8.6	9.06	171
1	160000	8.43	8.88	168
1	170000	9.59	10.1	191
1	180000	9.3	9.81	185
1	190000	9.04	9.53	180
1	200000	9.41	9.92	188
1	210000	9.49	10	189
1	220000	9.53	10	190
1	230000	9.03	9.52	180
1	240000	9.34	9.85	186
1	250000	9.62	10.1	192
1	260000	9.83	10.4	196
1	270000	9.22	9.72	184
1	280000	9.75	10.3	194
1	290000	10.5	11.1	209
1	300000	9.95	10.5	198
1	310000	9.53	10	190
1	320000	9.61	10.1	191
1	330000	10.1	10.7	202
1	340000	9.68	10.2	193
1	350000	9.66	10.2	192
1	360000	9.73	10.3	194
1	370000	9.69	10.2	193
1	380000	9.49	10	189
1	390000	9.26	9.76	184
1	400000	9.12	9.61	182
1	410000	9.35	9.85	186
1	420000	9.5	10	189
1	430000	9.03	9.52	180
1	440000	8.82	9.29	176
1	450000	9.81	10.3	195
1	460000	9.64	10.2	192
1	470000	9.68	10.2	193
1	480000	9.89	10.4	197
1	490000	9.93	10.5	198
1	500000	9.71	10.2	193
2	0	11	8.79	166
2	-10000	11.1	8.83	167
2	-20000	11.3	9.01	170
2	-30000	11.1	8.84	167
2	-40000	11.5	9.26	175
2	-50000	12	9.72	184
2	-60000	11.8	9.54	180
2	-70000	11.1	8.85	167
2	-80000	11.1	8.86	167
2	-90000	11.4	9.1	172
2	-100000	11.6	9.29	176
2	-110000	11.2	8.95	169
2	-120000	11	8.76	166
2	-130000	11	8.73	165
2	-140000	10.8	8.52	161
2	-150000	10.5	8.28	156
2	-160000	10.5	8.21	155
2	-170000	10.7	8.41	159
2	-180000	10.7	8.4	159
2	-190000	10.5	8.26	156
2	-200000	10.9	8.67	164
2	-210000	12	9.75	184
2	-220000	12.3	10	190
2	-230000	12.3	10	189
2	-240000	12	9.79	185
2	-250000	12.1	9.87	187
2	-260000	12	9.7	183
2	-270000	11.4	9.14	173
2	-280000	11	8.73	165
2	-290000	11.1	8.81	167
2	-300000	11.5	9.25	175
2	-310000	11.4	9.17	173
2	-320000	11.7	9.39	178
2	-330000	11.9	9.66	182
2	-340000	11.8	9.52	180
2	-350000	11.5	9.25	175
2	-360000	11.8	9.54	180
2	-370000	11.8	9.51	180
2	-380000	11.5	9.24	175
2	-390000	11	8.75	165
2	-400000	11.4	9.09	172
2	-410000	11.6	9.3	176
2	-420000	12.2	9.93	188
2	-430000	12.4	10.1	191
2	-440000	12.8	10.5	199
2	-450000	12.8	10.5	199
2	-460000	12.3	10	190
2	-470000	12.1	9.84	186
2	-480000	12.2	9.96	188
2	-490000	12	9.78	185
2	-500000	12.1	9.83	186
2	0	11.5	12.1	229
2	10000	11.7	12.4	234
2	20000	11.2	11.8	222
2	30000	11.3	11.9	225
2	40000	11	11.6	219
2	50000	10.6	11.2	211
2	60000	10.1	10.7	202
2	70000	10.2	10.8	204
2	80000	10.7	11.3	213
2	90000	11	11.6	219
2	100000	11	11.6	220
2	110000	10.5	11	208
2	120000	10.2	10.7	203
2	130000	10.7	11.3	214
2	140000	10.7	11.3	213
2	150000	10.5	11	209
2	160000	10.2	10.8	204
2	170000	10.2	10.7	203
2	180000	9.68	10.2	193
2	190000	9.51	10	190
2	200000	10.1	10.6	200
2	210000	9.99	10.5	199
2	220000	9.38	9.89	187
2	230000	8.98	9.46	179
2	240000	9.2	9.7	183
2	250000	9.9	10.4	197
2	260000	9.69	10.2	193
2	270000	9.14	9.63	182
2	280000	9.2	9.7	183
2	290000	9.75	10.3	194
2	300000	9.13	9.62	182
2	310000	8.67	9.14	173
2	320000	8.92	9.4	178
2	330000	8.96	9.44	178
2	340000	8.69	9.16	173
2	350000	8.09	8.53	161
2	360000	8.47	8.93	169
2	370000	8.54	9	170
2	380000	8.36	8.81	166
2	390000	8.26	8.71	165
2	400000	8.2	8.65	163
2	410000	8.33	8.78	166
2	420000	8.54	9.01	170
2	430000	8	8.43	159
2	440000	8.04	8.48	160
2	450000	8.36	8.81	167
2	460000	8.56	9.02	170
2	470000	8.8	9.28	175
2	480000	9.24	9.74	184
2	490000	9.17	9.67	183
2	500000	9.4	9.91	187
3	0	11.8	9.58	181
3	-10000	12.5	10.2	193
3	-20000	12.2	9.91	187
3	-30000	11.5	9.25	175
3	-40000	11.3	9.09	172
3	-50000	11.9	9.64	182
3	-60000	11.5	9.26	175
3	-70000	11	8.78	166
3	-80000	11.2	8.9	168
3	-90000	11.1	8.82	167
3	-100000	10.9	8.69	164
3	-110000	11	8.72	165
3	-120000	11.2	8.94	169
3	-130000	11.3	9.01	170
3	-140000	11.6	9.34	177
3	-150000	11.9	9.61	182
3	-160000	11.9	9.6	181
3	-170000	12.3	10.1	190
3	-180000	12.8	10.5	198
3	-190000	12.2	9.92	188
3	-200000	11.9	9.59	181
3	-210000	12.5	10.3	194
3	-220000	13	10.7	203
3	-230000	12.5	10.3	194
3	-240000	12.3	10.1	190
3	-250000	12.6	10.3	195
3	-260000	12.9	10.6	201
3	-270000	12.9	10.6	201
3	-280000	12.9	10.7	201
3	-290000	13.4	11.1	210
3	-300000	14	11.8	222
3	-310000	13.6	11.3	214
3	-320000	13.2	11	207
3	-330000	13.8	11.5	218
3	-340000	13.7	11.4	216
3	-350000	13.2	11	208
3	-360000	13.6	11.3	214
3	-370000	13.9	11.6	219
3	-380000	13.6	11.3	214
3	-390000	13.3	11.1	209
3	-400000	13.8	11.6	219
3	-410000	13.8	11.5	218
3	-420000	13.4	11.2	211
3	-430000	13	10.8	204
3	-440000	12.8	10.5	199
3	-450000	12.4	10.2	192
3	-460000	12.3	10.1	191
3	-470000	12.5	10.3	194
3	-480000	12.6	10.3	195
3	-490000	12.3	10	189
3	-500000	12.2	9.93	188
3	0	10.6	11.1	210
3	10000	9.64	10.2	192
3	20000	9.46	9.98	189
3	30000	9.43	9.94	188
3	40000	9.56	10.1	190
3	50000	9.73	10.3	194
3	60000	9.21	9.71	183
3	70000	8.98	9.46	179
3	80000	8.96	9.45	179
3	90000	8.72	9.19	174
3	100000	8.71	9.18	174
3	110000	8.46	8.91	168
3	120000	8.25	8.7	164
3	130000	8.83	9.3	176
3	140000	8.83	9.31	176
3	150000	8.23	8.68	164
3	160000	8.71	9.18	173
3	170000	9.22	9.72	184
3	180000	9.36	9.87	186
3	190000	9.04	9.53	180
3	200000	9.3	9.8	185
3	210000	9.41	9.92	188
3	220000	9.27	9.78	185
3	230000	8.87	9.35	177
3	240000	8.69	9.16	173
3	250000	8.64	9.11	172
3	260000	8.63	9.09	172
3	270000	7.63	8.04	152
3	280000	7.27	7.67	145
3	290000	7.89	8.32	157
3	300000	7.42	7.82	148
3	310000	7.25	7.64	144
3	320000	7.38	7.78	147
3	330000	7.93	8.36	158
3	340000	8.15	8.59	162
3	350000	7.89	8.32	157
3	360000	8.03	8.47	160
3	370000	7.86	8.28	157
3	380000	7.57	7.98	151
3	390000	6.91	7.28	138
3	400000	6.65	7.01	132
3	410000	6.54	6.9	130
3	420000	6.97	7.35	139
3	430000	6.68	7.04	133
3	440000	6.42	6.77	128
3	450000	7.06	7.44	141
3	460000	7.62	8.03	152
3	470000	8.22	8.67	164
3	480000	8.77	9.25	175
3	490000	8.94	9.42	178
3	500000	9.47	9.98	189
4	0	10.8	8.56	162
4	-10000	10.7	8.39	159
4	-20000	11.6	9.38	177
4	-30000	11.3	9.02	170
4	-40000	11.5	9.22	174
4	-50000	12.3	10	189
4	-60000	12.2	9.9	187
4	-70000	11.6	9.38	177
4	-80000	11.4	9.11	172
4	-90000	11.4	9.15	173
4	-100000	10.9	8.66	164
4	-110000	10.7	8.45	160
4	-120000	10.6	8.36	158
4	-130000	10.8	8.49	160
4	-140000	11	8.76	165
4	-150000	11	8.69	164
4	-160000	10.6	8.39	159
4	-170000	10.8	8.52	161
4	-180000	11.1	8.84	167
4	-190000	11	8.71	165
4	-200000	10.5	8.23	156
4	-210000	10.7	8.43	159
4	-220000	10.4	8.12	153
4	-230000	9.8	7.54	143
4	-240000	9.57	7.31	138
4	-250000	10.1	7.79	147
4	-260000	10.7	8.4	159
4	-270000	10.8	8.56	162
4	-280000	10.9	8.63	163
4	-290000	11.5	9.25	175
4	-300000	12	9.7	183
4	-310000	11.4	9.1	172
4	-320000	10.9	8.6	163
4	-330000	11.5	9.21	174
4	-340000	11.6	9.33	176
4	-350000	10.8	8.58	162
4	-360000	11.1	8.88	168
4	-370000	11.4	9.1	172
4	-380000	11.4	9.11	172
4	-390000	11.1	8.83	167
4	-400000	11.2	8.94	169
4	-410000	11.4	9.17	173
4	-420000	11.5	9.2	174
4	-430000	11.1	8.89	168
4	-440000	11.3	8.99	170
4	-450000	12.1	9.85	186
4	-460000	12.5	10.2	193
4	-470000	12.5	10.2	194
4	-480000	12.1	9.79	185
4	-490000	12.1	9.88	187
4	-500000	12	9.75	184
4	0	10.3	10.8	205
4	10000	8.66	9.12	172
4	20000	7.96	8.39	159
4	30000	7.93	8.36	158
4	40000	8.21	8.65	164
4	50000	8.36	8.81	167
4	60000	8.52	8.99	170
4	70000	8.17	8.61	163
4	80000	7.56	7.96	151
4	90000	7.64	8.06	152
4	100000	8.12	8.56	162
4	110000	7.61	8.03	152
4	120000	7.33	7.73	146
4	130000	7.87	8.29	157
4	140000	7.56	7.97	151
4	150000	7.05	7.43	140
4	160000	7.42	7.82	148
4	170000	7.97	8.4	159
4	180000	7.65	8.06	152
4	190000	6.97	7.34	139
4	200000	7.11	7.5	142
4	210000	6.92	7.29	138
4	220000	6.75	7.12	134
4	230000	6.27	6.61	125
4	240000	6.3	6.64	126
4	250000	6.95	7.32	138
4	260000	7.25	7.64	144
4	270000	6.73	7.09	134
4	280000	6.88	7.25	137
4	290000	7.29	7.68	145
4	300000	7.04	7.42	140
4	310000	6.65	7.01	132
4	320000	6.55	6.9	131
4	330000	6.09	6.42	121
4	340000	5.07	5.35	101
4	350000	5.13	5.42	102
4	360000	5.23	5.52	104
4	370000	5.29	5.57	105
4	380000	4.78	5.07	95.7
4	390000	4.79	5.08	96
4	400000	4.64	4.93	93.1
4	410000	5.02	5.3	100
4	420000	5.4	5.69	107
4	430000	4.89	5.18	97.8
4	440000	5.03	5.32	101
4	450000	5.5	5.79	110
4	460000	6.1	6.43	121
4	470000	5.79	6.11	115
4	480000	5.98	6.31	119
4	490000	5.79	6.1	115
4	500000	5.6	5.9	112
5	0	7.14	4.88	92.3
5	-10000	7.61	5.35	101
5	-20000	7.95	5.69	107
5	-30000	7.62	5.36	101
5	-40000	7.45	5.19	98.1
5	-50000	7.77	5.51	104
5	-60000	7.75	5.49	104
5	-70000	7.52	5.26	99.4
5	-80000	8.33	6.07	115
5	-90000	9.06	6.8	128
5	-100000	8.84	6.58	124
5	-110000	8.42	6.16	116
5	-120000	8.11	5.85	111
5	-130000	8.1	5.84	110
5	-140000	8.37	6.11	116
5	-150000	8.48	6.22	118
5	-160000	8.01	5.75	109
5	-170000	7.91	5.65	107
5	-180000	8.13	5.87	111
5	-190000	8.46	6.2	117
5	-200000	8.99	6.73	127
5	-210000	9.73	7.47	141
5	-220000	10.2	7.97	151
5	-230000	10.2	7.9	149
5	-240000	10.3	8.05	152
5	-250000	10.4	8.18	155
5	-260000	10.2	7.92	150
5	-270000	9.76	7.5	142
5	-280000	9.63	7.37	139
5	-290000	9.78	7.52	142
5	-300000	10	7.77	147
5	-310000	9.89	7.63	144
5	-320000	9.74	7.48	141
5	-330000	10.2	7.98	151
5	-340000	10	7.77	147
5	-350000	9.49	7.23	137
5	-360000	9.53	7.27	137
5	-370000	10.2	7.93	150
5	-380000	10.1	7.84	148
5	-390000	9.59	7.33	139
5	-400000	9.77	7.51	142
5	-410000	9.68	7.42	140
5	-420000	9.66	7.4	140
5	-430000	9.79	7.53	142
5	-440000	10.1	7.84	148
5	-450000	10.3	8.08	153
5	-460000	10.2	7.89	149
5	-470000	10.1	7.87	149
5	-480000	10.4	8.15	154
5	-490000	10.5	8.21	155
5	-500000	10.6	8.31	157
5	0	8.75	9.22	174
5	10000	7.86	8.28	156
5	20000	7.49	7.9	149
5	30000	7.4	7.8	147
5	40000	7.06	7.45	141
5	50000	7.03	7.41	140
5	60000	6	6.32	120
5	70000	5.97	6.29	119
5	80000	6.16	6.5	123
5	90000	6.14	6.47	122
5	100000	6.32	6.66	126
5	110000	5.67	5.98	113
5	120000	5.45	5.75	109
5	130000	5.99	6.32	119
5	140000	5.93	6.25	118
5	150000	5.66	5.96	113
5	160000	5.56	5.86	111
5	170000	5.81	6.13	116
5	180000	5.69	5.99	113
5	190000	5.03	5.32	101
5	200000	4.95	5.23	98.9
5	210000	4.95	5.24	99
5	220000	4.65	4.94	93.3
5	230000	4.35	4.63	87.6
5	240000	4.15	4.44	83.9
5	250000	4.1	4.38	82.8
5	260000	4.04	4.33	81.8
5	270000	3.45	3.74	70.6
5	280000	3.65	3.93	74.3
5	290000	4.1	4.39	82.9
5	300000	4.18	4.46	84.3
5	310000	3.71	3.99	75.5
5	320000	3.6	3.89	73.5
5	330000	3.58	3.87	73.1
5	340000	3.45	3.74	70.7
5	350000	3.44	3.73	70.4
5	360000	3.67	3.96	74.8
5	370000	3.62	3.9	73.7
5	380000	3.81	4.1	77.5
5	390000	3.67	3.96	74.8
5	400000	3.39	3.68	69.6
5	410000	3.71	3.99	75.5
5	420000	3.94	4.22	79.8
5	430000	3.71	4	75.6
5	440000	3.77	4.06	76.7
5	450000	4.39	4.67	88.3
5	460000	4.51	4.8	90.6
5	470000	4.85	5.13	97
5	480000	4.75	5.03	95.1
5	490000	4.68	4.97	93.9
5	500000	4.62	4.91	92.7
6	0	6.04	3.78	71.5
6	-10000	5.79	3.53	66.7
6	-20000	5.78	3.52	66.6
6	-30000	5.78	3.52	66.6
6	-40000	6.09	3.83	72.3
6	-50000	6.53	4.27	80.7
6	-60000	6.52	4.26	80.5
6	-70000	6.04	3.78	71.5
6	-80000	6.24	3.98	75.2
6	-90000	6.14	3.88	73.4
6	-100000	5.73	3.47	65.6
6	-110000	5.44	3.18	60.2
6	-120000	5.5	3.24	61.3
6	-130000	5.89	3.63	68.6
6	-140000	6.28	4.02	75.9
6	-150000	6.68	4.42	83.6
6	-160000	7.08	4.82	91.1
6	-170000	7.67	5.41	102
6	-180000	7.76	5.5	104
6	-190000	7.12	4.86	91.9
6	-200000	6.98	4.72	89.2
6	-210000	7.07	4.81	90.9
6	-220000	7.46	5.2	98.2
6	-230000	6.73	4.47	84.6
6	-240000	7.34	5.08	96.1
6	-250000	7.95	5.69	108
6	-260000	7.97	5.71	108
6	-270000	8.01	5.75	109
6	-280000	8	5.74	109
6	-290000	8.42	6.16	116
6	-300000	8.38	6.12	116
6	-310000	7.58	5.32	101
6	-320000	7.53	5.27	99.6
6	-330000	8.39	6.13	116
6	-340000	8.32	6.06	114
6	-350000	7.8	5.54	105
6	-360000	7.98	5.72	108
6	-370000	8.47	6.21	117
6	-380000	8.43	6.17	117
6	-390000	7.92	5.66	107
6	-400000	8	5.74	108
6	-410000	7.3	5.04	95.2
6	-420000	6.94	4.68	88.4
6	-430000	7	4.74	89.7
6	-440000	7.64	5.38	102
6	-450000	7.98	5.72	108
6	-460000	8.18	5.92	112
6	-470000	7.74	5.48	104
6	-480000	8.05	5.79	109
6	-490000	8.05	5.79	109
6	-500000	7.67	5.41	102
