rep_num	position	torque	torque_compensated	lbs_compensated
1	0	7.66	8.07	153
1	10000	9.95	10.5	198
1	20000	10.2	10.7	202
1	30000	9.92	10.5	198
1	40000	9.74	10.3	194
1	50000	9.78	10.3	195
1	60000	10	10.6	200
1	70000	9.74	10.3	194
1	80000	9.63	10.1	192
1	90000	9.95	10.5	198
1	100000	10.2	10.7	203
1	110000	10.1	10.6	201
1	120000	9.84	10.4	196
1	130000	10.3	10.8	205
1	140000	10.7	11.3	213
1	150000	10.4	11	208
1	160000	9.58	10.1	191
1	170000	9.37	9.87	187
1	180000	9.61	10.1	191
1	190000	9.32	9.82	186
1	200000	8.97	9.45	179
1	210000	9.27	9.77	185
1	220000	10.1	10.6	200
1	230000	9.68	10.2	193
1	240000	9.07	9.56	181
1	250000	9.05	9.54	180
1	260000	9.53	10	190
1	270000	9.49	10	189
1	280000	8.83	9.31	176
1	290000	8.77	9.25	175
1	300000	9.55	10.1	190
1	310000	9.09	9.58	181
1	320000	8.52	8.98	170
1	330000	8.58	9.05	171
1	340000	8.98	9.46	179
1	350000	8.54	9	170
1	360000	7.7	8.11	153
1	370000	8.06	8.49	161
1	380000	8.47	8.93	169
1	390000	7.35	7.74	146
1	400000	6.94	7.31	138
1	410000	7.2	7.59	143
1	420000	7.87	8.3	157
1	430000	7.33	7.73	146
1	440000	7.02	7.39	140
1	450000	6.86	7.24	137
1	460000	7.52	7.93	150
1	470000	8.03	8.47	160
1	480000	7.1	7.49	142
1	490000	7.89	8.32	157
1	500000	8.25	8.7	164
2	0	9.26	7	132
2	-10000	10.2	7.89	149
2	-20000	9.91	7.65	144
2	-30000	10.3	8.04	152
2	-40000	10.9	8.65	163
2	-50000	10.8	8.58	162
2	-60000	10.3	8.04	152
2	-70000	10.4	8.17	154
2	-80000	11.3	9.02	170
2	-90000	11.9	9.65	182
2	-100000	10.8	8.53	161
2	-110000	10.3	8.07	152
2	-120000	11.2	8.95	169
2	-130000	12	9.7	183
2	-140000	11.3	9.01	170
2	-150000	11.1	8.89	168
2	-160000	12.3	10.1	191
2	-170000	12.7	10.4	197
2	-180000	11.4	9.19	174
2	-190000	11.5	9.23	175
2	-200000	12.2	9.96	188
2	-210000	12.4	10.2	192
2	-220000	11.8	9.56	181
2	-230000	11.9	9.63	182
2	-240000	12.5	10.2	193
2	-250000	12.5	10.2	193
2	-260000	11.7	9.43	178
2	-270000	11.3	9.02	171
2	-280000	12.4	10.1	191
2	-290000	12.4	10.1	192
2	-300000	12.1	9.84	186
2	-310000	12.5	10.2	193
2	-320000	13	10.7	202
2	-330000	12.9	10.6	200
2	-340000	12.2	9.94	188
2	-350000	12	9.73	184
2	-360000	12.8	10.5	199
2	-370000	13.1	10.8	204
2	-380000	12.4	10.1	192
2	-390000	12.1	9.82	186
2	-400000	12.5	10.2	193
2	-410000	13	10.7	203
2	-420000	12.8	10.6	200
2	-430000	12.6	10.3	195
2	-440000	13.8	11.6	219
2	-450000	14.7	12.5	236
2	-460000	13.6	11.4	215
2	-470000	13.8	11.5	218
2	-480000	14.6	12.3	233
2	-490000	14	11.7	222
2	-500000	13.2	10.9	206
2	0	11.3	11.9	225
2	10000	10.6	11.2	211
2	20000	10.9	11.4	216
2	30000	11.1	11.7	222
2	40000	9.9	10.4	197
2	50000	10.3	10.9	205
2	60000	10.8	11.3	214
2	70000	10.3	10.8	205
2	80000	9.37	9.88	187
2	90000	9.82	10.4	196
2	100000	9.93	10.5	198
2	110000	9.54	10.1	190
2	120000	9	9.49	179
2	130000	9.42	9.93	188
2	140000	9.92	10.5	198
2	150000	9.87	10.4	197
2	160000	9.05	9.54	180
2	170000	9.19	9.69	183
2	180000	9.32	9.82	186
2	190000	9.34	9.85	186
2	200000	8.29	8.73	165
2	210000	8.63	9.09	172
2	220000	9.29	9.8	185
2	230000	8.67	9.14	173
2	240000	7.98	8.42	159
2	250000	8.64	9.1	172
2	260000	8.94	9.42	178
2	270000	8.95	9.43	178
2	280000	8.04	8.48	160
2	290000	7.87	8.3	157
2	300000	8.65	9.12	172
2	310000	8.38	8.83	167
2	320000	7.28	7.67	145
2	330000	7.58	7.99	151
2	340000	8.24	8.68	164
2	350000	7.63	8.05	152
2	360000	6.49	6.84	129
2	370000	7.34	7.74	146
2	380000	7.67	8.09	153
2	390000	6.83	7.2	136
2	400000	6.05	6.37	120
2	410000	6.75	7.12	135
2	420000	7.05	7.43	140
2	430000	6.57	6.92	131
2	440000	5.73	6.04	114
2	450000	5.72	6.03	114
2	460000	6.16	6.5	123
2	470000	6.43	6.78	128
2	480000	5.47	5.76	109
2	490000	6.61	6.97	132
2	500000	7.17	7.56	143
3	0	8.26	6	113
3	-10000	8.76	6.5	123
3	-20000	9.36	7.1	134
3	-30000	8.63	6.37	120
3	-40000	9.21	6.95	131
3	-50000	9.16	6.9	130
3	-60000	9.18	6.92	131
3	-70000	9.17	6.91	131
3	-80000	9.59	7.33	139
3	-90000	10.2	7.92	150
3	-100000	9.28	7.02	133
3	-110000	9.12	6.86	130
3	-120000	10.1	7.82	148
3	-130000	10.8	8.59	162
3	-140000	10.1	7.82	148
3	-150000	10.5	8.26	156
3	-160000	11.8	9.52	180
3	-170000	12.4	10.1	191
3	-180000	11.9	9.6	181
3	-190000	12.1	9.85	186
3	-200000	12.8	10.5	199
3	-210000	12.5	10.2	193
3	-220000	11.5	9.28	175
3	-230000	11.6	9.33	176
3	-240000	12	9.77	185
3	-250000	12	9.71	184
3	-260000	11	8.78	166
3	-270000	10.9	8.6	162
3	-280000	11.8	9.55	181
3	-290000	11.7	9.42	178
3	-300000	10.9	8.65	164
3	-310000	11.3	9.01	170
3	-320000	11.8	9.54	180
3	-330000	11.5	9.23	174
3	-340000	11.4	9.18	173
3	-350000	11.7	9.4	178
3	-360000	12.2	9.97	188
3	-370000	12.3	10.1	191
3	-380000	11.9	9.65	182
3	-390000	11.4	9.13	173
3	-400000	12.1	9.84	186
3	-410000	12	9.79	185
3	-420000	11.2	8.91	168
3	-430000	10.8	8.55	162
3	-440000	12	9.78	185
3	-450000	12.4	10.2	192
3	-460000	11.9	9.6	181
3	-470000	12	9.76	185
3	-480000	13.1	10.9	205
3	-490000	12.5	10.3	194
3	-500000	11.9	9.62	182
3	0	10.1	10.6	200
3	10000	8.57	9.03	171
3	20000	8.74	9.22	174
3	30000	9.64	10.2	192
3	40000	8.51	8.97	169
3	50000	9.2	9.7	183
3	60000	9.95	10.5	198
3	70000	9.16	9.65	182
3	80000	8.12	8.56	162
3	90000	8.71	9.19	174
3	100000	8.91	9.39	178
3	110000	8.47	8.92	169
3	120000	7.87	8.3	157
3	130000	8.16	8.6	163
3	140000	8.72	9.2	174
3	150000	8.33	8.79	166
3	160000	7.7	8.12	153
3	170000	8.26	8.71	165
3	180000	8.55	9.01	170
3	190000	8.62	9.09	172
3	200000	7.84	8.27	156
3	210000	7.49	7.89	149
3	220000	8.19	8.63	163
3	230000	7.56	7.97	151
3	240000	7.55	7.96	150
3	250000	7.67	8.09	153
3	260000	7.7	8.12	153
3	270000	7.59	8	151
3	280000	7.45	7.85	148
3	290000	8.27	8.72	165
3	300000	8.81	9.28	175
3	310000	8.11	8.55	162
3	320000	6.84	7.21	136
3	330000	7.36	7.76	147
3	340000	7.42	7.82	148
3	350000	7.27	7.66	145
3	360000	5.73	6.04	114
3	370000	6.2	6.54	124
3	380000	6.41	6.76	128
3	390000	5.77	6.08	115
3	400000	5.13	5.41	102
3	410000	5.68	5.99	113
3	420000	6.11	6.44	122
3	430000	5.69	6	113
3	440000	4.98	5.26	99.5
3	450000	5.13	5.41	102
3	460000	5.73	6.04	114
3	470000	6.24	6.58	124
3	480000	5.4	5.69	108
3	490000	6.04	6.36	120
3	500000	6.22	6.56	124
4	0	6.82	4.56	86.2
4	-10000	7.33	5.07	95.9
4	-20000	7.67	5.41	102
4	-30000	7.3	5.04	95.2
4	-40000	8.14	5.88	111
4	-50000	8.31	6.05	114
4	-60000	7.78	5.52	104
4	-70000	7.82	5.56	105
4	-80000	8.19	5.93	112
4	-90000	8.97	6.71	127
4	-100000	8.9	6.64	126
4	-110000	8.92	6.66	126
4	-120000	9.67	7.41	140
4	-130000	10.2	7.94	150
4	-140000	9.98	7.72	146
4	-150000	9.72	7.46	141
4	-160000	10.7	8.4	159
4	-170000	10.6	8.31	157
4	-180000	10.1	7.88	149
4	-190000	10.1	7.85	148
4	-200000	10.8	8.57	162
4	-210000	11.1	8.87	168
4	-220000	10.3	8.01	151
4	-230000	10.3	8.06	152
4	-240000	11.1	8.85	167
4	-250000	11.6	9.31	176
4	-260000	10.8	8.58	162
4	-270000	10.5	8.27	156
4	-280000	11.2	8.96	169
4	-290000	11.2	8.95	169
4	-300000	10.4	8.15	154
4	-310000	10.5	8.29	157
4	-320000	11	8.77	166
4	-330000	11	8.76	166
4	-340000	10.7	8.4	159
4	-350000	10.7	8.41	159
4	-360000	11.7	9.44	178
4	-370000	12.3	10.1	190
4	-380000	12.1	9.85	186
4	-390000	11.2	8.9	168
4	-400000	11.6	9.34	176
4	-410000	11.7	9.43	178
4	-420000	11.1	8.89	168
4	-430000	11.1	8.87	168
4	-440000	12.1	9.84	186
4	-450000	12.9	10.7	202
4	-460000	12.6	10.3	196
4	-470000	12.2	9.91	187
4	-480000	12.8	10.5	199
4	-490000	12	9.75	184
4	-500000	10.9	8.68	164
4	0	9.08	9.57	181
4	10000	8.04	8.47	160
4	20000	8.13	8.57	162
4	30000	8.28	8.72	165
4	40000	6.87	7.25	137
4	50000	7.24	7.63	144
4	60000	8.54	9	170
4	70000	8.15	8.59	162
4	80000	7.75	8.17	154
4	90000	8.89	9.37	177
4	100000	9.39	9.89	187
4	110000	8.81	9.29	176
4	120000	8.37	8.82	167
4	130000	8.61	9.08	172
4	140000	8.99	9.47	179
4	150000	8.95	9.44	178
4	160000	7.84	8.26	156
4	170000	7.9	8.33	157
4	180000	8.36	8.81	166
4	190000	8.11	8.55	162
4	200000	7.41	7.81	148
4	210000	7.51	7.92	150
4	220000	8.04	8.48	160
4	230000	7.33	7.73	146
4	240000	6.23	6.56	124
4	250000	6.18	6.51	123
4	260000	6.93	7.31	138
4	270000	6.98	7.36	139
4	280000	6.27	6.61	125
4	290000	5.97	6.29	119
4	300000	6.82	7.19	136
4	310000	6.27	6.61	125
4	320000	5.37	5.66	107
4	330000	5.23	5.52	104
4	340000	5.56	5.87	111
4	350000	4.97	5.26	99.3
4	360000	4.05	4.33	81.9
4	370000	4.61	4.9	92.6
4	380000	5.17	5.46	103
4	390000	4.02	4.31	81.4
4	400000	3.47	3.75	71
4	410000	4.64	4.92	93
4	420000	5.03	5.32	100
4	430000	4.48	4.77	90.1
4	440000	4.02	4.31	81.4
4	450000	4.31	4.59	86.8
4	460000	5.17	5.46	103
4	470000	5.42	5.71	108
4	480000	4.81	5.1	96.4
4	490000	5.17	5.45	103
4	500000	5.62	5.92	112
5	0	6.39	4.13	78
5	-10000	6.57	4.31	81.5
5	-20000	6.33	4.07	77
5	-30000	5.9	3.64	68.7
5	-40000	6.42	4.16	78.6
5	-50000	6.55	4.29	81.2
5	-60000	6.23	3.97	75
5	-70000	6.19	3.93	74.3
5	-80000	6.91	4.65	87.9
5	-90000	7.56	5.3	100
5	-100000	6.57	4.31	81.4
5	-110000	6.19	3.93	74.3
5	-120000	7.34	5.08	96.1
5	-130000	8.01	5.75	109
5	-140000	7.68	5.42	102
5	-150000	7.74	5.48	103
5	-160000	9.31	7.05	133
5	-170000	9.72	7.46	141
5	-180000	9.37	7.11	134
5	-190000	9.42	7.16	135
5	-200000	10.7	8.47	160
5	-210000	10.7	8.44	160
5	-220000	10.4	8.11	153
5	-230000	10.4	8.14	154
5	-240000	11.3	9	170
5	-250000	11.4	9.16	173
5	-260000	10.6	8.38	158
5	-270000	10.4	8.15	154
5	-280000	11.4	9.09	172
5	-290000	11.7	9.43	178
5	-300000	10.9	8.64	163
5	-310000	11.3	9.06	171
5	-320000	11.9	9.64	182
5	-330000	11.8	9.57	181
5	-340000	11.1	8.81	167
5	-350000	11.1	8.81	167
5	-360000	11.7	9.46	179
5	-370000	11.7	9.4	178
5	-380000	11.6	9.32	176
5	-390000	11	8.69	164
5	-400000	11.5	9.25	175
5	-410000	11.7	9.48	179
5	-420000	11.4	9.17	173
5	-430000	10.9	8.6	163
5	-440000	11.7	9.47	179
5	-450000	12.2	9.9	187
5	-460000	11.4	9.11	172
5	-470000	11.4	9.15	173
5	-480000	11.9	9.64	182
5	-490000	10.9	8.66	164
5	-500000	9.88	7.62	144
5	0	8.74	9.21	174
5	10000	7.73	8.15	154
5	20000	7.19	7.57	143
5	30000	7.46	7.86	149
5	40000	6.43	6.78	128
5	50000	6.76	7.12	135
5	60000	6.85	7.22	137
5	70000	6.46	6.81	129
5	80000	6.09	6.42	121
5	90000	6.31	6.65	126
5	100000	6.83	7.2	136
5	110000	6.76	7.12	135
5	120000	6.14	6.48	122
5	130000	5.96	6.29	119
5	140000	6.1	6.43	121
5	150000	5.72	6.03	114
5	160000	4.94	5.22	98.7
5	170000	4.54	4.83	91.3
5	180000	4.83	5.12	96.8
5	190000	4.78	5.07	95.8
5	200000	4.3	4.58	86.6
5	210000	4.06	4.34	82.1
5	220000	4.82	5.11	96.6
5	230000	4.36	4.65	87.8
5	240000	3.84	4.13	78
5	250000	4.24	4.52	85.5
5	260000	4.47	4.76	90
5	270000	4.01	4.29	81.1
5	280000	3.56	3.85	72.8
5	290000	4.16	4.45	84.1
5	300000	4.71	5	94.4
5	310000	4.18	4.47	84.4
5	320000	3.41	3.7	69.9
5	330000	4.28	4.56	86.2
5	340000	4.86	5.14	97.2
5	350000	4.45	4.74	89.6
5	360000	3.25	3.53	66.7
5	370000	2.96	3.24	61.3
5	380000	3.99	4.27	80.7
5	390000	3.61	3.89	73.6
5	400000	2.82	3.11	58.7
5	410000	3.44	3.72	70.4
5	420000	3.61	3.9	73.7
5	430000	3.69	3.97	75.1
5	440000	2.74	3.03	57.3
5	450000	2.96	3.25	61.4
5	460000	4.1	4.38	82.9
5	470000	3.93	4.22	79.7
5	480000	2.96	3.25	61.4
5	490000	4.28	4.57	86.3
5	500000	4.65	4.93	93.2
6	0	5.21	2.99	56.4
6	-10000	6.36	4.1	77.5
6	-20000	6.31	4.05	76.5
6	-30000	5.46	3.2	60.4
6	-40000	6.26	4	75.6
6	-50000	6.23	3.97	75.1
6	-60000	5.79	3.53	66.8
6	-70000	5.42	3.16	59.8
6	-80000	5.89	3.63	68.6
6	-90000	6.49	4.23	79.9
6	-100000	5.82	3.56	67.2
6	-110000	5.78	3.52	66.5
6	-120000	6.48	4.22	79.8
6	-130000	6.8	4.54	85.8
6	-140000	6.11	3.85	72.8
6	-150000	6	3.74	70.8
6	-160000	7.04	4.78	90.3
6	-170000	7.63	5.37	102
6	-180000	7.23	4.97	94
6	-190000	6.96	4.7	88.8
6	-200000	7.55	5.29	100
6	-210000	7.81	5.55	105
6	-220000	7.57	5.31	100
6	-230000	7.62	5.36	101
6	-240000	8.48	6.22	118
6	-250000	9.08	6.82	129
6	-260000	8.49	6.23	118
6	-270000	8.7	6.44	122
6	-280000	9.84	7.58	143
6	-290000	9.76	7.5	142
6	-300000	8.73	6.47	122
6	-310000	8.8	6.54	124
6	-320000	9.61	7.35	139
6	-330000	9.43	7.17	136
6	-340000	8.91	6.65	126
6	-350000	8.82	6.56	124
6	-360000	9.75	7.49	142
6	-370000	10.1	7.81	148
6	-380000	10.1	7.87	149
6	-390000	9.7	7.44	141
6	-400000	10.3	8.08	153
6	-410000	10.7	8.44	160
6	-420000	10.5	8.22	155
6	-430000	9.76	7.5	142
6	-440000	10.2	7.99	151
6	-450000	10.3	8.04	152
6	-460000	9.78	7.52	142
6	-470000	8.91	6.65	126
6	-480000	9.83	7.57	143
6	-490000	9.06	6.8	128
6	-500000	7.97	5.71	108
