rep_num	position	torque	torque_compensated	lbs_compensated
1	0	7.53	7.94	150
1	10000	8.56	9.02	170
1	20000	8.81	9.29	176
1	30000	10.1	10.6	200
1	40000	9.27	9.77	185
1	50000	9.18	9.67	183
1	60000	9.96	10.5	198
1	70000	9.87	10.4	197
1	80000	8.97	9.46	179
1	90000	9.1	9.59	181
1	100000	9.58	10.1	191
1	110000	9.94	10.5	198
1	120000	9.07	9.56	181
1	130000	8.67	9.13	173
1	140000	9.13	9.62	182
1	150000	8.87	9.35	177
1	160000	8.27	8.72	165
1	170000	8.17	8.62	163
1	180000	8.95	9.43	178
1	190000	9.38	9.89	187
1	200000	8.65	9.12	172
1	210000	8.38	8.83	167
1	220000	9.29	9.79	185
1	230000	9.61	10.1	192
1	240000	8.78	9.25	175
1	250000	8.24	8.68	164
1	260000	8.89	9.37	177
1	270000	9.44	9.95	188
1	280000	8.76	9.24	175
1	290000	8.3	8.75	165
1	300000	9.08	9.57	181
1	310000	9.41	9.92	187
1	320000	8.02	8.46	160
1	330000	7.89	8.32	157
1	340000	8.34	8.79	166
1	350000	8.5	8.96	169
1	360000	7.64	8.05	152
1	370000	7.16	7.54	143
1	380000	7.63	8.04	152
1	390000	7.54	7.94	150
1	400000	6.91	7.29	138
1	410000	6.73	7.09	134
1	420000	7.29	7.69	145
1	430000	7.55	7.95	150
1	440000	7.2	7.59	143
1	450000	6.44	6.79	128
1	460000	7.14	7.53	142
1	470000	7.48	7.89	149
1	480000	6.18	6.51	123
1	490000	7.52	7.92	150
1	500000	7.48	7.89	149
2	0	8.52	6.26	118
2	-10000	9.1	6.84	129
2	-20000	9.55	7.29	138
2	-30000	8.94	6.68	126
2	-40000	10.5	8.21	155
2	-50000	9.77	7.51	142
2	-60000	9.72	7.46	141
2	-70000	9.36	7.1	134
2	-80000	9.98	7.72	146
2	-90000	9.66	7.4	140
2	-100000	9.55	7.29	138
2	-110000	9.45	7.19	136
2	-120000	9.75	7.49	142
2	-130000	9.25	6.99	132
2	-140000	8.74	6.48	123
2	-150000	9.31	7.05	133
2	-160000	9.99	7.73	146
2	-170000	9.56	7.3	138
2	-180000	8.58	6.32	120
2	-190000	9.74	7.48	141
2	-200000	10.9	8.66	164
2	-210000	10.5	8.23	156
2	-220000	9.13	6.87	130
2	-230000	9.23	6.97	132
2	-240000	10.2	7.94	150
2	-250000	10	7.79	147
2	-260000	8.89	6.63	125
2	-270000	9.74	7.48	141
2	-280000	10.5	8.28	156
2	-290000	10.2	7.92	150
2	-300000	8.83	6.57	124
2	-310000	9.3	7.04	133
2	-320000	10.9	8.62	163
2	-330000	10.7	8.44	160
2	-340000	10.6	8.39	159
2	-350000	12.3	10	190
2	-360000	13.3	11.1	209
2	-370000	12.8	10.5	199
2	-380000	12.7	10.4	197
2	-390000	13	10.8	203
2	-400000	13.3	11.1	209
2	-410000	12.2	9.96	188
2	-420000	11.4	9.18	173
2	-430000	11.5	9.28	175
2	-440000	12.2	9.89	187
2	-450000	12.4	10.1	191
2	-460000	12	9.69	183
2	-470000	11.4	9.17	173
2	-480000	12.2	9.95	188
2	-490000	10.6	8.35	158
2	-500000	10.8	8.54	161
2	0	9	9.48	179
2	10000	9.62	10.1	192
2	20000	9.25	9.75	184
2	30000	9.97	10.5	199
2	40000	8.91	9.39	178
2	50000	8.58	9.05	171
2	60000	9.35	9.85	186
2	70000	9.72	10.2	194
2	80000	9.26	9.76	184
2	90000	8.99	9.48	179
2	100000	9.46	9.97	189
2	110000	9.82	10.4	196
2	120000	8.88	9.36	177
2	130000	8.1	8.54	161
2	140000	8.91	9.39	177
2	150000	9.65	10.2	192
2	160000	8.88	9.36	177
2	170000	8.53	8.99	170
2	180000	9.9	10.4	197
2	190000	9.83	10.4	196
2	200000	8.9	9.38	177
2	210000	8.27	8.72	165
2	220000	9.21	9.71	183
2	230000	9.51	10	189
2	240000	8.4	8.86	167
2	250000	7.98	8.41	159
2	260000	8.28	8.73	165
2	270000	8.49	8.95	169
2	280000	7.96	8.39	159
2	290000	7.56	7.97	151
2	300000	8.57	9.04	171
2	310000	8.71	9.18	173
2	320000	7.56	7.97	151
2	330000	7.2	7.59	143
2	340000	8.12	8.56	162
2	350000	7.78	8.21	155
2	360000	7.29	7.69	145
2	370000	7.13	7.51	142
2	380000	7.73	8.15	154
2	390000	7.76	8.18	155
2	400000	7.13	7.51	142
2	410000	6.52	6.87	130
2	420000	6.98	7.36	139
2	430000	7.28	7.68	145
2	440000	6.5	6.85	129
2	450000	5.99	6.31	119
2	460000	6.68	7.04	133
2	470000	7.25	7.64	144
2	480000	6.14	6.47	122
2	490000	7.49	7.89	149
2	500000	7.65	8.06	152
3	0	8.51	6.25	118
3	-10000	9.36	7.1	134
3	-20000	9.21	6.95	131
3	-30000	8.4	6.14	116
3	-40000	9.59	7.33	139
3	-50000	8.7	6.44	122
3	-60000	8.61	6.35	120
3	-70000	9.04	6.78	128
3	-80000	9.96	7.7	146
3	-90000	9.43	7.17	136
3	-100000	9.63	7.37	139
3	-110000	9.35	7.09	134
3	-120000	10.4	8.18	155
3	-130000	10.3	8.03	152
3	-140000	10.2	7.95	150
3	-150000	10.4	8.18	155
3	-160000	11.1	8.83	167
3	-170000	10.6	8.31	157
3	-180000	9.37	7.11	134
3	-190000	9.84	7.58	143
3	-200000	10.7	8.4	159
3	-210000	10.2	7.95	150
3	-220000	9.7	7.44	141
3	-230000	9.81	7.55	143
3	-240000	10.7	8.41	159
3	-250000	10.8	8.52	161
3	-260000	9.81	7.55	143
3	-270000	10.4	8.16	154
3	-280000	11.2	8.95	169
3	-290000	10.9	8.62	163
3	-300000	9.33	7.07	134
3	-310000	9.65	7.39	140
3	-320000	11.2	8.95	169
3	-330000	10.7	8.42	159
3	-340000	10	7.76	147
3	-350000	11.2	8.95	169
3	-360000	12.3	10	189
3	-370000	11.9	9.64	182
3	-380000	11.5	9.29	176
3	-390000	11.8	9.51	180
3	-400000	12.4	10.1	192
3	-410000	11.2	8.94	169
3	-420000	11.1	8.85	167
3	-430000	11.2	8.97	170
3	-440000	11.8	9.55	180
3	-450000	11.1	8.87	168
3	-460000	10.6	8.32	157
3	-470000	10.2	7.95	150
3	-480000	11.6	9.29	176
3	-490000	10.2	7.92	150
3	-500000	10.4	8.11	153
3	0	8.4	8.86	167
3	10000	7.83	8.26	156
3	20000	7.73	8.15	154
3	30000	8.36	8.81	167
3	40000	7.46	7.86	149
3	50000	7.3	7.69	145
3	60000	8.21	8.65	164
3	70000	8.4	8.85	167
3	80000	7.79	8.21	155
3	90000	7.61	8.02	152
3	100000	7.89	8.32	157
3	110000	8.28	8.73	165
3	120000	7.76	8.18	155
3	130000	6.98	7.36	139
3	140000	7.81	8.23	156
3	150000	8.12	8.56	162
3	160000	7.75	8.17	154
3	170000	7.44	7.84	148
3	180000	8.52	8.99	170
3	190000	8.55	9.01	170
3	200000	7.88	8.31	157
3	210000	7.4	7.8	147
3	220000	8.25	8.69	164
3	230000	8.7	9.17	173
3	240000	7.35	7.75	146
3	250000	7.06	7.45	141
3	260000	7.73	8.15	154
3	270000	7.91	8.34	158
3	280000	6.63	6.98	132
3	290000	6.27	6.61	125
3	300000	7.3	7.7	146
3	310000	8.08	8.52	161
3	320000	7.17	7.56	143
3	330000	6.51	6.86	130
3	340000	7.21	7.6	144
3	350000	7.16	7.54	143
3	360000	6.58	6.94	131
3	370000	6.45	6.8	128
3	380000	6.92	7.29	138
3	390000	7.01	7.39	140
3	400000	6.39	6.73	127
3	410000	5.95	6.27	119
3	420000	6.89	7.26	137
3	430000	7.06	7.44	141
3	440000	6.36	6.71	127
3	450000	5.62	5.92	112
3	460000	6.51	6.86	130
3	470000	6.38	6.72	127
3	480000	5.77	6.08	115
3	490000	7.31	7.7	146
3	500000	7.03	7.41	140
4	0	7.73	5.47	103
4	-10000	9.06	6.8	129
4	-20000	9.2	6.94	131
4	-30000	8.89	6.63	125
4	-40000	10.1	7.85	148
4	-50000	9.92	7.66	145
4	-60000	9.42	7.16	135
4	-70000	9.67	7.41	140
4	-80000	10.8	8.54	161
4	-90000	9.9	7.64	144
4	-100000	9.52	7.26	137
4	-110000	9.67	7.41	140
4	-120000	10.4	8.14	154
4	-130000	10.1	7.81	148
4	-140000	9.34	7.08	134
4	-150000	9.85	7.59	143
4	-160000	11	8.74	165
4	-170000	10.5	8.22	155
4	-180000	9.5	7.24	137
4	-190000	10.1	7.8	147
4	-200000	11.1	8.87	168
4	-210000	11	8.69	164
4	-220000	9.76	7.5	142
4	-230000	9.83	7.57	143
4	-240000	11.1	8.88	168
4	-250000	10.8	8.52	161
4	-260000	10.1	7.8	147
4	-270000	10.6	8.34	158
4	-280000	11.3	9.02	170
4	-290000	11.3	9.03	171
4	-300000	9.95	7.69	145
4	-310000	10.1	7.8	147
4	-320000	11.2	8.96	169
4	-330000	10.3	8.09	153
4	-340000	9.52	7.26	137
4	-350000	10.5	8.24	156
4	-360000	11	8.72	165
4	-370000	10.1	7.82	148
4	-380000	9.73	7.47	141
4	-390000	10.3	8.09	153
4	-400000	11	8.75	165
4	-410000	10.6	8.3	157
4	-420000	9.98	7.72	146
4	-430000	10	7.74	146
4	-440000	10.7	8.43	159
4	-450000	10.7	8.4	159
4	-460000	10.5	8.27	156
4	-470000	10.3	7.99	151
4	-480000	11.7	9.48	179
4	-490000	10.2	7.89	149
4	-500000	10.2	7.93	150
4	0	7.94	8.37	158
4	10000	6.39	6.74	127
4	20000	7.71	8.12	154
4	30000	9.41	9.92	187
4	40000	8.87	9.35	177
4	50000	8.46	8.92	169
4	60000	9.51	10	189
4	70000	9.55	10.1	190
4	80000	8.73	9.2	174
4	90000	8.51	8.97	169
4	100000	8.94	9.42	178
4	110000	9.43	9.94	188
4	120000	9.01	9.5	180
4	130000	8.07	8.51	161
4	140000	8.7	9.17	173
4	150000	9.49	10	189
4	160000	8.28	8.72	165
4	170000	7.64	8.05	152
4	180000	8.27	8.72	165
4	190000	8.29	8.74	165
4	200000	7.15	7.54	142
4	210000	6.86	7.23	137
4	220000	7.7	8.12	153
4	230000	8.09	8.53	161
4	240000	7.03	7.41	140
4	250000	6.47	6.82	129
4	260000	7.11	7.5	142
4	270000	7.61	8.02	152
4	280000	6.63	6.98	132
4	290000	6.36	6.7	127
4	300000	7.31	7.71	146
4	310000	7.94	8.37	158
4	320000	6.48	6.84	129
4	330000	6.04	6.37	120
4	340000	7.11	7.5	142
4	350000	6.9	7.27	137
4	360000	5.86	6.17	117
4	370000	5.96	6.28	119
4	380000	6.42	6.77	128
4	390000	6.17	6.5	123
4	400000	5.41	5.7	108
4	410000	4.71	5	94.4
4	420000	5.28	5.57	105
4	430000	5.54	5.84	110
4	440000	5.02	5.31	100
4	450000	4.15	4.43	83.8
4	460000	5.19	5.48	104
4	470000	5.41	5.7	108
4	480000	4.12	4.41	83.3
4	490000	5.86	6.18	117
4	500000	5.93	6.25	118
5	0	6.89	4.63	87.5
5	-10000	9.05	6.79	128
5	-20000	9.11	6.85	130
5	-30000	8.78	6.52	123
5	-40000	10.1	7.81	148
5	-50000	9.52	7.26	137
5	-60000	9.23	6.97	132
5	-70000	9.59	7.33	139
5	-80000	10.3	8.04	152
5	-90000	9.71	7.45	141
5	-100000	9.29	7.03	133
5	-110000	9.52	7.26	137
5	-120000	10.6	8.31	157
5	-130000	10.3	8.05	152
5	-140000	9.83	7.57	143
5	-150000	10.1	7.88	149
5	-160000	11.1	8.83	167
5	-170000	10.4	8.1	153
5	-180000	9.22	6.96	132
5	-190000	9.78	7.52	142
5	-200000	10.8	8.55	162
5	-210000	10.1	7.85	148
5	-220000	9.28	7.02	133
5	-230000	9.34	7.08	134
5	-240000	10.2	7.92	150
5	-250000	9.96	7.7	145
5	-260000	8.83	6.57	124
5	-270000	9.36	7.1	134
5	-280000	10.9	8.6	162
5	-290000	10.8	8.5	161
5	-300000	9.88	7.62	144
5	-310000	10.2	7.89	149
5	-320000	11.6	9.36	177
5	-330000	11	8.75	165
5	-340000	9.77	7.51	142
5	-350000	10.5	8.29	157
5	-360000	11	8.78	166
5	-370000	10.7	8.4	159
5	-380000	9.51	7.25	137
5	-390000	9.37	7.11	134
5	-400000	10.2	7.94	150
5	-410000	9.5	7.24	137
5	-420000	9.47	7.21	136
5	-430000	9.78	7.52	142
5	-440000	10.5	8.27	156
5	-450000	10.2	7.96	150
5	-460000	9.75	7.49	142
5	-470000	9.55	7.29	138
5	-480000	10.9	8.65	164
5	-490000	9.63	7.37	139
5	-500000	9.75	7.49	142
5	0	7.95	8.37	158
5	10000	6.65	7.01	132
5	20000	7.2	7.58	143
5	30000	8.36	8.81	166
5	40000	7.71	8.12	154
5	50000	7.66	8.08	153
5	60000	8.13	8.57	162
5	70000	8.07	8.5	161
5	80000	7.28	7.68	145
5	90000	6.67	7.03	133
5	100000	6.91	7.28	138
5	110000	7.13	7.51	142
5	120000	6.26	6.6	125
5	130000	5.72	6.03	114
5	140000	6.42	6.77	128
5	150000	6.85	7.22	136
5	160000	5.77	6.08	115
5	170000	5.62	5.92	112
5	180000	6.76	7.13	135
5	190000	6.81	7.17	136
5	200000	5.97	6.29	119
5	210000	5.41	5.7	108
5	220000	6.36	6.71	127
5	230000	6.43	6.77	128
5	240000	5.17	5.45	103
5	250000	4.45	4.73	89.4
5	260000	5.18	5.47	103
5	270000	5.05	5.33	101
5	280000	4.48	4.76	90
5	290000	3.93	4.22	79.7
5	300000	4.21	4.49	84.9
5	310000	4.42	4.71	88.9
5	320000	2.77	3.06	57.8
5	330000	2.24	2.53	47.8
5	340000	3.07	3.35	63.4
5	350000	3.64	3.92	74.2
5	360000	3.78	4.07	76.9
5	370000	3.62	3.9	73.8
5	380000	4.31	4.6	86.9
5	390000	4.56	4.85	91.6
5	400000	3.58	3.87	73.1
5	410000	3.2	3.49	65.9
5	420000	4.01	4.29	81.1
5	430000	4.3	4.58	86.6
5	440000	3.62	3.91	73.9
5	450000	2.95	3.23	61.1
5	460000	4.2	4.49	84.8
5	470000	4.31	4.6	86.9
5	480000	3.19	3.48	65.7
5	490000	4.67	4.96	93.7
5	500000	4.74	5.03	95
6	0	5.55	3.29	62.1
6	-10000	6.98	4.72	89.3
6	-20000	6.88	4.62	87.3
6	-30000	5.98	3.72	70.3
6	-40000	6.77	4.51	85.3
6	-50000	6.2	3.94	74.4
6	-60000	5.86	3.6	68
6	-70000	6.1	3.84	72.6
6	-80000	6.65	4.39	83
6	-90000	6	3.74	70.8
6	-100000	5.74	3.48	65.8
6	-110000	6.19	3.93	74.3
6	-120000	6.94	4.68	88.4
6	-130000	6.74	4.48	84.7
6	-140000	6.49	4.23	79.9
6	-150000	7.21	4.95	93.5
6	-160000	8.49	6.23	118
6	-170000	8.14	5.88	111
6	-180000	7.77	5.51	104
6	-190000	8.93	6.67	126
6	-200000	9.97	7.71	146
6	-210000	10.1	7.84	148
6	-220000	8.93	6.67	126
6	-230000	9.14	6.88	130
6	-240000	10.4	8.13	154
6	-250000	10	7.76	147
6	-260000	9.06	6.8	129
6	-270000	9.43	7.17	135
6	-280000	10.4	8.12	153
6	-290000	9.94	7.68	145
6	-300000	8.83	6.57	124
6	-310000	9.34	7.08	134
6	-320000	10.7	8.45	160
6	-330000	9.9	7.64	144
6	-340000	8.74	6.48	122
6	-350000	9.62	7.36	139
6	-360000	10.3	8.04	152
6	-370000	10.2	7.93	150
6	-380000	9.74	7.48	141
6	-390000	10	7.76	147
6	-400000	10.8	8.53	161
6	-410000	10.3	8.03	152
6	-420000	9.84	7.58	143
6	-430000	10.3	8.03	152
6	-440000	11	8.75	165
6	-450000	10.9	8.65	164
6	-460000	9.96	7.7	145
6	-470000	9.2	6.94	131
6	-480000	10.5	8.27	156
6	-490000	8.97	6.71	127
6	-500000	8.97	6.71	127
