rep_num	position	torque	torque_compensated	lbs_compensated
1	0	5.39	5.68	107
1	10000	7.59	8	151
1	20000	8.06	8.5	161
1	30000	9.32	9.82	186
1	40000	8.68	9.15	173
1	50000	8.72	9.19	174
1	60000	9.11	9.6	181
1	70000	8.95	9.43	178
1	80000	8.39	8.84	167
1	90000	8.15	8.59	162
1	100000	8.47	8.93	169
1	110000	9.52	10	190
1	120000	8.93	9.41	178
1	130000	8.32	8.77	166
1	140000	9.95	10.5	198
1	150000	9.94	10.5	198
1	160000	9.52	10	190
1	170000	9.13	9.62	182
1	180000	9.27	9.77	185
1	190000	10.3	10.9	206
1	200000	9.01	9.5	179
1	210000	8.83	9.31	176
1	220000	9.34	9.85	186
1	230000	9.79	10.3	195
1	240000	9.23	9.72	184
1	250000	8.58	9.04	171
1	260000	9.1	9.59	181
1	270000	9.58	10.1	191
1	280000	8.61	9.07	171
1	290000	8.23	8.67	164
1	300000	8.99	9.48	179
1	310000	8.97	9.46	179
1	320000	8.62	9.08	172
1	330000	7.77	8.18	155
1	340000	7.97	8.41	159
1	350000	8.34	8.8	166
1	360000	7.35	7.75	146
1	370000	6.64	7	132
1	380000	7.59	8	151
1	390000	7.81	8.24	156
1	400000	7.48	7.89	149
1	410000	6.41	6.76	128
1	420000	6.83	7.2	136
1	430000	7.15	7.54	142
1	440000	5.9	6.22	118
1	450000	5.48	5.77	109
1	460000	5.88	6.2	117
1	470000	6.11	6.44	122
1	480000	5.88	6.2	117
1	490000	6.93	7.31	138
1	500000	7.79	8.21	155
2	0	8.55	6.29	119
2	-10000	9.18	6.92	131
2	-20000	9.47	7.21	136
2	-30000	9.19	6.93	131
2	-40000	10.3	8.07	153
2	-50000	9.75	7.49	142
2	-60000	9.36	7.1	134
2	-70000	10.1	7.86	149
2	-80000	10.6	8.32	157
2	-90000	9.84	7.58	143
2	-100000	9.88	7.62	144
2	-110000	10.3	8.08	153
2	-120000	11.2	8.97	170
2	-130000	11.4	9.1	172
2	-140000	10.7	8.43	159
2	-150000	10.7	8.42	159
2	-160000	11.3	9	170
2	-170000	11.3	9	170
2	-180000	11.2	8.9	168
2	-190000	11.7	9.45	179
2	-200000	12.7	10.4	197
2	-210000	11.7	9.45	179
2	-220000	11	8.77	166
2	-230000	11.8	9.53	180
2	-240000	12.7	10.5	198
2	-250000	12.4	10.2	192
2	-260000	11.8	9.55	180
2	-270000	12.2	9.94	188
2	-280000	13	10.7	203
2	-290000	12.8	10.5	199
2	-300000	11.8	9.52	180
2	-310000	12.2	9.9	187
2	-320000	13.2	10.9	207
2	-330000	13	10.7	202
2	-340000	12	9.72	184
2	-350000	12.5	10.3	194
2	-360000	13.2	10.9	207
2	-370000	12.3	10.1	190
2	-380000	11.7	9.46	179
2	-390000	12.4	10.1	191
2	-400000	12.7	10.5	198
2	-410000	12.1	9.81	185
2	-420000	12.1	9.88	187
2	-430000	12.8	10.6	200
2	-440000	13	10.7	202
2	-450000	12.3	10.1	190
2	-460000	12	9.71	184
2	-470000	11.7	9.42	178
2	-480000	12.3	10	190
2	-490000	11.5	9.25	175
2	-500000	11.3	9.04	171
2	0	9.62	10.1	192
2	10000	8.98	9.46	179
2	20000	9.08	9.57	181
2	30000	9.67	10.2	193
2	40000	9.14	9.63	182
2	50000	8.58	9.04	171
2	60000	8.8	9.28	175
2	70000	9.33	9.83	186
2	80000	9.03	9.52	180
2	90000	8.34	8.79	166
2	100000	8.83	9.31	176
2	110000	9.64	10.2	192
2	120000	8.94	9.43	178
2	130000	8.1	8.54	161
2	140000	8.96	9.45	179
2	150000	9.28	9.78	185
2	160000	8.23	8.67	164
2	170000	7.95	8.37	158
2	180000	9.09	9.58	181
2	190000	9.59	10.1	191
2	200000	8.53	8.99	170
2	210000	8.5	8.96	169
2	220000	8.61	9.08	172
2	230000	9.27	9.77	185
2	240000	8.1	8.54	161
2	250000	7.68	8.1	153
2	260000	8.62	9.09	172
2	270000	9.1	9.59	181
2	280000	8.24	8.68	164
2	290000	7.68	8.09	153
2	300000	8.38	8.83	167
2	310000	8.63	9.1	172
2	320000	7.88	8.3	157
2	330000	7.49	7.89	149
2	340000	7.85	8.27	156
2	350000	8	8.43	159
2	360000	7.34	7.74	146
2	370000	7.28	7.67	145
2	380000	7.38	7.78	147
2	390000	7.47	7.87	149
2	400000	7.26	7.66	145
2	410000	6.42	6.77	128
2	420000	6.65	7.01	132
2	430000	7.22	7.61	144
2	440000	6.48	6.83	129
2	450000	5.79	6.1	115
2	460000	6.46	6.81	129
2	470000	6.65	7.01	133
2	480000	5.91	6.23	118
2	490000	6.83	7.2	136
2	500000	7.16	7.55	143
3	0	7.83	5.57	105
3	-10000	9.26	7	132
3	-20000	9.71	7.45	141
3	-30000	9.39	7.13	135
3	-40000	10.8	8.57	162
3	-50000	9.94	7.68	145
3	-60000	9.81	7.55	143
3	-70000	10.5	8.21	155
3	-80000	10.9	8.61	163
3	-90000	10.4	8.13	154
3	-100000	10.2	7.93	150
3	-110000	10.7	8.46	160
3	-120000	11.6	9.36	177
3	-130000	11.6	9.35	177
3	-140000	11.4	9.18	174
3	-150000	11.8	9.53	180
3	-160000	12.3	10	189
3	-170000	11.7	9.43	178
3	-180000	11.3	9	170
3	-190000	11.4	9.12	172
3	-200000	11.7	9.48	179
3	-210000	11	8.76	166
3	-220000	10.2	7.92	150
3	-230000	10.5	8.23	156
3	-240000	11.2	8.91	168
3	-250000	10.6	8.38	158
3	-260000	10.4	8.17	154
3	-270000	10.5	8.2	155
3	-280000	10.8	8.57	162
3	-290000	11	8.69	164
3	-300000	10.4	8.15	154
3	-310000	10.9	8.62	163
3	-320000	12	9.71	184
3	-330000	11.6	9.36	177
3	-340000	10.8	8.5	161
3	-350000	11.3	9	170
3	-360000	12	9.78	185
3	-370000	11.4	9.12	172
3	-380000	10.8	8.57	162
3	-390000	12	9.71	184
3	-400000	12.5	10.2	193
3	-410000	12	9.7	183
3	-420000	11.6	9.33	176
3	-430000	12.1	9.88	187
3	-440000	12.7	10.4	197
3	-450000	12.5	10.2	193
3	-460000	11.8	9.57	181
3	-470000	11.7	9.42	178
3	-480000	12.1	9.83	186
3	-490000	11.3	9.02	170
3	-500000	10.9	8.67	164
3	0	9.43	9.94	188
3	10000	7.99	8.42	159
3	20000	8.35	8.8	166
3	30000	9.13	9.63	182
3	40000	8.26	8.71	165
3	50000	7.91	8.34	158
3	60000	8.41	8.87	168
3	70000	8.56	9.02	170
3	80000	7.83	8.25	156
3	90000	7.23	7.62	144
3	100000	7.73	8.15	154
3	110000	7.98	8.41	159
3	120000	7.1	7.48	141
3	130000	6.78	7.15	135
3	140000	7.99	8.42	159
3	150000	8.64	9.11	172
3	160000	7.97	8.4	159
3	170000	7.7	8.11	153
3	180000	8.34	8.79	166
3	190000	8.99	9.48	179
3	200000	8.05	8.48	160
3	210000	7.76	8.18	155
3	220000	8.41	8.86	167
3	230000	8.89	9.37	177
3	240000	8.3	8.75	165
3	250000	7.67	8.09	153
3	260000	8.49	8.95	169
3	270000	8.85	9.33	176
3	280000	7.81	8.24	156
3	290000	7.36	7.76	147
3	300000	8.06	8.5	161
3	310000	8.13	8.57	162
3	320000	7.44	7.84	148
3	330000	6.55	6.91	131
3	340000	6.84	7.21	136
3	350000	7.19	7.58	143
3	360000	6.57	6.93	131
3	370000	6.12	6.45	122
3	380000	6.15	6.48	122
3	390000	6.38	6.73	127
3	400000	5.86	6.18	117
3	410000	4.66	4.94	93.4
3	420000	5.57	5.87	111
3	430000	6.45	6.8	128
3	440000	5.28	5.57	105
3	450000	4.83	5.12	96.8
3	460000	5.57	5.87	111
3	470000	5.35	5.64	107
3	480000	4.98	5.27	99.5
3	490000	5.83	6.14	116
3	500000	6.69	7.06	133
4	0	7.69	5.43	103
4	-10000	9.86	7.6	144
4	-20000	9.55	7.29	138
4	-30000	9.24	6.98	132
4	-40000	10.4	8.17	154
4	-50000	10	7.76	147
4	-60000	9.49	7.23	137
4	-70000	10.1	7.86	149
4	-80000	10.5	8.24	156
4	-90000	10.1	7.79	147
4	-100000	9.38	7.12	135
4	-110000	10	7.76	147
4	-120000	10.5	8.21	155
4	-130000	10.2	7.94	150
4	-140000	10.4	8.15	154
4	-150000	10.9	8.63	163
4	-160000	12	9.74	184
4	-170000	12	9.76	184
4	-180000	11.4	9.19	174
4	-190000	11.6	9.37	177
4	-200000	12.1	9.8	185
4	-210000	11.3	9	170
4	-220000	10.2	7.98	151
4	-230000	10.5	8.27	156
4	-240000	11.4	9.13	173
4	-250000	10.8	8.59	162
4	-260000	10.4	8.19	155
4	-270000	10.6	8.32	157
4	-280000	11.3	9.07	171
4	-290000	11.2	8.98	170
4	-300000	10.7	8.46	160
4	-310000	10.7	8.42	159
4	-320000	11.6	9.33	176
4	-330000	10.9	8.67	164
4	-340000	10.5	8.2	155
4	-350000	11.4	9.17	173
4	-360000	12.5	10.2	193
4	-370000	12.4	10.1	192
4	-380000	12.1	9.87	187
4	-390000	13.1	10.9	205
4	-400000	13.5	11.3	213
4	-410000	13	10.7	203
4	-420000	12.3	10.1	191
4	-430000	12.7	10.4	197
4	-440000	13.3	11	208
4	-450000	12.8	10.5	199
4	-460000	12.4	10.1	191
4	-470000	11.9	9.67	183
4	-480000	12.5	10.2	193
4	-490000	11.8	9.57	181
4	-500000	11.2	8.92	169
4	0	9.36	9.86	186
4	10000	7.98	8.41	159
4	20000	7.8	8.22	155
4	30000	8.19	8.63	163
4	40000	7.55	7.96	150
4	50000	7.35	7.75	146
4	60000	7.58	7.98	151
4	70000	7.76	8.18	155
4	80000	7.14	7.53	142
4	90000	6.28	6.62	125
4	100000	7.1	7.48	141
4	110000	8	8.43	159
4	120000	7.58	7.99	151
4	130000	7.01	7.39	140
4	140000	7.91	8.34	158
4	150000	8.45	8.9	168
4	160000	7.68	8.1	153
4	170000	6.99	7.37	139
4	180000	7.79	8.21	155
4	190000	8.11	8.55	162
4	200000	7.23	7.62	144
4	210000	6.49	6.84	129
4	220000	7.12	7.5	142
4	230000	7.11	7.49	142
4	240000	6.31	6.65	126
4	250000	5.48	5.77	109
4	260000	6.34	6.69	126
4	270000	6.8	7.17	135
4	280000	5.88	6.2	117
4	290000	5.5	5.8	110
4	300000	5.86	6.17	117
4	310000	6.01	6.33	120
4	320000	5.34	5.63	106
4	330000	4.85	5.14	97.1
4	340000	5.24	5.53	105
4	350000	5.42	5.72	108
4	360000	4.7	4.99	94.3
4	370000	4.19	4.48	84.6
4	380000	5.02	5.3	100
4	390000	5.48	5.78	109
4	400000	4.65	4.94	93.4
4	410000	3.63	3.92	74.1
4	420000	4.32	4.6	87
4	430000	4.28	4.57	86.3
4	440000	3.49	3.78	71.4
4	450000	3.34	3.62	68.5
4	460000	4.19	4.47	84.5
4	470000	4.72	5	94.6
4	480000	4.51	4.8	90.6
4	490000	5.28	5.57	105
4	500000	6.08	6.41	121
5	0	6.89	4.63	87.5
5	-10000	7.63	5.37	101
5	-20000	7.82	5.56	105
5	-30000	7.41	5.15	97.3
5	-40000	9.1	6.84	129
5	-50000	8.75	6.49	123
5	-60000	8.1	5.84	110
5	-70000	8.96	6.7	127
5	-80000	9.23	6.97	132
5	-90000	8.53	6.27	119
5	-100000	8.19	5.93	112
5	-110000	8.55	6.29	119
5	-120000	9.61	7.35	139
5	-130000	9.27	7.01	132
5	-140000	8.97	6.71	127
5	-150000	9.41	7.15	135
5	-160000	10.1	7.83	148
5	-170000	10.1	7.84	148
5	-180000	9.44	7.18	136
5	-190000	9.92	7.66	145
5	-200000	10.5	8.21	155
5	-210000	9.96	7.7	146
5	-220000	9.34	7.08	134
5	-230000	9.45	7.19	136
5	-240000	10.3	8.07	152
5	-250000	10	7.78	147
5	-260000	9.48	7.22	136
5	-270000	9.54	7.28	138
5	-280000	10.4	8.1	153
5	-290000	10.2	7.94	150
5	-300000	9.49	7.23	137
5	-310000	9.67	7.41	140
5	-320000	10.6	8.35	158
5	-330000	10.1	7.83	148
5	-340000	9.37	7.11	134
5	-350000	9.81	7.55	143
5	-360000	10.8	8.5	161
5	-370000	10.3	8.05	152
5	-380000	9.37	7.11	134
5	-390000	9.93	7.67	145
5	-400000	10.5	8.22	155
5	-410000	9.98	7.72	146
5	-420000	9.82	7.56	143
5	-430000	10.3	8.04	152
5	-440000	10.7	8.4	159
5	-450000	10.1	7.83	148
5	-460000	9.96	7.7	146
5	-470000	9.79	7.53	142
5	-480000	10.2	7.98	151
5	-490000	9.51	7.25	137
5	-500000	9.27	7.01	133
5	0	7.38	7.78	147
5	10000	5.89	6.2	117
5	20000	5.85	6.16	116
5	30000	6.64	7	132
5	40000	5.87	6.19	117
5	50000	5.78	6.1	115
5	60000	6.54	6.89	130
5	70000	6.74	7.11	134
5	80000	6.27	6.61	125
5	90000	5.65	5.96	113
5	100000	6.19	6.53	123
5	110000	6.98	7.36	139
5	120000	5.96	6.28	119
5	130000	5.54	5.84	110
5	140000	6.32	6.66	126
5	150000	6.52	6.87	130
5	160000	5.58	5.89	111
5	170000	5.03	5.31	100
5	180000	5.79	6.1	115
5	190000	5.77	6.08	115
5	200000	4.9	5.19	98.1
5	210000	4.55	4.84	91.5
5	220000	4.81	5.09	96.3
5	230000	5.1	5.39	102
5	240000	4.48	4.76	90
5	250000	4.12	4.41	83.3
5	260000	4.62	4.9	92.6
5	270000	5.02	5.3	100
5	280000	4.07	4.36	82.3
5	290000	3.84	4.13	78
5	300000	4.69	4.97	94
5	310000	4.74	5.03	95
5	320000	4.09	4.38	82.8
5	330000	3.72	4.01	75.8
5	340000	4.46	4.75	89.7
5	350000	4.55	4.84	91.4
5	360000	4	4.29	81.1
5	370000	3.74	4.02	76
5	380000	3.86	4.15	78.4
5	390000	4.41	4.69	88.7
5	400000	4.16	4.45	84.1
5	410000	3.24	3.52	66.6
5	420000	3.82	4.11	77.7
5	430000	5.03	5.32	101
5	440000	4.07	4.36	82.4
5	450000	3.64	3.92	74.2
5	460000	4.51	4.8	90.7
5	470000	4.42	4.71	89
5	480000	3.8	4.09	77.2
5	490000	4.64	4.93	93.2
5	500000	5.15	5.44	103
6	0	5.91	3.65	69
6	-10000	6.45	4.19	79.3
6	-20000	6.66	4.4	83.1
6	-30000	6.1	3.84	72.7
6	-40000	6.87	4.61	87.2
6	-50000	6.33	4.07	76.9
6	-60000	6.07	3.81	72
6	-70000	7.01	4.75	89.8
6	-80000	7.87	5.61	106
6	-90000	7.43	5.17	97.7
6	-100000	6.86	4.6	86.9
6	-110000	7.46	5.2	98.2
6	-120000	7.99	5.73	108
6	-130000	7.69	5.43	103
6	-140000	7.77	5.51	104
6	-150000	8.42	6.16	116
6	-160000	9.36	7.1	134
6	-170000	9.14	6.88	130
6	-180000	9.03	6.77	128
6	-190000	9.53	7.27	137
6	-200000	10.1	7.88	149
6	-210000	9.79	7.53	142
6	-220000	8.85	6.59	124
6	-230000	8.66	6.4	121
6	-240000	9.38	7.12	135
6	-250000	9.25	6.99	132
6	-260000	8.68	6.42	121
6	-270000	8.88	6.62	125
6	-280000	9.71	7.45	141
6	-290000	9.96	7.7	146
6	-300000	9.2	6.94	131
6	-310000	9.59	7.33	139
6	-320000	10.9	8.62	163
6	-330000	10.2	7.91	150
6	-340000	9.48	7.22	136
6	-350000	10.1	7.85	148
6	-360000	10.9	8.63	163
6	-370000	10.8	8.52	161
6	-380000	10.5	8.25	156
6	-390000	11.4	9.15	173
6	-400000	11.8	9.52	180
6	-410000	11.2	8.92	169
6	-420000	10.6	8.35	158
6	-430000	11.3	9.03	171
6	-440000	11.9	9.67	183
6	-450000	11.7	9.45	179
6	-460000	11.2	8.99	170
6	-470000	11.1	8.87	168
6	-480000	11.6	9.35	177
6	-490000	11	8.69	164
6	-500000	10.6	8.33	157
