^C:\USERS\JUSTIN\GIT\DYNOFLEX\APP\SFOUNDATION SOURCE\SFOUNDATION\SRC\CONVERTERLIB.CPP
/c /Zi /JMC /nologo /W3 /WX- /diagnostics:classic /Od /Oy- /D WIN32 /D _DEBUG /D _WINDOWS /Gm- /EHsc /RTC1 /MDd /GS /fp:precise /Zc:wchar_t /Zc:forScope /Zc:inline /Fo"DEBUG\\" /Fd"DEBUG\VC141.PDB" /Gd /TP /analyze- /FC C:\USERS\JUSTIN\GIT\DYNOFLEX\APP\SFOUNDATION SOURCE\SFOUNDATION\SRC\CONVERTERLIB.CPP
^C:\USERS\JUSTIN\GIT\DYNOFLEX\APP\SFOUNDATION SOURCE\SFOUNDATION\SRC\CPMAPI.CPP
/c /Zi /JMC /nologo /W3 /WX- /diagnostics:classic /Od /Oy- /D WIN32 /D _DEBUG /D _WINDOWS /Gm- /EHsc /RTC1 /MDd /GS /fp:precise /Zc:wchar_t /Zc:forScope /Zc:inline /Fo"DEBUG\\" /Fd"DEBUG\VC141.PDB" /Gd /TP /analyze- /FC C:\USERS\JUSTIN\GIT\DYNOFLEX\APP\SFOUNDATION SOURCE\SFOUNDATION\SRC\CPMAPI.CPP
^C:\USERS\JUSTIN\GIT\DYNOFLEX\APP\SFOUNDATION SOURCE\SFOUNDATION\SRC\CPMCLASSIMPL.CPP
/c /Zi /JMC /nologo /W3 /WX- /diagnostics:classic /Od /Oy- /D WIN32 /D _DEBUG /D _WINDOWS /Gm- /EHsc /RTC1 /MDd /GS /fp:precise /Zc:wchar_t /Zc:forScope /Zc:inline /Fo"DEBUG\\" /Fd"DEBUG\VC141.PDB" /Gd /TP /analyze- /FC C:\USERS\JUSTIN\GIT\DYNOFLEX\APP\SFOUNDATION SOURCE\SFOUNDATION\SRC\CPMCLASSIMPL.CPP
^C:\USERS\JUSTIN\GIT\DYNOFLEX\APP\SFOUNDATION SOURCE\SFOUNDATION\SRC\ISCAPI.CPP
/c /Zi /JMC /nologo /W3 /WX- /diagnostics:classic /Od /Oy- /D WIN32 /D _DEBUG /D _WINDOWS /Gm- /EHsc /RTC1 /MDd /GS /fp:precise /Zc:wchar_t /Zc:forScope /Zc:inline /Fo"DEBUG\\" /Fd"DEBUG\VC141.PDB" /Gd /TP /analyze- /FC C:\USERS\JUSTIN\GIT\DYNOFLEX\APP\SFOUNDATION SOURCE\SFOUNDATION\SRC\ISCAPI.CPP
^C:\USERS\JUSTIN\GIT\DYNOFLEX\APP\SFOUNDATION SOURCE\SFOUNDATION\SRC\LNKACCESSCOMMON.CPP
/c /Zi /JMC /nologo /W3 /WX- /diagnostics:classic /Od /Oy- /D WIN32 /D _DEBUG /D _WINDOWS /Gm- /EHsc /RTC1 /MDd /GS /fp:precise /Zc:wchar_t /Zc:forScope /Zc:inline /Fo"DEBUG\\" /Fd"DEBUG\VC141.PDB" /Gd /TP /analyze- /FC C:\USERS\JUSTIN\GIT\DYNOFLEX\APP\SFOUNDATION SOURCE\SFOUNDATION\SRC\LNKACCESSCOMMON.CPP
^C:\USERS\JUSTIN\GIT\DYNOFLEX\APP\SFOUNDATION SOURCE\SFOUNDATION\SRC\MERIDIANNET.CPP
/c /Zi /JMC /nologo /W3 /WX- /diagnostics:classic /Od /Oy- /D WIN32 /D _DEBUG /D _WINDOWS /Gm- /EHsc /RTC1 /MDd /GS /fp:precise /Zc:wchar_t /Zc:forScope /Zc:inline /Fo"DEBUG\\" /Fd"DEBUG\VC141.PDB" /Gd /TP /analyze- /FC C:\USERS\JUSTIN\GIT\DYNOFLEX\APP\SFOUNDATION SOURCE\SFOUNDATION\SRC\MERIDIANNET.CPP
^C:\USERS\JUSTIN\GIT\DYNOFLEX\APP\SFOUNDATION SOURCE\SFOUNDATION\SRC\NETCMDAPI.CPP
/c /Zi /JMC /nologo /W3 /WX- /diagnostics:classic /Od /Oy- /D WIN32 /D _DEBUG /D _WINDOWS /Gm- /EHsc /RTC1 /MDd /GS /fp:precise /Zc:wchar_t /Zc:forScope /Zc:inline /Fo"DEBUG\\" /Fd"DEBUG\VC141.PDB" /Gd /TP /analyze- /FC C:\USERS\JUSTIN\GIT\DYNOFLEX\APP\SFOUNDATION SOURCE\SFOUNDATION\SRC\NETCMDAPI.CPP
^C:\USERS\JUSTIN\GIT\DYNOFLEX\APP\SFOUNDATION SOURCE\SFOUNDATION\SRC\NETCOREFMT.CPP
/c /Zi /JMC /nologo /W3 /WX- /diagnostics:classic /Od /Oy- /D WIN32 /D _DEBUG /D _WINDOWS /Gm- /EHsc /RTC1 /MDd /GS /fp:precise /Zc:wchar_t /Zc:forScope /Zc:inline /Fo"DEBUG\\" /Fd"DEBUG\VC141.PDB" /Gd /TP /analyze- /FC C:\USERS\JUSTIN\GIT\DYNOFLEX\APP\SFOUNDATION SOURCE\SFOUNDATION\SRC\NETCOREFMT.CPP
^C:\USERS\JUSTIN\GIT\DYNOFLEX\APP\SFOUNDATION SOURCE\SFOUNDATION\SRC\SYSCLASSIMPL.CPP
/c /Zi /JMC /nologo /W3 /WX- /diagnostics:classic /Od /Oy- /D WIN32 /D _DEBUG /D _WINDOWS /Gm- /EHsc /RTC1 /MDd /GS /fp:precise /Zc:wchar_t /Zc:forScope /Zc:inline /Fo"DEBUG\\" /Fd"DEBUG\VC141.PDB" /Gd /TP /analyze- /FC C:\USERS\JUSTIN\GIT\DYNOFLEX\APP\SFOUNDATION SOURCE\SFOUNDATION\SRC\SYSCLASSIMPL.CPP
