  0
SECTION
  2
HEADER
  9
$ACADVER
  1
AC1009
  9
$MEASUREMENT
  70
1
  9
$INSUNITS
  70
4
  9
$DIMLFAC
  40
1
  9
$INSBASE
  10
0.0
  20
0.0
  30
0.0
  9
$EXTMIN
  10
20
  20
20
  9
$EXTMAX
  10
107.799134482152
  20
81.477615812691
  9
$LIMMIN
  10
20
  20
20
  9
$LIMMAX
  10
107.799134482152
  20
81.477615812691
  9
$CLAYER
  8
0
  0
ENDSEC
  0
SECTION
  2
TABLES
  0
TABLE
  2
LTYPE
  70
2
  0
LTYPE
  2
CONTINUOUS
  70
65
  3
Solid line
  72
65
  73
0
  40
0
  0
LTYPE
  2
DASHED
  70
65
  3
 _ _ _ _ _ _ _ _ _ _ _ _ _ _ _ _ _ _ _ _ _ _
  72
65
  73
2
  40
2
  49
1
  49
-1
  0
ENDTAB
  0
TABLE
  2
LAYER
  70
1
  0
LAYER
  2
0
  70
0
  62
7
  6
CONTINUOUS
  0
ENDTAB
  0
ENDSEC
  0
SECTION
  2
BLOCKS
  0
ENDSEC
  0
SECTION
  2
ENTITIES
  0
LINE
  8
0
  10
100
  20
20
  30
6.35
  11
107.799134482152
  21
81.477615812691
  31
6.35
  0
LINE
  8
0
  10
107.799134482152
  20
81.477615812691
  30
6.35
  11
20
  21
20
  31
6.35
  0
LINE
  8
0
  10
20
  20
20
  30
6.35
  11
100
  21
20
  31
6.35
  0
ENDSEC
  0
EOF
