rep_num	position	torque	torque_compensated	lbs_compensated
1	0	2.58	2.87	54.2
1	10000	3.44	3.73	70.5
1	20000	4.56	4.85	91.6
1	30000	3.94	4.23	79.9
1	40000	4.26	4.55	86
1	50000	4.77	5.05	95.5
1	60000	4.67	4.95	93.6
1	70000	4.41	4.69	88.7
1	80000	4.56	4.85	91.7
1	90000	5.18	5.46	103
1	100000	5.23	5.52	104
1	110000	5.27	5.56	105
1	120000	4.73	5.02	94.9
1	130000	5.52	5.82	110
1	140000	5.41	5.71	108
1	150000	5.4	5.7	108
1	160000	5.66	5.96	113
1	170000	6.39	6.74	127
1	180000	6.21	6.54	124
1	190000	5.22	5.51	104
1	200000	5.14	5.42	102
1	210000	5.98	6.3	119
1	220000	5.59	5.89	111
1	230000	5.57	5.87	111
1	240000	6.08	6.41	121
1	250000	6.66	7.02	133
1	260000	6.89	7.26	137
1	270000	5.72	6.03	114
1	280000	6.08	6.41	121
1	290000	6.85	7.22	137
1	300000	6.72	7.09	134
1	310000	6.47	6.82	129
1	320000	6.51	6.87	130
1	330000	6.42	6.77	128
1	340000	7.21	7.6	144
1	350000	6.25	6.59	124
1	360000	6.79	7.16	135
1	0	7.74	5.48	104
1	-10000	9.8	7.54	143
1	-20000	11	8.72	165
1	-30000	9.97	7.71	146
1	-40000	9.48	7.22	136
1	-50000	9.28	7.02	133
1	-60000	9.89	7.63	144
1	-70000	9.45	7.19	136
1	-80000	9.16	6.9	130
1	-90000	9.51	7.25	137
1	-100000	9.35	7.09	134
1	-110000	8.3	6.04	114
1	-120000	8.38	6.12	116
1	-130000	10.1	7.8	147
1	-140000	10.8	8.51	161
1	-150000	10.3	8	151
1	-160000	10.2	7.96	150
1	-170000	10.2	7.95	150
1	-180000	10	7.75	146
1	-190000	9.27	7.01	133
1	-200000	8.66	6.4	121
1	-210000	9.4	7.14	135
1	-220000	9.59	7.33	138
1	-230000	9.26	7	132
1	-240000	8.61	6.35	120
1	-250000	8.16	5.9	111
1	-260000	9.02	6.76	128
1	-270000	8.83	6.57	124
1	-280000	9.05	6.79	128
1	-290000	10.1	7.83	148
1	-300000	11	8.76	166
1	-310000	10.9	8.63	163
1	-320000	10.5	8.26	156
1	-330000	10.9	8.67	164
1	-340000	10.5	8.26	156
1	-350000	9.47	7.21	136
1	-360000	8.04	5.78	109
2	0	7.08	7.46	141
2	10000	6.57	6.92	131
2	20000	6.73	7.09	134
2	30000	5.53	5.83	110
2	40000	5.8	6.11	116
2	50000	6.08	6.41	121
2	60000	5.62	5.92	112
2	70000	5.18	5.46	103
2	80000	5.25	5.53	105
2	90000	5.94	6.26	118
2	100000	6.07	6.4	121
2	110000	5.99	6.32	119
2	120000	5.82	6.13	116
2	130000	6.11	6.44	122
2	140000	6.12	6.45	122
2	150000	5.59	5.89	111
2	160000	5.61	5.91	112
2	170000	6.2	6.53	123
2	180000	6.22	6.56	124
2	190000	5.37	5.66	107
2	200000	5.34	5.63	106
2	210000	6.57	6.93	131
2	220000	6.4	6.75	127
2	230000	6	6.32	119
2	240000	6.28	6.62	125
2	250000	6.67	7.03	133
2	260000	6.84	7.21	136
2	270000	5.62	5.92	112
2	280000	6.06	6.38	121
2	290000	6.58	6.94	131
2	300000	5.98	6.3	119
2	310000	5.57	5.87	111
2	320000	5.85	6.16	116
2	330000	6.54	6.9	130
2	340000	7.42	7.82	148
2	350000	6.25	6.59	125
2	360000	6.4	6.75	128
2	0	7.23	4.97	94
2	-10000	10.1	7.82	148
2	-20000	10.3	8.04	152
2	-30000	10	7.76	147
2	-40000	10.4	8.17	154
2	-50000	11.1	8.88	168
2	-60000	10.9	8.62	163
2	-70000	9.93	7.67	145
2	-80000	9.55	7.29	138
2	-90000	11.1	8.84	167
2	-100000	11.8	9.53	180
2	-110000	10.4	8.17	154
2	-120000	10.1	7.8	147
2	-130000	11	8.78	166
2	-140000	11.1	8.84	167
2	-150000	10.9	8.62	163
2	-160000	10.5	8.22	155
2	-170000	10.4	8.1	153
2	-180000	10.2	7.95	150
2	-190000	10	7.74	146
2	-200000	9.79	7.53	142
2	-210000	9.82	7.56	143
2	-220000	9.81	7.55	143
2	-230000	9.3	7.04	133
2	-240000	8.9	6.64	126
2	-250000	9.47	7.21	136
2	-260000	9.87	7.61	144
2	-270000	8.77	6.51	123
2	-280000	8.89	6.63	125
2	-290000	10.1	7.79	147
2	-300000	11.1	8.86	167
2	-310000	10.1	7.88	149
2	-320000	9.69	7.43	140
2	-330000	9.97	7.71	146
2	-340000	9.63	7.37	139
2	-350000	8.29	6.03	114
2	-360000	7.59	5.33	101
3	0	6.92	7.29	138
3	10000	5.57	5.88	111
3	20000	6.25	6.59	124
3	30000	4.91	5.2	98.2
3	40000	5.85	6.16	117
3	50000	6.26	6.6	125
3	60000	5.71	6.02	114
3	70000	4.91	5.2	98.2
3	80000	5.52	5.81	110
3	90000	5.95	6.27	118
3	100000	5.35	5.64	107
3	110000	5.27	5.56	105
3	120000	5.06	5.35	101
3	130000	5.63	5.94	112
3	140000	6.18	6.51	123
3	150000	5.93	6.26	118
3	160000	5.69	6	113
3	170000	5.65	5.96	113
3	180000	5.75	6.06	115
3	190000	5.54	5.84	110
3	200000	5.71	6.02	114
3	210000	6.72	7.08	134
3	220000	6.14	6.47	122
3	230000	5.42	5.71	108
3	240000	5.29	5.58	105
3	250000	5.65	5.96	113
3	260000	5.25	5.54	105
3	270000	4.65	4.93	93.2
3	280000	5.19	5.47	103
3	290000	5.98	6.31	119
3	300000	5.62	5.92	112
3	310000	5.15	5.44	103
3	320000	5.09	5.37	102
3	330000	5.36	5.65	107
3	340000	5.89	6.21	117
3	350000	5.33	5.62	106
3	360000	5.84	6.15	116
3	0	7.16	4.9	92.6
3	-10000	8.41	6.15	116
3	-20000	9.21	6.95	131
3	-30000	8.54	6.28	119
3	-40000	8.81	6.55	124
3	-50000	9.42	7.16	135
3	-60000	9.15	6.89	130
3	-70000	8.43	6.17	117
3	-80000	8.67	6.41	121
3	-90000	10.1	7.82	148
3	-100000	11.6	9.3	176
3	-110000	11.6	9.3	176
3	-120000	11.6	9.32	176
3	-130000	12.4	10.1	192
3	-140000	12.3	10	190
3	-150000	11.4	9.18	173
3	-160000	11.3	8.99	170
3	-170000	10.9	8.65	164
3	-180000	10.6	8.33	157
3	-190000	9.75	7.49	142
3	-200000	9.58	7.32	138
3	-210000	9.83	7.57	143
3	-220000	9.41	7.15	135
3	-230000	8.97	6.71	127
3	-240000	8.77	6.51	123
3	-250000	9.44	7.18	136
3	-260000	10.1	7.87	149
3	-270000	8.97	6.71	127
3	-280000	8.57	6.31	119
3	-290000	9.99	7.73	146
3	-300000	11	8.73	165
3	-310000	10.5	8.21	155
3	-320000	9.89	7.63	144
3	-330000	10.3	8.03	152
3	-340000	10	7.79	147
3	-350000	9.09	6.83	129
3	-360000	7.94	5.68	107
4	0	6.44	6.79	128
4	10000	5.2	5.49	104
4	20000	5.51	5.81	110
4	30000	5.38	5.67	107
4	40000	5.46	5.75	109
4	50000	5.85	6.17	117
4	60000	4.55	4.84	91.4
4	70000	4.52	4.81	90.9
4	80000	4.82	5.11	96.6
4	90000	4.69	4.98	94.1
4	100000	4.63	4.92	93
4	110000	4.82	5.11	96.5
4	120000	5	5.29	100
4	130000	5.37	5.66	107
4	140000	5.28	5.56	105
4	150000	4.79	5.08	96
4	160000	4.51	4.8	90.7
4	170000	4.8	5.08	96.1
4	180000	5.14	5.42	102
4	190000	4.55	4.84	91.4
4	200000	4.53	4.82	91.1
4	210000	5.01	5.29	100
4	220000	4.36	4.65	87.9
4	230000	3.99	4.27	80.7
4	240000	3.94	4.23	79.9
4	250000	4.21	4.5	85
4	260000	4.56	4.85	91.6
4	270000	3.98	4.26	80.5
4	280000	2.99	3.27	61.8
4	290000	4.31	4.6	86.9
4	300000	4.24	4.53	85.5
4	310000	3.92	4.21	79.5
4	320000	3.15	3.43	64.9
4	330000	3.97	4.25	80.4
4	340000	4.33	4.62	87.3
4	350000	3.64	3.93	74.3
4	360000	4.53	4.81	90.9
4	0	5.89	3.63	68.5
4	-10000	8.81	6.55	124
4	-20000	9.42	7.16	135
4	-30000	8.82	6.56	124
4	-40000	9	6.74	127
4	-50000	10.1	7.83	148
4	-60000	10.9	8.6	163
4	-70000	10.4	8.17	154
4	-80000	10.3	8	151
4	-90000	11.1	8.82	167
4	-100000	11.3	9.05	171
4	-110000	10.1	7.79	147
4	-120000	10	7.77	147
4	-130000	11.4	9.17	173
4	-140000	11.2	8.93	169
4	-150000	10.8	8.54	161
4	-160000	10.9	8.64	163
4	-170000	10.9	8.65	163
4	-180000	10.8	8.53	161
4	-190000	10	7.79	147
4	-200000	9.77	7.51	142
4	-210000	10	7.79	147
4	-220000	9.78	7.52	142
4	-230000	9.28	7.02	133
4	-240000	9.12	6.86	130
4	-250000	9.36	7.1	134
4	-260000	9.23	6.97	132
4	-270000	9.73	7.47	141
4	-280000	9.84	7.58	143
4	-290000	10.4	8.11	153
4	-300000	10.5	8.21	155
4	-310000	9.94	7.68	145
4	-320000	9.15	6.89	130
4	-330000	9.14	6.88	130
4	-340000	8.52	6.26	118
4	-350000	7.84	5.58	105
4	-360000	7.03	4.77	90.2
5	0	5.81	6.13	116
5	10000	4.64	4.92	93.1
5	20000	4.87	5.16	97.4
5	30000	3.65	3.94	74.5
5	40000	3.66	3.95	74.6
5	50000	4.46	4.74	89.7
5	60000	3.81	4.1	77.5
5	70000	3.26	3.55	67.1
5	80000	4.14	4.42	83.6
5	90000	4.22	4.51	85.2
5	100000	3.99	4.28	80.9
5	110000	3.96	4.25	80.3
5	120000	3.76	4.05	76.5
5	130000	3.76	4.04	76.4
5	140000	3.75	4.04	76.3
5	150000	3.21	3.49	66
5	160000	3.44	3.73	70.5
5	170000	3.74	4.03	76.1
5	180000	3.58	3.87	73.1
5	190000	2.94	3.23	61
5	200000	2.73	3.01	57
5	210000	3.78	4.07	76.9
5	220000	3.24	3.52	66.6
5	230000	2.74	3.03	57.3
5	240000	2.91	3.2	60.4
5	250000	3.21	3.5	66.1
5	260000	3.31	3.6	68
5	270000	2.43	2.72	51.4
5	280000	2.93	3.22	60.8
5	290000	3.46	3.75	70.8
5	300000	3.42	3.7	70
5	310000	2.58	2.86	54.1
5	320000	2.58	2.86	54.1
5	330000	3.04	3.33	62.9
5	340000	3.49	3.78	71.4
5	350000	2.7	2.99	56.4
5	360000	2.96	3.24	61.3
5	0	4.45	2.55	48.2
5	-10000	6.51	4.25	80.4
5	-20000	7.14	4.88	92.2
5	-30000	6.68	4.42	83.5
5	-40000	6.42	4.16	78.7
5	-50000	7.09	4.83	91.2
5	-60000	7.3	5.04	95.2
5	-70000	6.83	4.57	86.3
5	-80000	6.77	4.51	85.2
5	-90000	7.13	4.87	92
5	-100000	7.91	5.65	107
5	-110000	7.57	5.31	100
5	-120000	8.19	5.93	112
5	-130000	9.8	7.54	143
5	-140000	10.3	8	151
5	-150000	9.85	7.59	143
5	-160000	9.31	7.05	133
5	-170000	9.03	6.77	128
5	-180000	8.84	6.58	124
5	-190000	8.25	5.99	113
5	-200000	7.74	5.48	104
5	-210000	8.43	6.17	117
5	-220000	8.72	6.46	122
5	-230000	8.5	6.24	118
5	-240000	7.76	5.5	104
5	-250000	7.85	5.59	106
5	-260000	8.77	6.51	123
5	-270000	8.39	6.13	116
5	-280000	8.01	5.75	109
5	-290000	8.42	6.16	116
5	-300000	8.62	6.36	120
5	-310000	7.71	5.45	103
5	-320000	7.04	4.78	90.3
5	-330000	7.65	5.39	102
5	-340000	7.44	5.18	97.8
5	-350000	6.15	3.89	73.5
5	-360000	5.21	2.99	56.4
