rep_num	position	torque	torque_compensated	lbs_compensated
1	0	1.97	2.25	42.6
1	10000	3.41	3.7	69.9
1	20000	3.75	4.04	76.3
1	30000	4.39	4.67	88.3
1	40000	4.99	5.27	99.7
1	50000	4.64	4.93	93.2
1	60000	4.71	5	94.5
1	70000	5.06	5.35	101
1	80000	5.39	5.68	107
1	90000	5.48	5.78	109
1	100000	5.02	5.31	100
1	110000	5.29	5.58	105
1	120000	5.79	6.1	115
1	130000	5.73	6.04	114
1	140000	5.54	5.84	110
1	150000	6.25	6.59	125
1	160000	6.48	6.83	129
1	170000	6.13	6.47	122
1	180000	5.66	5.96	113
1	190000	5.73	6.04	114
1	200000	6.27	6.61	125
1	210000	5.71	6.02	114
1	220000	5.65	5.96	113
1	230000	6.19	6.53	123
1	240000	6.34	6.68	126
1	250000	6.84	7.21	136
1	260000	6.26	6.6	125
1	270000	6.58	6.94	131
1	280000	7.02	7.4	140
1	290000	6.81	7.17	136
1	300000	7.31	7.71	146
1	310000	7.25	7.64	144
1	320000	7.21	7.6	144
1	330000	6.72	7.08	134
1	340000	6.65	7.01	132
1	350000	7.55	7.96	151
1	360000	8.02	8.45	160
2	0	9.12	6.86	130
2	-10000	9.72	7.46	141
2	-20000	9.51	7.25	137
2	-30000	9.6	7.34	139
2	-40000	9.45	7.19	136
2	-50000	9.69	7.43	140
2	-60000	10.3	8.07	153
2	-70000	10.7	8.39	159
2	-80000	10.1	7.87	149
2	-90000	9.59	7.33	138
2	-100000	9.43	7.17	136
2	-110000	9.13	6.87	130
2	-120000	9.16	6.9	130
2	-130000	8.82	6.56	124
2	-140000	9.51	7.25	137
2	-150000	10.3	8.08	153
2	-160000	10.5	8.25	156
2	-170000	9.97	7.71	146
2	-180000	9.7	7.44	141
2	-190000	10.4	8.19	155
2	-200000	9.67	7.41	140
2	-210000	9.29	7.03	133
2	-220000	9.89	7.63	144
2	-230000	9.75	7.49	142
2	-240000	9.81	7.55	143
2	-250000	9.67	7.41	140
2	-260000	9.6	7.34	139
2	-270000	9.61	7.35	139
2	-280000	9.34	7.08	134
2	-290000	9.85	7.59	143
2	-300000	10.4	8.12	153
2	-310000	9.75	7.49	142
2	-320000	9.73	7.47	141
2	-330000	9.83	7.57	143
2	-340000	9.56	7.3	138
2	-350000	9.44	7.18	136
2	-360000	8.79	6.53	123
2	0	7.13	7.51	142
2	10000	5.55	5.85	111
2	20000	4.85	5.14	97.1
2	30000	4.74	5.03	95
2	40000	4.28	4.57	86.3
2	50000	5.08	5.36	101
2	60000	5.52	5.82	110
2	70000	5.64	5.94	112
2	80000	5.78	6.1	115
2	90000	5.88	6.19	117
2	100000	5.37	5.66	107
2	110000	5.83	6.14	116
2	120000	6.49	6.84	129
2	130000	6.26	6.6	125
2	140000	6.06	6.39	121
2	150000	6.92	7.29	138
2	160000	7.1	7.48	141
2	170000	7.07	7.46	141
2	180000	6.86	7.23	137
2	190000	7.14	7.52	142
2	200000	7.03	7.41	140
2	210000	6.92	7.29	138
2	220000	6.99	7.37	139
2	230000	7.36	7.75	147
2	240000	7.44	7.85	148
2	250000	7.65	8.07	152
2	260000	7.21	7.6	144
2	270000	7.47	7.88	149
2	280000	7.41	7.81	148
2	290000	7.31	7.71	146
2	300000	7.44	7.84	148
2	310000	7.57	7.98	151
2	320000	7.77	8.19	155
2	330000	7.49	7.89	149
2	340000	7.46	7.86	149
2	350000	8	8.43	159
2	360000	8.56	9.02	171
3	0	9.34	7.08	134
3	-10000	11.4	9.12	172
3	-20000	11.1	8.8	166
3	-30000	11.7	9.42	178
3	-40000	11.8	9.5	180
3	-50000	11.6	9.38	177
3	-60000	11.6	9.3	176
3	-70000	11.6	9.32	176
3	-80000	11.4	9.1	172
3	-90000	11.1	8.89	168
3	-100000	10.9	8.63	163
3	-110000	10.7	8.43	159
3	-120000	11.3	9.01	170
3	-130000	11.7	9.46	179
3	-140000	11.8	9.57	181
3	-150000	12.1	9.88	187
3	-160000	11.2	8.93	169
3	-170000	10.9	8.61	163
3	-180000	11.1	8.81	166
3	-190000	11.1	8.81	167
3	-200000	9.63	7.37	139
3	-210000	9.59	7.33	139
3	-220000	10.3	8.03	152
3	-230000	10.5	8.21	155
3	-240000	10.2	7.92	150
3	-250000	9.49	7.23	137
3	-260000	9.14	6.88	130
3	-270000	8.79	6.53	123
3	-280000	8.67	6.41	121
3	-290000	9.37	7.11	134
3	-300000	10.2	7.91	149
3	-310000	9.95	7.69	145
3	-320000	9.71	7.45	141
3	-330000	9.26	7	132
3	-340000	8.13	5.87	111
3	-350000	7.28	5.02	94.9
3	-360000	7.23	4.97	93.9
3	0	7.38	7.78	147
3	10000	6.69	7.05	133
3	20000	5.69	5.99	113
3	30000	5.77	6.08	115
3	40000	5.78	6.09	115
3	50000	5.12	5.4	102
3	60000	4.59	4.88	92.2
3	70000	5.2	5.48	104
3	80000	5.68	5.99	113
3	90000	5.13	5.41	102
3	100000	4.47	4.76	89.9
3	110000	4.97	5.26	99.4
3	120000	5.51	5.8	110
3	130000	5.34	5.63	106
3	140000	5.55	5.85	111
3	150000	6.78	7.14	135
3	160000	6.99	7.36	139
3	170000	6.39	6.74	127
3	180000	6.17	6.51	123
3	190000	6.34	6.68	126
3	200000	6.5	6.85	130
3	210000	6.26	6.6	125
3	220000	6.44	6.78	128
3	230000	6.67	7.03	133
3	240000	6.93	7.31	138
3	250000	6.97	7.34	139
3	260000	6.25	6.59	125
3	270000	6.56	6.91	131
3	280000	6.76	7.12	135
3	290000	6.57	6.92	131
3	300000	6.73	7.09	134
3	310000	6.52	6.87	130
3	320000	6.1	6.43	122
3	330000	6.5	6.85	130
3	340000	6.72	7.08	134
3	350000	7.24	7.63	144
3	360000	7.61	8.02	152
4	0	9.01	6.75	128
4	-10000	11.6	9.33	176
4	-20000	11.6	9.29	176
4	-30000	12.5	10.3	194
4	-40000	13	10.7	203
4	-50000	12.8	10.5	199
4	-60000	12.6	10.3	195
4	-70000	12.7	10.5	198
4	-80000	12.2	9.95	188
4	-90000	12.2	9.93	188
4	-100000	11.8	9.5	180
4	-110000	12.3	10.1	191
4	-120000	12.6	10.4	196
4	-130000	12.1	9.84	186
4	-140000	11.9	9.61	182
4	-150000	11.3	9.04	171
4	-160000	10.6	8.37	158
4	-170000	9.68	7.42	140
4	-180000	9.03	6.77	128
4	-190000	9.68	7.42	140
4	-200000	9.98	7.72	146
4	-210000	9.75	7.49	141
4	-220000	9.75	7.49	142
4	-230000	8.94	6.68	126
4	-240000	8.8	6.54	124
4	-250000	9.22	6.96	131
4	-260000	9.46	7.2	136
4	-270000	9.09	6.83	129
4	-280000	8.48	6.22	118
4	-290000	9.31	7.05	133
4	-300000	9.91	7.65	145
4	-310000	9.89	7.63	144
4	-320000	10.2	7.94	150
4	-330000	9.78	7.52	142
4	-340000	8.3	6.04	114
4	-350000	7.46	5.2	98.3
4	-360000	7.31	5.05	95.4
4	0	6.63	6.99	132
4	10000	5.96	6.28	119
4	20000	5.38	5.67	107
4	30000	4.9	5.18	98
4	40000	5.13	5.41	102
4	50000	5.08	5.37	101
4	60000	4.5	4.78	90.4
4	70000	4.33	4.61	87.2
4	80000	4.82	5.1	96.5
4	90000	4.65	4.94	93.3
4	100000	4.6	4.88	92.3
4	110000	4.57	4.85	91.7
4	120000	4.61	4.9	92.6
4	130000	4.44	4.73	89.3
4	140000	4.71	5	94.5
4	150000	5.09	5.38	102
4	160000	4.96	5.25	99.2
4	170000	4.68	4.96	93.8
4	180000	4.86	5.15	97.3
4	190000	5.12	5.4	102
4	200000	5.39	5.68	107
4	210000	5.23	5.51	104
4	220000	5.06	5.35	101
4	230000	5.19	5.47	103
4	240000	4.8	5.09	96.2
4	250000	4.69	4.98	94.1
4	260000	4.08	4.36	82.4
4	270000	3.98	4.26	80.6
4	280000	4.57	4.86	91.8
4	290000	4.55	4.84	91.5
4	300000	4.43	4.71	89
4	310000	4.35	4.64	87.7
4	320000	3.96	4.24	80.2
4	330000	3.9	4.19	79.1
4	340000	4.05	4.33	81.9
4	350000	4.23	4.51	85.3
4	360000	4.58	4.87	92
5	0	5.46	3.2	60.4
5	-10000	9	6.74	127
5	-20000	8.59	6.33	120
5	-30000	9.16	6.9	130
5	-40000	8.92	6.66	126
5	-50000	9.02	6.76	128
5	-60000	9.58	7.32	138
5	-70000	9.79	7.53	142
5	-80000	8.97	6.71	127
5	-90000	9.2	6.94	131
5	-100000	8.46	6.2	117
5	-110000	8.85	6.59	125
5	-120000	9.02	6.76	128
5	-130000	8.31	6.05	114
5	-140000	8.85	6.59	124
5	-150000	10	7.75	146
5	-160000	10.8	8.49	160
5	-170000	10.5	8.25	156
5	-180000	10.4	8.12	154
5	-190000	10.9	8.63	163
5	-200000	9.8	7.54	143
5	-210000	9.38	7.12	135
5	-220000	9.87	7.61	144
5	-230000	9.48	7.22	136
5	-240000	9	6.74	127
5	-250000	8.81	6.55	124
5	-260000	9.05	6.79	128
5	-270000	9.08	6.82	129
5	-280000	8.68	6.42	121
5	-290000	8.26	6	113
5	-300000	8.22	5.96	113
5	-310000	7.84	5.58	106
5	-320000	8.04	5.78	109
5	-330000	8.48	6.22	118
5	-340000	7.95	5.69	107
5	-350000	7.44	5.18	97.8
5	-360000	6.96	4.7	88.8
5	0	5.82	6.13	116
5	10000	4.24	4.52	85.5
5	20000	4.05	4.33	81.9
5	30000	4.14	4.42	83.6
5	40000	4.12	4.41	83.3
5	50000	4.08	4.37	82.6
5	60000	4.02	4.31	81.4
5	70000	4.06	4.35	82.2
5	80000	4.49	4.78	90.3
5	90000	4.31	4.6	86.9
5	100000	4.04	4.32	81.7
5	110000	3.96	4.25	80.3
5	120000	4.23	4.52	85.4
5	130000	3.49	3.77	71.3
5	140000	3.14	3.42	64.7
5	150000	3.5	3.79	71.6
5	160000	3.94	4.22	79.8
5	170000	3.84	4.13	78
5	180000	3.82	4.1	77.5
5	190000	3.99	4.28	80.9
5	200000	4.26	4.54	85.9
5	210000	3.95	4.24	80.1
5	220000	4.26	4.54	85.9
5	230000	4.59	4.88	92.2
5	240000	4.07	4.36	82.4
5	250000	3.87	4.15	78.5
5	260000	3.4	3.69	69.7
5	270000	3.67	3.96	74.8
5	280000	3.66	3.95	74.6
5	290000	3.29	3.58	67.7
5	300000	3.3	3.59	67.9
5	310000	3.43	3.72	70.3
5	320000	2.98	3.27	61.8
5	330000	2.94	3.22	60.9
5	340000	3.02	3.31	62.6
5	350000	3.65	3.94	74.4
5	360000	3.75	4.04	76.4
6	0	4.71	2.7	51
6	-10000	7.52	5.26	99.4
6	-20000	7.71	5.45	103
6	-30000	8.45	6.19	117
6	-40000	8.28	6.02	114
6	-50000	8.13	5.87	111
6	-60000	8.25	5.99	113
6	-70000	8.44	6.18	117
6	-80000	8.49	6.23	118
6	-90000	8.97	6.71	127
6	-100000	8.83	6.57	124
6	-110000	8.98	6.72	127
6	-120000	9.01	6.75	128
6	-130000	8.8	6.54	124
6	-140000	9.17	6.91	131
6	-150000	9.26	7	132
6	-160000	9.25	6.99	132
6	-170000	8.9	6.64	126
6	-180000	8.59	6.33	120
6	-190000	8.71	6.45	122
6	-200000	8.07	5.81	110
6	-210000	8.17	5.91	112
6	-220000	8.95	6.69	127
6	-230000	8.39	6.13	116
6	-240000	8.32	6.06	115
6	-250000	8.1	5.84	110
6	-260000	8.06	5.8	110
6	-270000	8.07	5.81	110
6	-280000	7.64	5.38	102
6	-290000	7.36	5.1	96.4
6	-300000	7.4	5.14	97.2
6	-310000	7.3	5.04	95.2
6	-320000	7.25	4.99	94.4
6	-330000	7.37	5.11	96.7
6	-340000	7.03	4.77	90.1
6	-350000	6.91	4.65	87.9
6	-360000	6.93	4.67	88.2
