rep_num	position	torque	torque_compensated	lbs_compensated
1	0	2.07	2.36	44.6
1	10000	4.62	4.9	92.7
1	20000	4.44	4.73	89.3
1	30000	4.95	5.24	99
1	40000	5.83	6.15	116
1	50000	5.89	6.21	117
1	60000	5.3	5.59	106
1	70000	5.93	6.25	118
1	80000	6.29	6.63	125
1	90000	5.85	6.17	117
1	100000	4.82	5.1	96.5
1	110000	5.42	5.71	108
1	120000	5.52	5.81	110
1	130000	5.05	5.33	101
1	140000	4.38	4.66	88.1
1	150000	4.98	5.27	99.5
1	160000	5.62	5.93	112
1	170000	6.16	6.49	123
1	180000	5.99	6.31	119
1	190000	6.05	6.38	121
1	200000	6.37	6.71	127
1	210000	6.4	6.74	127
1	220000	5.78	6.1	115
1	230000	6.66	7.03	133
1	240000	7.62	8.03	152
1	250000	7.23	7.62	144
1	260000	6.41	6.75	128
1	270000	6.04	6.37	120
1	280000	6.56	6.92	131
1	290000	6.35	6.7	127
1	300000	6.85	7.22	136
1	310000	7.73	8.14	154
1	320000	8.46	8.92	169
1	330000	8.45	8.9	168
1	340000	8.47	8.93	169
1	350000	9.04	9.53	180
1	360000	10.3	10.9	206
1	0	11.7	9.41	178
1	-10000	13.9	11.6	219
1	-20000	13.2	10.9	206
1	-30000	13.9	11.6	219
1	-40000	14.1	11.8	224
1	-50000	13.2	11	207
1	-60000	13.9	11.6	220
1	-70000	14	11.7	221
1	-80000	13.7	11.5	217
1	-90000	13.1	10.9	205
1	-100000	13.3	11.1	209
1	-110000	13.7	11.4	216
1	-120000	13.7	11.4	216
1	-130000	13.4	11.1	210
1	-140000	12.8	10.6	200
1	-150000	13	10.7	203
1	-160000	13.1	10.9	205
1	-170000	12.2	9.97	188
1	-180000	11.7	9.47	179
1	-190000	12	9.77	185
1	-200000	12.5	10.2	194
1	-210000	12.2	9.91	187
1	-220000	12.4	10.2	192
1	-230000	13	10.7	203
1	-240000	11.7	9.45	179
1	-250000	11.3	9.05	171
1	-260000	11.7	9.49	179
1	-270000	12	9.73	184
1	-280000	11	8.71	165
1	-290000	10.5	8.26	156
1	-300000	11.7	9.41	178
1	-310000	12.2	9.93	188
1	-320000	11.2	8.99	170
1	-330000	10.6	8.36	158
1	-340000	10.1	7.83	148
1	-350000	10.7	8.48	160
1	-360000	9.85	7.59	144
2	0	8.21	8.65	163
2	10000	7.06	7.44	141
2	20000	5.87	6.19	117
2	30000	6.34	6.68	126
2	40000	7.21	7.59	144
2	50000	6.35	6.7	127
2	60000	5.53	5.83	110
2	70000	6.22	6.56	124
2	80000	7.02	7.39	140
2	90000	6.13	6.47	122
2	100000	5.5	5.79	110
2	110000	6.19	6.53	123
2	120000	6.71	7.07	134
2	130000	6.28	6.62	125
2	140000	6.37	6.71	127
2	150000	7.22	7.61	144
2	160000	7.47	7.88	149
2	170000	7.09	7.48	141
2	180000	7.19	7.57	143
2	190000	7.51	7.92	150
2	200000	7.48	7.89	149
2	210000	6.98	7.35	139
2	220000	6.02	6.34	120
2	230000	6.26	6.6	125
2	240000	6.32	6.67	126
2	250000	5.97	6.29	119
2	260000	6.01	6.34	120
2	270000	6.5	6.85	129
2	280000	7.08	7.47	141
2	290000	6.66	7.02	133
2	300000	5.92	6.24	118
2	310000	6.4	6.74	127
2	320000	6.45	6.8	129
2	330000	5.99	6.31	119
2	340000	6.57	6.92	131
2	350000	7.12	7.5	142
2	360000	7.73	8.15	154
2	0	9.43	7.17	135
2	-10000	10.9	8.68	164
2	-20000	10.9	8.6	163
2	-30000	11.5	9.2	174
2	-40000	11.6	9.39	177
2	-50000	11.7	9.43	178
2	-60000	12.5	10.3	194
2	-70000	13.7	11.5	217
2	-80000	13.9	11.7	220
2	-90000	13.3	11.1	209
2	-100000	13.3	11	208
2	-110000	13	10.7	203
2	-120000	12.8	10.6	200
2	-130000	12.7	10.4	197
2	-140000	11.5	9.24	175
2	-150000	12.4	10.2	192
2	-160000	12.1	9.86	186
2	-170000	11	8.71	165
2	-180000	12	9.71	184
2	-190000	12.7	10.5	198
2	-200000	12.2	9.95	188
2	-210000	11	8.73	165
2	-220000	11.3	9.06	171
2	-230000	11.8	9.52	180
2	-240000	10.8	8.54	161
2	-250000	10.4	8.16	154
2	-260000	11.2	8.91	168
2	-270000	12.2	9.95	188
2	-280000	11.6	9.35	177
2	-290000	10.9	8.66	164
2	-300000	11.8	9.49	179
2	-310000	12.6	10.4	196
2	-320000	12.2	9.96	188
2	-330000	11.4	9.1	172
2	-340000	10.6	8.33	157
2	-350000	11.7	9.42	178
2	-360000	11.2	8.93	169
3	0	9.05	9.54	180
3	10000	6.67	7.03	133
3	20000	5.61	5.91	112
3	30000	6.1	6.42	121
3	40000	6.84	7.2	136
3	50000	6.46	6.81	129
3	60000	5.93	6.25	118
3	70000	6.63	6.99	132
3	80000	6.61	6.97	132
3	90000	5.85	6.16	117
3	100000	5.13	5.42	102
3	110000	5.59	5.89	111
3	120000	5.97	6.29	119
3	130000	5.02	5.3	100
3	140000	4.55	4.84	91.5
3	150000	5.51	5.81	110
3	160000	4.85	5.14	97.1
3	170000	4.62	4.9	92.7
3	180000	4.33	4.61	87.2
3	190000	4.91	5.19	98.1
3	200000	5.76	6.08	115
3	210000	5.64	5.94	112
3	220000	5.2	5.48	104
3	230000	5.95	6.27	118
3	240000	6.1	6.43	122
3	250000	5.01	5.29	100
3	260000	4.93	5.21	98.5
3	270000	4.82	5.1	96.4
3	280000	5.24	5.53	104
3	290000	4.76	5.04	95.3
3	300000	3.83	4.11	77.7
3	310000	4.83	5.12	96.7
3	320000	4.83	5.12	96.8
3	330000	4.06	4.34	82.1
3	340000	4.98	5.27	99.5
3	350000	5.31	5.6	106
3	360000	6.01	6.34	120
3	0	7.6	5.34	101
3	-10000	10.2	7.91	149
3	-20000	10.2	7.9	149
3	-30000	10.9	8.67	164
3	-40000	10.8	8.51	161
3	-50000	9.77	7.51	142
3	-60000	10.1	7.85	148
3	-70000	11	8.72	165
3	-80000	11.3	9.06	171
3	-90000	11.2	8.94	169
3	-100000	11.8	9.51	180
3	-110000	11.9	9.64	182
3	-120000	11.4	9.19	174
3	-130000	11.2	8.96	169
3	-140000	11	8.77	166
3	-150000	11.4	9.18	174
3	-160000	11.1	8.86	168
3	-170000	10.4	8.12	153
3	-180000	10.6	8.29	157
3	-190000	11.1	8.85	167
3	-200000	10.8	8.52	161
3	-210000	9.28	7.02	133
3	-220000	9.38	7.12	135
3	-230000	11.1	8.82	167
3	-240000	10.9	8.63	163
3	-250000	9.68	7.42	140
3	-260000	9.79	7.53	142
3	-270000	10.4	8.11	153
3	-280000	10	7.76	147
3	-290000	9.5	7.24	137
3	-300000	10.1	7.86	149
3	-310000	10.7	8.42	159
3	-320000	9.72	7.46	141
3	-330000	9.34	7.08	134
3	-340000	9.09	6.83	129
3	-350000	9.88	7.62	144
3	-360000	8.84	6.58	124
4	0	7.57	7.98	151
4	10000	6.08	6.41	121
4	20000	4.79	5.08	96
4	30000	4.91	5.2	98.2
4	40000	5	5.29	99.9
4	50000	4.39	4.68	88.4
4	60000	3.65	3.93	74.4
4	70000	4.5	4.79	90.5
4	80000	5.18	5.47	103
4	90000	3.95	4.23	80
4	100000	3.3	3.59	67.8
4	110000	3.71	4	75.5
4	120000	4.16	4.45	84.1
4	130000	3.94	4.23	79.9
4	140000	3.49	3.78	71.4
4	150000	4.28	4.57	86.3
4	160000	3.94	4.23	79.9
4	170000	3.79	4.07	77
4	180000	3.61	3.89	73.6
4	190000	3.74	4.02	76
4	200000	3.86	4.14	78.3
4	210000	4.22	4.51	85.3
4	220000	3.25	3.54	66.9
4	230000	3.93	4.22	79.7
4	240000	4.39	4.67	88.3
4	250000	3.45	3.74	70.6
4	260000	3.29	3.57	67.5
4	270000	3.36	3.64	68.9
4	280000	3.66	3.95	74.6
4	290000	3.08	3.37	63.7
4	300000	2.66	2.95	55.7
4	310000	3.22	3.51	66.3
4	320000	3.35	3.63	68.6
4	330000	2.75	3.03	57.3
4	340000	3.5	3.79	71.6
4	350000	3.82	4.11	77.7
4	360000	4.36	4.64	87.8
4	0	5.51	3.25	61.4
4	-10000	7.61	5.35	101
4	-20000	7.54	5.28	99.8
4	-30000	8.21	5.95	113
4	-40000	8.75	6.49	123
4	-50000	8.53	6.27	119
4	-60000	9.16	6.9	131
4	-70000	9.98	7.72	146
4	-80000	9.81	7.55	143
4	-90000	9.12	6.86	130
4	-100000	9.51	7.25	137
4	-110000	9.8	7.54	143
4	-120000	9.65	7.39	140
4	-130000	9.72	7.46	141
4	-140000	10.2	7.91	149
4	-150000	10.4	8.18	155
4	-160000	10.3	8.01	151
4	-170000	9.33	7.07	134
4	-180000	9.36	7.1	134
4	-190000	9.66	7.4	140
4	-200000	9.32	7.06	133
4	-210000	8.39	6.13	116
4	-220000	8.36	6.1	115
4	-230000	9.53	7.27	137
4	-240000	9.75	7.49	142
4	-250000	9.53	7.27	137
4	-260000	9.59	7.33	138
4	-270000	9.86	7.6	144
4	-280000	8.93	6.67	126
4	-290000	8.57	6.31	119
4	-300000	9.14	6.88	130
4	-310000	9.71	7.45	141
4	-320000	9.49	7.23	137
4	-330000	9.04	6.78	128
4	-340000	8.65	6.39	121
4	-350000	8.99	6.73	127
4	-360000	8.07	5.81	110
5	0	6.27	6.61	125
5	10000	4.94	5.23	98.8
5	20000	4.02	4.31	81.4
5	30000	3.96	4.24	80.2
5	40000	4.51	4.8	90.6
5	50000	3.98	4.27	80.7
5	60000	3.36	3.65	68.9
5	70000	4.25	4.53	85.7
5	80000	4.62	4.9	92.7
5	90000	3.58	3.87	73.2
5	100000	2.78	3.07	58
5	110000	3.91	4.19	79.3
5	120000	4.07	4.35	82.3
5	130000	3.39	3.68	69.5
5	140000	2.77	3.06	57.8
5	150000	3.45	3.74	70.6
5	160000	3.46	3.74	70.7
5	170000	2.87	3.15	59.6
5	180000	2.54	2.83	53.5
5	190000	3.17	3.46	65.4
5	200000	3.43	3.71	70.1
5	210000	2.94	3.22	60.9
5	220000	2.26	2.54	48
5	230000	2.86	3.14	59.4
5	240000	3.21	3.5	66.1
5	250000	2.65	2.94	55.5
5	260000	2.25	2.54	48
5	270000	2.28	2.56	48.5
5	280000	2.65	2.93	55.5
5	290000	1.91	2.2	41.6
5	300000	1.33	1.62	30.6
5	310000	1.82	2.11	39.8
5	320000	2.18	2.46	46.5
5	330000	1.69	1.97	37.3
5	340000	2.09	2.37	44.9
5	350000	2.44	2.72	51.5
5	360000	3.13	3.42	64.5
5	0	4.65	2.66	50.3
5	-10000	5.95	3.69	69.7
5	-20000	5.7	3.44	64.9
5	-30000	6.58	4.32	81.6
5	-40000	6.78	4.52	85.5
5	-50000	6.44	4.18	79
5	-60000	6.91	4.65	87.9
5	-70000	7.78	5.52	104
5	-80000	7.75	5.49	104
5	-90000	7.48	5.22	98.6
5	-100000	7.83	5.57	105
5	-110000	8.01	5.75	109
5	-120000	7.8	5.54	105
5	-130000	7.64	5.38	102
5	-140000	7.85	5.59	106
5	-150000	8.84	6.58	124
5	-160000	8.87	6.61	125
5	-170000	8.38	6.12	116
5	-180000	8.89	6.63	125
5	-190000	9.22	6.96	132
5	-200000	8.64	6.38	121
5	-210000	7.99	5.73	108
5	-220000	7.96	5.7	108
5	-230000	8.72	6.46	122
5	-240000	7.62	5.36	101
5	-250000	6.91	4.65	87.9
5	-260000	7.91	5.65	107
5	-270000	8.39	6.13	116
5	-280000	7.97	5.71	108
5	-290000	7.66	5.4	102
5	-300000	8.72	6.46	122
5	-310000	9.33	7.07	134
5	-320000	8.7	6.44	122
5	-330000	8.19	5.93	112
5	-340000	7.75	5.49	104
5	-350000	8.29	6.03	114
5	-360000	7.26	5	94.5
