rep_num	position	torque	torque_compensated	lbs_compensated
1	0	1.56	1.84	34.8
1	10000	3.27	3.56	67.3
1	20000	3.44	3.73	70.5
1	30000	4.11	4.39	83
1	40000	4.85	5.14	97.1
1	50000	4.82	5.11	96.6
1	60000	4.41	4.7	88.7
1	70000	5.24	5.52	104
1	80000	5.88	6.2	117
1	90000	5.83	6.15	116
1	100000	5.76	6.07	115
1	110000	6.08	6.41	121
1	120000	6.97	7.35	139
1	130000	6.29	6.63	125
1	140000	5.64	5.95	112
1	150000	6.35	6.69	126
1	160000	7.24	7.63	144
1	170000	6.72	7.09	134
1	180000	5.86	6.18	117
1	190000	6.46	6.81	129
1	200000	6.78	7.15	135
1	210000	6.8	7.16	135
1	220000	7.01	7.39	140
1	230000	6.98	7.35	139
1	240000	7.06	7.44	141
1	250000	6.81	7.18	136
1	260000	6.27	6.61	125
1	270000	6.92	7.29	138
1	280000	7.1	7.49	142
1	290000	6.85	7.22	136
1	300000	6.61	6.97	132
1	310000	7.28	7.68	145
1	320000	7.59	8	151
1	330000	7.38	7.78	147
1	340000	7.29	7.69	145
1	350000	7.56	7.97	151
1	360000	7.64	8.05	152
2	0	8.38	6.12	116
2	-10000	8.79	6.53	124
2	-20000	8.84	6.58	124
2	-30000	9.91	7.65	145
2	-40000	10.2	7.93	150
2	-50000	10.1	7.82	148
2	-60000	10.8	8.5	161
2	-70000	11	8.77	166
2	-80000	10.5	8.26	156
2	-90000	9.89	7.63	144
2	-100000	9.46	7.2	136
2	-110000	9.89	7.63	144
2	-120000	9.77	7.51	142
2	-130000	9.47	7.21	136
2	-140000	9.58	7.32	138
2	-150000	9.94	7.68	145
2	-160000	9.3	7.04	133
2	-170000	8.53	6.27	118
2	-180000	9.68	7.42	140
2	-190000	10.4	8.1	153
2	-200000	10	7.74	146
2	-210000	9.02	6.76	128
2	-220000	9.38	7.12	135
2	-230000	8.82	6.56	124
2	-240000	8.54	6.28	119
2	-250000	8.39	6.13	116
2	-260000	9.62	7.36	139
2	-270000	11.2	8.9	168
2	-280000	11.1	8.88	168
2	-290000	10.7	8.46	160
2	-300000	10.3	8.01	151
2	-310000	10.3	8.04	152
2	-320000	10.1	7.85	148
2	-330000	8.94	6.68	126
2	-340000	7.83	5.57	105
2	-350000	8.1	5.84	110
2	-360000	7.83	5.57	105
2	0	6.08	6.41	121
2	10000	5.05	5.33	101
2	20000	5.39	5.68	107
2	30000	5.35	5.64	107
2	40000	5.68	5.99	113
2	50000	5.83	6.15	116
2	60000	4.8	5.09	96.1
2	70000	4.69	4.97	94
2	80000	5.86	6.18	117
2	90000	5.58	5.88	111
2	100000	4.51	4.79	90.6
2	110000	4.81	5.09	96.3
2	120000	6	6.32	119
2	130000	5.72	6.03	114
2	140000	4.97	5.26	99.4
2	150000	5.32	5.61	106
2	160000	6.48	6.83	129
2	170000	6.54	6.9	130
2	180000	6.75	7.11	134
2	190000	7.49	7.9	149
2	200000	7.89	8.32	157
2	210000	7.31	7.71	146
2	220000	7.28	7.67	145
2	230000	7.42	7.83	148
2	240000	7.84	8.26	156
2	250000	7.55	7.96	150
2	260000	6.94	7.31	138
2	270000	7.5	7.91	149
2	280000	7.28	7.68	145
2	290000	6.73	7.1	134
2	300000	6.63	6.99	132
2	310000	7.01	7.39	140
2	320000	7.01	7.39	140
2	330000	6.74	7.11	134
2	340000	7.25	7.65	145
2	350000	7.59	8	151
2	360000	7.89	8.32	157
3	0	8.86	6.6	125
3	-10000	9.94	7.68	145
3	-20000	9.21	6.95	131
3	-30000	10.2	7.95	150
3	-40000	10.3	8.09	153
3	-50000	8.87	6.61	125
3	-60000	8.84	6.58	124
3	-70000	9.53	7.27	137
3	-80000	9.34	7.08	134
3	-90000	9.74	7.48	141
3	-100000	10.4	8.15	154
3	-110000	11.1	8.89	168
3	-120000	10.7	8.44	159
3	-130000	9.64	7.38	139
3	-140000	9.74	7.48	141
3	-150000	10.5	8.25	156
3	-160000	9.66	7.4	140
3	-170000	8.75	6.49	123
3	-180000	9.23	6.97	132
3	-190000	10.4	8.17	154
3	-200000	10.1	7.84	148
3	-210000	9.36	7.1	134
3	-220000	9.97	7.71	146
3	-230000	10.4	8.12	153
3	-240000	10	7.75	147
3	-250000	9.32	7.06	133
3	-260000	8.8	6.54	124
3	-270000	8.8	6.54	124
3	-280000	9.03	6.77	128
3	-290000	8.78	6.52	123
3	-300000	8.51	6.25	118
3	-310000	8.9	6.64	125
3	-320000	8.92	6.66	126
3	-330000	8.74	6.48	122
3	-340000	8.07	5.81	110
3	-350000	8.57	6.31	119
3	-360000	9.05	6.79	128
3	0	7.77	8.19	155
3	10000	5.66	5.96	113
3	20000	4.97	5.25	99.3
3	30000	5.65	5.95	112
3	40000	5.45	5.74	109
3	50000	5.19	5.47	103
3	60000	4.9	5.19	98.1
3	70000	5.1	5.39	102
3	80000	5.82	6.14	116
3	90000	5.73	6.04	114
3	100000	4.6	4.89	92.4
3	110000	5.11	5.4	102
3	120000	6.08	6.4	121
3	130000	5.69	6	113
3	140000	4.98	5.27	99.6
3	150000	5.37	5.66	107
3	160000	6.26	6.6	125
3	170000	6.07	6.4	121
3	180000	5.61	5.91	112
3	190000	6.2	6.54	124
3	200000	6.36	6.71	127
3	210000	5.58	5.88	111
3	220000	5.94	6.26	118
3	230000	5.81	6.13	116
3	240000	6.35	6.69	127
3	250000	6.05	6.38	121
3	260000	5.61	5.91	112
3	270000	5.93	6.25	118
3	280000	5.88	6.2	117
3	290000	5.77	6.08	115
3	300000	5.88	6.2	117
3	310000	6.2	6.54	124
3	320000	6.07	6.39	121
3	330000	5.55	5.85	111
3	340000	5.85	6.17	117
3	350000	6.63	6.99	132
3	360000	7.13	7.52	142
4	0	7.73	5.47	103
4	-10000	10.1	7.81	148
4	-20000	9.4	7.14	135
4	-30000	10.5	8.22	155
4	-40000	10.4	8.11	153
4	-50000	9.36	7.1	134
4	-60000	9.19	6.93	131
4	-70000	9.51	7.25	137
4	-80000	9.41	7.15	135
4	-90000	8.93	6.67	126
4	-100000	8.44	6.18	117
4	-110000	8.83	6.57	124
4	-120000	9.01	6.75	128
4	-130000	8.46	6.2	117
4	-140000	9.03	6.77	128
4	-150000	10.1	7.87	149
4	-160000	9.65	7.39	140
4	-170000	8.72	6.46	122
4	-180000	8.62	6.36	120
4	-190000	8.79	6.53	123
4	-200000	8.6	6.34	120
4	-210000	8.28	6.02	114
4	-220000	9.2	6.94	131
4	-230000	9.39	7.13	135
4	-240000	8.75	6.49	123
4	-250000	8.28	6.02	114
4	-260000	8.48	6.22	118
4	-270000	8.83	6.57	124
4	-280000	8.4	6.14	116
4	-290000	7.45	5.19	98.2
4	-300000	7.53	5.27	99.6
4	-310000	8.18	5.92	112
4	-320000	8.32	6.06	114
4	-330000	7.51	5.25	99.2
4	-340000	7.46	5.2	98.3
4	-350000	8.29	6.03	114
4	-360000	8.58	6.32	119
4	0	7.3	7.7	145
4	10000	4.88	5.16	97.6
4	20000	5.14	5.42	103
4	30000	5.07	5.35	101
4	40000	5.44	5.73	108
4	50000	5.29	5.57	105
4	60000	5.32	5.6	106
4	70000	5.76	6.07	115
4	80000	5.58	5.88	111
4	90000	5.16	5.45	103
4	100000	4.93	5.22	98.7
4	110000	5.15	5.44	103
4	120000	5.65	5.95	112
4	130000	5.36	5.65	107
4	140000	5.34	5.62	106
4	150000	5.83	6.15	116
4	160000	6.25	6.58	124
4	170000	5.74	6.05	114
4	180000	5.28	5.56	105
4	190000	5.76	6.07	115
4	200000	6.04	6.36	120
4	210000	5.3	5.58	105
4	220000	5.21	5.5	104
4	230000	5.6	5.91	112
4	240000	5.67	5.98	113
4	250000	5.56	5.86	111
4	260000	5	5.29	100
4	270000	5.72	6.03	114
4	280000	5.21	5.5	104
4	290000	5	5.28	99.9
4	300000	4.38	4.66	88.1
4	310000	4.56	4.85	91.6
4	320000	4.32	4.61	87.1
4	330000	4.35	4.64	87.7
4	340000	4.38	4.67	88.2
4	350000	4.76	5.05	95.4
4	360000	5.34	5.63	106
5	0	6.37	4.11	77.7
5	-10000	9	6.74	127
5	-20000	8.19	5.93	112
5	-30000	9.01	6.75	128
5	-40000	8.64	6.38	121
5	-50000	8.29	6.03	114
5	-60000	8.62	6.36	120
5	-70000	8.57	6.31	119
5	-80000	8.53	6.27	119
5	-90000	8.54	6.28	119
5	-100000	9.48	7.22	136
5	-110000	10.5	8.23	156
5	-120000	10.2	7.95	150
5	-130000	9.33	7.07	134
5	-140000	9.11	6.85	129
5	-150000	9.84	7.58	143
5	-160000	9.19	6.93	131
5	-170000	8.08	5.82	110
5	-180000	8.74	6.48	122
5	-190000	9.61	7.35	139
5	-200000	8.87	6.61	125
5	-210000	7.86	5.6	106
5	-220000	8.75	6.49	123
5	-230000	8.9	6.64	125
5	-240000	8.35	6.09	115
5	-250000	8.31	6.05	114
5	-260000	8.47	6.21	117
5	-270000	9.09	6.83	129
5	-280000	8.91	6.65	126
5	-290000	8.56	6.3	119
5	-300000	8.78	6.52	123
5	-310000	8.66	6.4	121
5	-320000	8.38	6.12	116
5	-330000	7.43	5.17	97.7
5	-340000	4.26	2.44	46.2
5	-350000	3.61	2.07	39.1
5	-360000	2.58	1.48	27.9
5	0	0.958	1.24	23.5
5	10000	0.626	0.912	17.2
5	20000	1.41	1.7	32.1
5	30000	2.97	3.25	61.5
5	40000	4.31	4.59	86.8
5	50000	4.62	4.91	92.7
5	60000	4.64	4.92	93
5	70000	5.05	5.34	101
5	80000	5.64	5.94	112
5	90000	5.41	5.7	108
5	100000	4.55	4.84	91.5
5	110000	4.63	4.91	92.9
5	120000	4.86	5.15	97.3
5	130000	3.86	4.15	78.4
5	140000	3.52	3.8	71.9
5	150000	4.08	4.37	82.6
5	160000	4.58	4.86	91.9
5	170000	4.19	4.48	84.6
5	180000	4.13	4.42	83.5
5	190000	4.61	4.89	92.5
5	200000	4.84	5.13	97
5	210000	4.33	4.62	87.3
5	220000	3.8	4.09	77.3
5	230000	3.77	4.05	76.6
5	240000	4.09	4.38	82.8
5	250000	3.74	4.02	76
5	260000	3.14	3.43	64.7
5	270000	4.31	4.59	86.8
5	280000	3.95	4.24	80.1
5	290000	3.58	3.87	73.1
5	300000	4.04	4.33	81.8
5	310000	4.14	4.43	83.6
5	320000	4.15	4.44	83.9
5	330000	3.72	4.01	75.7
5	340000	4.17	4.46	84.2
5	350000	4.67	4.95	93.6
5	360000	5.3	5.59	106
6	0	6.56	4.3	81.2
6	-10000	9.07	6.81	129
6	-20000	8.43	6.17	117
6	-30000	8.95	6.69	126
6	-40000	8.37	6.11	115
6	-50000	8.45	6.19	117
6	-60000	9.18	6.92	131
6	-70000	10.4	8.18	155
6	-80000	10.4	8.11	153
6	-90000	10.2	7.95	150
6	-100000	10.5	8.26	156
6	-110000	10.8	8.5	161
6	-120000	10.6	8.3	157
6	-130000	9.75	7.49	142
6	-140000	9.6	7.34	139
6	-150000	9.88	7.62	144
6	-160000	9.47	7.21	136
6	-170000	8.4	6.14	116
6	-180000	8.43	6.17	117
6	-190000	9.22	6.96	132
6	-200000	9.17	6.91	131
6	-210000	8.48	6.22	118
6	-220000	8.97	6.71	127
6	-230000	8.95	6.69	126
6	-240000	8.58	6.32	119
6	-250000	8.04	5.78	109
6	-260000	8.06	5.8	110
6	-270000	8.2	5.94	112
6	-280000	8.28	6.02	114
6	-290000	7.91	5.65	107
6	-300000	8.39	6.13	116
6	-310000	8.34	6.08	115
6	-320000	8.2	5.94	112
6	-330000	7.79	5.53	105
6	-340000	7.03	4.77	90.2
6	-350000	7.65	5.39	102
6	-360000	7.42	5.16	97.6
