rep_num	position	torque	torque_compensated	lbs_compensated
1	0	2.69	2.98	56.3
1	10000	1.91	2.2	41.6
1	20000	1.68	1.96	37.1
1	30000	2.06	2.35	44.3
1	40000	3.07	3.35	63.4
1	50000	3.51	3.8	71.8
1	60000	4.05	4.34	82
1	70000	4.77	5.06	95.6
1	80000	5	5.29	100
1	90000	5.62	5.93	112
1	100000	6.04	6.37	120
1	110000	6.34	6.68	126
1	120000	6.7	7.06	133
1	130000	6.71	7.07	134
1	140000	6.52	6.87	130
1	150000	6.39	6.74	127
1	160000	6.37	6.71	127
1	170000	7.14	7.52	142
1	180000	7.23	7.62	144
1	190000	6.68	7.04	133
1	200000	6.43	6.78	128
1	210000	7.42	7.82	148
1	220000	7.82	8.24	156
1	230000	7.69	8.1	153
1	240000	7.96	8.39	159
1	250000	8.38	8.84	167
1	260000	7.9	8.33	157
1	270000	7.94	8.37	158
1	280000	8.26	8.71	165
1	290000	8.59	9.06	171
1	300000	8.35	8.8	166
1	310000	8.5	8.96	169
1	320000	8.23	8.67	164
1	330000	8.22	8.66	164
1	340000	7.67	8.08	153
1	350000	8.11	8.55	162
1	360000	8.3	8.75	165
2	0	10	7.75	146
2	-10000	9.54	7.28	138
2	-20000	10.3	8.03	152
2	-30000	10.2	7.92	150
2	-40000	9.61	7.35	139
2	-50000	9.61	7.35	139
2	-60000	9.85	7.59	143
2	-70000	9.69	7.43	140
2	-80000	9.26	7	132
2	-90000	9.45	7.19	136
2	-100000	9.44	7.18	136
2	-110000	9.47	7.21	136
2	-120000	9.85	7.59	143
2	-130000	10.2	7.96	150
2	-140000	10.1	7.87	149
2	-150000	10.3	8.07	152
2	-160000	10.2	7.93	150
2	-170000	10.2	7.9	149
2	-180000	10.1	7.86	149
2	-190000	9.43	7.17	136
2	-200000	9.75	7.49	142
2	-210000	9.54	7.28	137
2	-220000	9.65	7.39	140
2	-230000	10.3	8.01	151
2	-240000	10.4	8.17	154
2	-250000	10.5	8.26	156
2	-260000	10.5	8.21	155
2	-270000	10.1	7.84	148
2	-280000	9.98	7.72	146
2	-290000	9.85	7.59	143
2	-300000	9.91	7.65	145
2	-310000	10.2	7.92	150
2	-320000	10.1	7.81	148
2	-330000	9.26	7	132
2	-340000	8.77	6.51	123
2	-350000	7.96	5.7	108
2	-360000	7.94	5.68	107
2	0	6.41	6.76	128
2	10000	6.03	6.36	120
2	20000	6.27	6.61	125
2	30000	6.46	6.81	129
2	40000	6.78	7.15	135
2	50000	7.02	7.4	140
2	60000	7.26	7.65	145
2	70000	7.08	7.46	141
2	80000	7.26	7.65	145
2	90000	7.27	7.66	145
2	100000	7.32	7.72	146
2	110000	7.34	7.73	146
2	120000	7.43	7.83	148
2	130000	7.14	7.53	142
2	140000	7.19	7.58	143
2	150000	7.06	7.44	141
2	160000	6.69	7.05	133
2	170000	6.66	7.03	133
2	180000	6.42	6.77	128
2	190000	6.48	6.83	129
2	200000	6.68	7.04	133
2	210000	7.6	8.01	151
2	220000	7.52	7.92	150
2	230000	7.33	7.73	146
2	240000	7.31	7.7	146
2	250000	7.58	7.99	151
2	260000	7.53	7.94	150
2	270000	7.31	7.71	146
2	280000	7.49	7.89	149
2	290000	7.46	7.86	149
2	300000	7.45	7.86	148
2	310000	7.64	8.05	152
2	320000	6.52	6.87	130
2	330000	7.36	7.76	147
2	340000	7.96	8.39	159
2	350000	7.97	8.4	159
2	360000	8.14	8.58	162
3	0	9.91	7.65	145
3	-10000	10.2	7.96	151
3	-20000	10.1	7.85	148
3	-30000	10.4	8.17	154
3	-40000	10.2	7.96	150
3	-50000	10.2	7.97	151
3	-60000	11	8.71	165
3	-70000	11.2	8.89	168
3	-80000	11.5	9.28	175
3	-90000	12.6	10.4	196
3	-100000	12.8	10.5	199
3	-110000	12.9	10.6	200
3	-120000	12.9	10.6	200
3	-130000	12.4	10.2	192
3	-140000	11.8	9.55	181
3	-150000	11.7	9.47	179
3	-160000	12.2	9.89	187
3	-170000	12.4	10.1	191
3	-180000	12.3	10	190
3	-190000	12.4	10.1	192
3	-200000	12.5	10.3	194
3	-210000	12	9.69	183
3	-220000	11.9	9.61	182
3	-230000	11.6	9.37	177
3	-240000	11.1	8.83	167
3	-250000	11.1	8.84	167
3	-260000	11.1	8.82	167
3	-270000	10.4	8.16	154
3	-280000	10.6	8.37	158
3	-290000	10.7	8.46	160
3	-300000	11.1	8.8	166
3	-310000	10.8	8.51	161
3	-320000	10.3	8.04	152
3	-330000	10.1	7.84	148
3	-340000	9.78	7.52	142
3	-350000	9.5	7.24	137
3	-360000	8.86	6.6	125
3	0	7.23	7.62	144
3	10000	6.56	6.92	131
3	20000	6.76	7.12	135
3	30000	6.87	7.24	137
3	40000	6.93	7.3	138
3	50000	6.68	7.04	133
3	60000	6.79	7.16	135
3	70000	6.72	7.08	134
3	80000	6.48	6.83	129
3	90000	6.53	6.88	130
3	100000	6.52	6.87	130
3	110000	6.27	6.61	125
3	120000	6.32	6.66	126
3	130000	5.99	6.32	119
3	140000	6.17	6.5	123
3	150000	6.28	6.62	125
3	160000	6.12	6.46	122
3	170000	6.71	7.07	134
3	180000	6.82	7.19	136
3	190000	6.37	6.71	127
3	200000	6.11	6.44	122
3	210000	6.22	6.56	124
3	220000	6.44	6.78	128
3	230000	6.4	6.74	127
3	240000	6.48	6.83	129
3	250000	6.97	7.34	139
3	260000	6.86	7.23	137
3	270000	6.8	7.16	135
3	280000	6.86	7.23	137
3	290000	7.01	7.39	140
3	300000	6.3	6.64	126
3	310000	6.33	6.67	126
3	320000	5.49	5.78	109
3	330000	5.94	6.26	118
3	340000	6.02	6.35	120
3	350000	5.93	6.25	118
3	360000	6.11	6.44	122
4	0	7.68	5.42	102
4	-10000	8.89	6.63	125
4	-20000	9.09	6.83	129
4	-30000	9.27	7.01	133
4	-40000	9.11	6.85	129
4	-50000	9.55	7.29	138
4	-60000	9.75	7.49	142
4	-70000	9.45	7.19	136
4	-80000	8.89	6.63	125
4	-90000	10.3	8.01	151
4	-100000	10.2	7.91	149
4	-110000	10.2	7.97	151
4	-120000	10.2	7.93	150
4	-130000	10.1	7.85	148
4	-140000	10.2	7.92	150
4	-150000	9.63	7.37	139
4	-160000	10.2	7.96	150
4	-170000	10.6	8.37	158
4	-180000	10.1	7.85	148
4	-190000	10.2	7.92	150
4	-200000	10.1	7.88	149
4	-210000	10.5	8.26	156
4	-220000	10.9	8.65	164
4	-230000	10.6	8.38	158
4	-240000	10.4	8.13	154
4	-250000	10.3	8.09	153
4	-260000	10.4	8.19	155
4	-270000	9.96	7.7	146
4	-280000	9.7	7.44	141
4	-290000	9.42	7.16	135
4	-300000	9.82	7.56	143
4	-310000	10.3	8.07	153
4	-320000	10.7	8.39	159
4	-330000	10.3	8	151
4	-340000	9.4	7.14	135
4	-350000	8.96	6.7	127
4	-360000	8.81	6.55	124
4	0	7	7.38	139
4	10000	6.37	6.72	127
4	20000	5.84	6.15	116
4	30000	6.05	6.37	120
4	40000	6.35	6.7	127
4	50000	5.79	6.1	115
4	60000	5.7	6.01	114
4	70000	5.72	6.03	114
4	80000	5.86	6.18	117
4	90000	5.97	6.29	119
4	100000	6.29	6.63	125
4	110000	6.3	6.64	126
4	120000	5.43	5.73	108
4	130000	5.64	5.95	112
4	140000	5.97	6.3	119
4	150000	5.82	6.14	116
4	160000	5.22	5.51	104
4	170000	5.26	5.55	105
4	180000	5.17	5.46	103
4	190000	5.08	5.37	102
4	200000	5.28	5.57	105
4	210000	5.65	5.95	113
4	220000	5.58	5.88	111
4	230000	5.18	5.47	103
4	240000	5.23	5.52	104
4	250000	5.53	5.83	110
4	260000	5.21	5.49	104
4	270000	5.15	5.43	103
4	280000	5.06	5.35	101
4	290000	5.12	5.4	102
4	300000	4.67	4.95	93.6
4	310000	4.67	4.96	93.7
4	320000	3.96	4.24	80.2
4	330000	4.41	4.7	88.8
4	340000	4.34	4.63	87.4
4	350000	4.02	4.3	81.3
4	360000	4.58	4.87	92
5	0	5.94	3.68	69.6
5	-10000	6.76	4.5	85
5	-20000	7.56	5.3	100
5	-30000	8.2	5.94	112
5	-40000	8.22	5.96	113
5	-50000	8.36	6.1	115
5	-60000	9.25	6.99	132
5	-70000	10.2	7.9	149
5	-80000	10.2	7.93	150
5	-90000	10.3	8	151
5	-100000	9.73	7.47	141
5	-110000	9.17	6.91	131
5	-120000	8.98	6.72	127
5	-130000	9.17	6.91	131
5	-140000	8.69	6.43	122
5	-150000	8.74	6.48	122
5	-160000	8.83	6.57	124
5	-170000	8.64	6.38	121
5	-180000	7.96	5.7	108
5	-190000	7.96	5.7	108
5	-200000	8.21	5.95	112
5	-210000	7.73	5.47	103
5	-220000	7.72	5.46	103
5	-230000	7.79	5.53	105
5	-240000	8.2	5.94	112
5	-250000	8.14	5.88	111
5	-260000	8.37	6.11	116
5	-270000	8.29	6.03	114
5	-280000	8.25	5.99	113
5	-290000	7.55	5.29	100
5	-300000	7.55	5.29	100
5	-310000	7.82	5.56	105
5	-320000	7.79	5.53	104
5	-330000	7.3	5.04	95.2
5	-340000	6.85	4.59	86.7
5	-350000	6.65	4.39	83
5	-360000	6.21	3.95	74.6
5	0	5	5.29	100
5	10000	4.51	4.8	90.6
5	20000	4.14	4.43	83.7
5	30000	4.18	4.46	84.4
5	40000	4.68	4.97	93.9
5	50000	4.96	5.25	99.2
5	60000	5.35	5.64	107
5	70000	5.57	5.87	111
5	80000	5.5	5.8	110
5	90000	5.27	5.56	105
5	100000	5.32	5.6	106
5	110000	5.17	5.46	103
5	120000	4.83	5.11	96.6
5	130000	4.26	4.55	86
5	140000	4.47	4.76	89.9
5	150000	4.11	4.39	83
5	160000	4.1	4.39	82.9
5	170000	3.9	4.18	79.1
5	180000	4.23	4.51	85.3
5	190000	4.07	4.35	82.3
5	200000	4.22	4.51	85.2
5	210000	4.22	4.51	85.2
5	220000	4.25	4.54	85.8
5	230000	4.02	4.31	81.4
5	240000	3.99	4.28	80.9
5	250000	4.06	4.34	82.1
5	260000	3.7	3.98	75.3
5	270000	3.57	3.86	72.9
5	280000	4.09	4.38	82.8
5	290000	4.06	4.34	82.1
5	300000	4.15	4.43	83.8
5	310000	3.51	3.79	71.7
5	320000	3.35	3.63	68.7
5	330000	3.23	3.51	66.4
5	340000	3.23	3.51	66.4
5	350000	2.91	3.19	60.4
5	360000	2.84	3.12	59
6	0	4.12	2.36	44.6
6	-10000	5.09	2.91	55.1
6	-20000	5.65	3.39	64.1
6	-30000	5.83	3.57	67.4
6	-40000	6.3	4.04	76.3
6	-50000	7.06	4.8	90.7
6	-60000	8.24	5.98	113
6	-70000	8.65	6.39	121
6	-80000	8.32	6.06	115
6	-90000	8.35	6.09	115
6	-100000	8.08	5.82	110
6	-110000	7.75	5.49	104
6	-120000	7.95	5.69	108
6	-130000	7.92	5.66	107
6	-140000	7.59	5.33	101
6	-150000	7.65	5.39	102
6	-160000	8.35	6.09	115
6	-170000	8.32	6.06	114
6	-180000	7.91	5.65	107
6	-190000	7.71	5.45	103
6	-200000	7.69	5.43	103
6	-210000	7.52	5.26	99.5
6	-220000	7.72	5.46	103
6	-230000	7.52	5.26	99.4
6	-240000	7.52	5.26	99.3
6	-250000	7.66	5.4	102
6	-260000	7.49	5.23	98.9
6	-270000	7.09	4.83	91.2
6	-280000	6.76	4.5	85.1
6	-290000	6.33	4.07	76.8
6	-300000	6.24	3.98	75.2
6	-310000	6.89	4.63	87.5
6	-320000	6.94	4.68	88.4
6	-330000	6.91	4.65	87.8
6	-340000	6.79	4.53	85.5
6	-350000	6.11	3.85	72.8
6	-360000	5.68	3.42	64.7
