rep_num	position	torque	torque_compensated	lbs_compensated
1	0	2.77	3.05	57.7
1	10000	5.47	5.76	109
1	20000	5.78	6.09	115
1	30000	5.36	5.65	107
1	40000	5.3	5.58	106
1	50000	5.42	5.71	108
1	60000	6.4	6.75	128
1	70000	5.9	6.22	118
1	80000	4.93	5.21	98.5
1	90000	5.07	5.36	101
1	100000	6.04	6.36	120
1	110000	5.77	6.08	115
1	120000	5.41	5.7	108
1	130000	5.45	5.75	109
1	140000	6.41	6.76	128
1	150000	6.6	6.96	132
1	160000	6.05	6.38	121
1	170000	6.48	6.83	129
1	180000	7.26	7.65	145
1	190000	6.66	7.02	133
1	200000	5.75	6.06	115
1	210000	6.65	7.01	133
1	220000	7.33	7.73	146
1	230000	6.77	7.14	135
1	240000	6.1	6.43	122
1	250000	7.06	7.44	141
1	260000	7.67	8.08	153
1	270000	7.98	8.41	159
1	280000	7	7.38	139
1	290000	7.26	7.65	145
1	300000	7.99	8.42	159
1	310000	7.98	8.41	159
1	320000	7.13	7.51	142
1	330000	7.12	7.5	142
1	340000	7.15	7.53	142
1	350000	7.79	8.22	155
1	360000	7.54	7.95	150
2	0	8.2	5.94	112
2	-10000	9.19	6.93	131
2	-20000	9.9	7.64	144
2	-30000	9.01	6.75	128
2	-40000	8.95	6.69	126
2	-50000	9.97	7.71	146
2	-60000	10.7	8.44	160
2	-70000	10.4	8.16	154
2	-80000	11.1	8.86	167
2	-90000	11.5	9.21	174
2	-100000	11.2	8.93	169
2	-110000	9.46	7.2	136
2	-120000	9.4	7.14	135
2	-130000	11	8.7	164
2	-140000	10.9	8.62	163
2	-150000	9.69	7.43	140
2	-160000	9.63	7.37	139
2	-170000	10.2	7.97	151
2	-180000	10.2	7.97	151
2	-190000	9.3	7.04	133
2	-200000	9.85	7.59	143
2	-210000	10.8	8.52	161
2	-220000	9.79	7.53	142
2	-230000	8.67	6.41	121
2	-240000	8.59	6.33	120
2	-250000	8.49	6.23	118
2	-260000	8.97	6.71	127
2	-270000	8.72	6.46	122
2	-280000	8.92	6.66	126
2	-290000	9.58	7.32	138
2	-300000	9.95	7.69	145
2	-310000	8.92	6.66	126
2	-320000	8.95	6.69	126
2	-330000	9.55	7.29	138
2	-340000	9.77	7.51	142
2	-350000	8.28	6.02	114
2	-360000	7.88	5.62	106
2	0	6.32	6.66	126
2	10000	5.49	5.79	109
2	20000	4.87	5.15	97.4
2	30000	4.17	4.45	84.2
2	40000	4.24	4.53	85.6
2	50000	4.58	4.86	91.9
2	60000	6.07	6.39	121
2	70000	5.65	5.95	112
2	80000	5.16	5.44	103
2	90000	5.32	5.61	106
2	100000	5.59	5.89	111
2	110000	5.99	6.31	119
2	120000	5.76	6.07	115
2	130000	6.33	6.67	126
2	140000	7.42	7.82	148
2	150000	6.7	7.06	133
2	160000	5.61	5.92	112
2	170000	5.85	6.16	116
2	180000	6.98	7.36	139
2	190000	6.25	6.59	125
2	200000	5.63	5.94	112
2	210000	6.38	6.72	127
2	220000	6.97	7.35	139
2	230000	6.81	7.18	136
2	240000	6.16	6.5	123
2	250000	6.67	7.03	133
2	260000	6.75	7.12	135
2	270000	7	7.38	139
2	280000	6.76	7.12	135
2	290000	6.29	6.63	125
2	300000	6.59	6.95	131
2	310000	6.84	7.21	136
2	320000	5.69	6	113
2	330000	6.41	6.75	128
2	340000	6.41	6.76	128
2	350000	7.02	7.4	140
2	360000	6.39	6.74	127
3	0	7.26	5	94.6
3	-10000	7.08	4.82	91.1
3	-20000	8.67	6.41	121
3	-30000	8.79	6.53	123
3	-40000	9.26	7	132
3	-50000	10	7.74	146
3	-60000	9.47	7.21	136
3	-70000	8.72	6.46	122
3	-80000	8.59	6.33	120
3	-90000	9.18	6.92	131
3	-100000	10	7.74	146
3	-110000	9.23	6.97	132
3	-120000	9.37	7.11	134
3	-130000	9.89	7.63	144
3	-140000	9.49	7.23	137
3	-150000	8.58	6.32	119
3	-160000	9.01	6.75	128
3	-170000	9.69	7.43	140
3	-180000	9.33	7.07	134
3	-190000	8.4	6.14	116
3	-200000	8.81	6.55	124
3	-210000	9.58	7.32	138
3	-220000	8.67	6.41	121
3	-230000	8.18	5.92	112
3	-240000	8.89	6.63	125
3	-250000	9.65	7.39	140
3	-260000	9.75	7.49	142
3	-270000	8.97	6.71	127
3	-280000	9.36	7.1	134
3	-290000	10	7.76	147
3	-300000	10.1	7.81	148
3	-310000	8.51	6.25	118
3	-320000	8.34	6.08	115
3	-330000	8.78	6.52	123
3	-340000	7.9	5.64	107
3	-350000	6.21	3.95	74.7
3	-360000	6.38	4.12	77.8
3	0	4.82	5.11	96.6
3	10000	5.68	5.98	113
3	20000	6.35	6.69	126
3	30000	5.3	5.59	106
3	40000	4.63	4.92	92.9
3	50000	4.68	4.96	93.8
3	60000	5.41	5.7	108
3	70000	5.21	5.49	104
3	80000	4.41	4.7	88.8
3	90000	4.14	4.43	83.7
3	100000	5.29	5.57	105
3	110000	5.85	6.17	117
3	120000	5.49	5.79	109
3	130000	6	6.33	120
3	140000	7.06	7.44	141
3	150000	6.8	7.16	135
3	160000	5.85	6.17	117
3	170000	6.31	6.65	126
3	180000	7.01	7.39	140
3	190000	6.26	6.6	125
3	200000	5.21	5.49	104
3	210000	5.73	6.04	114
3	220000	6.41	6.76	128
3	230000	6.14	6.47	122
3	240000	5.65	5.95	112
3	250000	5.85	6.17	117
3	260000	6.84	7.21	136
3	270000	6.68	7.04	133
3	280000	5.76	6.08	115
3	290000	5.93	6.25	118
3	300000	6.21	6.54	124
3	310000	6.24	6.58	124
3	320000	5.15	5.44	103
3	330000	5.05	5.34	101
3	340000	5.14	5.42	103
3	350000	5.17	5.46	103
3	360000	4.75	5.04	95.3
4	0	6.34	4.08	77.1
4	-10000	6.84	4.58	86.6
4	-20000	8.26	6	113
4	-30000	7.97	5.71	108
4	-40000	7.96	5.7	108
4	-50000	9.58	7.32	138
4	-60000	10.5	8.23	156
4	-70000	9.48	7.22	137
4	-80000	9.08	6.82	129
4	-90000	9.55	7.29	138
4	-100000	10.6	8.38	158
4	-110000	10.3	8.05	152
4	-120000	10.2	7.96	150
4	-130000	11.7	9.43	178
4	-140000	10.8	8.53	161
4	-150000	8.85	6.59	124
4	-160000	9.73	7.47	141
4	-170000	9.96	7.7	145
4	-180000	9.22	6.96	131
4	-190000	8.3	6.04	114
4	-200000	8.4	6.14	116
4	-210000	8.99	6.73	127
4	-220000	8.57	6.31	119
4	-230000	7.72	5.46	103
4	-240000	7.76	5.5	104
4	-250000	8.28	6.02	114
4	-260000	8.59	6.33	120
4	-270000	8.08	5.82	110
4	-280000	8.32	6.06	115
4	-290000	9.19	6.93	131
4	-300000	9.13	6.87	130
4	-310000	8.06	5.8	110
4	-320000	8.25	5.99	113
4	-330000	8.74	6.48	122
4	-340000	8.55	6.29	119
4	-350000	7.01	4.75	89.7
4	-360000	6.81	4.55	86
4	0	5.25	5.54	105
4	10000	6.43	6.78	128
4	20000	6.15	6.48	122
4	30000	5.16	5.45	103
4	40000	4.68	4.97	93.8
4	50000	4.56	4.85	91.6
4	60000	4.93	5.22	98.6
4	70000	4.6	4.89	92.3
4	80000	3.94	4.22	79.8
4	90000	4	4.29	81
4	100000	4.77	5.06	95.6
4	110000	4.28	4.56	86.2
4	120000	4.11	4.4	83.1
4	130000	4.08	4.37	82.6
4	140000	5.06	5.34	101
4	150000	4.97	5.25	99.3
4	160000	4.04	4.32	81.7
4	170000	4	4.29	81
4	180000	5.51	5.81	110
4	190000	4.9	5.18	98
4	200000	4.3	4.59	86.7
4	210000	4.64	4.93	93.2
4	220000	5.04	5.33	101
4	230000	4.78	5.06	95.7
4	240000	3.63	3.91	73.9
4	250000	4.3	4.59	86.7
4	260000	5.41	5.7	108
4	270000	4.97	5.26	99.4
4	280000	4.33	4.61	87.2
4	290000	4.83	5.12	96.7
4	300000	5.08	5.37	102
4	310000	4.72	5	94.6
4	320000	3.5	3.78	71.5
4	330000	3.8	4.08	77.1
4	340000	4.05	4.34	82
4	350000	4.33	4.61	87.2
4	360000	4.19	4.47	84.5
5	0	5.5	3.24	61.3
5	-10000	6.09	3.83	72.4
5	-20000	6.74	4.48	84.8
5	-30000	6.36	4.1	77.5
5	-40000	7.17	4.91	92.8
5	-50000	9	6.74	127
5	-60000	9.52	7.26	137
5	-70000	9.09	6.83	129
5	-80000	8.72	6.46	122
5	-90000	9.42	7.16	135
5	-100000	9.3	7.04	133
5	-110000	8.39	6.13	116
5	-120000	8.59	6.33	120
5	-130000	9.9	7.64	144
5	-140000	9.38	7.12	135
5	-150000	8.96	6.7	127
5	-160000	9.81	7.55	143
5	-170000	9.93	7.67	145
5	-180000	9.4	7.14	135
5	-190000	8.41	6.15	116
5	-200000	8.92	6.66	126
5	-210000	9.47	7.21	136
5	-220000	9.07	6.81	129
5	-230000	8.13	5.87	111
5	-240000	8.37	6.11	115
5	-250000	8.96	6.7	127
5	-260000	9.06	6.8	129
5	-270000	8.55	6.29	119
5	-280000	8.34	6.08	115
5	-290000	8.66	6.4	121
5	-300000	8.37	6.11	116
5	-310000	7.2	4.94	93.4
5	-320000	7.28	5.02	94.8
5	-330000	7.91	5.65	107
5	-340000	7.85	5.59	106
5	-350000	6.19	3.93	74.3
5	-360000	6.19	3.93	74.3
5	0	4.55	4.84	91.5
5	10000	5.4	5.69	108
5	20000	5.45	5.74	109
5	30000	4.77	5.05	95.5
5	40000	4.13	4.42	83.5
5	50000	4.03	4.31	81.5
5	60000	4.72	5	94.6
5	70000	4.34	4.62	87.4
5	80000	3.51	3.79	71.7
5	90000	3.64	3.93	74.3
5	100000	4.52	4.8	90.8
5	110000	4.21	4.5	85
5	120000	3.42	3.71	70.1
5	130000	3.42	3.7	70
5	140000	4.03	4.31	81.5
5	150000	3.87	4.15	78.5
5	160000	3.08	3.37	63.7
5	170000	3.63	3.91	74
5	180000	4.45	4.73	89.4
5	190000	3.62	3.91	73.9
5	200000	2.74	3.03	57.2
5	210000	3.58	3.86	73
5	220000	3.99	4.28	80.8
5	230000	3.51	3.79	71.7
5	240000	2.94	3.23	61
5	250000	3.48	3.76	71.2
5	260000	3.81	4.09	77.4
5	270000	3.74	4.03	76.1
5	280000	3.42	3.7	70
5	290000	3.93	4.22	79.8
5	300000	4.09	4.38	82.7
5	310000	4.26	4.55	86
5	320000	3.18	3.47	65.5
5	330000	3.48	3.77	71.3
5	340000	2.96	3.25	61.4
5	350000	3.45	3.74	70.6
5	360000	3.45	3.73	70.5
6	0	4.26	2.44	46.1
6	-10000	5.33	3.07	57.9
6	-20000	6.3	4.04	76.3
6	-30000	5.94	3.68	69.5
6	-40000	6.33	4.07	76.9
6	-50000	7.08	4.82	91
6	-60000	7.26	5	94.5
6	-70000	6.43	4.17	78.8
6	-80000	7.09	4.83	91.3
6	-90000	8.15	5.89	111
6	-100000	7.86	5.6	106
6	-110000	6.88	4.62	87.2
6	-120000	6.89	4.63	87.5
6	-130000	8.13	5.87	111
6	-140000	8.06	5.8	110
6	-150000	6.65	4.39	83
6	-160000	7.12	4.86	91.8
6	-170000	7.44	5.18	97.9
6	-180000	7.01	4.75	89.7
6	-190000	6.22	3.96	74.8
6	-200000	7.11	4.85	91.6
6	-210000	8.27	6.01	114
6	-220000	7.97	5.71	108
6	-230000	7.04	4.78	90.3
6	-240000	7.45	5.19	98.2
6	-250000	7.86	5.6	106
6	-260000	7.38	5.12	96.7
6	-270000	7.12	4.86	91.8
6	-280000	7.36	5.1	96.5
6	-290000	7.55	5.29	99.9
6	-300000	7.5	5.24	99
6	-310000	6.43	4.17	78.8
6	-320000	6.97	4.71	89.1
6	-330000	7.5	5.24	99.1
6	-340000	7.33	5.07	95.9
6	-350000	5.54	3.28	62
6	-360000	5.42	3.16	59.7
