rep_num	position	torque	torque_compensated	lbs_compensated
1	0	3.69	3.97	75.1
1	10000	5.39	5.68	107
1	20000	5.78	6.09	115
1	30000	5.78	6.1	115
1	40000	6.16	6.5	123
1	50000	5.6	5.91	112
1	60000	5.21	5.5	104
1	70000	4.72	5.01	94.7
1	80000	4.66	4.95	93.5
1	90000	5.43	5.72	108
1	100000	5.15	5.44	103
1	110000	5.43	5.72	108
1	120000	5.74	6.05	114
1	130000	5.99	6.32	119
1	140000	6.29	6.63	125
1	150000	5.64	5.95	112
1	160000	5.75	6.06	114
1	170000	6.27	6.61	125
1	180000	6.84	7.21	136
1	190000	6.54	6.89	130
1	200000	6.33	6.67	126
1	210000	7.11	7.5	142
1	220000	7.37	7.77	147
1	230000	7.31	7.71	146
1	240000	7.56	7.97	151
1	250000	8.22	8.66	164
1	260000	8.16	8.61	163
1	270000	8.15	8.59	162
1	280000	8.84	9.32	176
1	290000	8.93	9.41	178
1	300000	8.92	9.4	178
1	310000	9.04	9.53	180
1	320000	8.72	9.2	174
1	330000	8.35	8.8	166
1	340000	7.69	8.1	153
1	350000	7.93	8.36	158
1	360000	7.72	8.13	154
2	0	9.51	7.25	137
2	-10000	10.7	8.49	160
2	-20000	10.3	8.07	152
2	-30000	10.8	8.55	162
2	-40000	10.7	8.47	160
2	-50000	10.7	8.47	160
2	-60000	10.9	8.68	164
2	-70000	10.6	8.36	158
2	-80000	10.5	8.21	155
2	-90000	10.9	8.64	163
2	-100000	11	8.77	166
2	-110000	10.8	8.5	161
2	-120000	11.1	8.86	167
2	-130000	11.6	9.3	176
2	-140000	11.9	9.61	182
2	-150000	11.2	8.99	170
2	-160000	10.9	8.67	164
2	-170000	10.9	8.62	163
2	-180000	10.7	8.45	160
2	-190000	10.5	8.21	155
2	-200000	10.2	7.9	149
2	-210000	10.1	7.87	149
2	-220000	10.7	8.4	159
2	-230000	10.7	8.41	159
2	-240000	10.7	8.45	160
2	-250000	10.8	8.55	162
2	-260000	10.8	8.54	161
2	-270000	10.5	8.24	156
2	-280000	9.99	7.73	146
2	-290000	9.56	7.3	138
2	-300000	9.96	7.7	146
2	-310000	11	8.77	166
2	-320000	11.1	8.87	168
2	-330000	11	8.75	165
2	-340000	10.6	8.33	158
2	-350000	9.58	7.32	138
2	-360000	8.41	6.15	116
2	0	7.41	7.81	148
2	10000	6.73	7.1	134
2	20000	6.06	6.38	121
2	30000	5.84	6.15	116
2	40000	6.96	7.33	139
2	50000	6.98	7.36	139
2	60000	7.07	7.45	141
2	70000	6.85	7.22	136
2	80000	7.06	7.44	141
2	90000	7.27	7.66	145
2	100000	7.39	7.79	147
2	110000	7.12	7.51	142
2	120000	6.93	7.3	138
2	130000	6.74	7.11	134
2	140000	7.1	7.49	142
2	150000	7.02	7.39	140
2	160000	6.72	7.09	134
2	170000	7.06	7.44	141
2	180000	7.64	8.06	152
2	190000	7.44	7.85	148
2	200000	7.47	7.88	149
2	210000	7.69	8.1	153
2	220000	8.1	8.54	161
2	230000	7.73	8.15	154
2	240000	7.98	8.41	159
2	250000	8.16	8.6	163
2	260000	8.01	8.45	160
2	270000	7.89	8.31	157
2	280000	8.36	8.82	167
2	290000	8.28	8.73	165
2	300000	7.88	8.31	157
2	310000	7.64	8.06	152
2	320000	7.1	7.49	141
2	330000	7.33	7.73	146
2	340000	6.97	7.34	139
2	350000	7.03	7.41	140
2	360000	6.98	7.36	139
3	0	8.76	6.5	123
3	-10000	11.1	8.81	167
3	-20000	11.2	8.98	170
3	-30000	11	8.78	166
3	-40000	10.3	8.06	152
3	-50000	10.8	8.58	162
3	-60000	11.6	9.35	177
3	-70000	11.2	8.95	169
3	-80000	11	8.73	165
3	-90000	11.5	9.28	175
3	-100000	11.7	9.43	178
3	-110000	10.8	8.57	162
3	-120000	10.2	7.98	151
3	-130000	10.7	8.43	159
3	-140000	10.1	7.84	148
3	-150000	9.27	7.01	132
3	-160000	9.64	7.38	139
3	-170000	10	7.78	147
3	-180000	9.88	7.62	144
3	-190000	10	7.78	147
3	-200000	10.1	7.88	149
3	-210000	10.4	8.11	153
3	-220000	10.5	8.24	156
3	-230000	10.3	8.06	152
3	-240000	9.94	7.68	145
3	-250000	10.1	7.82	148
3	-260000	11.3	9.02	170
3	-270000	11.3	9.07	171
3	-280000	11.1	8.81	166
3	-290000	10.8	8.54	161
3	-300000	10.7	8.46	160
3	-310000	10.5	8.29	157
3	-320000	9.68	7.42	140
3	-330000	9.56	7.3	138
3	-340000	9.23	6.97	132
3	-350000	8.72	6.46	122
3	-360000	8.38	6.12	116
3	0	7.23	7.62	144
3	10000	6.47	6.82	129
3	20000	6.28	6.62	125
3	30000	5.56	5.86	111
3	40000	5.72	6.03	114
3	50000	5.42	5.71	108
3	60000	5.85	6.17	117
3	70000	5.98	6.3	119
3	80000	6.65	7.01	132
3	90000	7.11	7.5	142
3	100000	6.91	7.28	138
3	110000	6.83	7.2	136
3	120000	6.81	7.18	136
3	130000	6.66	7.02	133
3	140000	6.87	7.24	137
3	150000	6.72	7.08	134
3	160000	5.96	6.29	119
3	170000	6.04	6.36	120
3	180000	6.3	6.64	126
3	190000	5.87	6.18	117
3	200000	5.17	5.46	103
3	210000	6.05	6.38	121
3	220000	6.78	7.14	135
3	230000	6.45	6.79	128
3	240000	6.44	6.79	128
3	250000	6.86	7.23	137
3	260000	6.4	6.75	128
3	270000	6.33	6.67	126
3	280000	6.88	7.25	137
3	290000	7.25	7.65	145
3	300000	7.01	7.39	140
3	310000	6.79	7.16	135
3	320000	5.98	6.3	119
3	330000	6.22	6.56	124
3	340000	6.05	6.38	121
3	350000	6.18	6.51	123
3	360000	5.97	6.29	119
4	0	7.36	5.1	96.4
4	-10000	10.1	7.86	149
4	-20000	10	7.78	147
4	-30000	10.1	7.85	148
4	-40000	10.4	8.18	155
4	-50000	11.2	8.95	169
4	-60000	12.4	10.1	191
4	-70000	12.5	10.2	193
4	-80000	11.9	9.61	182
4	-90000	12.1	9.88	187
4	-100000	11.8	9.55	180
4	-110000	11.2	8.9	168
4	-120000	11.5	9.23	174
4	-130000	12.1	9.81	185
4	-140000	12.3	10	189
4	-150000	12.1	9.81	185
4	-160000	12.3	10	189
4	-170000	12.3	10.1	190
4	-180000	11.7	9.41	178
4	-190000	11.2	8.89	168
4	-200000	11.5	9.19	174
4	-210000	11.3	9.02	170
4	-220000	10.9	8.64	163
4	-230000	10.9	8.64	163
4	-240000	10.6	8.33	158
4	-250000	10.4	8.16	154
4	-260000	10.6	8.39	159
4	-270000	10	7.75	146
4	-280000	9.46	7.2	136
4	-290000	9.08	6.82	129
4	-300000	8.97	6.71	127
4	-310000	8.86	6.6	125
4	-320000	8.42	6.16	116
4	-330000	8.08	5.82	110
4	-340000	7.26	5	94.6
4	-350000	6.54	4.28	80.9
4	-360000	6.29	4.03	76.2
4	0	4.97	5.25	99.3
4	10000	5.06	5.35	101
4	20000	5.69	6	113
4	30000	5.94	6.26	118
4	40000	6.33	6.67	126
4	50000	6.52	6.87	130
4	60000	6.84	7.21	136
4	70000	6.62	6.98	132
4	80000	6.32	6.66	126
4	90000	6.4	6.75	128
4	100000	6.33	6.67	126
4	110000	6.28	6.62	125
4	120000	5.85	6.16	116
4	130000	5.89	6.21	117
4	140000	5.95	6.27	119
4	150000	5.89	6.21	117
4	160000	5.64	5.95	112
4	170000	5.7	6	113
4	180000	6.01	6.34	120
4	190000	5.54	5.84	110
4	200000	5.47	5.77	109
4	210000	5.93	6.26	118
4	220000	6.02	6.34	120
4	230000	5.72	6.03	114
4	240000	5.45	5.74	108
4	250000	5.35	5.64	107
4	260000	5.1	5.39	102
4	270000	5.21	5.49	104
4	280000	5.21	5.5	104
4	290000	5.15	5.43	103
4	300000	4.89	5.18	97.8
4	310000	4.84	5.12	96.8
4	320000	4.37	4.66	88.1
4	330000	4.69	4.97	94
4	340000	4.45	4.74	89.6
4	350000	4.36	4.64	87.7
4	360000	4.38	4.67	88.2
5	0	6.18	3.92	74.1
5	-10000	8.39	6.13	116
5	-20000	9.21	6.95	131
5	-30000	9.47	7.21	136
5	-40000	9.61	7.35	139
5	-50000	10.2	7.91	149
5	-60000	10.3	8.06	152
5	-70000	10.3	8.02	152
5	-80000	9.82	7.56	143
5	-90000	9.57	7.31	138
5	-100000	10.1	7.82	148
5	-110000	9.77	7.51	142
5	-120000	9.81	7.55	143
5	-130000	9.46	7.2	136
5	-140000	9.8	7.54	142
5	-150000	9.68	7.42	140
5	-160000	9.56	7.3	138
5	-170000	9.74	7.48	141
5	-180000	9.65	7.39	140
5	-190000	9.54	7.28	138
5	-200000	9.17	6.91	131
5	-210000	8.98	6.72	127
5	-220000	9.07	6.81	129
5	-230000	9.05	6.79	128
5	-240000	8.88	6.62	125
5	-250000	8.85	6.59	125
5	-260000	9.16	6.9	130
5	-270000	8.81	6.55	124
5	-280000	8.53	6.27	119
5	-290000	8.1	5.84	110
5	-300000	8	5.74	108
5	-310000	7.37	5.11	96.6
5	-320000	7.14	4.88	92.2
5	-330000	7.37	5.11	96.6
5	-340000	7.36	5.1	96.4
5	-350000	7	4.74	89.6
5	-360000	6.79	4.53	85.6
5	0	5.46	5.75	109
5	10000	5.44	5.74	108
5	20000	5.05	5.34	101
5	30000	4.54	4.83	91.3
5	40000	4.63	4.91	92.9
5	50000	4.27	4.55	86.1
5	60000	4.17	4.45	84.2
5	70000	4.08	4.36	82.5
5	80000	4.02	4.3	81.3
5	90000	4.1	4.39	82.9
5	100000	4.15	4.43	83.8
5	110000	4.22	4.5	85.1
5	120000	4.54	4.83	91.2
5	130000	4.71	5	94.5
5	140000	5.02	5.31	100
5	150000	4.78	5.06	95.7
5	160000	4.31	4.6	86.9
5	170000	4.52	4.81	90.8
5	180000	4.96	5.25	99.2
5	190000	4.35	4.63	87.5
5	200000	4.35	4.64	87.6
5	210000	4.68	4.96	93.8
5	220000	4.98	5.27	99.5
5	230000	4.15	4.44	83.9
5	240000	4.39	4.67	88.3
5	250000	4.2	4.49	84.8
5	260000	4.1	4.39	82.9
5	270000	3.71	3.99	75.4
5	280000	3.99	4.28	80.9
5	290000	3.76	4.04	76.4
5	300000	3.47	3.76	71
5	310000	3.3	3.59	67.8
5	320000	3.05	3.33	63
5	330000	3.21	3.49	66
5	340000	2.99	3.27	61.9
5	350000	3.03	3.32	62.7
5	360000	3.37	3.66	69.1
6	0	4.85	2.78	52.6
6	-10000	6.1	3.84	72.6
6	-20000	7.21	4.95	93.5
6	-30000	7.63	5.37	102
6	-40000	7.46	5.2	98.3
6	-50000	7.65	5.39	102
6	-60000	8.72	6.46	122
6	-70000	8.75	6.49	123
6	-80000	8.14	5.88	111
6	-90000	8.59	6.33	120
6	-100000	8.59	6.33	120
6	-110000	8.17	5.91	112
6	-120000	8.23	5.97	113
6	-130000	7.88	5.62	106
6	-140000	7.95	5.69	108
6	-150000	8.22	5.96	113
6	-160000	8.81	6.55	124
6	-170000	8.99	6.73	127
6	-180000	8.95	6.69	126
6	-190000	8.87	6.61	125
6	-200000	9.14	6.88	130
6	-210000	9.1	6.84	129
6	-220000	8.92	6.66	126
6	-230000	8.61	6.35	120
6	-240000	8.24	5.98	113
6	-250000	7.78	5.52	104
6	-260000	8.06	5.8	110
6	-270000	7.85	5.59	106
6	-280000	7.7	5.44	103
6	-290000	7.48	5.22	98.7
6	-300000	7.44	5.18	97.9
6	-310000	7.55	5.29	100
6	-320000	7.55	5.29	100
6	-330000	7.4	5.14	97.1
6	-340000	6.84	4.58	86.6
6	-350000	6.47	4.21	79.5
6	-360000	6.27	4.01	75.8
