rep_num	position	torque	torque_compensated	lbs_compensated
1	0	2.71	3	56.7
1	10000	5.89	6.21	117
1	20000	6.79	7.15	135
1	30000	5.7	6.01	114
1	40000	4.88	5.17	97.6
1	50000	5.26	5.54	105
1	60000	6.52	6.87	130
1	70000	5.5	5.8	110
1	80000	4.7	4.98	94.2
1	90000	5.62	5.93	112
1	100000	7.19	7.58	143
1	110000	6.75	7.12	135
1	120000	5.23	5.52	104
1	130000	5.73	6.04	114
1	140000	7.01	7.39	140
1	150000	6.73	7.09	134
1	160000	4.97	5.26	99.4
1	170000	6.02	6.34	120
1	180000	7.66	8.08	153
1	190000	6.93	7.3	138
1	200000	5.51	5.81	110
1	210000	7	7.38	140
1	220000	8.07	8.51	161
1	230000	7.34	7.74	146
1	240000	5.92	6.24	118
1	250000	6.76	7.13	135
1	260000	7.04	7.42	140
1	270000	5.08	5.37	101
1	280000	3.96	4.25	80.3
1	290000	5.01	5.3	100
1	300000	7.07	7.45	141
1	310000	7.17	7.56	143
1	320000	5.94	6.26	118
1	330000	6.86	7.23	137
1	340000	7.22	7.61	144
1	350000	7.5	7.9	149
1	360000	7.2	7.59	143
2	0	8.81	6.55	124
2	-10000	8.71	6.45	122
2	-20000	10.4	8.13	154
2	-30000	9.21	6.95	131
2	-40000	9.84	7.58	143
2	-50000	11.1	8.85	167
2	-60000	10.9	8.67	164
2	-70000	9.98	7.72	146
2	-80000	10.3	8.06	152
2	-90000	11	8.76	166
2	-100000	10.6	8.32	157
2	-110000	9.12	6.86	130
2	-120000	9.47	7.21	136
2	-130000	10.9	8.62	163
2	-140000	9.66	7.4	140
2	-150000	8.52	6.26	118
2	-160000	9.64	7.38	139
2	-170000	11.3	9.08	172
2	-180000	10.3	8.04	152
2	-190000	8.62	6.36	120
2	-200000	9.42	7.16	135
2	-210000	10.8	8.58	162
2	-220000	9.99	7.73	146
2	-230000	8.19	5.93	112
2	-240000	8.63	6.37	120
2	-250000	9.75	7.49	142
2	-260000	9.26	7	132
2	-270000	7.7	5.44	103
2	-280000	7.82	5.56	105
2	-290000	9.04	6.78	128
2	-300000	8.95	6.69	126
2	-310000	8.04	5.78	109
2	-320000	8.78	6.52	123
2	-330000	9.72	7.46	141
2	-340000	9.34	7.08	134
2	-350000	6.77	4.51	85.2
2	-360000	7.25	4.99	94.3
2	0	5.84	6.15	116
2	10000	6.4	6.75	128
2	20000	7.8	8.22	155
2	30000	6.67	7.03	133
2	40000	5.95	6.27	119
2	50000	6.08	6.41	121
2	60000	7.4	7.8	148
2	70000	6.57	6.93	131
2	80000	5.51	5.8	110
2	90000	6.1	6.43	121
2	100000	7.32	7.72	146
2	110000	6.13	6.46	122
2	120000	5.32	5.61	106
2	130000	5.91	6.23	118
2	140000	6.98	7.36	139
2	150000	5.99	6.32	119
2	160000	4.77	5.06	95.6
2	170000	5.95	6.27	118
2	180000	7.28	7.67	145
2	190000	6.1	6.43	121
2	200000	4.97	5.26	99.4
2	210000	6.11	6.44	122
2	220000	7.61	8.02	152
2	230000	6.85	7.22	136
2	240000	5.74	6.06	114
2	250000	6.99	7.36	139
2	260000	8.42	8.87	168
2	270000	8.07	8.51	161
2	280000	6.72	7.08	134
2	290000	7.25	7.64	144
2	300000	8.12	8.56	162
2	310000	7.8	8.22	155
2	320000	5.95	6.27	118
2	330000	6.32	6.66	126
2	340000	6.36	6.7	127
2	350000	6.65	7.01	132
2	360000	6.8	7.16	135
3	0	8.21	5.95	112
3	-10000	7.92	5.66	107
3	-20000	9.09	6.83	129
3	-30000	7.96	5.7	108
3	-40000	8.82	6.56	124
3	-50000	10.8	8.51	161
3	-60000	10.1	7.81	148
3	-70000	8.33	6.07	115
3	-80000	8.77	6.51	123
3	-90000	9.83	7.57	143
3	-100000	8.29	6.03	114
3	-110000	7.27	5.01	94.6
3	-120000	7.88	5.62	106
3	-130000	9.92	7.66	145
3	-140000	9.95	7.69	145
3	-150000	8.52	6.26	118
3	-160000	9.87	7.61	144
3	-170000	11.2	8.99	170
3	-180000	9.86	7.6	144
3	-190000	8.17	5.91	112
3	-200000	8.86	6.6	125
3	-210000	10.3	8.09	153
3	-220000	9.56	7.3	138
3	-230000	8.5	6.24	118
3	-240000	8.94	6.68	126
3	-250000	10	7.78	147
3	-260000	9.56	7.3	138
3	-270000	8.4	6.14	116
3	-280000	8.57	6.31	119
3	-290000	9.84	7.58	143
3	-300000	9.26	7	132
3	-310000	7.37	5.11	96.5
3	-320000	7.99	5.73	108
3	-330000	8.91	6.65	126
3	-340000	9.27	7.01	132
3	-350000	7.23	4.97	93.9
3	-360000	7.78	5.52	104
3	0	5.86	6.18	117
3	10000	5	5.28	99.8
3	20000	5.99	6.31	119
3	30000	4.48	4.76	90
3	40000	4.01	4.3	81.2
3	50000	4.99	5.28	99.8
3	60000	6.75	7.11	134
3	70000	6.65	7.01	133
3	80000	5.29	5.57	105
3	90000	5.53	5.83	110
3	100000	6.85	7.22	137
3	110000	6.16	6.49	123
3	120000	4.94	5.22	98.7
3	130000	5.06	5.34	101
3	140000	6.5	6.85	129
3	150000	5.75	6.06	114
3	160000	4.21	4.5	85
3	170000	4.7	4.99	94.3
3	180000	6.55	6.9	130
3	190000	5.16	5.44	103
3	200000	4.23	4.51	85.3
3	210000	5.46	5.76	109
3	220000	6.61	6.97	132
3	230000	5.47	5.77	109
3	240000	4.37	4.65	87.9
3	250000	5.54	5.84	110
3	260000	6.53	6.88	130
3	270000	6.08	6.4	121
3	280000	4.99	5.28	99.8
3	290000	5.58	5.88	111
3	300000	6.9	7.27	137
3	310000	6.76	7.12	135
3	320000	4.77	5.05	95.5
3	330000	5.61	5.91	112
3	340000	5.97	6.29	119
3	350000	6.25	6.58	124
3	360000	5.61	5.92	112
4	0	6.94	4.68	88.4
4	-10000	6.86	4.6	87
4	-20000	8.31	6.05	114
4	-30000	7.13	4.87	92.1
4	-40000	7.8	5.54	105
4	-50000	8.55	6.29	119
4	-60000	8.21	5.95	112
4	-70000	7.13	4.87	92.1
4	-80000	7.71	5.45	103
4	-90000	8.86	6.6	125
4	-100000	8.65	6.39	121
4	-110000	6.71	4.45	84.2
4	-120000	7.05	4.79	90.5
4	-130000	8.91	6.65	126
4	-140000	8.35	6.09	115
4	-150000	7.77	5.51	104
4	-160000	9.36	7.1	134
4	-170000	10.3	8.03	152
4	-180000	9.11	6.85	129
4	-190000	7.65	5.39	102
4	-200000	8.49	6.23	118
4	-210000	9.53	7.27	137
4	-220000	8.58	6.32	119
4	-230000	7.58	5.32	101
4	-240000	8.55	6.29	119
4	-250000	9.34	7.08	134
4	-260000	9.03	6.77	128
4	-270000	7.36	5.1	96.5
4	-280000	7.89	5.63	106
4	-290000	8.99	6.73	127
4	-300000	8.53	6.27	118
4	-310000	7.21	4.95	93.6
4	-320000	7.55	5.29	99.9
4	-330000	8.6	6.34	120
4	-340000	8.13	5.87	111
4	-350000	5.63	3.37	63.7
4	-360000	5.89	3.63	68.6
4	0	4.44	4.73	89.4
4	10000	6.04	6.36	120
4	20000	6.56	6.92	131
4	30000	5.86	6.18	117
4	40000	4.69	4.97	94
4	50000	4.94	5.22	98.7
4	60000	6.13	6.46	122
4	70000	5.13	5.41	102
4	80000	4.36	4.65	87.8
4	90000	5.08	5.36	101
4	100000	6.57	6.92	131
4	110000	6.13	6.46	122
4	120000	5.01	5.3	100
4	130000	5.56	5.86	111
4	140000	6.71	7.08	134
4	150000	5.53	5.83	110
4	160000	4.04	4.32	81.7
4	170000	4.9	5.18	98
4	180000	6.19	6.52	123
4	190000	4.98	5.26	99.5
4	200000	3.71	4	75.6
4	210000	4.94	5.23	98.9
4	220000	6	6.33	120
4	230000	5.25	5.53	105
4	240000	3.77	4.06	76.7
4	250000	4.29	4.58	86.5
4	260000	5.65	5.95	113
4	270000	5.23	5.52	104
4	280000	4.34	4.62	87.4
4	290000	4.96	5.25	99.2
4	300000	5.87	6.19	117
4	310000	5.14	5.42	103
4	320000	3.64	3.93	74.2
4	330000	4.64	4.92	93.1
4	340000	4.58	4.87	92
4	350000	4.79	5.08	95.9
4	360000	4.14	4.42	83.6
5	0	5.24	3	56.8
5	-10000	5.13	2.94	55.5
5	-20000	8.42	6.16	116
5	-30000	8.24	5.98	113
5	-40000	9.06	6.8	129
5	-50000	9.66	7.4	140
5	-60000	8.78	6.52	123
5	-70000	7.7	5.44	103
5	-80000	8.65	6.39	121
5	-90000	9.28	7.02	133
5	-100000	8.34	6.08	115
5	-110000	7.41	5.15	97.3
5	-120000	8	5.74	108
5	-130000	9.45	7.19	136
5	-140000	8.54	6.28	119
5	-150000	7.22	4.96	93.7
5	-160000	7.73	5.47	103
5	-170000	9.09	6.83	129
5	-180000	8.4	6.14	116
5	-190000	7	4.74	89.6
5	-200000	7.92	5.66	107
5	-210000	9.04	6.78	128
5	-220000	8.25	5.99	113
5	-230000	7.64	5.38	102
5	-240000	7.97	5.71	108
5	-250000	9.13	6.87	130
5	-260000	9.01	6.75	128
5	-270000	7.57	5.31	100
5	-280000	7.85	5.59	106
5	-290000	8.97	6.71	127
5	-300000	8.99	6.73	127
5	-310000	7.39	5.13	97
5	-320000	8.02	5.76	109
5	-330000	8.83	6.57	124
5	-340000	8.99	6.73	127
5	-350000	6.77	4.51	85.1
5	-360000	6.69	4.43	83.8
5	0	5.13	5.41	102
5	10000	5.85	6.17	117
5	20000	5.87	6.18	117
5	30000	4.67	4.95	93.6
5	40000	3.91	4.2	79.4
5	50000	4.07	4.35	82.3
5	60000	5.23	5.52	104
5	70000	4.61	4.89	92.5
5	80000	3.59	3.87	73.2
5	90000	4.27	4.56	86.1
5	100000	5.55	5.85	111
5	110000	4.73	5.01	94.7
5	120000	3.59	3.88	73.3
5	130000	3.8	4.09	77.3
5	140000	5.1	5.39	102
5	150000	4.3	4.59	86.7
5	160000	2.88	3.17	59.9
5	170000	3.88	4.16	78.7
5	180000	5.01	5.29	100
5	190000	3.66	3.94	74.5
5	200000	2.72	3.01	56.8
5	210000	3.49	3.78	71.4
5	220000	4.9	5.19	98.1
5	230000	3.7	3.98	75.3
5	240000	2.4	2.69	50.8
5	250000	3.36	3.65	68.9
5	260000	4.88	5.17	97.7
5	270000	3.66	3.94	74.5
5	280000	2.82	3.1	58.6
5	290000	2.98	3.26	61.6
5	300000	4.71	5	94.4
5	310000	4.21	4.5	85
5	320000	2.3	2.59	48.9
5	330000	2.94	3.22	60.9
5	340000	3.13	3.42	64.6
5	350000	3.54	3.83	72.4
5	360000	2.49	2.78	52.5
6	0	3.86	2.21	41.7
6	-10000	4.97	2.85	53.8
6	-20000	7.45	5.19	98.1
6	-30000	6.7	4.44	83.9
6	-40000	7.2	4.94	93.3
6	-50000	8.39	6.13	116
6	-60000	8.07	5.81	110
6	-70000	7.11	4.85	91.7
6	-80000	7.53	5.27	99.7
6	-90000	9.05	6.79	128
6	-100000	8.93	6.67	126
6	-110000	8.62	6.36	120
6	-120000	9.28	7.02	133
6	-130000	11	8.78	166
6	-140000	10.4	8.17	154
6	-150000	8.97	6.71	127
6	-160000	9.88	7.62	144
6	-170000	11	8.74	165
6	-180000	9.84	7.58	143
6	-190000	7.96	5.7	108
6	-200000	8.57	6.31	119
6	-210000	9.89	7.63	144
6	-220000	9.03	6.77	128
6	-230000	7.38	5.12	96.8
6	-240000	7.89	5.63	106
6	-250000	9.15	6.89	130
6	-260000	9.09	6.83	129
6	-270000	8.06	5.8	110
6	-280000	8.31	6.05	114
6	-290000	9	6.74	127
6	-300000	8.31	6.05	114
6	-310000	6.99	4.73	89.3
6	-320000	7.54	5.28	99.7
6	-330000	8.2	5.94	112
6	-340000	8.15	5.89	111
6	-350000	5.96	3.7	69.9
6	-360000	5.83	3.57	67.5
