rep_num	position	torque	torque_compensated	lbs_compensated
1	0	3.45	3.74	70.6
1	10000	4.91	5.19	98.1
1	20000	5.3	5.59	106
1	30000	4.58	4.86	91.9
1	40000	5.06	5.35	101
1	50000	5.58	5.88	111
1	60000	5.85	6.17	117
1	70000	6.18	6.51	123
1	80000	6.4	6.75	128
1	90000	5.55	5.85	111
1	100000	5.69	6	113
1	110000	5.36	5.65	107
1	120000	5.67	5.98	113
1	130000	6.19	6.53	123
1	140000	6.52	6.87	130
1	150000	6.57	6.93	131
1	160000	6.42	6.77	128
1	170000	6.84	7.21	136
1	180000	6.46	6.81	129
1	190000	5.95	6.27	118
1	200000	6.26	6.6	125
1	210000	7.3	7.69	145
1	220000	7.05	7.43	140
1	230000	7.17	7.56	143
1	240000	7.98	8.41	159
1	250000	8.28	8.73	165
1	260000	8.48	8.94	169
1	270000	8.33	8.78	166
1	280000	8.16	8.6	162
1	290000	8.36	8.81	167
1	300000	7.8	8.23	155
1	310000	7.86	8.28	157
1	320000	7.26	7.66	145
1	330000	7.27	7.66	145
1	340000	8.04	8.48	160
1	350000	7.71	8.13	154
1	360000	8.03	8.46	160
2	0	8.45	6.19	117
2	-10000	9.94	7.68	145
2	-20000	10.3	8.01	151
2	-30000	10.8	8.58	162
2	-40000	10.3	7.99	151
2	-50000	10.6	8.34	158
2	-60000	10.3	8.08	153
2	-70000	10.3	8.03	152
2	-80000	10.1	7.83	148
2	-90000	9.6	7.34	139
2	-100000	10.2	7.98	151
2	-110000	10.7	8.4	159
2	-120000	10.3	8.02	152
2	-130000	11.3	9.09	172
2	-140000	10.8	8.59	162
2	-150000	10.4	8.12	153
2	-160000	10.5	8.27	156
2	-170000	11.1	8.82	167
2	-180000	11	8.78	166
2	-190000	10.5	8.28	156
2	-200000	10.6	8.37	158
2	-210000	10.2	7.93	150
2	-220000	9.82	7.56	143
2	-230000	10.5	8.21	155
2	-240000	10.9	8.65	163
2	-250000	10.2	7.94	150
2	-260000	10.3	8.01	151
2	-270000	9.7	7.44	141
2	-280000	9.34	7.08	134
2	-290000	9.98	7.72	146
2	-300000	10.2	7.91	149
2	-310000	10.1	7.82	148
2	-320000	9.57	7.31	138
2	-330000	9.1	6.84	129
2	-340000	8.64	6.38	121
2	-350000	8.53	6.27	119
2	-360000	8.46	6.2	117
2	0	7.13	7.52	142
2	10000	5.84	6.16	116
2	20000	6.03	6.36	120
2	30000	4.86	5.14	97.2
2	40000	5.23	5.52	104
2	50000	6.13	6.47	122
2	60000	5.9	6.22	118
2	70000	6.03	6.35	120
2	80000	5.84	6.16	116
2	90000	5.59	5.89	111
2	100000	5.49	5.79	109
2	110000	6.22	6.55	124
2	120000	6.62	6.98	132
2	130000	6.47	6.82	129
2	140000	6.29	6.63	125
2	150000	5.81	6.12	116
2	160000	6.04	6.36	120
2	170000	6.11	6.44	122
2	180000	6.26	6.6	125
2	190000	5.72	6.03	114
2	200000	6.02	6.35	120
2	210000	6.91	7.28	138
2	220000	5.99	6.32	119
2	230000	6.18	6.51	123
2	240000	6.5	6.85	129
2	250000	6.47	6.82	129
2	260000	6.97	7.35	139
2	270000	5.68	5.99	113
2	280000	6.56	6.92	131
2	290000	7.38	7.77	147
2	300000	7.11	7.5	142
2	310000	6.86	7.24	137
2	320000	6.06	6.39	121
2	330000	7.02	7.39	140
2	340000	7.74	8.15	154
2	350000	6.64	7	132
2	360000	6.82	7.19	136
3	0	8.37	6.11	115
3	-10000	11	8.69	164
3	-20000	11.1	8.81	166
3	-30000	10.8	8.53	161
3	-40000	10.5	8.23	155
3	-50000	10.9	8.62	163
3	-60000	10.7	8.45	160
3	-70000	11.1	8.8	166
3	-80000	11	8.74	165
3	-90000	10.8	8.49	161
3	-100000	11.4	9.18	174
3	-110000	10.3	8.02	152
3	-120000	10.3	8.02	151
3	-130000	11.2	8.92	169
3	-140000	11.1	8.84	167
3	-150000	10.7	8.42	159
3	-160000	10.8	8.54	161
3	-170000	10.7	8.4	159
3	-180000	10.8	8.57	162
3	-190000	10.8	8.58	162
3	-200000	10.6	8.33	157
3	-210000	10.9	8.65	164
3	-220000	10.9	8.65	163
3	-230000	10.6	8.33	157
3	-240000	10.2	7.98	151
3	-250000	10.4	8.12	153
3	-260000	11	8.74	165
3	-270000	10.7	8.46	160
3	-280000	10	7.75	147
3	-290000	10.1	7.83	148
3	-300000	10.6	8.32	157
3	-310000	9.56	7.3	138
3	-320000	10.4	8.17	154
3	-330000	10.2	7.97	151
3	-340000	9.81	7.55	143
3	-350000	8.88	6.62	125
3	-360000	7.94	5.68	107
3	0	6.27	6.61	125
3	10000	4.98	5.27	99.6
3	20000	5.02	5.31	100
3	30000	4.25	4.54	85.7
3	40000	4.35	4.64	87.6
3	50000	5.79	6.1	115
3	60000	5.68	5.99	113
3	70000	5.61	5.91	112
3	80000	5.52	5.82	110
3	90000	5.61	5.91	112
3	100000	5.8	6.11	116
3	110000	5.47	5.76	109
3	120000	5.66	5.97	113
3	130000	5.97	6.29	119
3	140000	6.5	6.85	129
3	150000	6.4	6.75	128
3	160000	6.18	6.51	123
3	170000	6.08	6.41	121
3	180000	5.89	6.21	117
3	190000	5.48	5.78	109
3	200000	4.93	5.22	98.6
3	210000	5.64	5.95	112
3	220000	5.04	5.33	101
3	230000	4.78	5.06	95.7
3	240000	5.04	5.33	101
3	250000	5.73	6.04	114
3	260000	5.31	5.6	106
3	270000	5.3	5.59	106
3	280000	5.87	6.19	117
3	290000	6.18	6.51	123
3	300000	5.8	6.11	115
3	310000	5.48	5.77	109
3	320000	6.11	6.44	122
3	330000	6.1	6.43	121
3	340000	6.48	6.83	129
3	350000	6.12	6.45	122
3	360000	6.04	6.36	120
4	0	7.33	5.07	95.9
4	-10000	8.61	6.35	120
4	-20000	8.49	6.23	118
4	-30000	8.57	6.31	119
4	-40000	7.71	5.45	103
4	-50000	7.55	5.29	100
4	-60000	7.15	4.89	92.3
4	-70000	7.52	5.26	99.4
4	-80000	7.98	5.72	108
4	-90000	9.02	6.76	128
4	-100000	10.9	8.6	163
4	-110000	11	8.75	165
4	-120000	10.7	8.44	159
4	-130000	10.7	8.42	159
4	-140000	10.2	7.9	149
4	-150000	9.83	7.57	143
4	-160000	9.09	6.83	129
4	-170000	8.87	6.61	125
4	-180000	8.72	6.46	122
4	-190000	8.21	5.95	112
4	-200000	8.21	5.95	112
4	-210000	8.75	6.49	123
4	-220000	8.67	6.41	121
4	-230000	8.38	6.12	116
4	-240000	8.05	5.79	109
4	-250000	7.48	5.22	98.6
4	-260000	7.28	5.02	95
4	-270000	7.54	5.28	99.8
4	-280000	7.54	5.28	99.8
4	-290000	7.98	5.72	108
4	-300000	8.7	6.44	122
4	-310000	8.37	6.11	115
4	-320000	8.16	5.9	111
4	-330000	7.63	5.37	101
4	-340000	7.54	5.28	99.7
4	-350000	7.09	4.83	91.2
4	-360000	7.12	4.86	91.9
4	0	6.04	6.37	120
4	10000	6.04	6.37	120
4	20000	6.31	6.65	126
4	30000	5.16	5.45	103
4	40000	5.4	5.69	108
4	50000	5.22	5.51	104
4	60000	5.17	5.45	103
4	70000	5.11	5.4	102
4	80000	5.38	5.68	107
4	90000	5.87	6.19	117
4	100000	6.2	6.53	124
4	110000	6.16	6.49	123
4	120000	6.1	6.42	121
4	130000	5.6	5.9	112
4	140000	5.63	5.93	112
4	150000	4.75	5.04	95.3
4	160000	5.33	5.62	106
4	170000	5.65	5.95	112
4	180000	5.82	6.14	116
4	190000	5.06	5.34	101
4	200000	4.99	5.27	99.7
4	210000	5.73	6.04	114
4	220000	5.19	5.48	104
4	230000	4.41	4.69	88.7
4	240000	4.97	5.25	99.3
4	250000	5.04	5.32	101
4	260000	5.02	5.31	100
4	270000	4.51	4.79	90.6
4	280000	4.17	4.45	84.1
4	290000	3.85	4.14	78.2
4	300000	3.67	3.96	74.8
4	310000	3.96	4.24	80.2
4	320000	3.95	4.24	80.1
4	330000	4.2	4.48	84.7
4	340000	4.17	4.46	84.3
4	350000	3.75	4.03	76.2
4	360000	3.29	3.58	67.6
5	0	4.46	2.56	48.3
5	-10000	6.15	3.89	73.5
5	-20000	7.15	4.89	92.5
5	-30000	8.59	6.33	120
5	-40000	8.49	6.23	118
5	-50000	8.69	6.43	122
5	-60000	8.9	6.64	126
5	-70000	9.16	6.9	130
5	-80000	8.4	6.14	116
5	-90000	8.62	6.36	120
5	-100000	9.45	7.19	136
5	-110000	9.87	7.61	144
5	-120000	9.71	7.45	141
5	-130000	9.85	7.59	143
5	-140000	9.22	6.96	131
5	-150000	8.34	6.08	115
5	-160000	9.05	6.79	128
5	-170000	9.68	7.42	140
5	-180000	9.3	7.04	133
5	-190000	8.64	6.38	121
5	-200000	9.19	6.93	131
5	-210000	9.55	7.29	138
5	-220000	9.19	6.93	131
5	-230000	9.39	7.13	135
5	-240000	9.06	6.8	128
5	-250000	8.96	6.7	127
5	-260000	9.07	6.81	129
5	-270000	8.51	6.25	118
5	-280000	7.97	5.71	108
5	-290000	8.59	6.33	120
5	-300000	8.64	6.38	121
5	-310000	7.58	5.32	101
5	-320000	7.56	5.3	100
5	-330000	7.44	5.18	97.8
5	-340000	7.32	5.06	95.6
5	-350000	6.94	4.68	88.4
5	-360000	6.83	4.57	86.3
5	0	5.82	6.13	116
5	10000	5.33	5.62	106
5	20000	5.54	5.84	110
5	30000	4.68	4.97	93.8
5	40000	4.54	4.83	91.3
5	50000	4.27	4.56	86.2
5	60000	3.92	4.21	79.6
5	70000	3.55	3.84	72.6
5	80000	3.78	4.07	76.9
5	90000	4.01	4.3	81.2
5	100000	4.03	4.32	81.6
5	110000	3.38	3.67	69.3
5	120000	3.22	3.5	66.2
5	130000	3.57	3.86	72.9
5	140000	3.87	4.16	78.6
5	150000	4.51	4.8	90.6
5	160000	4.19	4.48	84.6
5	170000	4.59	4.88	92.2
5	180000	4.55	4.83	91.4
5	190000	3.33	3.62	68.4
5	200000	3.32	3.6	68.1
5	210000	4.14	4.42	83.6
5	220000	3.3	3.58	67.7
5	230000	3	3.29	62.1
5	240000	3.69	3.97	75.1
5	250000	3.72	4.01	75.8
5	260000	3.84	4.13	78.1
5	270000	3.07	3.36	63.4
5	280000	3.16	3.44	65.1
5	290000	3.4	3.69	69.7
5	300000	2.66	2.95	55.7
5	310000	2.66	2.95	55.7
5	320000	2.78	3.06	57.9
5	330000	3.19	3.48	65.7
5	340000	3.21	3.5	66.2
5	350000	2.51	2.8	52.8
5	360000	2.42	2.71	51.2
6	0	3.38	1.94	36.6
6	-10000	5.87	3.61	68.3
6	-20000	6.28	4.02	75.9
6	-30000	6.96	4.7	88.7
6	-40000	6.8	4.54	85.8
6	-50000	7.24	4.98	94.2
6	-60000	7.4	5.14	97.2
6	-70000	7.05	4.79	90.6
6	-80000	6.6	4.34	82.1
6	-90000	6.87	4.61	87
6	-100000	7.51	5.25	99.2
6	-110000	7.01	4.75	89.8
6	-120000	6.17	3.91	73.9
6	-130000	6.69	4.43	83.7
6	-140000	6.63	4.37	82.5
6	-150000	6.22	3.96	74.8
6	-160000	5.73	3.47	65.7
6	-170000	6.14	3.88	73.2
6	-180000	6.53	4.27	80.7
6	-190000	6.31	4.05	76.5
6	-200000	6.57	4.31	81.5
6	-210000	7.69	5.43	103
6	-220000	8.03	5.77	109
6	-230000	7.99	5.73	108
6	-240000	7.43	5.17	97.8
6	-250000	7.51	5.25	99.2
6	-260000	7.95	5.69	107
6	-270000	7.93	5.67	107
6	-280000	7.61	5.35	101
6	-290000	7.64	5.38	102
6	-300000	7.66	5.4	102
6	-310000	7.22	4.96	93.8
6	-320000	7.23	4.97	94
6	-330000	7.19	4.93	93.1
6	-340000	6.74	4.48	84.7
6	-350000	6.09	3.83	72.5
6	-360000	5.6	3.34	63.1
