rep_num	position	torque	torque_compensated	lbs_compensated
1	0	1.91	2.19	41.4
1	10000	4.1	4.39	83
1	20000	5.47	5.77	109
1	30000	4.57	4.86	91.8
1	40000	4.53	4.82	91
1	50000	5.24	5.52	104
1	60000	5.08	5.37	101
1	70000	4.34	4.63	87.5
1	80000	3.9	4.18	79.1
1	90000	4.75	5.04	95.2
1	100000	5.66	5.96	113
1	110000	5.71	6.02	114
1	120000	5.46	5.75	109
1	130000	5.75	6.06	115
1	140000	5.58	5.88	111
1	150000	5.06	5.35	101
1	160000	4.44	4.73	89.4
1	170000	5.73	6.04	114
1	180000	6.4	6.74	127
1	190000	5.3	5.59	106
1	200000	5.15	5.44	103
1	210000	7.12	7.5	142
1	220000	7.31	7.7	146
1	230000	6.82	7.19	136
1	240000	6.8	7.17	136
1	250000	7.19	7.58	143
1	260000	7.66	8.08	153
1	270000	7.39	7.79	147
1	280000	7.46	7.86	149
1	290000	8.04	8.47	160
1	300000	7.52	7.92	150
1	310000	6.68	7.04	133
1	320000	6.78	7.14	135
1	330000	6.93	7.3	138
1	340000	7.04	7.42	140
1	350000	6.18	6.52	123
1	360000	7	7.38	140
2	0	8.67	6.41	121
2	-10000	9.03	6.77	128
2	-20000	9.5	7.24	137
2	-30000	9.39	7.13	135
2	-40000	9.72	7.46	141
2	-50000	10.6	8.38	158
2	-60000	10.5	8.19	155
2	-70000	9.28	7.02	133
2	-80000	8.23	5.97	113
2	-90000	8.34	6.08	115
2	-100000	9	6.74	127
2	-110000	8.14	5.88	111
2	-120000	7.72	5.46	103
2	-130000	8.36	6.1	115
2	-140000	8.31	6.05	114
2	-150000	7.63	5.37	101
2	-160000	7.25	4.99	94.2
2	-170000	8.42	6.16	116
2	-180000	8.63	6.37	120
2	-190000	7.78	5.52	104
2	-200000	7.53	5.27	99.5
2	-210000	7.87	5.61	106
2	-220000	8.3	6.04	114
2	-230000	8.4	6.14	116
2	-240000	8.58	6.32	119
2	-250000	8.89	6.63	125
2	-260000	9.09	6.83	129
2	-270000	8.43	6.17	117
2	-280000	7.79	5.53	105
2	-290000	8.01	5.75	109
2	-300000	8.19	5.93	112
2	-310000	7.87	5.61	106
2	-320000	7.63	5.37	102
2	-330000	8.13	5.87	111
2	-340000	8.48	6.22	118
2	-350000	7.54	5.28	99.8
2	-360000	7.02	4.76	89.9
2	0	5.93	6.25	118
2	10000	6.67	7.03	133
2	20000	7.4	7.8	147
2	30000	6.54	6.9	130
2	40000	6.59	6.95	131
2	50000	7.12	7.51	142
2	60000	6.84	7.21	136
2	70000	6.2	6.54	124
2	80000	6.06	6.39	121
2	90000	6.64	7	132
2	100000	6.74	7.11	134
2	110000	5.76	6.07	115
2	120000	5.55	5.85	111
2	130000	6.41	6.76	128
2	140000	6.38	6.72	127
2	150000	5.45	5.74	109
2	160000	5.58	5.88	111
2	170000	6.45	6.8	129
2	180000	6.81	7.18	136
2	190000	6.06	6.39	121
2	200000	5.85	6.16	116
2	210000	7.02	7.4	140
2	220000	6.86	7.23	137
2	230000	6.53	6.88	130
2	240000	7.05	7.43	140
2	250000	7.55	7.96	150
2	260000	7.75	8.17	154
2	270000	7.38	7.78	147
2	280000	7.15	7.54	142
2	290000	7.56	7.97	151
2	300000	7.42	7.82	148
2	310000	6.75	7.12	135
2	320000	6.72	7.09	134
2	330000	6.26	6.59	125
2	340000	6.97	7.35	139
2	350000	5.96	6.29	119
2	360000	5.71	6.01	114
3	0	6.99	4.73	89.4
3	-10000	8.63	6.37	120
3	-20000	9.47	7.21	136
3	-30000	9.17	6.91	131
3	-40000	9.15	6.89	130
3	-50000	9.39	7.13	135
3	-60000	9.5	7.24	137
3	-70000	9.29	7.03	133
3	-80000	8.97	6.71	127
3	-90000	9.07	6.81	129
3	-100000	10.7	8.41	159
3	-110000	10.1	7.87	149
3	-120000	10	7.75	147
3	-130000	10.6	8.29	157
3	-140000	10.3	8.08	153
3	-150000	10	7.77	147
3	-160000	9.5	7.24	137
3	-170000	10.4	8.17	154
3	-180000	10.7	8.39	159
3	-190000	9.51	7.25	137
3	-200000	9.34	7.08	134
3	-210000	10	7.78	147
3	-220000	9.86	7.6	144
3	-230000	9.52	7.26	137
3	-240000	8.82	6.56	124
3	-250000	9.31	7.05	133
3	-260000	9.69	7.43	140
3	-270000	8.77	6.51	123
3	-280000	8.44	6.18	117
3	-290000	8.55	6.29	119
3	-300000	8.44	6.18	117
3	-310000	7.91	5.65	107
3	-320000	7.81	5.55	105
3	-330000	7.58	5.32	100
3	-340000	7.93	5.67	107
3	-350000	6.72	4.46	84.2
3	-360000	6.02	3.76	71.1
3	0	4.92	5.2	98.3
3	10000	5.05	5.33	101
3	20000	5.82	6.13	116
3	30000	4.53	4.82	91
3	40000	3.92	4.21	79.6
3	50000	4.83	5.12	96.8
3	60000	4.69	4.97	94
3	70000	4.28	4.56	86.3
3	80000	4.26	4.55	86
3	90000	4.52	4.8	90.8
3	100000	4.39	4.67	88.3
3	110000	4.06	4.35	82.1
3	120000	4.37	4.65	87.9
3	130000	5.56	5.86	111
3	140000	6.23	6.57	124
3	150000	5.56	5.86	111
3	160000	5.49	5.79	109
3	170000	6.45	6.8	128
3	180000	6.42	6.77	128
3	190000	5.72	6.03	114
3	200000	5.25	5.53	105
3	210000	6.51	6.86	130
3	220000	5.88	6.2	117
3	230000	5.39	5.68	107
3	240000	5.65	5.96	113
3	250000	6.41	6.76	128
3	260000	6.09	6.42	121
3	270000	5.4	5.69	108
3	280000	5.46	5.75	109
3	290000	6.07	6.4	121
3	300000	5.51	5.81	110
3	310000	5.18	5.47	103
3	320000	5.42	5.71	108
3	330000	6.04	6.37	120
3	340000	6.57	6.92	131
3	350000	5.04	5.33	101
3	360000	5.26	5.55	105
4	0	6.94	4.68	88.5
4	-10000	7.45	5.19	98.1
4	-20000	7.47	5.21	98.4
4	-30000	7.32	5.06	95.6
4	-40000	6.68	4.42	83.5
4	-50000	7.12	4.86	91.8
4	-60000	7.58	5.32	101
4	-70000	8.28	6.02	114
4	-80000	8.28	6.02	114
4	-90000	8.9	6.64	125
4	-100000	9.96	7.7	145
4	-110000	8.84	6.58	124
4	-120000	8	5.74	109
4	-130000	8.48	6.22	118
4	-140000	8.68	6.42	121
4	-150000	8.36	6.1	115
4	-160000	8.32	6.06	115
4	-170000	9.04	6.78	128
4	-180000	10.1	7.86	149
4	-190000	9.48	7.22	137
4	-200000	9.02	6.76	128
4	-210000	9.47	7.21	136
4	-220000	9.34	7.08	134
4	-230000	8.32	6.06	114
4	-240000	7.83	5.57	105
4	-250000	8.37	6.11	116
4	-260000	8.35	6.09	115
4	-270000	7.92	5.66	107
4	-280000	7.26	5	94.5
4	-290000	8.22	5.96	113
4	-300000	8.09	5.83	110
4	-310000	7.31	5.05	95.5
4	-320000	7.06	4.8	90.7
4	-330000	7.09	4.83	91.4
4	-340000	7.12	4.86	91.8
4	-350000	6.23	3.97	75.1
4	-360000	5.96	3.7	70
4	0	4.9	5.18	98
4	10000	5.26	5.54	105
4	20000	6.48	6.83	129
4	30000	5.45	5.74	109
4	40000	5.46	5.75	109
4	50000	6.22	6.56	124
4	60000	5.91	6.23	118
4	70000	5.32	5.6	106
4	80000	4.98	5.27	99.6
4	90000	4.95	5.23	98.9
4	100000	5.38	5.67	107
4	110000	5.08	5.36	101
4	120000	4.97	5.25	99.3
4	130000	5.72	6.03	114
4	140000	5.61	5.91	112
4	150000	4.57	4.86	91.8
4	160000	4.4	4.68	88.5
4	170000	5.01	5.3	100
4	180000	5.06	5.35	101
4	190000	4.11	4.39	83
4	200000	4.42	4.71	88.9
4	210000	5.52	5.81	110
4	220000	4.96	5.25	99.1
4	230000	4.84	5.12	96.8
4	240000	5.25	5.54	105
4	250000	5.9	6.21	117
4	260000	5.91	6.23	118
4	270000	5.15	5.43	103
4	280000	4.62	4.91	92.7
4	290000	4.99	5.27	99.6
4	300000	4.99	5.27	99.7
4	310000	4.62	4.9	92.6
4	320000	4.74	5.03	95.1
4	330000	5.18	5.46	103
4	340000	5.69	6	113
4	350000	4.4	4.69	88.6
4	360000	4.02	4.31	81.4
5	0	5.54	3.28	61.9
5	-10000	6.55	4.29	81.1
5	-20000	8.23	5.97	113
5	-30000	8.3	6.04	114
5	-40000	7.61	5.35	101
5	-50000	7.88	5.62	106
5	-60000	8.11	5.85	110
5	-70000	7.65	5.39	102
5	-80000	7.46	5.2	98.3
5	-90000	7.51	5.25	99.2
5	-100000	8.63	6.37	120
5	-110000	7.78	5.52	104
5	-120000	6.88	4.62	87.4
5	-130000	7.84	5.58	105
5	-140000	8.3	6.04	114
5	-150000	8.53	6.27	119
5	-160000	8.77	6.51	123
5	-170000	9.95	7.69	145
5	-180000	10.2	7.94	150
5	-190000	9.33	7.07	134
5	-200000	9.24	6.98	132
5	-210000	10.3	8.06	152
5	-220000	10.2	7.98	151
5	-230000	9.38	7.12	135
5	-240000	8.89	6.63	125
5	-250000	8.35	6.09	115
5	-260000	8.89	6.63	125
5	-270000	8.6	6.34	120
5	-280000	7.95	5.69	107
5	-290000	8.27	6.01	114
5	-300000	8.35	6.09	115
5	-310000	7.73	5.47	103
5	-320000	7.36	5.1	96.3
5	-330000	7.85	5.59	106
5	-340000	7.71	5.45	103
5	-350000	7.07	4.81	90.9
5	-360000	6.48	4.22	79.8
5	0	5.32	5.61	106
5	10000	5.01	5.3	100
5	20000	5.73	6.03	114
5	30000	4.39	4.68	88.4
5	40000	4.34	4.63	87.5
5	50000	5.13	5.41	102
5	60000	4.67	4.96	93.7
5	70000	4.39	4.68	88.4
5	80000	4.3	4.59	86.8
5	90000	4.9	5.19	98.1
5	100000	4.89	5.18	97.8
5	110000	4.13	4.41	83.4
5	120000	3.92	4.2	79.4
5	130000	5.12	5.4	102
5	140000	5.15	5.43	103
5	150000	4.64	4.92	93
5	160000	4.51	4.79	90.6
5	170000	5.09	5.37	102
5	180000	5.21	5.49	104
5	190000	4.33	4.62	87.3
5	200000	4.19	4.48	84.7
5	210000	5.08	5.37	101
5	220000	4.73	5.02	94.8
5	230000	4.02	4.3	81.3
5	240000	4.33	4.62	87.2
5	250000	4.6	4.88	92.3
5	260000	4.35	4.64	87.7
5	270000	4.11	4.4	83.1
5	280000	4.32	4.6	87
5	290000	4.85	5.13	97
5	300000	4.51	4.79	90.6
5	310000	3.86	4.14	78.3
5	320000	4.05	4.33	81.9
5	330000	4.15	4.43	83.8
5	340000	5.1	5.39	102
5	350000	4.06	4.35	82.2
5	360000	4.38	4.66	88.2
6	0	5.7	3.44	65
6	-10000	7.09	4.83	91.2
6	-20000	7.62	5.36	101
6	-30000	7.35	5.09	96.2
6	-40000	6.72	4.46	84.3
6	-50000	7	4.74	89.5
6	-60000	7	4.74	89.6
6	-70000	6.68	4.42	83.5
6	-80000	6.24	3.98	75.3
6	-90000	6.54	4.28	80.8
6	-100000	7.33	5.07	95.7
6	-110000	6.47	4.21	79.6
6	-120000	6.58	4.32	81.7
6	-130000	7.53	5.27	99.7
6	-140000	7.45	5.19	98
6	-150000	6.51	4.25	80.3
6	-160000	5.84	3.58	67.7
6	-170000	6.98	4.72	89.3
6	-180000	7.37	5.11	96.5
6	-190000	6.44	4.18	79
6	-200000	6.1	3.84	72.5
6	-210000	6.86	4.6	86.9
6	-220000	7.38	5.12	96.8
6	-230000	7.12	4.86	91.8
6	-240000	6.54	4.28	80.9
6	-250000	6.81	4.55	86
6	-260000	7.32	5.06	95.6
6	-270000	7.09	4.83	91.3
6	-280000	6.99	4.73	89.5
6	-290000	7.93	5.67	107
6	-300000	8.7	6.44	122
6	-310000	8.12	5.86	111
6	-320000	8.15	5.89	111
6	-330000	9.06	6.8	129
6	-340000	8.86	6.6	125
6	-350000	7.59	5.33	101
6	-360000	6.6	4.34	82
