rep_num	position	torque	torque_compensated	lbs_compensated
1	0	2.52	2.8	53
1	10000	5.52	5.82	110
1	20000	6.31	6.65	126
1	30000	5.72	6.03	114
1	40000	5.1	5.39	102
1	50000	5.94	6.26	118
1	60000	6.12	6.45	122
1	70000	5.8	6.11	116
1	80000	5.04	5.33	101
1	90000	5.49	5.78	109
1	100000	6.14	6.47	122
1	110000	5.98	6.3	119
1	120000	6.02	6.35	120
1	130000	6.89	7.26	137
1	140000	7.54	7.95	150
1	150000	6.73	7.09	134
1	160000	5.67	5.98	113
1	170000	6.06	6.38	121
1	180000	6.65	7.01	132
1	190000	5.9	6.22	118
1	200000	5.58	5.88	111
1	210000	7	7.38	140
1	220000	7.08	7.46	141
1	230000	6.08	6.41	121
1	240000	6.42	6.76	128
1	250000	7.28	7.67	145
1	260000	8.02	8.45	160
1	270000	7.58	7.99	151
1	280000	7.3	7.7	145
1	290000	7.63	8.04	152
1	300000	8.26	8.71	165
1	310000	7.53	7.94	150
1	320000	6.7	7.06	133
1	330000	7.03	7.41	140
1	340000	7.12	7.51	142
1	350000	7.01	7.39	140
1	360000	6.4	6.74	127
2	0	8.14	5.88	111
2	-10000	9.09	6.83	129
2	-20000	10.7	8.42	159
2	-30000	10.7	8.42	159
2	-40000	10	7.79	147
2	-50000	11.5	9.26	175
2	-60000	11.7	9.49	179
2	-70000	11.2	8.92	169
2	-80000	10.3	8.09	153
2	-90000	10.5	8.19	155
2	-100000	11.4	9.17	173
2	-110000	11.6	9.29	176
2	-120000	11	8.78	166
2	-130000	12.4	10.1	191
2	-140000	12.3	10	189
2	-150000	11.1	8.88	168
2	-160000	10.5	8.27	156
2	-170000	11.4	9.16	173
2	-180000	12.1	9.81	185
2	-190000	11.3	9.06	171
2	-200000	11.1	8.86	167
2	-210000	12	9.72	184
2	-220000	11.9	9.6	181
2	-230000	11.6	9.34	177
2	-240000	11.1	8.83	167
2	-250000	10.9	8.69	164
2	-260000	11.1	8.84	167
2	-270000	10.4	8.15	154
2	-280000	9.86	7.6	144
2	-290000	10.4	8.17	154
2	-300000	10.6	8.36	158
2	-310000	9.71	7.45	141
2	-320000	9.38	7.12	135
2	-330000	9.53	7.27	137
2	-340000	10	7.76	147
2	-350000	8.54	6.28	119
2	-360000	7.88	5.62	106
2	0	7.07	7.45	141
2	10000	7.38	7.78	147
2	20000	7.44	7.85	148
2	30000	6.5	6.86	130
2	40000	6.72	7.08	134
2	50000	7.03	7.41	140
2	60000	7.57	7.98	151
2	70000	7.19	7.58	143
2	80000	6.79	7.16	135
2	90000	7.33	7.73	146
2	100000	7.99	8.42	159
2	110000	7.59	8	151
2	120000	7.04	7.42	140
2	130000	7.21	7.6	144
2	140000	7.74	8.16	154
2	150000	7.04	7.42	140
2	160000	6.36	6.7	127
2	170000	7.73	8.15	154
2	180000	8	8.44	159
2	190000	7.32	7.71	146
2	200000	6.39	6.73	127
2	210000	7.38	7.78	147
2	220000	7.24	7.63	144
2	230000	6.41	6.75	128
2	240000	6.31	6.65	126
2	250000	6.98	7.35	139
2	260000	7.06	7.44	141
2	270000	6.77	7.13	135
2	280000	6.96	7.33	139
2	290000	7.66	8.08	153
2	300000	7.87	8.29	157
2	310000	7.08	7.46	141
2	320000	6.06	6.39	121
2	330000	5.76	6.07	115
2	340000	5.12	5.4	102
2	350000	2.65	2.94	55.5
2	360000	1.67	1.95	36.9
3	0	2.9	1.66	31.4
3	-10000	8.82	6.56	124
3	-20000	10.1	7.84	148
3	-30000	10.6	8.29	157
3	-40000	9.62	7.36	139
3	-50000	10.1	7.83	148
3	-60000	10.4	8.11	153
3	-70000	9.46	7.2	136
3	-80000	8.4	6.14	116
3	-90000	8.8	6.54	124
3	-100000	9.36	7.1	134
3	-110000	8.37	6.11	116
3	-120000	6.4	4.14	78.2
3	-130000	8.15	5.89	111
3	-140000	8.76	6.5	123
3	-150000	9.55	7.29	138
3	-160000	9.43	7.17	136
3	-170000	10.4	8.14	154
3	-180000	10.9	8.68	164
3	-190000	9.25	6.99	132
3	-200000	9.04	6.78	128
3	-210000	9.91	7.65	145
3	-220000	10.5	8.27	156
3	-230000	10.6	8.31	157
3	-240000	10	7.78	147
3	-250000	10.4	8.18	155
3	-260000	10	7.75	147
3	-270000	8.85	6.59	125
3	-280000	9.27	7.01	133
3	-290000	9.68	7.42	140
3	-300000	9.81	7.55	143
3	-310000	8.51	6.25	118
3	-320000	8.61	6.35	120
3	-330000	8.72	6.46	122
3	-340000	8.03	5.77	109
3	-350000	6.22	3.96	74.8
3	-360000	6.1	3.84	72.6
3	0	5.27	5.56	105
3	10000	4.48	4.77	90.1
3	20000	4.92	5.21	98.5
3	30000	4.42	4.71	88.9
3	40000	4.66	4.95	93.5
3	50000	5.63	5.94	112
3	60000	6.77	7.14	135
3	70000	6.36	6.7	127
3	80000	6.08	6.41	121
3	90000	6.95	7.32	138
3	100000	7.32	7.71	146
3	110000	6.77	7.13	135
3	120000	6.25	6.59	125
3	130000	6.64	7	132
3	140000	6.86	7.23	137
3	150000	6.3	6.65	126
3	160000	6.02	6.35	120
3	170000	7.11	7.49	142
3	180000	7.47	7.87	149
3	190000	6.78	7.15	135
3	200000	6.09	6.42	121
3	210000	7.13	7.51	142
3	220000	7.31	7.7	146
3	230000	6.6	6.95	131
3	240000	6.71	7.08	134
3	250000	7.71	8.12	154
3	260000	7.51	7.91	150
3	270000	6.61	6.97	132
3	280000	6.4	6.74	127
3	290000	6.78	7.14	135
3	300000	6.91	7.28	138
3	310000	6.22	6.55	124
3	320000	5.52	5.82	110
3	330000	6.07	6.4	121
3	340000	6.07	6.4	121
3	350000	5.54	5.84	110
3	360000	4.95	5.24	99
4	0	6.54	4.28	80.8
4	-10000	8.11	5.85	111
4	-20000	10.1	7.85	148
4	-30000	9.96	7.7	146
4	-40000	9.24	6.98	132
4	-50000	9.52	7.26	137
4	-60000	9.8	7.54	143
4	-70000	9.76	7.5	142
4	-80000	9.01	6.75	128
4	-90000	9.86	7.6	144
4	-100000	11.1	8.82	167
4	-110000	10.7	8.48	160
4	-120000	10.5	8.25	156
4	-130000	12	9.76	184
4	-140000	12.3	9.99	189
4	-150000	11.6	9.37	177
4	-160000	10.9	8.66	164
4	-170000	11.4	9.13	173
4	-180000	11.1	8.83	167
4	-190000	10.6	8.3	157
4	-200000	11.3	9.06	171
4	-210000	12	9.78	185
4	-220000	11.8	9.52	180
4	-230000	11.3	9.02	171
4	-240000	11.1	8.88	168
4	-250000	11.3	9.03	171
4	-260000	12.3	10	189
4	-270000	11.9	9.59	181
4	-280000	11.4	9.12	172
4	-290000	11.7	9.4	178
4	-300000	11.8	9.52	180
4	-310000	11	8.73	165
4	-320000	10.6	8.34	158
4	-330000	10.9	8.69	164
4	-340000	10.5	8.23	155
4	-350000	9.36	7.1	134
4	-360000	8.31	6.05	114
4	0	7.29	7.68	145
4	10000	6.3	6.64	125
4	20000	6.56	6.92	131
4	30000	5.4	5.7	108
4	40000	5.73	6.04	114
4	50000	6.49	6.84	129
4	60000	6.5	6.85	129
4	70000	5.94	6.26	118
4	80000	5.43	5.73	108
4	90000	6	6.32	119
4	100000	6.06	6.38	121
4	110000	5.55	5.85	111
4	120000	5.4	5.69	108
4	130000	6.1	6.43	122
4	140000	6.23	6.57	124
4	150000	5.26	5.54	105
4	160000	4.81	5.09	96.3
4	170000	5.88	6.2	117
4	180000	6.33	6.67	126
4	190000	5.32	5.6	106
4	200000	4.83	5.11	96.6
4	210000	5.89	6.21	117
4	220000	5.56	5.86	111
4	230000	4.88	5.16	97.6
4	240000	4.35	4.63	87.6
4	250000	5.36	5.64	107
4	260000	5.46	5.76	109
4	270000	4.77	5.05	95.5
4	280000	4.47	4.76	89.9
4	290000	5.15	5.43	103
4	300000	5.42	5.71	108
4	310000	4.98	5.26	99.4
4	320000	4.63	4.92	92.9
4	330000	5.07	5.36	101
4	340000	5.28	5.56	105
4	350000	4.57	4.86	91.9
4	360000	3.88	4.17	78.8
5	0	5.28	3.03	57.2
5	-10000	7.2	4.94	93.4
5	-20000	8.48	6.22	118
5	-30000	8.38	6.12	116
5	-40000	8.64	6.38	121
5	-50000	10.1	7.87	149
5	-60000	11	8.71	165
5	-70000	11	8.73	165
5	-80000	11.2	8.96	169
5	-90000	12.2	9.93	188
5	-100000	12.9	10.6	201
5	-110000	12.2	9.98	189
5	-120000	11.7	9.43	178
5	-130000	12.8	10.5	199
5	-140000	12.4	10.2	193
5	-150000	11.5	9.27	175
5	-160000	11.5	9.24	175
5	-170000	12.5	10.2	194
5	-180000	12.4	10.1	191
5	-190000	11.6	9.31	176
5	-200000	11.8	9.57	181
5	-210000	12.6	10.3	195
5	-220000	12.8	10.5	199
5	-230000	12.1	9.79	185
5	-240000	11.5	9.23	174
5	-250000	11.6	9.35	177
5	-260000	11.8	9.58	181
5	-270000	11.1	8.85	167
5	-280000	10.9	8.68	164
5	-290000	11.4	9.13	173
5	-300000	11.3	9.01	170
5	-310000	10.2	7.97	151
5	-320000	10.4	8.12	153
5	-330000	10.7	8.43	159
5	-340000	10.7	8.45	160
5	-350000	9.32	7.06	133
5	-360000	8.02	5.76	109
5	0	6.8	7.17	136
5	10000	6.85	7.22	136
5	20000	7.19	7.57	143
5	30000	5.81	6.12	116
5	40000	5.47	5.76	109
5	50000	5.48	5.78	109
5	60000	5.38	5.67	107
5	70000	4.72	5	94.5
5	80000	4.02	4.31	81.4
5	90000	4.71	4.99	94.4
5	100000	5.3	5.58	105
5	110000	4.33	4.62	87.3
5	120000	4.26	4.55	85.9
5	130000	4.88	5.17	97.7
5	140000	4.94	5.23	98.8
5	150000	4.34	4.62	87.4
5	160000	3.84	4.13	78
5	170000	4.52	4.8	90.8
5	180000	4.85	5.14	97.1
5	190000	3.56	3.84	72.7
5	200000	3.08	3.37	63.6
5	210000	4.21	4.5	85
5	220000	4.46	4.75	89.7
5	230000	3.88	4.17	78.8
5	240000	3.74	4.03	76.1
5	250000	4.05	4.33	81.9
5	260000	4.21	4.5	85.1
5	270000	3.45	3.74	70.6
5	280000	3.27	3.56	67.3
5	290000	3.7	3.98	75.3
5	300000	3.78	4.06	76.8
5	310000	3.2	3.49	65.9
5	320000	2.8	3.09	58.4
5	330000	3.23	3.51	66.4
5	340000	3.58	3.87	73.1
5	350000	2.8	3.09	58.4
5	360000	2.42	2.71	51.2
6	0	4	2.29	43.3
6	-10000	5.45	3.19	60.2
6	-20000	6.92	4.66	88.2
6	-30000	7.41	5.15	97.4
6	-40000	7.22	4.96	93.7
6	-50000	7.94	5.68	107
6	-60000	8.44	6.18	117
6	-70000	8.35	6.09	115
6	-80000	8.77	6.51	123
6	-90000	9.83	7.57	143
6	-100000	9.75	7.49	141
6	-110000	9	6.74	127
6	-120000	9.27	7.01	132
6	-130000	11	8.78	166
6	-140000	11.2	8.93	169
6	-150000	10.5	8.26	156
6	-160000	10.2	7.9	149
6	-170000	10.7	8.41	159
6	-180000	10	7.77	147
6	-190000	9.1	6.84	129
6	-200000	9.19	6.93	131
6	-210000	9.55	7.29	138
6	-220000	9.3	7.04	133
6	-230000	8.76	6.5	123
6	-240000	9.02	6.76	128
6	-250000	10.3	8.02	152
6	-260000	10.9	8.64	163
6	-270000	10.4	8.16	154
6	-280000	9.96	7.7	146
6	-290000	10.2	7.92	150
6	-300000	10.3	8	151
6	-310000	9.31	7.05	133
6	-320000	9.12	6.86	130
6	-330000	9.51	7.25	137
6	-340000	9.32	7.06	133
6	-350000	7.8	5.54	105
6	-360000	6.89	4.63	87.5
