rep_num	position	torque	torque_compensated	lbs_compensated
1	0	5.02	5.31	100
1	10000	6.48	6.83	129
1	20000	7.77	8.19	155
1	30000	6.88	7.25	137
1	40000	5.86	6.18	117
1	50000	6.83	7.2	136
1	60000	7.83	8.26	156
1	70000	7.57	7.97	151
1	80000	6.69	7.05	133
1	90000	7.32	7.72	146
1	100000	8.26	8.71	165
1	110000	7.96	8.4	159
1	120000	7.18	7.57	143
1	130000	8.01	8.44	159
1	140000	8.61	9.07	171
1	150000	7.85	8.27	156
1	160000	6.77	7.14	135
1	170000	7.84	8.27	156
1	180000	9	9.48	179
1	190000	8.27	8.72	165
1	200000	7.41	7.81	148
1	210000	8.72	9.19	174
1	220000	9.09	9.59	181
1	230000	8.01	8.44	160
1	240000	7.54	7.95	150
1	250000	8.45	8.91	168
1	260000	8.89	9.37	177
1	270000	8.43	8.89	168
1	280000	7.29	7.68	145
1	290000	7.85	8.27	156
1	300000	8.5	8.96	169
1	310000	7.8	8.23	155
1	320000	7.09	7.47	141
1	330000	7.74	8.16	154
1	340000	8.42	8.88	168
1	350000	8.33	8.78	166
1	360000	8.65	9.12	172
2	0	10.1	7.8	147
2	-10000	13	10.7	202
2	-20000	13.2	11	207
2	-30000	12.1	9.88	187
2	-40000	11.4	9.15	173
2	-50000	12.7	10.5	198
2	-60000	13.4	11.2	211
2	-70000	11.6	9.3	176
2	-80000	11.5	9.22	174
2	-90000	12.8	10.5	199
2	-100000	12.9	10.7	202
2	-110000	11.2	8.95	169
2	-120000	10.7	8.47	160
2	-130000	12.7	10.4	197
2	-140000	12.7	10.4	197
2	-150000	11.9	9.62	182
2	-160000	12	9.73	184
2	-170000	11.8	9.49	179
2	-180000	10.9	8.65	164
2	-190000	8.52	6.26	118
2	-200000	7.53	5.27	99.6
2	-210000	9.16	6.9	130
2	-220000	9.33	7.07	134
2	-230000	8.92	6.66	126
2	-240000	9.47	7.21	136
2	-250000	10.7	8.46	160
2	-260000	11.6	9.35	177
2	-270000	11.3	9	170
2	-280000	11.6	9.34	177
2	-290000	12.8	10.5	199
2	-300000	12.7	10.5	198
2	-310000	11.3	9	170
2	-320000	10.8	8.55	162
2	-330000	11.5	9.2	174
2	-340000	11	8.72	165
2	-350000	8.8	6.54	124
2	-360000	8.51	6.25	118
2	0	7.25	7.64	144
2	10000	7.16	7.54	143
2	20000	8.76	9.23	174
2	30000	7.36	7.75	147
2	40000	6.37	6.72	127
2	50000	7.23	7.62	144
2	60000	7.17	7.55	143
2	70000	6.7	7.06	134
2	80000	6.55	6.91	131
2	90000	7.71	8.12	154
2	100000	8.48	8.94	169
2	110000	7.72	8.14	154
2	120000	6.88	7.25	137
2	130000	7.76	8.18	155
2	140000	8.45	8.9	168
2	150000	7.25	7.64	144
2	160000	6.37	6.71	127
2	170000	7.74	8.16	154
2	180000	8.33	8.78	166
2	190000	7.3	7.69	145
2	200000	6.93	7.31	138
2	210000	8.37	8.83	167
2	220000	8.44	8.89	168
2	230000	7.4	7.8	147
2	240000	6.7	7.06	133
2	250000	7.34	7.73	146
2	260000	7.93	8.36	158
2	270000	7.01	7.39	140
2	280000	6.49	6.84	129
2	290000	7.24	7.63	144
2	300000	7.28	7.68	145
2	310000	6.79	7.16	135
2	320000	6.24	6.58	124
2	330000	6.77	7.13	135
2	340000	7.32	7.72	146
2	350000	6.39	6.73	127
2	360000	6.23	6.57	124
3	0	7.28	5.02	94.8
3	-10000	8.21	5.95	112
3	-20000	10.9	8.65	163
3	-30000	10.5	8.22	155
3	-40000	10.5	8.25	156
3	-50000	10.5	8.25	156
3	-60000	10.7	8.45	160
3	-70000	9.25	6.99	132
3	-80000	9.23	6.97	132
3	-90000	10	7.79	147
3	-100000	10.7	8.46	160
3	-110000	10.2	7.92	150
3	-120000	10.5	8.27	156
3	-130000	12.1	9.82	186
3	-140000	11.4	9.15	173
3	-150000	10.1	7.88	149
3	-160000	9.8	7.54	142
3	-170000	10.6	8.37	158
3	-180000	10.5	8.22	155
3	-190000	9.16	6.9	130
3	-200000	9.19	6.93	131
3	-210000	11.7	9.48	179
3	-220000	12.3	10	189
3	-230000	10.9	8.63	163
3	-240000	9.62	7.36	139
3	-250000	10.2	7.98	151
3	-260000	10.4	8.17	154
3	-270000	9.61	7.35	139
3	-280000	8.76	6.5	123
3	-290000	9.68	7.42	140
3	-300000	9.57	7.31	138
3	-310000	8.77	6.51	123
3	-320000	8.56	6.3	119
3	-330000	9.13	6.87	130
3	-340000	9.3	7.04	133
3	-350000	7.6	5.34	101
3	-360000	7.85	5.59	106
3	0	6.95	7.32	138
3	10000	5.96	6.28	119
3	20000	7.24	7.63	144
3	30000	6.34	6.69	126
3	40000	6.07	6.4	121
3	50000	6.9	7.27	137
3	60000	7.29	7.69	145
3	70000	6.8	7.17	136
3	80000	6.2	6.53	124
3	90000	7.25	7.64	144
3	100000	8.04	8.47	160
3	110000	7.3	7.7	146
3	120000	6.58	6.94	131
3	130000	7.67	8.08	153
3	140000	7.92	8.35	158
3	150000	6.64	7	132
3	160000	5.66	5.97	113
3	170000	7.03	7.41	140
3	180000	7.46	7.87	149
3	190000	6.29	6.63	125
3	200000	5.36	5.65	107
3	210000	6.43	6.78	128
3	220000	6.73	7.09	134
3	230000	5.66	5.96	113
3	240000	5.6	5.9	112
3	250000	6.07	6.39	121
3	260000	6.52	6.87	130
3	270000	5.99	6.31	119
3	280000	5.58	5.88	111
3	290000	6.7	7.07	134
3	300000	6.73	7.09	134
3	310000	5.56	5.86	111
3	320000	5.05	5.33	101
3	330000	5.04	5.33	101
3	340000	5.3	5.59	106
3	350000	4.7	4.98	94.2
3	360000	4.43	4.72	89.2
4	0	5.99	3.73	70.4
4	-10000	7.3	5.04	95.3
4	-20000	8.97	6.71	127
4	-30000	8.18	5.92	112
4	-40000	7.58	5.32	100
4	-50000	8.65	6.39	121
4	-60000	9.04	6.78	128
4	-70000	8.32	6.06	115
4	-80000	9.07	6.81	129
4	-90000	10.9	8.66	164
4	-100000	11.2	8.93	169
4	-110000	9.63	7.37	139
4	-120000	9.29	7.03	133
4	-130000	11.1	8.89	168
4	-140000	10.4	8.19	155
4	-150000	8.68	6.42	121
4	-160000	10.1	7.85	148
4	-170000	11.7	9.46	179
4	-180000	12.1	9.79	185
4	-190000	10.9	8.66	164
4	-200000	10.1	7.85	148
4	-210000	10.5	8.28	157
4	-220000	10.9	8.67	164
4	-230000	9.23	6.97	132
4	-240000	9.44	7.18	136
4	-250000	9.98	7.72	146
4	-260000	10.2	7.93	150
4	-270000	9.56	7.3	138
4	-280000	9.46	7.2	136
4	-290000	10.6	8.3	157
4	-300000	10.2	7.98	151
4	-310000	8.99	6.73	127
4	-320000	8.74	6.48	122
4	-330000	9.17	6.91	131
4	-340000	9.1	6.84	129
4	-350000	7.47	5.21	98.4
4	-360000	7.84	5.58	106
4	0	6.79	7.16	135
4	10000	6.94	7.31	138
4	20000	7.53	7.94	150
4	30000	6.31	6.65	126
4	40000	5.28	5.57	105
4	50000	5.9	6.22	118
4	60000	6.13	6.46	122
4	70000	5.67	5.98	113
4	80000	5.24	5.53	104
4	90000	6.07	6.4	121
4	100000	6.52	6.87	130
4	110000	5.75	6.06	115
4	120000	4.81	5.1	96.3
4	130000	5.71	6.02	114
4	140000	6.37	6.71	127
4	150000	5.46	5.75	109
4	160000	4.25	4.53	85.7
4	170000	5.12	5.4	102
4	180000	6.19	6.52	123
4	190000	4.56	4.85	91.6
4	200000	3.71	4	75.6
4	210000	5.22	5.51	104
4	220000	5.34	5.62	106
4	230000	4.07	4.35	82.3
4	240000	3.83	4.12	77.8
4	250000	4.59	4.88	92.2
4	260000	4.71	5	94.5
4	270000	3.72	4	75.7
4	280000	3.11	3.4	64.3
4	290000	3.65	3.94	74.5
4	300000	4.24	4.53	85.6
4	310000	3.6	3.89	73.5
4	320000	2.82	3.1	58.6
4	330000	3.62	3.9	73.8
4	340000	3.42	3.71	70.1
4	350000	2.92	3.21	60.6
4	360000	3.42	3.71	70.1
5	0	4.45	2.55	48.2
5	-10000	6.02	3.76	71
5	-20000	7.51	5.25	99.2
5	-30000	6.9	4.64	87.7
5	-40000	7.09	4.83	91.3
5	-50000	8	5.74	109
5	-60000	8.15	5.89	111
5	-70000	7.37	5.11	96.7
5	-80000	7.25	4.99	94.4
5	-90000	8.43	6.17	117
5	-100000	8.25	5.99	113
5	-110000	6.91	4.65	88
5	-120000	7.01	4.75	89.7
5	-130000	8.91	6.65	126
5	-140000	8.81	6.55	124
5	-150000	7.2	4.94	93.4
5	-160000	6.98	4.72	89.3
5	-170000	8.24	5.98	113
5	-180000	8.8	6.54	124
5	-190000	8.23	5.97	113
5	-200000	9.49	7.23	137
5	-210000	11.2	8.98	170
5	-220000	11.1	8.88	168
5	-230000	9.1	6.84	129
5	-240000	8.51	6.25	118
5	-250000	9.22	6.96	131
5	-260000	9.12	6.86	130
5	-270000	8.49	6.23	118
5	-280000	7.95	5.69	108
5	-290000	8.77	6.51	123
5	-300000	8.55	6.29	119
5	-310000	7.15	4.89	92.5
5	-320000	7.03	4.77	90.1
5	-330000	7.95	5.69	108
5	-340000	7.8	5.54	105
5	-350000	6.06	3.8	71.8
5	-360000	6.01	3.75	70.8
5	0	4.64	4.92	93
5	10000	5.13	5.42	102
5	20000	6.31	6.66	126
5	30000	5.28	5.57	105
5	40000	4.56	4.85	91.6
5	50000	5.23	5.51	104
5	60000	4.95	5.23	98.9
5	70000	4	4.29	81.1
5	80000	3.52	3.81	71.9
5	90000	4.42	4.71	89
5	100000	5.06	5.34	101
5	110000	4.22	4.5	85.1
5	120000	3.45	3.74	70.6
5	130000	4.13	4.42	83.5
5	140000	4.91	5.2	98.3
5	150000	4.18	4.47	84.4
5	160000	3.3	3.59	67.8
5	170000	4.34	4.62	87.4
5	180000	4.85	5.14	97.2
5	190000	3.49	3.78	71.4
5	200000	2.63	2.92	55.2
5	210000	3.84	4.13	78
5	220000	4.11	4.39	83
5	230000	2.8	3.08	58.3
5	240000	2.45	2.74	51.7
5	250000	3.5	3.79	71.6
5	260000	3.71	4	75.5
5	270000	2.54	2.83	53.4
5	280000	1.92	2.2	41.6
5	290000	2.6	2.89	54.6
5	300000	2.81	3.1	58.5
5	310000	2.14	2.42	45.8
5	320000	1.77	2.06	38.9
5	330000	1.99	2.27	42.9
5	340000	2.46	2.75	51.9
5	350000	2.29	2.57	48.6
5	360000	2.5	2.79	52.7
6	0	3.59	2.06	38.9
6	-10000	5.55	3.29	62.2
6	-20000	6.91	4.65	88
6	-30000	6.17	3.91	73.9
6	-40000	5.93	3.67	69.3
6	-50000	6.7	4.44	84
6	-60000	7.05	4.79	90.5
6	-70000	6.67	4.41	83.3
6	-80000	7.06	4.8	90.8
6	-90000	8.28	6.02	114
6	-100000	8.42	6.16	116
6	-110000	7.43	5.17	97.6
6	-120000	6.89	4.63	87.5
6	-130000	8.19	5.93	112
6	-140000	8.02	5.76	109
6	-150000	6.61	4.35	82.2
6	-160000	6.78	4.52	85.4
6	-170000	8.01	5.75	109
6	-180000	7.78	5.52	104
6	-190000	6.65	4.39	83
6	-200000	6.32	4.06	76.6
6	-210000	7.59	5.33	101
6	-220000	7.79	5.53	104
6	-230000	6.51	4.25	80.3
6	-240000	6.19	3.93	74.3
6	-250000	6.91	4.65	87.9
6	-260000	6.94	4.68	88.4
6	-270000	5.87	3.61	68.3
6	-280000	5.35	3.09	58.4
6	-290000	6.31	4.05	76.6
6	-300000	6.93	4.67	88.3
6	-310000	6.16	3.9	73.8
6	-320000	6.55	4.29	81
6	-330000	7.46	5.2	98.3
6	-340000	7.57	5.31	100
6	-350000	5.58	3.32	62.7
6	-360000	5.37	3.11	58.8
