rep_num	position	torque	torque_compensated	lbs_compensated
1	0	4.46	4.74	89.7
1	10000	5.71	6.01	114
1	20000	6.47	6.82	129
1	30000	6.18	6.52	123
1	40000	6.51	6.86	130
1	50000	6.91	7.28	138
1	60000	7.2	7.59	144
1	70000	7.23	7.62	144
1	80000	7.41	7.81	148
1	90000	7.31	7.71	146
1	100000	7.42	7.83	148
1	110000	7.52	7.93	150
1	120000	7.78	8.2	155
1	130000	8.3	8.75	165
1	140000	8.16	8.6	163
1	150000	7.77	8.19	155
1	160000	7.86	8.29	157
1	170000	8.08	8.51	161
1	180000	8.41	8.86	167
1	190000	8.19	8.64	163
1	200000	7.9	8.33	157
1	210000	8.58	9.04	171
1	220000	8.67	9.14	173
1	230000	8.52	8.98	170
1	240000	8.76	9.24	175
1	250000	8.77	9.24	175
1	260000	8.68	9.15	173
1	270000	8.68	9.15	173
1	280000	8.68	9.14	173
1	290000	8.78	9.25	175
1	300000	8.56	9.02	171
1	310000	8.69	9.16	173
1	320000	8.65	9.11	172
1	330000	8.75	9.22	174
1	340000	8.74	9.21	174
1	350000	8.64	9.11	172
1	360000	8.62	9.09	172
2	0	10.2	7.98	151
2	-10000	10.7	8.41	159
2	-20000	11	8.78	166
2	-30000	10.8	8.58	162
2	-40000	11.4	9.11	172
2	-50000	11.7	9.44	178
2	-60000	11.6	9.32	176
2	-70000	11.4	9.17	173
2	-80000	11.1	8.83	167
2	-90000	11.1	8.83	167
2	-100000	11.6	9.32	176
2	-110000	11.5	9.23	174
2	-120000	11.1	8.87	168
2	-130000	11.6	9.31	176
2	-140000	11.2	8.92	169
2	-150000	10.8	8.52	161
2	-160000	11.1	8.85	167
2	-170000	10.7	8.46	160
2	-180000	10.5	8.24	156
2	-190000	10.1	7.87	149
2	-200000	11	8.78	166
2	-210000	11	8.77	166
2	-220000	11.3	9.09	172
2	-230000	11.4	9.17	173
2	-240000	10.8	8.51	161
2	-250000	10.6	8.29	157
2	-260000	10.6	8.31	157
2	-270000	10.4	8.14	154
2	-280000	9.99	7.73	146
2	-290000	10	7.74	146
2	-300000	9.69	7.43	140
2	-310000	9.29	7.03	133
2	-320000	9.02	6.76	128
2	-330000	8.82	6.56	124
2	-340000	8.32	6.06	115
2	-350000	7.68	5.42	103
2	-360000	7.72	5.46	103
2	0	6.57	6.93	131
2	10000	7.2	7.59	143
2	20000	7.75	8.17	154
2	30000	7.67	8.08	153
2	40000	7.03	7.41	140
2	50000	7.73	8.15	154
2	60000	7.9	8.32	157
2	70000	8.03	8.46	160
2	80000	8.03	8.46	160
2	90000	7.83	8.25	156
2	100000	8.1	8.54	161
2	110000	8.38	8.83	167
2	120000	8.63	9.1	172
2	130000	8.69	9.16	173
2	140000	8.62	9.09	172
2	150000	8.14	8.58	162
2	160000	8.03	8.46	160
2	170000	8.19	8.63	163
2	180000	8.25	8.7	164
2	190000	7.85	8.28	156
2	200000	7.43	7.83	148
2	210000	7.93	8.36	158
2	220000	7.85	8.27	156
2	230000	7.54	7.95	150
2	240000	7.82	8.24	156
2	250000	7.69	8.11	153
2	260000	7.87	8.29	157
2	270000	8.02	8.45	160
2	280000	7.78	8.2	155
2	290000	8	8.43	159
2	300000	7.44	7.84	148
2	310000	7.35	7.75	147
2	320000	7.08	7.46	141
2	330000	6.63	6.99	132
2	340000	6.38	6.72	127
2	350000	6.6	6.96	132
2	360000	6.7	7.07	134
3	0	8.36	6.1	115
3	-10000	10.5	8.23	156
3	-20000	11.3	9.08	172
3	-30000	12.3	10	189
3	-40000	12.2	9.95	188
3	-50000	12.2	9.89	187
3	-60000	12.3	10	190
3	-70000	12	9.78	185
3	-80000	11.5	9.21	174
3	-90000	11.7	9.46	179
3	-100000	12.6	10.3	195
3	-110000	12.5	10.2	193
3	-120000	12	9.7	183
3	-130000	11.9	9.65	182
3	-140000	11.8	9.51	180
3	-150000	10.8	8.53	161
3	-160000	10.9	8.61	163
3	-170000	11.2	8.95	169
3	-180000	10.9	8.63	163
3	-190000	10.4	8.17	154
3	-200000	9.94	7.68	145
3	-210000	10.4	8.16	154
3	-220000	10.3	8.06	152
3	-230000	10.6	8.3	157
3	-240000	10.9	8.59	162
3	-250000	10.7	8.49	160
3	-260000	10.6	8.35	158
3	-270000	9.7	7.44	141
3	-280000	9.36	7.1	134
3	-290000	9.46	7.2	136
3	-300000	9.78	7.52	142
3	-310000	9.26	7	132
3	-320000	9.08	6.82	129
3	-330000	8.85	6.59	125
3	-340000	8.68	6.42	121
3	-350000	8.33	6.07	115
3	-360000	8.33	6.07	115
3	0	6.83	7.2	136
3	10000	7.59	8.01	151
3	20000	7.57	7.98	151
3	30000	6.97	7.35	139
3	40000	6.63	6.99	132
3	50000	6.98	7.35	139
3	60000	6.93	7.31	138
3	70000	6.62	6.98	132
3	80000	6.73	7.09	134
3	90000	6.77	7.13	135
3	100000	6.55	6.91	131
3	110000	6.21	6.55	124
3	120000	6.1	6.42	121
3	130000	6.15	6.48	123
3	140000	6.56	6.91	131
3	150000	6.37	6.71	127
3	160000	6.4	6.75	127
3	170000	7.11	7.49	142
3	180000	6.84	7.21	136
3	190000	6.32	6.66	126
3	200000	6.2	6.53	123
3	210000	6.79	7.16	135
3	220000	6.52	6.87	130
3	230000	6.23	6.57	124
3	240000	6.06	6.38	121
3	250000	6.28	6.62	125
3	260000	6.44	6.78	128
3	270000	6.31	6.65	126
3	280000	6.17	6.51	123
3	290000	6.31	6.65	126
3	300000	6.15	6.48	122
3	310000	5.85	6.16	116
3	320000	5.33	5.62	106
3	330000	5.06	5.35	101
3	340000	5.07	5.35	101
3	350000	5.65	5.96	113
3	360000	5.92	6.24	118
4	0	7.37	5.11	96.5
4	-10000	7.72	5.46	103
4	-20000	8.07	5.81	110
4	-30000	8.38	6.12	116
4	-40000	7.77	5.51	104
4	-50000	8.23	5.97	113
4	-60000	9.51	7.25	137
4	-70000	9.33	7.07	134
4	-80000	8.53	6.27	119
4	-90000	8.58	6.32	119
4	-100000	8.49	6.23	118
4	-110000	8.18	5.92	112
4	-120000	8.97	6.71	127
4	-130000	9.38	7.12	135
4	-140000	9.24	6.98	132
4	-150000	8.41	6.15	116
4	-160000	8.63	6.37	120
4	-170000	9.54	7.28	138
4	-180000	9.75	7.49	142
4	-190000	9.04	6.78	128
4	-200000	8.67	6.41	121
4	-210000	8.83	6.57	124
4	-220000	8.61	6.35	120
4	-230000	8.17	5.91	112
4	-240000	8.17	5.91	112
4	-250000	8.13	5.87	111
4	-260000	8.8	6.54	124
4	-270000	9.18	6.92	131
4	-280000	9.61	7.35	139
4	-290000	9.52	7.26	137
4	-300000	9.45	7.19	136
4	-310000	8.74	6.48	122
4	-320000	8.46	6.2	117
4	-330000	8.54	6.28	119
4	-340000	8.42	6.16	117
4	-350000	8.25	5.99	113
4	-360000	7.84	5.58	106
4	0	5.82	6.13	116
4	10000	6.19	6.52	123
4	20000	6.98	7.36	139
4	30000	6.81	7.18	136
4	40000	6.46	6.81	129
4	50000	6.35	6.69	126
4	60000	5.71	6.02	114
4	70000	5.66	5.96	113
4	80000	5.76	6.07	115
4	90000	5.91	6.23	118
4	100000	6.07	6.39	121
4	110000	6.1	6.43	122
4	120000	5.8	6.11	115
4	130000	5.93	6.25	118
4	140000	5.29	5.57	105
4	150000	4.99	5.28	99.8
4	160000	4.95	5.23	98.9
4	170000	5.07	5.36	101
4	180000	5.48	5.78	109
4	190000	4.84	5.13	96.9
4	200000	4.69	4.98	94
4	210000	5.13	5.42	102
4	220000	4.95	5.24	99
4	230000	4.47	4.76	89.9
4	240000	4.72	5.01	94.6
4	250000	4.59	4.87	92.1
4	260000	4.74	5.03	95.1
4	270000	4.49	4.77	90.2
4	280000	4.78	5.07	95.8
4	290000	4.71	4.99	94.3
4	300000	4.45	4.74	89.6
4	310000	4.22	4.51	85.2
4	320000	3.85	4.13	78.1
4	330000	3.87	4.15	78.5
4	340000	3.84	4.13	78
4	350000	3.91	4.2	79.4
4	360000	3.59	3.88	73.2
5	0	5.27	3.02	57.1
5	-10000	6.64	4.38	82.8
5	-20000	7.03	4.77	90.2
5	-30000	7.73	5.47	103
5	-40000	8.18	5.92	112
5	-50000	8.14	5.88	111
5	-60000	8.02	5.76	109
5	-70000	7.59	5.33	101
5	-80000	7.58	5.32	101
5	-90000	7.69	5.43	103
5	-100000	8.13	5.87	111
5	-110000	8.17	5.91	112
5	-120000	8.42	6.16	117
5	-130000	9.4	7.14	135
5	-140000	9.6	7.34	139
5	-150000	8.98	6.72	127
5	-160000	8.69	6.43	122
5	-170000	8.7	6.44	122
5	-180000	8.54	6.28	119
5	-190000	8.39	6.13	116
5	-200000	8.46	6.2	117
5	-210000	8.34	6.08	115
5	-220000	8.01	5.75	109
5	-230000	7.87	5.61	106
5	-240000	7.55	5.29	99.9
5	-250000	7.63	5.37	101
5	-260000	8.12	5.86	111
5	-270000	8.24	5.98	113
5	-280000	8.14	5.88	111
5	-290000	8.45	6.19	117
5	-300000	8.3	6.04	114
5	-310000	8.13	5.87	111
5	-320000	8.2	5.94	112
5	-330000	7.9	5.64	107
5	-340000	7.34	5.08	96
5	-350000	6.63	4.37	82.5
5	-360000	6.47	4.21	79.7
5	0	5.01	5.29	100
5	10000	4.95	5.24	99
5	20000	5.13	5.41	102
5	30000	4.81	5.09	96.2
5	40000	5.23	5.52	104
5	50000	5.17	5.46	103
5	60000	4.79	5.08	96
5	70000	4.62	4.91	92.8
5	80000	4.3	4.59	86.7
5	90000	3.76	4.05	76.5
5	100000	3.98	4.27	80.6
5	110000	4.05	4.33	81.9
5	120000	3.88	4.17	78.8
5	130000	4.1	4.39	82.9
5	140000	3.87	4.16	78.6
5	150000	3.49	3.78	71.4
5	160000	3.54	3.82	72.3
5	170000	3.87	4.15	78.5
5	180000	4.28	4.56	86.2
5	190000	3.49	3.78	71.4
5	200000	3.33	3.62	68.4
5	210000	3.66	3.95	74.7
5	220000	3.36	3.64	68.9
5	230000	2.9	3.19	60.3
5	240000	2.93	3.21	60.7
5	250000	3.14	3.43	64.8
5	260000	3.3	3.59	67.8
5	270000	3	3.29	62.1
5	280000	2.75	3.04	57.4
5	290000	2.59	2.87	54.3
5	300000	2.82	3.1	58.7
5	310000	2.77	3.05	57.7
5	320000	2.82	3.11	58.8
5	330000	3.07	3.36	63.5
5	340000	3.55	3.84	72.6
5	350000	3.47	3.76	71.1
5	360000	2.94	3.23	61
6	0	4.7	2.7	50.9
6	-10000	5.38	3.12	59
6	-20000	5.71	3.45	65.1
6	-30000	6.47	4.21	79.6
6	-40000	6.53	4.27	80.7
6	-50000	6.85	4.59	86.7
6	-60000	7.54	5.28	99.9
6	-70000	7.83	5.57	105
6	-80000	8.07	5.81	110
6	-90000	8.43	6.17	117
6	-100000	8.63	6.37	120
6	-110000	7.8	5.54	105
6	-120000	7.31	5.05	95.5
6	-130000	7.87	5.61	106
6	-140000	7.55	5.29	100
6	-150000	7.38	5.12	96.8
6	-160000	7.11	4.85	91.7
6	-170000	7.14	4.88	92.3
6	-180000	7.18	4.92	92.9
6	-190000	6.98	4.72	89.2
6	-200000	7.36	5.1	96.3
6	-210000	7.67	5.41	102
6	-220000	7.49	5.23	98.8
6	-230000	7.3	5.04	95.3
6	-240000	7.23	4.97	94
6	-250000	6.9	4.64	87.6
6	-260000	7	4.74	89.7
6	-270000	6.99	4.73	89.3
6	-280000	6.75	4.49	84.9
6	-290000	6.58	4.32	81.6
6	-300000	6.8	4.54	85.8
6	-310000	6.73	4.47	84.5
6	-320000	6.95	4.69	88.7
6	-330000	6.81	4.55	86.1
6	-340000	6.75	4.49	84.9
6	-350000	6.33	4.07	76.9
6	-360000	6.06	3.8	71.8
