rep_num	position	torque	torque_compensated	lbs_compensated
1	0	3.29	3.58	67.6
1	10000	4.61	4.89	92.5
1	20000	4.68	4.97	93.8
1	30000	4.97	5.25	99.3
1	40000	5.59	5.89	111
1	50000	6.23	6.57	124
1	60000	6.34	6.68	126
1	70000	6.4	6.75	128
1	80000	6.67	7.03	133
1	90000	7.22	7.61	144
1	100000	7.28	7.67	145
1	110000	7.42	7.82	148
1	120000	7.17	7.56	143
1	130000	7.01	7.39	140
1	140000	6.74	7.11	134
1	150000	6.79	7.16	135
1	160000	6.27	6.61	125
1	170000	6.71	7.07	134
1	180000	6.96	7.34	139
1	190000	6.63	6.98	132
1	200000	6.4	6.75	128
1	210000	6.69	7.06	133
1	220000	7.42	7.82	148
1	230000	7.1	7.49	141
1	240000	7.21	7.6	144
1	250000	7.94	8.36	158
1	260000	7.81	8.23	156
1	270000	7.31	7.7	146
1	280000	7.54	7.94	150
1	290000	8.11	8.55	162
1	300000	7.89	8.31	157
1	310000	8.03	8.47	160
1	320000	7.63	8.04	152
1	330000	7.66	8.07	153
1	340000	7.87	8.3	157
1	350000	7.7	8.12	153
1	360000	7.76	8.18	155
2	0	8.85	6.59	125
2	-10000	8.82	6.56	124
2	-20000	9.71	7.45	141
2	-30000	9.63	7.37	139
2	-40000	9.25	6.99	132
2	-50000	9.24	6.98	132
2	-60000	9.44	7.18	136
2	-70000	9.57	7.31	138
2	-80000	9.94	7.68	145
2	-90000	10.9	8.67	164
2	-100000	10.8	8.51	161
2	-110000	9.67	7.41	140
2	-120000	9.53	7.27	137
2	-130000	9.88	7.62	144
2	-140000	10	7.76	147
2	-150000	9.7	7.44	141
2	-160000	10.1	7.82	148
2	-170000	9.72	7.46	141
2	-180000	8.85	6.59	125
2	-190000	9.04	6.78	128
2	-200000	9.07	6.81	129
2	-210000	9.13	6.87	130
2	-220000	9.35	7.09	134
2	-230000	9.04	6.78	128
2	-240000	9.15	6.89	130
2	-250000	9.56	7.3	138
2	-260000	10.4	8.16	154
2	-270000	10.4	8.13	154
2	-280000	10	7.74	146
2	-290000	9.73	7.47	141
2	-300000	9.7	7.44	141
2	-310000	9.23	6.97	132
2	-320000	8.8	6.54	124
2	-330000	8.48	6.22	118
2	-340000	8.26	6	113
2	-350000	8.12	5.86	111
2	-360000	6.66	4.4	83.2
2	0	5.31	5.6	106
2	10000	4.87	5.16	97.5
2	20000	5.73	6.04	114
2	30000	6.02	6.34	120
2	40000	6.61	6.97	132
2	50000	7.26	7.65	145
2	60000	7.7	8.11	153
2	70000	7.58	7.99	151
2	80000	7.79	8.21	155
2	90000	8.46	8.92	169
2	100000	8.52	8.98	170
2	110000	8.6	9.07	171
2	120000	8.47	8.92	169
2	130000	8.13	8.57	162
2	140000	8.09	8.52	161
2	150000	7.8	8.22	155
2	160000	7.32	7.72	146
2	170000	7.71	8.13	154
2	180000	8.11	8.55	162
2	190000	7.67	8.09	153
2	200000	7.32	7.72	146
2	210000	7.89	8.31	157
2	220000	7.92	8.35	158
2	230000	7.63	8.04	152
2	240000	7.54	7.95	150
2	250000	7.99	8.42	159
2	260000	7.87	8.29	157
2	270000	7.14	7.53	142
2	280000	7.79	8.22	155
2	290000	8.08	8.51	161
2	300000	7.93	8.36	158
2	310000	7.99	8.42	159
2	320000	7.4	7.8	147
2	330000	7.71	8.13	154
2	340000	7.13	7.51	142
2	350000	6.86	7.23	137
2	360000	6.85	7.22	136
3	0	8.61	6.35	120
3	-10000	9.55	7.29	138
3	-20000	9.87	7.61	144
3	-30000	10.2	7.91	150
3	-40000	9.97	7.71	146
3	-50000	10.1	7.85	148
3	-60000	10.7	8.42	159
3	-70000	10.9	8.65	163
3	-80000	11.2	8.96	169
3	-90000	12.1	9.86	186
3	-100000	12	9.69	183
3	-110000	11.4	9.11	172
3	-120000	11.4	9.18	173
3	-130000	11.5	9.22	174
3	-140000	11.3	9.01	170
3	-150000	10.5	8.25	156
3	-160000	10.8	8.58	162
3	-170000	10.6	8.31	157
3	-180000	9.74	7.48	141
3	-190000	9.52	7.26	137
3	-200000	9.67	7.41	140
3	-210000	10	7.76	147
3	-220000	10.7	8.46	160
3	-230000	10.2	7.98	151
3	-240000	11.1	8.85	167
3	-250000	11.6	9.32	176
3	-260000	11.9	9.62	182
3	-270000	11.1	8.88	168
3	-280000	11.3	9.09	172
3	-290000	11.2	8.92	169
3	-300000	11.7	9.44	178
3	-310000	11.6	9.32	176
3	-320000	11.3	9	170
3	-330000	11.2	8.98	170
3	-340000	10.5	8.25	156
3	-350000	10.2	7.93	150
3	-360000	8.8	6.54	124
3	0	7.31	7.71	146
3	10000	5.83	6.15	116
3	20000	6.14	6.48	122
3	30000	6.33	6.67	126
3	40000	6.15	6.48	122
3	50000	6.31	6.65	126
3	60000	6.13	6.46	122
3	70000	5.44	5.74	108
3	80000	5.82	6.13	116
3	90000	6.73	7.09	134
3	100000	7.08	7.46	141
3	110000	7.24	7.63	144
3	120000	7.63	8.05	152
3	130000	7.27	7.66	145
3	140000	7.09	7.48	141
3	150000	6.61	6.97	132
3	160000	6.13	6.47	122
3	170000	6.48	6.83	129
3	180000	6.85	7.22	136
3	190000	6.37	6.72	127
3	200000	6.19	6.52	123
3	210000	6.33	6.67	126
3	220000	6.7	7.07	134
3	230000	6.32	6.66	126
3	240000	5.59	5.89	111
3	250000	6.34	6.68	126
3	260000	6.41	6.76	128
3	270000	6.55	6.9	130
3	280000	6.09	6.42	121
3	290000	6.56	6.92	131
3	300000	6.12	6.45	122
3	310000	5.78	6.1	115
3	320000	5.48	5.78	109
3	330000	6	6.32	120
3	340000	5.14	5.43	103
3	350000	5.67	5.98	113
3	360000	5.63	5.93	112
4	0	7.25	4.99	94.4
4	-10000	9.52	7.26	137
4	-20000	10.1	7.89	149
4	-30000	9.89	7.63	144
4	-40000	9.64	7.38	139
4	-50000	9.68	7.42	140
4	-60000	9.88	7.62	144
4	-70000	9.95	7.69	145
4	-80000	10.6	8.38	158
4	-90000	11.4	9.13	172
4	-100000	11	8.76	165
4	-110000	10.7	8.44	160
4	-120000	10.2	7.97	151
4	-130000	10.4	8.16	154
4	-140000	10.7	8.42	159
4	-150000	9.88	7.62	144
4	-160000	9.98	7.72	146
4	-170000	9.76	7.5	142
4	-180000	9.74	7.48	141
4	-190000	9.88	7.62	144
4	-200000	9.84	7.58	143
4	-210000	9.46	7.2	136
4	-220000	9.75	7.49	141
4	-230000	9.87	7.61	144
4	-240000	9.9	7.64	144
4	-250000	9.87	7.61	144
4	-260000	9.96	7.7	146
4	-270000	9.84	7.58	143
4	-280000	9.47	7.21	136
4	-290000	9.43	7.17	136
4	-300000	9.69	7.43	141
4	-310000	9.38	7.12	135
4	-320000	9.23	6.97	132
4	-330000	9.21	6.95	131
4	-340000	8.62	6.36	120
4	-350000	8.16	5.9	111
4	-360000	8.05	5.79	109
4	0	6.65	7.01	133
4	10000	6.51	6.86	130
4	20000	6.1	6.43	121
4	30000	5.77	6.09	115
4	40000	6.01	6.33	120
4	50000	5.92	6.24	118
4	60000	6.12	6.45	122
4	70000	5.66	5.97	113
4	80000	5.08	5.37	101
4	90000	5.81	6.13	116
4	100000	5.72	6.03	114
4	110000	5.48	5.78	109
4	120000	5.03	5.32	100
4	130000	5.12	5.4	102
4	140000	5.47	5.76	109
4	150000	5.37	5.66	107
4	160000	4.61	4.9	92.6
4	170000	4.89	5.18	97.8
4	180000	5.17	5.45	103
4	190000	4.24	4.52	85.5
4	200000	3.92	4.21	79.6
4	210000	4.64	4.92	93.1
4	220000	5.01	5.3	100
4	230000	4.34	4.63	87.5
4	240000	4.25	4.53	85.7
4	250000	5.13	5.42	102
4	260000	4.96	5.24	99.1
4	270000	4.13	4.41	83.4
4	280000	4.28	4.57	86.4
4	290000	4.54	4.82	91.1
4	300000	4.41	4.7	88.8
4	310000	4.26	4.55	86
4	320000	3.76	4.04	76.4
4	330000	4.17	4.46	84.3
4	340000	3.24	3.52	66.6
4	350000	3.52	3.81	71.9
4	360000	3.62	3.9	73.7
5	0	5.09	2.92	55.1
5	-10000	6.61	4.35	82.3
5	-20000	7.27	5.01	94.7
5	-30000	7.43	5.17	97.6
5	-40000	7.4	5.14	97.2
5	-50000	8.86	6.6	125
5	-60000	9.9	7.64	144
5	-70000	9.32	7.06	133
5	-80000	9.16	6.9	130
5	-90000	10.4	8.14	154
5	-100000	10.4	8.14	154
5	-110000	9.49	7.23	137
5	-120000	9.8	7.54	143
5	-130000	10.3	8.01	151
5	-140000	9.9	7.64	144
5	-150000	8.93	6.67	126
5	-160000	9.15	6.89	130
5	-170000	9.13	6.87	130
5	-180000	9.31	7.05	133
5	-190000	8.95	6.69	126
5	-200000	8.55	6.29	119
5	-210000	8.72	6.46	122
5	-220000	9.1	6.84	129
5	-230000	8.51	6.25	118
5	-240000	8.32	6.06	115
5	-250000	8.35	6.09	115
5	-260000	8.9	6.64	125
5	-270000	9.14	6.88	130
5	-280000	9.39	7.13	135
5	-290000	9.09	6.83	129
5	-300000	9.19	6.93	131
5	-310000	9.04	6.78	128
5	-320000	8.08	5.82	110
5	-330000	7.54	5.28	99.8
5	-340000	7.34	5.08	96.1
5	-350000	7.1	4.84	91.4
5	-360000	7.14	4.88	92.2
5	0	5.84	6.15	116
5	10000	5.05	5.34	101
5	20000	4.75	5.04	95.2
5	30000	4.39	4.68	88.4
5	40000	4.43	4.71	89.1
5	50000	4.41	4.69	88.7
5	60000	4.34	4.62	87.4
5	70000	3.6	3.89	73.5
5	80000	3.23	3.51	66.4
5	90000	3.44	3.73	70.5
5	100000	4.21	4.5	85
5	110000	3.99	4.28	80.9
5	120000	3.94	4.23	79.9
5	130000	4.39	4.68	88.4
5	140000	4.03	4.31	81.5
5	150000	3.8	4.08	77.2
5	160000	3.21	3.5	66.1
5	170000	3.66	3.94	74.5
5	180000	3.82	4.11	77.7
5	190000	3.44	3.73	70.4
5	200000	3.61	3.89	73.6
5	210000	3.87	4.16	78.6
5	220000	4.03	4.32	81.6
5	230000	3.6	3.88	73.4
5	240000	3.07	3.36	63.5
5	250000	2.99	3.27	61.9
5	260000	3.15	3.43	64.9
5	270000	2.74	3.03	57.2
5	280000	2.64	2.93	55.4
5	290000	2.99	3.28	62
5	300000	2.78	3.07	58
5	310000	2.67	2.96	55.9
5	320000	2	2.28	43.1
5	330000	2.43	2.72	51.4
5	340000	2.13	2.42	45.7
5	350000	1.97	2.26	42.6
5	360000	1.84	2.13	40.2
6	0	3.3	1.89	35.8
6	-10000	5.88	3.62	68.3
6	-20000	5.95	3.69	69.7
6	-30000	6.5	4.24	80.2
6	-40000	6.79	4.53	85.7
6	-50000	7.09	4.83	91.2
6	-60000	7.36	5.1	96.4
6	-70000	6.5	4.24	80.1
6	-80000	6.45	4.19	79.3
6	-90000	7.46	5.2	98.3
6	-100000	7.49	5.23	98.9
6	-110000	7.37	5.11	96.6
6	-120000	8.25	5.99	113
6	-130000	8.72	6.46	122
6	-140000	8.37	6.11	116
6	-150000	7.51	5.25	99.3
6	-160000	8.01	5.75	109
6	-170000	8.3	6.04	114
6	-180000	8.27	6.01	114
6	-190000	8.04	5.78	109
6	-200000	8.28	6.02	114
6	-210000	8.34	6.08	115
6	-220000	8.53	6.27	119
6	-230000	7.59	5.33	101
6	-240000	7.61	5.35	101
6	-250000	8.09	5.83	110
6	-260000	8.11	5.85	111
6	-270000	7.21	4.95	93.5
6	-280000	6.88	4.62	87.3
6	-290000	6.95	4.69	88.6
6	-300000	7.16	4.9	92.7
6	-310000	6.84	4.58	86.6
6	-320000	6.76	4.5	85.1
6	-330000	6.86	4.6	86.8
6	-340000	6.47	4.21	79.6
6	-350000	5.87	3.61	68.2
6	-360000	5.32	3.06	57.7
