rep_num	position	torque	torque_compensated	lbs_compensated
1	0	3.16	3.45	65.1
1	10000	5.52	5.82	110
1	20000	6.46	6.81	129
1	30000	5.55	5.85	110
1	40000	5.84	6.15	116
1	50000	6.77	7.13	135
1	60000	6.86	7.23	137
1	70000	6.06	6.38	121
1	80000	5.82	6.14	116
1	90000	6.4	6.75	127
1	100000	6.39	6.74	127
1	110000	5.71	6.02	114
1	120000	5.97	6.29	119
1	130000	6.96	7.34	139
1	140000	7.36	7.76	147
1	150000	7.05	7.43	140
1	160000	7.15	7.54	142
1	170000	8.19	8.63	163
1	180000	8.75	9.23	174
1	190000	7.81	8.24	156
1	200000	7.61	8.02	152
1	210000	8.69	9.16	173
1	220000	8.65	9.11	172
1	230000	7.69	8.11	153
1	240000	7.9	8.32	157
1	250000	8.95	9.44	178
1	260000	8.86	9.33	176
1	270000	7.7	8.11	153
1	280000	8.05	8.48	160
1	290000	9.38	9.89	187
1	300000	9.01	9.5	179
1	310000	7.82	8.25	156
1	320000	7.77	8.19	155
1	330000	9.08	9.57	181
1	340000	8.59	9.06	171
1	350000	6.31	6.65	126
1	360000	6.64	7	132
2	0	7.81	5.55	105
2	-10000	9.06	6.8	128
2	-20000	10	7.77	147
2	-30000	10.3	8	151
2	-40000	9.09	6.83	129
2	-50000	9.4	7.14	135
2	-60000	10.9	8.65	163
2	-70000	10.9	8.65	164
2	-80000	9.86	7.6	144
2	-90000	10.3	7.99	151
2	-100000	10.8	8.55	162
2	-110000	10.7	8.45	160
2	-120000	10.7	8.43	159
2	-130000	11.1	8.81	166
2	-140000	10.9	8.63	163
2	-150000	10.4	8.14	154
2	-160000	9.94	7.68	145
2	-170000	10	7.75	147
2	-180000	10.4	8.13	154
2	-190000	10	7.74	146
2	-200000	9.52	7.26	137
2	-210000	10.4	8.12	154
2	-220000	11.5	9.28	175
2	-230000	11.1	8.79	166
2	-240000	10.1	7.89	149
2	-250000	10.1	7.89	149
2	-260000	11.2	8.9	168
2	-270000	10.7	8.4	159
2	-280000	9.26	7	132
2	-290000	9.69	7.43	140
2	-300000	10.2	7.98	151
2	-310000	9.69	7.43	140
2	-320000	8.62	6.36	120
2	-330000	8.9	6.64	125
2	-340000	9.09	6.83	129
2	-350000	9.43	7.17	136
2	-360000	8.21	5.95	113
2	0	6.48	6.83	129
2	10000	6.95	7.33	138
2	20000	7.75	8.17	154
2	30000	6.92	7.29	138
2	40000	6.85	7.22	136
2	50000	7.71	8.12	154
2	60000	7.42	7.82	148
2	70000	6.64	7	132
2	80000	7.33	7.73	146
2	90000	7.96	8.39	159
2	100000	7.55	7.96	150
2	110000	6.33	6.67	126
2	120000	6.85	7.22	136
2	130000	7.72	8.13	154
2	140000	7.47	7.87	149
2	150000	6.69	7.05	133
2	160000	6.89	7.27	137
2	170000	7.69	8.1	153
2	180000	7.57	7.98	151
2	190000	6.51	6.86	130
2	200000	6.7	7.06	133
2	210000	7.92	8.34	158
2	220000	7.87	8.3	157
2	230000	6.41	6.75	128
2	240000	6.78	7.15	135
2	250000	7.43	7.83	148
2	260000	7.16	7.55	143
2	270000	6.66	7.02	133
2	280000	7.28	7.67	145
2	290000	8.19	8.64	163
2	300000	7.26	7.65	145
2	310000	6.44	6.79	128
2	320000	7.15	7.54	143
2	330000	8.08	8.52	161
2	340000	7.87	8.3	157
2	350000	6.1	6.43	122
2	360000	6.5	6.86	130
3	0	7.53	5.27	99.5
3	-10000	8.65	6.39	121
3	-20000	10.5	8.27	156
3	-30000	9.95	7.69	145
3	-40000	8.22	5.96	113
3	-50000	9.06	6.8	129
3	-60000	10.3	8.03	152
3	-70000	10.1	7.82	148
3	-80000	9.17	6.91	131
3	-90000	10.2	7.9	149
3	-100000	11.8	9.59	181
3	-110000	11.6	9.39	177
3	-120000	11.1	8.82	167
3	-130000	11	8.7	164
3	-140000	11.4	9.1	172
3	-150000	10.1	7.85	148
3	-160000	10	7.77	147
3	-170000	10.1	7.85	148
3	-180000	10.9	8.67	164
3	-190000	11.1	8.79	166
3	-200000	11.2	8.97	169
3	-210000	11.6	9.3	176
3	-220000	11.7	9.44	179
3	-230000	11.2	8.9	168
3	-240000	9.82	7.56	143
3	-250000	10.2	7.93	150
3	-260000	11.2	8.91	168
3	-270000	11	8.71	165
3	-280000	9.88	7.62	144
3	-290000	10.1	7.82	148
3	-300000	11.1	8.88	168
3	-310000	11	8.76	165
3	-320000	10.3	8.07	153
3	-330000	10.5	8.22	155
3	-340000	10.3	8.03	152
3	-350000	10	7.76	147
3	-360000	8.15	5.89	111
3	0	6.08	6.4	121
3	10000	5.78	6.1	115
3	20000	6.61	6.97	132
3	30000	5.94	6.26	118
3	40000	6.79	7.16	135
3	50000	7.32	7.71	146
3	60000	7.21	7.6	144
3	70000	6.03	6.36	120
3	80000	6.13	6.46	122
3	90000	7.18	7.57	143
3	100000	6.67	7.03	133
3	110000	6.42	6.77	128
3	120000	6.88	7.26	137
3	130000	7.78	8.2	155
3	140000	7.34	7.74	146
3	150000	6.45	6.8	128
3	160000	6.68	7.05	133
3	170000	6.86	7.23	137
3	180000	6.73	7.09	134
3	190000	5.3	5.58	105
3	200000	5.17	5.45	103
3	210000	6.5	6.85	130
3	220000	6.6	6.96	132
3	230000	5.51	5.81	110
3	240000	5.85	6.16	116
3	250000	6.86	7.24	137
3	260000	6.18	6.51	123
3	270000	5.15	5.43	103
3	280000	5.64	5.95	112
3	290000	6.89	7.26	137
3	300000	6.61	6.97	132
3	310000	6.16	6.49	123
3	320000	6.29	6.63	125
3	330000	7.01	7.39	140
3	340000	6.51	6.86	130
3	350000	5.29	5.58	105
3	360000	5.63	5.93	112
4	0	6.69	4.43	83.7
4	-10000	8.1	5.84	110
4	-20000	9.99	7.73	146
4	-30000	10.6	8.34	158
4	-40000	9.86	7.6	144
4	-50000	10.1	7.86	149
4	-60000	11	8.75	165
4	-70000	10.9	8.64	163
4	-80000	9.81	7.55	143
4	-90000	10.4	8.14	154
4	-100000	10.3	7.99	151
4	-110000	9.81	7.55	143
4	-120000	10.2	7.93	150
4	-130000	10.8	8.52	161
4	-140000	10.6	8.38	158
4	-150000	10.3	8.01	151
4	-160000	10.4	8.15	154
4	-170000	10.8	8.53	161
4	-180000	11.2	8.93	169
4	-190000	10.5	8.26	156
4	-200000	8.88	6.62	125
4	-210000	9.57	7.31	138
4	-220000	10.7	8.42	159
4	-230000	10.5	8.21	155
4	-240000	9.93	7.67	145
4	-250000	10.6	8.35	158
4	-260000	12	9.75	184
4	-270000	11.3	9.06	171
4	-280000	10.7	8.45	160
4	-290000	10.3	8.06	152
4	-300000	10.8	8.56	162
4	-310000	10.5	8.24	156
4	-320000	9.5	7.24	137
4	-330000	9.32	7.06	133
4	-340000	9.03	6.77	128
4	-350000	8.85	6.59	125
4	-360000	8.12	5.86	111
4	0	6.45	6.8	129
4	10000	5.71	6.02	114
4	20000	6.72	7.08	134
4	30000	5.38	5.68	107
4	40000	6.08	6.41	121
4	50000	6.18	6.52	123
4	60000	4.66	4.95	93.5
4	70000	2.17	2.46	46.5
4	80000	1.16	1.45	27.4
4	90000	1.71	2	37.8
4	100000	2.35	2.64	49.8
4	110000	2.75	3.04	57.4
4	120000	4.68	4.97	93.9
4	130000	6.41	6.76	128
4	140000	6.72	7.08	134
4	150000	5.8	6.11	115
4	160000	5.57	5.87	111
4	170000	6.15	6.49	123
4	180000	6.19	6.52	123
4	190000	4.99	5.28	99.8
4	200000	5.26	5.55	105
4	210000	6.16	6.5	123
4	220000	6.08	6.41	121
4	230000	4.98	5.26	99.4
4	240000	5.12	5.4	102
4	250000	5.81	6.13	116
4	260000	5.29	5.58	105
4	270000	4.28	4.56	86.3
4	280000	4.66	4.95	93.5
4	290000	5.55	5.85	110
4	300000	5.43	5.72	108
4	310000	4.64	4.93	93.2
4	320000	4.78	5.07	95.7
4	330000	4.91	5.19	98.2
4	340000	4.45	4.73	89.4
4	350000	3.37	3.65	69
4	360000	3.76	4.04	76.4
5	0	4.98	2.86	54
5	-10000	7.16	4.9	92.6
5	-20000	7.48	5.22	98.7
5	-30000	7.83	5.57	105
5	-40000	7.6	5.34	101
5	-50000	8.87	6.61	125
5	-60000	10.6	8.3	157
5	-70000	10.5	8.24	156
5	-80000	9.88	7.62	144
5	-90000	10.8	8.54	161
5	-100000	11.6	9.35	177
5	-110000	10.8	8.51	161
5	-120000	10.1	7.86	149
5	-130000	10.6	8.35	158
5	-140000	10.6	8.38	158
5	-150000	10	7.74	146
5	-160000	9.11	6.85	130
5	-170000	9.2	6.94	131
5	-180000	9.81	7.55	143
5	-190000	8.91	6.65	126
5	-200000	8.67	6.41	121
5	-210000	9.51	7.25	137
5	-220000	10.6	8.29	157
5	-230000	10.1	7.85	148
5	-240000	9.14	6.88	130
5	-250000	9.57	7.31	138
5	-260000	10.4	8.18	155
5	-270000	9.85	7.59	143
5	-280000	8.56	6.3	119
5	-290000	8.6	6.34	120
5	-300000	9.25	6.99	132
5	-310000	8.57	6.31	119
5	-320000	7.7	5.44	103
5	-330000	8.18	5.92	112
5	-340000	7.82	5.56	105
5	-350000	7.36	5.1	96.4
5	-360000	6.91	4.65	87.9
5	0	5.11	5.4	102
5	10000	4.67	4.96	93.7
5	20000	5.06	5.34	101
5	30000	4.13	4.42	83.5
5	40000	4.85	5.14	97.1
5	50000	5.31	5.6	106
5	60000	5.39	5.68	107
5	70000	4.03	4.31	81.5
5	80000	4.12	4.41	83.3
5	90000	5	5.28	99.8
5	100000	4.49	4.77	90.2
5	110000	3.45	3.73	70.5
5	120000	3.68	3.96	74.9
5	130000	4.53	4.82	91.1
5	140000	4.29	4.57	86.4
5	150000	3.35	3.63	68.6
5	160000	3.38	3.66	69.2
5	170000	4.04	4.33	81.9
5	180000	3.89	4.18	79
5	190000	2.68	2.97	56.1
5	200000	2.8	3.08	58.3
5	210000	3.41	3.7	69.9
5	220000	2.81	3.09	58.4
5	230000	2.37	2.66	50.2
5	240000	2.59	2.88	54.4
5	250000	3.78	4.07	76.9
5	260000	3.97	4.25	80.4
5	270000	2.62	2.91	54.9
5	280000	3.07	3.36	63.5
5	290000	3.78	4.07	76.9
5	300000	2.98	3.27	61.7
5	310000	2.4	2.68	50.7
5	320000	1.82	2.11	39.8
5	330000	2.75	3.03	57.3
5	340000	2.73	3.02	57
5	350000	1.88	2.17	41
5	360000	2.39	2.68	50.7
6	0	3.55	2.04	38.5
6	-10000	5.93	3.67	69.4
6	-20000	8.17	5.91	112
6	-30000	7.77	5.51	104
6	-40000	6.44	4.18	79
6	-50000	6.65	4.39	82.9
6	-60000	7.31	5.05	95.5
6	-70000	6.71	4.45	84.1
6	-80000	5.99	3.73	70.6
6	-90000	7.62	5.36	101
6	-100000	8.81	6.55	124
6	-110000	8.47	6.21	117
6	-120000	7.91	5.65	107
6	-130000	8.27	6.01	114
6	-140000	9.1	6.84	129
6	-150000	8.47	6.21	117
6	-160000	7.65	5.39	102
6	-170000	7.76	5.5	104
6	-180000	8.24	5.98	113
6	-190000	7.75	5.49	104
6	-200000	7.32	5.06	95.6
6	-210000	7.45	5.19	98.1
6	-220000	7.87	5.61	106
6	-230000	7.23	4.97	93.9
6	-240000	6.39	4.13	78
6	-250000	6.93	4.67	88.3
6	-260000	7.7	5.44	103
6	-270000	7.06	4.8	90.8
6	-280000	6.26	4	75.5
6	-290000	6.66	4.4	83.2
6	-300000	7.69	5.43	103
6	-310000	7.5	5.24	99.1
6	-320000	6.32	4.06	76.8
6	-330000	6.77	4.51	85.3
6	-340000	6.78	4.52	85.5
6	-350000	6.48	4.22	79.7
6	-360000	5.52	3.26	61.7
