rep_num	position	torque	torque_compensated	lbs_compensated
1	0	2.47	2.76	52.2
1	10000	4.32	4.61	87
1	20000	4.48	4.77	90.2
1	30000	4.57	4.86	91.8
1	40000	5.22	5.5	104
1	50000	5.8	6.11	116
1	60000	6.23	6.56	124
1	70000	6.46	6.81	129
1	80000	7.13	7.52	142
1	90000	7.41	7.81	148
1	100000	7.42	7.82	148
1	110000	7.3	7.7	145
1	120000	7.46	7.87	149
1	130000	6.76	7.12	135
1	140000	6.09	6.42	121
1	150000	6.23	6.56	124
1	160000	6.77	7.14	135
1	170000	6.82	7.19	136
1	180000	6.91	7.28	138
1	190000	7	7.38	139
1	200000	6.98	7.36	139
1	210000	7.43	7.84	148
1	220000	7.93	8.36	158
1	230000	7.71	8.13	154
1	240000	8.07	8.5	161
1	250000	8.33	8.78	166
1	260000	7.73	8.15	154
1	270000	7.59	8	151
1	280000	8.19	8.64	163
1	290000	7.99	8.42	159
1	300000	7.94	8.37	158
1	310000	8.25	8.69	164
1	320000	8.26	8.71	165
1	330000	8.8	9.27	175
1	340000	8.1	8.53	161
1	350000	7.79	8.21	155
1	360000	7.48	7.88	149
2	0	9.09	6.83	129
2	-10000	9.52	7.26	137
2	-20000	10	7.79	147
2	-30000	10.3	7.99	151
2	-40000	9.88	7.62	144
2	-50000	9.75	7.49	142
2	-60000	9.69	7.43	140
2	-70000	9.81	7.55	143
2	-80000	9.36	7.1	134
2	-90000	9.94	7.68	145
2	-100000	10.2	7.9	149
2	-110000	10.5	8.19	155
2	-120000	11.1	8.86	167
2	-130000	11	8.76	166
2	-140000	11.4	9.1	172
2	-150000	11.7	9.48	179
2	-160000	12.3	10	190
2	-170000	12.1	9.82	186
2	-180000	11.9	9.63	182
2	-190000	11.5	9.25	175
2	-200000	10.6	8.38	158
2	-210000	9.96	7.7	145
2	-220000	9.42	7.16	135
2	-230000	8.47	6.21	117
2	-240000	7.51	5.25	99.2
2	-250000	7.47	5.21	98.5
2	-260000	7.77	5.51	104
2	-270000	8.1	5.84	110
2	-280000	8.16	5.9	112
2	-290000	7.99	5.73	108
2	-300000	8.68	6.42	121
2	-310000	9.3	7.04	133
2	-320000	8.87	6.61	125
2	-330000	8.73	6.47	122
2	-340000	8.5	6.24	118
2	-350000	8.89	6.63	125
2	-360000	8.6	6.34	120
2	0	7.5	7.9	149
2	10000	7.76	8.18	155
2	20000	6.73	7.1	134
2	30000	6.34	6.68	126
2	40000	7.23	7.62	144
2	50000	7.14	7.52	142
2	60000	6.72	7.09	134
2	70000	6.01	6.33	120
2	80000	6.58	6.94	131
2	90000	6.81	7.18	136
2	100000	6.61	6.97	132
2	110000	7.06	7.45	141
2	120000	7.64	8.05	152
2	130000	7.44	7.84	148
2	140000	6.63	6.98	132
2	150000	6.62	6.98	132
2	160000	6.14	6.47	122
2	170000	6.59	6.95	131
2	180000	6.48	6.83	129
2	190000	6.45	6.8	128
2	200000	6.59	6.94	131
2	210000	6.82	7.19	136
2	220000	7.3	7.69	145
2	230000	7.25	7.64	144
2	240000	7.69	8.1	153
2	250000	8.2	8.64	163
2	260000	7.73	8.15	154
2	270000	7.45	7.85	148
2	280000	7.74	8.16	154
2	290000	7.83	8.26	156
2	300000	7.85	8.27	156
2	310000	7.9	8.33	157
2	320000	8.26	8.71	165
2	330000	8.33	8.78	166
2	340000	7.99	8.42	159
2	350000	7.28	7.68	145
2	360000	7.04	7.43	140
3	0	8.76	6.5	123
3	-10000	8.75	6.49	123
3	-20000	8.96	6.7	127
3	-30000	8.88	6.62	125
3	-40000	8.35	6.09	115
3	-50000	8.59	6.33	120
3	-60000	8.68	6.42	121
3	-70000	9.36	7.1	134
3	-80000	9.35	7.09	134
3	-90000	9.77	7.51	142
3	-100000	9.84	7.58	143
3	-110000	9.75	7.49	142
3	-120000	10.7	8.44	160
3	-130000	9.99	7.73	146
3	-140000	10.3	8.05	152
3	-150000	11	8.77	166
3	-160000	10.8	8.52	161
3	-170000	10	7.75	146
3	-180000	10.4	8.13	154
3	-190000	11.2	8.93	169
3	-200000	11.7	9.44	178
3	-210000	12.3	10	189
3	-220000	12.5	10.2	193
3	-230000	11.8	9.57	181
3	-240000	11.1	8.86	168
3	-250000	11.1	8.85	167
3	-260000	11.6	9.39	177
3	-270000	11.7	9.47	179
3	-280000	11.4	9.18	173
3	-290000	10.9	8.67	164
3	-300000	10.8	8.5	161
3	-310000	10.5	8.2	155
3	-320000	9.76	7.5	142
3	-330000	10.7	8.41	159
3	-340000	10.1	7.85	148
3	-350000	10.2	7.96	150
3	-360000	9.27	7.01	132
3	0	7.46	7.87	149
3	10000	6.11	6.44	122
3	20000	6.09	6.42	121
3	30000	6.54	6.9	130
3	40000	6.61	6.97	132
3	50000	6.15	6.48	123
3	60000	6.06	6.39	121
3	70000	5.98	6.31	119
3	80000	6.75	7.12	135
3	90000	6.67	7.03	133
3	100000	6.21	6.54	124
3	110000	6.71	7.08	134
3	120000	7.05	7.43	140
3	130000	6.88	7.25	137
3	140000	7.11	7.49	142
3	150000	7.25	7.65	144
3	160000	7.31	7.71	146
3	170000	7.01	7.38	140
3	180000	6.96	7.34	139
3	190000	6.95	7.32	138
3	200000	6.76	7.13	135
3	210000	7.07	7.45	141
3	220000	7.56	7.97	151
3	230000	6.83	7.2	136
3	240000	7.02	7.4	140
3	250000	6.93	7.3	138
3	260000	6.61	6.97	132
3	270000	6.3	6.64	125
3	280000	7.13	7.52	142
3	290000	6.97	7.35	139
3	300000	7.09	7.48	141
3	310000	6.93	7.3	138
3	320000	6.67	7.03	133
3	330000	6.51	6.87	130
3	340000	5.96	6.29	119
3	350000	5.4	5.69	108
3	360000	5.34	5.63	106
4	0	7.05	4.79	90.5
4	-10000	7.79	5.53	105
4	-20000	8.52	6.26	118
4	-30000	8.42	6.16	116
4	-40000	8.26	6	113
4	-50000	8.28	6.02	114
4	-60000	9.23	6.97	132
4	-70000	8.8	6.54	124
4	-80000	8.96	6.7	127
4	-90000	9.83	7.57	143
4	-100000	9.95	7.69	145
4	-110000	9.99	7.73	146
4	-120000	9.86	7.6	144
4	-130000	8.86	6.6	125
4	-140000	9.99	7.73	146
4	-150000	10.9	8.6	163
4	-160000	11.4	9.19	174
4	-170000	11.1	8.87	168
4	-180000	10.7	8.45	160
4	-190000	10.7	8.42	159
4	-200000	10.6	8.31	157
4	-210000	9.14	6.88	130
4	-220000	8.87	6.61	125
4	-230000	9.26	7	132
4	-240000	9.07	6.81	129
4	-250000	9.16	6.9	131
4	-260000	9.33	7.07	134
4	-270000	9.52	7.26	137
4	-280000	8.99	6.73	127
4	-290000	8.45	6.19	117
4	-300000	8.13	5.87	111
4	-310000	8.23	5.97	113
4	-320000	7.38	5.12	96.7
4	-330000	7.23	4.97	94
4	-340000	6.95	4.69	88.6
4	-350000	7.21	4.95	93.6
4	-360000	6.85	4.59	86.7
4	0	5.72	6.03	114
4	10000	5.28	5.57	105
4	20000	4.6	4.89	92.4
4	30000	4.98	5.27	99.6
4	40000	4.89	5.18	97.8
4	50000	5.08	5.37	102
4	60000	5	5.28	99.9
4	70000	5.65	5.96	113
4	80000	6.14	6.47	122
4	90000	5.8	6.12	116
4	100000	5.34	5.63	106
4	110000	5.32	5.61	106
4	120000	5.93	6.26	118
4	130000	5.91	6.23	118
4	140000	6.09	6.41	121
4	150000	5.78	6.09	115
4	160000	5.25	5.54	105
4	170000	5.14	5.43	103
4	180000	4.7	4.99	94.2
4	190000	4.89	5.18	97.8
4	200000	5.17	5.46	103
4	210000	5.34	5.63	106
4	220000	5.49	5.78	109
4	230000	5.53	5.83	110
4	240000	5.81	6.12	116
4	250000	5.79	6.1	115
4	260000	4.9	5.19	98
4	270000	5.1	5.39	102
4	280000	5.65	5.96	113
4	290000	6.25	6.59	124
4	300000	6.2	6.54	124
4	310000	5.91	6.23	118
4	320000	6	6.32	119
4	330000	5.63	5.94	112
4	340000	5.07	5.36	101
4	350000	4.47	4.76	89.9
4	360000	5.17	5.45	103
5	0	6.52	4.26	80.5
5	-10000	8.37	6.11	115
5	-20000	9	6.74	127
5	-30000	8.51	6.25	118
5	-40000	7.91	5.65	107
5	-50000	7.35	5.09	96.3
5	-60000	7.91	5.65	107
5	-70000	8.19	5.93	112
5	-80000	7.96	5.7	108
5	-90000	8.54	6.28	119
5	-100000	8.12	5.86	111
5	-110000	7.93	5.67	107
5	-120000	8.33	6.07	115
5	-130000	7.86	5.6	106
5	-140000	7.71	5.45	103
5	-150000	8	5.74	109
5	-160000	8.34	6.08	115
5	-170000	8.26	6	113
5	-180000	8.28	6.02	114
5	-190000	8.13	5.87	111
5	-200000	8.01	5.75	109
5	-210000	7.94	5.68	107
5	-220000	8.27	6.01	114
5	-230000	8.55	6.29	119
5	-240000	7.92	5.66	107
5	-250000	7.86	5.6	106
5	-260000	8.51	6.25	118
5	-270000	8.36	6.1	115
5	-280000	7.33	5.07	95.7
5	-290000	7.02	4.76	90
5	-300000	6.73	4.47	84.4
5	-310000	6.9	4.64	87.6
5	-320000	6.42	4.16	78.5
5	-330000	6.29	4.03	76.1
5	-340000	6	3.74	70.7
5	-350000	6.38	4.12	77.9
5	-360000	5.43	3.17	59.9
5	0	4.76	5.04	95.3
5	10000	5.79	6.11	115
5	20000	5.36	5.65	107
5	30000	5.14	5.42	102
5	40000	4.88	5.17	97.7
5	50000	5.09	5.37	102
5	60000	5.21	5.49	104
5	70000	5.24	5.52	104
5	80000	5.12	5.4	102
5	90000	5.07	5.36	101
5	100000	4.72	5.01	94.7
5	110000	4.78	5.06	95.7
5	120000	4.86	5.15	97.3
5	130000	4.84	5.13	97
5	140000	4.84	5.12	96.8
5	150000	4.88	5.17	97.7
5	160000	4.98	5.27	99.6
5	170000	4.74	5.03	95
5	180000	4.85	5.14	97.1
5	190000	4.61	4.89	92.5
5	200000	4.46	4.75	89.8
5	210000	4.26	4.54	85.9
5	220000	4.39	4.67	88.3
5	230000	4.3	4.58	86.6
5	240000	4.64	4.93	93.1
5	250000	5.45	5.74	109
5	260000	5.5	5.8	110
5	270000	5.21	5.5	104
5	280000	5.47	5.76	109
5	290000	4.86	5.14	97.2
5	300000	4.65	4.94	93.3
5	310000	4.65	4.94	93.3
5	320000	4.72	5.01	94.7
5	330000	4.83	5.12	96.8
5	340000	4.85	5.13	97
5	350000	4.62	4.91	92.8
5	360000	4.56	4.84	91.6
6	0	5.9	3.64	68.7
6	-10000	7.39	5.13	96.9
6	-20000	7.46	5.2	98.3
6	-30000	7.33	5.07	95.8
6	-40000	7.21	4.95	93.5
6	-50000	6.87	4.61	87.2
6	-60000	7.56	5.3	100
6	-70000	7.8	5.54	105
6	-80000	7.07	4.81	91
6	-90000	7.9	5.64	107
6	-100000	8.14	5.88	111
6	-110000	8.24	5.98	113
6	-120000	8.76	6.5	123
6	-130000	7.91	5.65	107
6	-140000	8.09	5.83	110
6	-150000	8.3	6.04	114
6	-160000	8.39	6.13	116
6	-170000	7.64	5.38	102
6	-180000	7.77	5.51	104
6	-190000	8.23	5.97	113
6	-200000	8.14	5.88	111
6	-210000	7.58	5.32	101
6	-220000	7.8	5.54	105
6	-230000	7.61	5.35	101
6	-240000	6.97	4.71	88.9
6	-250000	7.1	4.84	91.4
6	-260000	7.48	5.22	98.6
6	-270000	7.5	5.24	99.1
6	-280000	7.33	5.07	95.8
6	-290000	7.29	5.03	95
6	-300000	7.41	5.15	97.3
6	-310000	7.59	5.33	101
6	-320000	7.27	5.01	94.7
6	-330000	7.63	5.37	101
6	-340000	7.12	4.86	91.9
6	-350000	7.6	5.34	101
6	-360000	7.15	4.89	92.3
