rep_num	position	torque	torque_compensated	lbs_compensated
1	0	4.16	4.44	84
1	10000	6.1	6.43	122
1	20000	6.28	6.62	125
1	30000	6.87	7.25	137
1	40000	6.53	6.88	130
1	50000	6.83	7.2	136
1	60000	7.42	7.82	148
1	70000	6.92	7.29	138
1	80000	6.94	7.31	138
1	90000	7.3	7.7	145
1	100000	8.19	8.63	163
1	110000	8.18	8.63	163
1	120000	7.96	8.39	159
1	130000	8.59	9.05	171
1	140000	9.13	9.63	182
1	150000	8.82	9.3	176
1	160000	8.38	8.83	167
1	170000	8.27	8.72	165
1	180000	8.78	9.26	175
1	190000	8.67	9.14	173
1	200000	7.89	8.32	157
1	210000	7.88	8.31	157
1	220000	8.18	8.62	163
1	230000	7.9	8.32	157
1	240000	7.84	8.26	156
1	250000	8.17	8.61	163
1	260000	8.28	8.72	165
1	270000	8.2	8.64	163
1	280000	8.34	8.8	166
1	290000	8.98	9.46	179
1	300000	9.38	9.89	187
1	310000	9.2	9.69	183
1	320000	8.65	9.12	172
1	330000	8.81	9.29	176
1	340000	8.59	9.06	171
1	350000	7.6	8.01	151
1	360000	7.52	7.92	150
2	0	8.49	6.23	118
2	-10000	10.4	8.15	154
2	-20000	11.3	9	170
2	-30000	10.7	8.48	160
2	-40000	10.2	7.94	150
2	-50000	11.4	9.12	172
2	-60000	12.1	9.84	186
2	-70000	11.9	9.65	182
2	-80000	11.6	9.35	177
2	-90000	12.5	10.2	193
2	-100000	12	9.72	184
2	-110000	11.3	9.04	171
2	-120000	11.2	8.95	169
2	-130000	11.8	9.58	181
2	-140000	11.8	9.52	180
2	-150000	11.5	9.22	174
2	-160000	11.9	9.6	181
2	-170000	12.5	10.3	194
2	-180000	12	9.74	184
2	-190000	11	8.77	166
2	-200000	10.6	8.37	158
2	-210000	11.2	8.91	168
2	-220000	11.3	9.08	172
2	-230000	10.6	8.3	157
2	-240000	10.3	8	151
2	-250000	10.4	8.1	153
2	-260000	10.8	8.51	161
2	-270000	10.3	8.02	152
2	-280000	9.92	7.66	145
2	-290000	10.7	8.43	159
2	-300000	10.7	8.46	160
2	-310000	11	8.78	166
2	-320000	10.6	8.34	158
2	-330000	11.1	8.84	167
2	-340000	10.6	8.38	158
2	-350000	10.6	8.29	157
2	-360000	9.58	7.32	138
2	0	8.28	8.73	165
2	10000	7.91	8.33	158
2	20000	7.93	8.36	158
2	30000	8.29	8.73	165
2	40000	8.04	8.47	160
2	50000	8.26	8.71	165
2	60000	8.35	8.8	166
2	70000	7.75	8.17	154
2	80000	7.34	7.74	146
2	90000	7.99	8.43	159
2	100000	8.59	9.05	171
2	110000	8.53	8.99	170
2	120000	8.05	8.48	160
2	130000	8.37	8.83	167
2	140000	8.7	9.17	173
2	150000	8.45	8.9	168
2	160000	7.65	8.06	152
2	170000	7.65	8.06	152
2	180000	8.14	8.58	162
2	190000	7.4	7.79	147
2	200000	6.72	7.08	134
2	210000	7.48	7.88	149
2	220000	8.2	8.64	163
2	230000	7.55	7.96	150
2	240000	7.54	7.95	150
2	250000	7.91	8.33	157
2	260000	8.19	8.64	163
2	270000	7.69	8.11	153
2	280000	7.78	8.2	155
2	290000	8.2	8.64	163
2	300000	8.02	8.45	160
2	310000	7.32	7.71	146
2	320000	6.59	6.95	131
2	330000	6.45	6.8	128
2	340000	6.86	7.23	137
2	350000	6.15	6.48	123
2	360000	6.99	7.37	139
3	0	7.69	5.43	103
3	-10000	9.16	6.9	130
3	-20000	10.4	8.1	153
3	-30000	9.8	7.54	142
3	-40000	9.35	7.09	134
3	-50000	9.86	7.6	144
3	-60000	11.3	8.99	170
3	-70000	11.4	9.13	173
3	-80000	11	8.73	165
3	-90000	11.2	8.93	169
3	-100000	11.1	8.84	167
3	-110000	10.8	8.52	161
3	-120000	10.7	8.47	160
3	-130000	11.1	8.87	168
3	-140000	10.4	8.17	154
3	-150000	9.72	7.46	141
3	-160000	10.8	8.55	162
3	-170000	11.7	9.48	179
3	-180000	11.6	9.34	177
3	-190000	11	8.72	165
3	-200000	10	7.75	146
3	-210000	10	7.74	146
3	-220000	9.86	7.6	144
3	-230000	9.67	7.41	140
3	-240000	9.73	7.47	141
3	-250000	10.5	8.26	156
3	-260000	10.7	8.47	160
3	-270000	10.4	8.17	154
3	-280000	9.96	7.7	145
3	-290000	9.56	7.3	138
3	-300000	9.11	6.85	129
3	-310000	9.18	6.92	131
3	-320000	9.14	6.88	130
3	-330000	9.82	7.56	143
3	-340000	9.39	7.13	135
3	-350000	9.21	6.95	131
3	-360000	8.6	6.34	120
3	0	7.13	7.52	142
3	10000	6.69	7.05	133
3	20000	6.94	7.32	138
3	30000	6.53	6.89	130
3	40000	6.51	6.86	130
3	50000	6.94	7.32	138
3	60000	7.02	7.4	140
3	70000	6.5	6.86	130
3	80000	6.53	6.88	130
3	90000	6.97	7.34	139
3	100000	7.25	7.64	144
3	110000	7.29	7.68	145
3	120000	6.66	7.02	133
3	130000	6.68	7.05	133
3	140000	6.96	7.34	139
3	150000	6.36	6.7	127
3	160000	5.69	6	113
3	170000	6.18	6.51	123
3	180000	6.33	6.67	126
3	190000	5.8	6.12	116
3	200000	5.59	5.9	111
3	210000	6.64	7	132
3	220000	7.61	8.02	152
3	230000	6.75	7.11	134
3	240000	6.46	6.81	129
3	250000	7.07	7.45	141
3	260000	7.2	7.59	143
3	270000	6.55	6.9	130
3	280000	6.18	6.51	123
3	290000	6.33	6.67	126
3	300000	6.18	6.51	123
3	310000	6.04	6.36	120
3	320000	5.47	5.76	109
3	330000	5.95	6.27	118
3	340000	5.77	6.08	115
3	350000	5.7	6.01	114
3	360000	5.87	6.19	117
4	0	6.52	4.26	80.6
4	-10000	8.73	6.47	122
4	-20000	9.44	7.18	136
4	-30000	9.13	6.87	130
4	-40000	8.98	6.72	127
4	-50000	9.13	6.87	130
4	-60000	8.98	6.72	127
4	-70000	8.73	6.47	122
4	-80000	8.79	6.53	123
4	-90000	10.1	7.79	147
4	-100000	10.3	8.07	153
4	-110000	9.55	7.29	138
4	-120000	9.04	6.78	128
4	-130000	9.26	7	132
4	-140000	9.29	7.03	133
4	-150000	9.43	7.17	136
4	-160000	10.3	8.03	152
4	-170000	11.2	8.92	169
4	-180000	10.7	8.46	160
4	-190000	10.3	8.08	153
4	-200000	10.2	7.94	150
4	-210000	10.3	8.06	152
4	-220000	10.3	8.05	152
4	-230000	9.56	7.3	138
4	-240000	9.24	6.98	132
4	-250000	9.65	7.39	140
4	-260000	9.68	7.42	140
4	-270000	8.93	6.67	126
4	-280000	8.67	6.41	121
4	-290000	9.04	6.78	128
4	-300000	9.11	6.85	130
4	-310000	8.94	6.68	126
4	-320000	8.98	6.72	127
4	-330000	9.91	7.65	145
4	-340000	10	7.75	146
4	-350000	9.88	7.62	144
4	-360000	9.23	6.97	132
4	0	7.36	7.76	147
4	10000	6.91	7.28	138
4	20000	6.92	7.3	138
4	30000	6.66	7.02	133
4	40000	5.97	6.29	119
4	50000	6.05	6.38	121
4	60000	5.9	6.22	118
4	70000	5.13	5.42	102
4	80000	5.33	5.62	106
4	90000	5.83	6.14	116
4	100000	5.61	5.91	112
4	110000	5.09	5.38	102
4	120000	5.1	5.38	102
4	130000	5.33	5.62	106
4	140000	5.73	6.04	114
4	150000	5.38	5.67	107
4	160000	5.12	5.4	102
4	170000	5.6	5.9	111
4	180000	5.99	6.31	119
4	190000	5	5.28	99.9
4	200000	4.68	4.97	93.8
4	210000	4.64	4.93	93.1
4	220000	5.12	5.41	102
4	230000	4.98	5.27	99.6
4	240000	5.02	5.31	100
4	250000	5.42	5.71	108
4	260000	5.35	5.64	107
4	270000	4.77	5.06	95.6
4	280000	4.64	4.93	93.2
4	290000	4.58	4.86	91.9
4	300000	4.78	5.06	95.7
4	310000	4.17	4.46	84.3
4	320000	3.78	4.07	76.8
4	330000	4.04	4.33	81.8
4	340000	4.03	4.31	81.5
4	350000	3.72	4.01	75.7
4	360000	4.17	4.46	84.3
5	0	5.05	2.9	54.7
5	-10000	6.92	4.66	88
5	-20000	7.71	5.45	103
5	-30000	7.3	5.04	95.2
5	-40000	7.45	5.19	98.2
5	-50000	8.8	6.54	124
5	-60000	9.27	7.01	132
5	-70000	8.75	6.49	123
5	-80000	8.17	5.91	112
5	-90000	8.34	6.08	115
5	-100000	8.8	6.54	124
5	-110000	9.08	6.82	129
5	-120000	10	7.75	147
5	-130000	11.1	8.81	167
5	-140000	11	8.78	166
5	-150000	10.2	7.95	150
5	-160000	9.86	7.6	144
5	-170000	9.84	7.58	143
5	-180000	9.22	6.96	131
5	-190000	8.53	6.27	119
5	-200000	8.48	6.22	118
5	-210000	8.91	6.65	126
5	-220000	9.06	6.8	129
5	-230000	9.06	6.8	128
5	-240000	8.59	6.33	120
5	-250000	8.86	6.6	125
5	-260000	8.74	6.48	122
5	-270000	8.01	5.75	109
5	-280000	8.13	5.87	111
5	-290000	8.51	6.25	118
5	-300000	8.35	6.09	115
5	-310000	7.72	5.46	103
5	-320000	7.5	5.24	99
5	-330000	7.96	5.7	108
5	-340000	7.79	5.53	105
5	-350000	7.42	5.16	97.5
5	-360000	6.76	4.5	85
5	0	5.36	5.65	107
5	10000	5.61	5.91	112
5	20000	5.95	6.27	118
5	30000	5.46	5.75	109
5	40000	5.22	5.51	104
5	50000	5.17	5.45	103
5	60000	5.1	5.38	102
5	70000	4.47	4.76	89.9
5	80000	4.34	4.62	87.4
5	90000	4.44	4.73	89.4
5	100000	4.42	4.7	88.9
5	110000	4.37	4.66	88.1
5	120000	4.49	4.78	90.3
5	130000	4.18	4.46	84.4
5	140000	4.53	4.82	91.1
5	150000	4.2	4.49	84.8
5	160000	3.99	4.28	80.8
5	170000	4.2	4.49	84.8
5	180000	4.42	4.7	88.9
5	190000	3.83	4.12	77.8
5	200000	3.5	3.79	71.6
5	210000	3.9	4.19	79.1
5	220000	4.52	4.81	90.8
5	230000	3.77	4.05	76.6
5	240000	3.01	3.29	62.3
5	250000	3.71	4	75.6
5	260000	3.33	3.61	68.2
5	270000	3.27	3.55	67.1
5	280000	3.17	3.45	65.2
5	290000	3.39	3.68	69.5
5	300000	3.32	3.61	68.2
5	310000	2.97	3.25	61.5
5	320000	2.9	3.18	60.2
5	330000	3.32	3.6	68.1
5	340000	3.11	3.39	64.1
5	350000	2.83	3.11	58.8
5	360000	3.14	3.42	64.7
6	0	3.95	2.27	42.8
6	-10000	5.61	3.35	63.3
6	-20000	6.43	4.17	78.8
6	-30000	6.63	4.37	82.6
6	-40000	6.36	4.1	77.4
6	-50000	6.88	4.62	87.3
6	-60000	7.06	4.8	90.7
6	-70000	6.74	4.48	84.6
6	-80000	6.82	4.56	86.1
6	-90000	8.29	6.03	114
6	-100000	8.36	6.1	115
6	-110000	7.29	5.03	95
6	-120000	7.41	5.15	97.4
6	-130000	7.94	5.68	107
6	-140000	8.7	6.44	122
6	-150000	8.25	5.99	113
6	-160000	8.5	6.24	118
6	-170000	9.03	6.77	128
6	-180000	8.85	6.59	125
6	-190000	8.24	5.98	113
6	-200000	8.04	5.78	109
6	-210000	8.22	5.96	113
6	-220000	8.41	6.15	116
6	-230000	7.93	5.67	107
6	-240000	7.46	5.2	98.3
6	-250000	7.59	5.33	101
6	-260000	7.62	5.36	101
6	-270000	6.89	4.63	87.5
6	-280000	6.77	4.51	85.3
6	-290000	6.7	4.44	84
6	-300000	6.64	4.38	82.7
6	-310000	6.5	4.24	80.2
6	-320000	6.38	4.12	77.9
6	-330000	6.82	4.56	86.2
6	-340000	6.58	4.32	81.6
6	-350000	6.33	4.07	76.8
6	-360000	5.85	3.59	67.8
