rep_num	position	torque	torque_compensated	lbs_compensated
1	0	2.57	2.85	53.9
1	10000	6.22	6.56	124
1	20000	7.23	7.62	144
1	30000	7.36	7.76	147
1	40000	7.61	8.02	152
1	50000	8.03	8.46	160
1	60000	8.43	8.88	168
1	70000	8.66	9.13	173
1	80000	8.5	8.96	169
1	90000	8.31	8.75	165
1	100000	8.45	8.91	168
1	110000	8.64	9.11	172
1	120000	8.61	9.07	171
1	130000	8.62	9.09	172
1	140000	8.74	9.21	174
1	150000	8.42	8.87	168
1	160000	7.91	8.34	158
1	170000	8.19	8.64	163
1	180000	8.58	9.04	171
1	190000	8.16	8.61	163
1	200000	7.8	8.22	155
1	210000	8.47	8.92	169
1	220000	8.35	8.8	166
1	230000	8.31	8.76	166
1	240000	8.37	8.82	167
1	250000	8.78	9.26	175
1	260000	8.91	9.39	177
1	270000	9.06	9.55	180
1	280000	9.18	9.67	183
1	290000	9.21	9.71	184
1	300000	8.76	9.24	175
1	310000	8.91	9.39	178
1	320000	8.74	9.22	174
1	330000	9.04	9.53	180
1	340000	9.37	9.88	187
1	350000	9.68	10.2	193
1	360000	9.35	9.85	186
2	0	11.8	9.58	181
2	-10000	12.7	10.4	197
2	-20000	12.8	10.5	199
2	-30000	12.8	10.6	199
2	-40000	12.4	10.1	191
2	-50000	11.7	9.45	179
2	-60000	12.1	9.79	185
2	-70000	12.1	9.89	187
2	-80000	12.5	10.3	194
2	-90000	13.4	11.2	211
2	-100000	13.6	11.3	214
2	-110000	13.5	11.2	212
2	-120000	13.5	11.2	212
2	-130000	13.8	11.6	218
2	-140000	13.6	11.3	214
2	-150000	13.1	10.8	205
2	-160000	13.4	11.1	210
2	-170000	13.4	11.1	210
2	-180000	13	10.7	203
2	-190000	12.8	10.6	200
2	-200000	12.8	10.5	198
2	-210000	12.5	10.3	194
2	-220000	12.7	10.4	196
2	-230000	13	10.7	203
2	-240000	12.8	10.6	200
2	-250000	12.6	10.4	196
2	-260000	12.2	9.97	188
2	-270000	11.7	9.39	178
2	-280000	11.4	9.11	172
2	-290000	11	8.74	165
2	-300000	11	8.73	165
2	-310000	11.2	8.97	170
2	-320000	11.3	9.07	171
2	-330000	10.8	8.57	162
2	-340000	10.3	8.06	152
2	-350000	9.78	7.52	142
2	-360000	9.16	6.9	130
2	0	7.66	8.08	153
2	10000	7.02	7.4	140
2	20000	7.19	7.58	143
2	30000	7.34	7.74	146
2	40000	7.6	8.01	151
2	50000	7.54	7.95	150
2	60000	7.82	8.24	156
2	70000	8.09	8.53	161
2	80000	7.88	8.31	157
2	90000	7.29	7.68	145
2	100000	7.46	7.86	149
2	110000	7.46	7.86	149
2	120000	7.19	7.58	143
2	130000	6.84	7.21	136
2	140000	6.81	7.18	136
2	150000	6.73	7.09	134
2	160000	6.37	6.72	127
2	170000	6.26	6.6	125
2	180000	6.51	6.86	130
2	190000	6.11	6.44	122
2	200000	6.04	6.37	120
2	210000	6.46	6.81	129
2	220000	6.3	6.64	125
2	230000	5.83	6.15	116
2	240000	5.56	5.86	111
2	250000	6.01	6.34	120
2	260000	6.35	6.7	127
2	270000	6.46	6.81	129
2	280000	6.06	6.39	121
2	290000	5.63	5.94	112
2	300000	5.83	6.14	116
2	310000	5.8	6.11	115
2	320000	5.45	5.74	109
2	330000	5.44	5.73	108
2	340000	5.71	6.02	114
2	350000	5.61	5.91	112
2	360000	5.47	5.76	109
3	0	7.21	4.95	93.6
3	-10000	7.9	5.64	107
3	-20000	8.91	6.65	126
3	-30000	9.83	7.57	143
3	-40000	10.3	8.02	151
3	-50000	10.3	8.07	153
3	-60000	10.6	8.31	157
3	-70000	10.8	8.55	162
3	-80000	10.9	8.66	164
3	-90000	11.2	8.9	168
3	-100000	11.3	9.05	171
3	-110000	10.9	8.67	164
3	-120000	11.2	8.9	168
3	-130000	12.4	10.2	192
3	-140000	12.2	9.97	188
3	-150000	11.8	9.57	181
3	-160000	11.5	9.24	175
3	-170000	11.9	9.68	183
3	-180000	11.7	9.47	179
3	-190000	11.7	9.39	178
3	-200000	11.8	9.54	180
3	-210000	12	9.75	184
3	-220000	11.3	9.04	171
3	-230000	11.5	9.22	174
3	-240000	11.6	9.32	176
3	-250000	11.5	9.2	174
3	-260000	11.3	9.08	172
3	-270000	11	8.71	165
3	-280000	10.7	8.43	159
3	-290000	10.7	8.45	160
3	-300000	10.7	8.45	160
3	-310000	10.5	8.23	156
3	-320000	10.3	8.09	153
3	-330000	10.1	7.85	148
3	-340000	9.7	7.44	141
3	-350000	9.33	7.07	134
3	-360000	8.91	6.65	126
3	0	7.1	7.49	142
3	10000	6.53	6.89	130
3	20000	6.53	6.88	130
3	30000	6	6.33	120
3	40000	6.04	6.37	120
3	50000	5.77	6.08	115
3	60000	6.02	6.34	120
3	70000	5.79	6.1	115
3	80000	5.55	5.85	111
3	90000	5.6	5.9	112
3	100000	6.02	6.34	120
3	110000	6.06	6.39	121
3	120000	5.97	6.29	119
3	130000	5.71	6.01	114
3	140000	5.78	6.1	115
3	150000	5.54	5.84	110
3	160000	5.04	5.33	101
3	170000	5.15	5.43	103
3	180000	5.21	5.5	104
3	190000	5.16	5.45	103
3	200000	4.79	5.08	95.9
3	210000	4.95	5.23	98.9
3	220000	5	5.29	99.9
3	230000	4.7	4.99	94.2
3	240000	4.4	4.69	88.7
3	250000	4.48	4.77	90.1
3	260000	4.35	4.64	87.6
3	270000	4.25	4.54	85.8
3	280000	4.09	4.38	82.7
3	290000	4.28	4.57	86.3
3	300000	3.87	4.16	78.6
3	310000	4.16	4.45	84.1
3	320000	3.66	3.95	74.6
3	330000	3.85	4.14	78.2
3	340000	3.92	4.2	79.4
3	350000	3.74	4.02	76.1
3	360000	3.4	3.69	69.7
4	0	5.06	2.9	54.7
4	-10000	6.08	3.82	72.2
4	-20000	6.44	4.18	78.9
4	-30000	6.72	4.46	84.3
4	-40000	6.73	4.47	84.5
4	-50000	8.25	5.99	113
4	-60000	9.46	7.2	136
4	-70000	9.53	7.27	137
4	-80000	9.11	6.85	129
4	-90000	9.23	6.97	132
4	-100000	9.83	7.57	143
4	-110000	9.47	7.21	136
4	-120000	9.39	7.13	135
4	-130000	10.2	7.92	150
4	-140000	9.68	7.42	140
4	-150000	9.19	6.93	131
4	-160000	8.74	6.48	122
4	-170000	8.74	6.48	122
4	-180000	8.31	6.05	114
4	-190000	8.77	6.51	123
4	-200000	9.23	6.97	132
4	-210000	8.83	6.57	124
4	-220000	8.78	6.52	123
4	-230000	8.92	6.66	126
4	-240000	8.86	6.6	125
4	-250000	8.62	6.36	120
4	-260000	8.51	6.25	118
4	-270000	8.13	5.87	111
4	-280000	7.99	5.73	108
4	-290000	7.88	5.62	106
4	-300000	7.83	5.57	105
4	-310000	7.42	5.16	97.6
4	-320000	7.44	5.18	97.9
4	-330000	7.4	5.14	97.2
4	-340000	7.3	5.04	95.3
4	-350000	6.49	4.23	79.9
4	-360000	6.11	3.85	72.8
4	0	4.58	4.87	92
4	10000	4.92	5.21	98.4
4	20000	5.03	5.32	101
4	30000	4.75	5.04	95.2
4	40000	4.93	5.22	98.6
4	50000	4.38	4.67	88.2
4	60000	4.11	4.4	83.1
4	70000	4.31	4.6	86.9
4	80000	3.94	4.23	79.9
4	90000	3.97	4.26	80.5
4	100000	3.69	3.97	75.1
4	110000	3.79	4.08	77
4	120000	4	4.29	81.1
4	130000	3.66	3.95	74.7
4	140000	3.49	3.78	71.4
4	150000	3.4	3.69	69.7
4	160000	3.21	3.49	66
4	170000	3.54	3.83	72.4
4	180000	3.92	4.21	79.5
4	190000	3.62	3.91	73.9
4	200000	3.67	3.96	74.8
4	210000	4	4.29	81.1
4	220000	3.61	3.9	73.7
4	230000	3.59	3.88	73.3
4	240000	3.43	3.72	70.2
4	250000	3.57	3.86	72.9
4	260000	3.32	3.6	68.1
4	270000	3.44	3.72	70.4
4	280000	3.2	3.48	65.9
4	290000	3.23	3.52	66.5
4	300000	2.76	3.04	57.5
4	310000	2.52	2.81	53
4	320000	2.33	2.62	49.5
4	330000	2.27	2.55	48.2
4	340000	2.26	2.54	48.1
4	350000	2.37	2.66	50.2
4	360000	2.64	2.93	55.4
5	0	4.18	2.4	45.3
5	-10000	4.75	2.72	51.4
5	-20000	5.41	3.15	59.5
5	-30000	5.69	3.43	64.8
5	-40000	5.88	3.62	68.5
5	-50000	6.3	4.04	76.3
5	-60000	6.48	4.22	79.7
5	-70000	6.03	3.77	71.3
5	-80000	5.79	3.53	66.7
5	-90000	6.66	4.4	83.2
5	-100000	7.38	5.12	96.8
5	-110000	7.12	4.86	91.9
5	-120000	6.86	4.6	86.9
5	-130000	7.68	5.42	102
5	-140000	8.35	6.09	115
5	-150000	8.74	6.48	122
5	-160000	8.86	6.6	125
5	-170000	8.88	6.62	125
5	-180000	8.55	6.29	119
5	-190000	8	5.74	109
5	-200000	8.09	5.83	110
5	-210000	8.02	5.76	109
5	-220000	7.74	5.48	104
5	-230000	7.94	5.68	107
5	-240000	8.07	5.81	110
5	-250000	7.91	5.65	107
5	-260000	7.99	5.73	108
5	-270000	7.91	5.65	107
5	-280000	7.45	5.19	98
5	-290000	7.61	5.35	101
5	-300000	8	5.74	109
5	-310000	8.12	5.86	111
5	-320000	8.16	5.9	111
5	-330000	7.97	5.71	108
5	-340000	7.6	5.34	101
5	-350000	6.93	4.67	88.3
5	-360000	6.35	4.09	77.3
5	0	4.84	5.13	96.9
5	10000	3.92	4.21	79.5
5	20000	3.58	3.87	73.1
5	30000	2.99	3.28	62
5	40000	3.13	3.42	64.6
5	50000	3.19	3.48	65.7
5	60000	3.01	3.29	62.3
5	70000	3.18	3.46	65.5
5	80000	3.18	3.46	65.5
5	90000	3.23	3.52	66.5
5	100000	3.63	3.91	74
5	110000	3.64	3.93	74.3
5	120000	3.61	3.9	73.7
5	130000	3.15	3.44	65
5	140000	2.71	3	56.6
5	150000	2.72	3	56.7
5	160000	2.33	2.62	49.4
5	170000	2.57	2.85	53.9
5	180000	3.08	3.37	63.6
5	190000	2.75	3.04	57.4
5	200000	2.33	2.61	49.4
5	210000	2.61	2.9	54.7
5	220000	2.31	2.6	49.1
5	230000	2.36	2.64	49.9
5	240000	2.25	2.54	47.9
5	250000	2.77	3.05	57.7
5	260000	2.55	2.83	53.6
5	270000	2.35	2.64	49.8
5	280000	2	2.29	43.2
5	290000	2.46	2.75	52
5	300000	2.23	2.52	47.6
5	310000	2.1	2.39	45.2
5	320000	1.54	1.82	34.5
5	330000	1.74	2.02	38.2
5	340000	2.12	2.4	45.4
5	350000	2.06	2.35	44.3
5	360000	1.58	1.87	35.4
6	0	2.97	1.7	32.1
6	-10000	4.17	2.39	45.1
6	-20000	4.94	2.83	53.5
6	-30000	4.93	2.82	53.4
6	-40000	4.9	2.8	53
6	-50000	5.38	3.12	59
6	-60000	5.75	3.49	66
6	-70000	5.39	3.13	59.2
6	-80000	5.25	3.01	56.8
6	-90000	5.7	3.44	65.1
6	-100000	5.69	3.43	64.8
6	-110000	5.28	3.02	57.1
6	-120000	5.68	3.42	64.7
6	-130000	6.39	4.13	78
6	-140000	6.59	4.33	81.9
6	-150000	6.37	4.11	77.8
6	-160000	6.8	4.54	85.9
6	-170000	7.25	4.99	94.3
6	-180000	6.95	4.69	88.6
6	-190000	7.33	5.07	95.9
6	-200000	7.96	5.7	108
6	-210000	8.07	5.81	110
6	-220000	7.82	5.56	105
6	-230000	7.75	5.49	104
6	-240000	7.81	5.55	105
6	-250000	7.56	5.3	100
6	-260000	7.55	5.29	100
6	-270000	7.27	5.01	94.8
6	-280000	7.14	4.88	92.3
6	-290000	7.47	5.21	98.4
6	-300000	7.53	5.27	99.7
6	-310000	7.35	5.09	96.2
6	-320000	7.48	5.22	98.7
6	-330000	7.32	5.06	95.7
6	-340000	7.21	4.95	93.5
6	-350000	6.45	4.19	79.1
6	-360000	5.97	3.71	70.1
