rep_num	position	torque	torque_compensated	lbs_compensated
1	0	3.84	4.12	77.9
1	10000	5.64	5.95	112
1	20000	5.85	6.17	117
1	30000	6.51	6.86	130
1	40000	6.51	6.86	130
1	50000	5.57	5.87	111
1	60000	5.97	6.29	119
1	70000	6.7	7.06	133
1	80000	6.87	7.24	137
1	90000	6.52	6.87	130
1	100000	6.28	6.62	125
1	110000	7.13	7.51	142
1	120000	6.98	7.36	139
1	130000	7.03	7.41	140
1	140000	7.54	7.95	150
1	150000	7.71	8.13	154
1	160000	7.42	7.82	148
1	170000	7.27	7.66	145
1	180000	7.66	8.08	153
1	190000	7.97	8.4	159
1	200000	7.35	7.75	146
1	210000	7.29	7.68	145
1	220000	7.93	8.36	158
1	230000	8.11	8.55	162
1	240000	8.08	8.52	161
1	250000	8	8.43	159
1	260000	8.22	8.67	164
1	270000	8.18	8.62	163
1	280000	8.31	8.76	166
1	290000	8.54	9	170
1	300000	8.85	9.33	176
1	310000	8.76	9.24	175
1	320000	8.46	8.91	168
1	330000	8.42	8.87	168
1	340000	7.66	8.08	153
1	350000	7.55	7.96	151
1	360000	7.48	7.89	149
2	0	9.45	7.19	136
2	-10000	9.27	7.01	133
2	-20000	9.71	7.45	141
2	-30000	10	7.75	147
2	-40000	9.88	7.62	144
2	-50000	9.67	7.41	140
2	-60000	9.82	7.56	143
2	-70000	10.2	7.9	149
2	-80000	10.2	7.94	150
2	-90000	10.4	8.14	154
2	-100000	9.64	7.38	139
2	-110000	9.59	7.33	139
2	-120000	10.2	7.94	150
2	-130000	10.5	8.22	155
2	-140000	10.7	8.45	160
2	-150000	10.7	8.49	160
2	-160000	11.2	8.91	168
2	-170000	10.4	8.17	154
2	-180000	9.49	7.23	137
2	-190000	9.75	7.49	142
2	-200000	10.3	8.04	152
2	-210000	9.83	7.57	143
2	-220000	9.56	7.3	138
2	-230000	9.73	7.47	141
2	-240000	10.1	7.86	149
2	-250000	10.2	7.9	149
2	-260000	9.73	7.47	141
2	-270000	9.81	7.55	143
2	-280000	10.6	8.36	158
2	-290000	10.7	8.4	159
2	-300000	10.4	8.14	154
2	-310000	10.7	8.43	159
2	-320000	10.9	8.64	163
2	-330000	10.2	7.97	151
2	-340000	10.1	7.85	148
2	-350000	9.88	7.62	144
2	-360000	9.96	7.7	146
2	0	7.81	8.23	156
2	10000	6.83	7.19	136
2	20000	6.75	7.11	134
2	30000	7.78	8.2	155
2	40000	7.17	7.56	143
2	50000	7.09	7.48	141
2	60000	7.28	7.67	145
2	70000	7.27	7.66	145
2	80000	7.41	7.81	148
2	90000	7.38	7.78	147
2	100000	7.48	7.89	149
2	110000	7.87	8.29	157
2	120000	7.78	8.21	155
2	130000	7.61	8.02	152
2	140000	7.92	8.35	158
2	150000	8.04	8.48	160
2	160000	7.65	8.07	152
2	170000	7.34	7.74	146
2	180000	7.81	8.23	155
2	190000	7.88	8.31	157
2	200000	7.21	7.6	144
2	210000	7.15	7.53	142
2	220000	7.28	7.67	145
2	230000	7.14	7.52	142
2	240000	6.9	7.27	137
2	250000	6.73	7.1	134
2	260000	7.12	7.5	142
2	270000	7.2	7.59	144
2	280000	7.36	7.76	147
2	290000	7.17	7.56	143
2	300000	7.35	7.75	146
2	310000	7.49	7.9	149
2	320000	7.18	7.56	143
2	330000	7.27	7.66	145
2	340000	6.67	7.03	133
2	350000	6.96	7.33	139
2	360000	6.76	7.12	135
3	0	8.43	6.17	117
3	-10000	9.02	6.76	128
3	-20000	9.04	6.78	128
3	-30000	8.73	6.47	122
3	-40000	8.78	6.52	123
3	-50000	9.37	7.11	134
3	-60000	9.9	7.64	144
3	-70000	10.2	7.97	151
3	-80000	10.4	8.15	154
3	-90000	10.5	8.24	156
3	-100000	9.84	7.58	143
3	-110000	9.47	7.21	136
3	-120000	9.89	7.63	144
3	-130000	9.85	7.59	143
3	-140000	9.49	7.23	137
3	-150000	8.85	6.59	125
3	-160000	9.32	7.06	134
3	-170000	9.54	7.28	138
3	-180000	9.33	7.07	134
3	-190000	9.52	7.26	137
3	-200000	9.78	7.52	142
3	-210000	9.45	7.19	136
3	-220000	9.35	7.09	134
3	-230000	9.65	7.39	140
3	-240000	10.5	8.22	155
3	-250000	10.9	8.65	163
3	-260000	11	8.7	164
3	-270000	10.6	8.3	157
3	-280000	10.5	8.23	156
3	-290000	9.86	7.6	144
3	-300000	9.16	6.9	130
3	-310000	9.05	6.79	128
3	-320000	9.84	7.58	143
3	-330000	9.8	7.54	142
3	-340000	8.84	6.58	124
3	-350000	8.39	6.13	116
3	-360000	8.93	6.67	126
3	0	7.1	7.49	142
3	10000	6.62	6.98	132
3	20000	5.72	6.03	114
3	30000	6.08	6.41	121
3	40000	5.9	6.22	118
3	50000	5.86	6.18	117
3	60000	6.08	6.41	121
3	70000	5.79	6.1	115
3	80000	6.01	6.33	120
3	90000	6.57	6.92	131
3	100000	7.06	7.45	141
3	110000	7.88	8.3	157
3	120000	7.22	7.61	144
3	130000	6.63	6.98	132
3	140000	6.79	7.16	135
3	150000	7.04	7.42	140
3	160000	6.78	7.14	135
3	170000	6.35	6.7	127
3	180000	6.68	7.04	133
3	190000	6.6	6.96	131
3	200000	6.06	6.38	121
3	210000	6.15	6.48	122
3	220000	6.39	6.74	127
3	230000	6.28	6.62	125
3	240000	5.91	6.23	118
3	250000	6.15	6.48	123
3	260000	6.22	6.55	124
3	270000	6.45	6.8	128
3	280000	6.48	6.84	129
3	290000	6.6	6.96	131
3	300000	6.44	6.79	128
3	310000	6.5	6.86	130
3	320000	6.13	6.46	122
3	330000	6.13	6.46	122
3	340000	5.9	6.22	118
3	350000	6.03	6.35	120
3	360000	5.91	6.23	118
4	0	7.64	5.38	102
4	-10000	7.62	5.36	101
4	-20000	7.91	5.65	107
4	-30000	8.32	6.06	114
4	-40000	8.61	6.35	120
4	-50000	9.26	7	132
4	-60000	10	7.77	147
4	-70000	10.2	7.89	149
4	-80000	9.83	7.57	143
4	-90000	9.72	7.46	141
4	-100000	9.34	7.08	134
4	-110000	9.69	7.43	141
4	-120000	10.7	8.46	160
4	-130000	10.6	8.37	158
4	-140000	10.5	8.28	156
4	-150000	10.7	8.42	159
4	-160000	10.8	8.51	161
4	-170000	10.4	8.13	154
4	-180000	9.97	7.71	146
4	-190000	9.67	7.41	140
4	-200000	9.9	7.64	144
4	-210000	9.73	7.47	141
4	-220000	9.76	7.5	142
4	-230000	10.3	8.06	152
4	-240000	10.7	8.48	160
4	-250000	10.7	8.39	159
4	-260000	10.4	8.12	153
4	-270000	10.1	7.82	148
4	-280000	10.4	8.11	153
4	-290000	10.1	7.8	147
4	-300000	9.88	7.62	144
4	-310000	9.79	7.53	142
4	-320000	9.61	7.35	139
4	-330000	9.12	6.86	130
4	-340000	9	6.74	127
4	-350000	8.61	6.35	120
4	-360000	8.44	6.18	117
4	0	6.26	6.6	125
4	10000	5.94	6.26	118
4	20000	5.29	5.58	105
4	30000	5.66	5.96	113
4	40000	5.05	5.34	101
4	50000	4.47	4.75	89.8
4	60000	4.82	5.11	96.6
4	70000	5.07	5.35	101
4	80000	5.23	5.52	104
4	90000	5.1	5.39	102
4	100000	5.39	5.68	107
4	110000	6.2	6.54	124
4	120000	6.11	6.44	122
4	130000	5.79	6.11	115
4	140000	5.81	6.12	116
4	150000	5.96	6.28	119
4	160000	5.58	5.88	111
4	170000	5.04	5.33	101
4	180000	5.32	5.61	106
4	190000	5.15	5.43	103
4	200000	4.65	4.94	93.3
4	210000	4.68	4.97	93.9
4	220000	5.14	5.43	103
4	230000	4.8	5.08	96.1
4	240000	4.69	4.98	94.1
4	250000	4.52	4.81	90.8
4	260000	4.44	4.72	89.2
4	270000	4.32	4.61	87
4	280000	4.41	4.69	88.7
4	290000	4.47	4.76	89.9
4	300000	3.84	4.12	77.9
4	310000	4.36	4.64	87.8
4	320000	3.98	4.26	80.6
4	330000	4.17	4.46	84.2
4	340000	3.95	4.24	80.1
4	350000	4.41	4.7	88.8
4	360000	4.05	4.33	81.9
5	0	5.69	3.43	64.8
5	-10000	6.19	3.93	74.3
5	-20000	6.87	4.61	87.1
5	-30000	6.9	4.64	87.7
5	-40000	7.01	4.75	89.7
5	-50000	7.53	5.27	99.6
5	-60000	8.06	5.8	110
5	-70000	8.04	5.78	109
5	-80000	8.06	5.8	110
5	-90000	8.32	6.06	115
5	-100000	8.27	6.01	113
5	-110000	8.51	6.25	118
5	-120000	9.37	7.11	134
5	-130000	9.71	7.45	141
5	-140000	9.69	7.43	140
5	-150000	9.62	7.36	139
5	-160000	10.3	8.08	153
5	-170000	10.4	8.1	153
5	-180000	9.85	7.59	143
5	-190000	10.2	7.91	149
5	-200000	10.6	8.38	158
5	-210000	10	7.75	146
5	-220000	9.86	7.6	144
5	-230000	9.53	7.27	137
5	-240000	9.71	7.45	141
5	-250000	9.25	6.99	132
5	-260000	9.01	6.75	128
5	-270000	9.2	6.94	131
5	-280000	9.74	7.48	141
5	-290000	9.53	7.27	137
5	-300000	9.38	7.12	135
5	-310000	9.36	7.1	134
5	-320000	9.09	6.83	129
5	-330000	8.46	6.2	117
5	-340000	7.93	5.67	107
5	-350000	7.43	5.17	97.7
5	-360000	7.62	5.36	101
5	0	5.44	5.74	108
5	10000	4.99	5.28	99.8
5	20000	4.39	4.68	88.4
5	30000	4.36	4.65	87.8
5	40000	2.35	2.63	49.7
5	50000	0.987	1.27	24.1
5	60000	1.21	1.49	28.2
5	70000	2.69	2.98	56.3
5	80000	3.41	3.7	69.9
5	90000	4.44	4.72	89.2
5	100000	4.98	5.27	99.6
5	110000	6.05	6.38	121
5	120000	5.77	6.08	115
5	130000	5.25	5.53	105
5	140000	5.07	5.36	101
5	150000	4.95	5.24	99
5	160000	4.39	4.68	88.4
5	170000	4	4.29	81
5	180000	4.14	4.42	83.6
5	190000	3.82	4.11	77.6
5	200000	3.27	3.56	67.2
5	210000	3.11	3.4	64.2
5	220000	3.49	3.77	71.3
5	230000	3.26	3.54	67
5	240000	3.09	3.38	63.9
5	250000	2.97	3.26	61.6
5	260000	3.22	3.5	66.2
5	270000	3.34	3.63	68.6
5	280000	3.23	3.52	66.5
5	290000	3.29	3.57	67.5
5	300000	3.53	3.82	72.2
5	310000	3.37	3.66	69.2
5	320000	3.52	3.81	71.9
5	330000	3.54	3.82	72.3
5	340000	3.22	3.5	66.2
5	350000	3.86	4.15	78.4
5	360000	3.96	4.25	80.3
6	0	5.21	2.98	56.4
6	-10000	6.48	4.22	79.7
6	-20000	6.63	4.37	82.6
6	-30000	6.66	4.4	83.2
6	-40000	6.67	4.41	83.4
6	-50000	6.49	4.23	80
6	-60000	6.58	4.32	81.6
6	-70000	6.61	4.35	82.1
6	-80000	6.86	4.6	86.9
6	-90000	7.04	4.78	90.4
6	-100000	6.24	3.98	75.2
6	-110000	6.03	3.77	71.3
6	-120000	6.62	4.36	82.5
6	-130000	6.75	4.49	84.8
6	-140000	7.06	4.8	90.7
6	-150000	7.27	5.01	94.7
6	-160000	8.05	5.79	109
6	-170000	7.86	5.6	106
6	-180000	7.41	5.15	97.3
6	-190000	8.07	5.81	110
6	-200000	8.52	6.26	118
6	-210000	7.67	5.41	102
6	-220000	7.34	5.08	95.9
6	-230000	7.29	5.03	95
6	-240000	7.34	5.08	96
6	-250000	7.25	4.99	94.4
6	-260000	7.48	5.22	98.7
6	-270000	7.58	5.32	101
6	-280000	7.83	5.57	105
6	-290000	7.61	5.35	101
6	-300000	7.56	5.3	100
6	-310000	7.84	5.58	105
6	-320000	8.1	5.84	110
6	-330000	7.74	5.48	104
6	-340000	7.48	5.22	98.7
6	-350000	6.91	4.65	87.9
6	-360000	6.92	4.66	88.1
