rep_num	position	torque	torque_compensated	lbs_compensated
1	0	3.84	4.12	77.9
1	10000	5.25	5.54	105
1	20000	5.76	6.07	115
1	30000	6.23	6.57	124
1	40000	6.54	6.89	130
1	50000	6.11	6.44	122
1	60000	6.01	6.33	120
1	70000	6.16	6.49	123
1	80000	6.04	6.37	120
1	90000	6.06	6.39	121
1	100000	5.93	6.26	118
1	110000	6.34	6.68	126
1	120000	6.25	6.59	125
1	130000	5.48	5.78	109
1	140000	5.81	6.12	116
1	150000	5.97	6.29	119
1	160000	5.73	6.04	114
1	170000	5.76	6.07	115
1	180000	6.36	6.7	127
1	190000	6.23	6.57	124
1	200000	6	6.32	120
1	210000	6.17	6.51	123
1	220000	6.49	6.84	129
1	230000	6.32	6.66	126
1	240000	6.4	6.75	128
1	250000	6.44	6.79	128
1	260000	6.36	6.71	127
1	270000	6.66	7.02	133
1	280000	7.02	7.4	140
1	290000	6.85	7.22	136
1	300000	6.54	6.89	130
1	310000	7.05	7.43	140
1	320000	7.08	7.47	141
1	330000	6.88	7.25	137
1	340000	7.05	7.43	140
1	350000	7.66	8.08	153
1	360000	6.75	7.11	134
2	0	7.17	4.91	92.8
2	-10000	9.16	6.9	130
2	-20000	9.77	7.51	142
2	-30000	10.1	7.83	148
2	-40000	8.88	6.62	125
2	-50000	8.63	6.37	120
2	-60000	6.66	4.4	83.2
2	-70000	2.08	1.19	22.5
2	-80000	1.26	0.724	13.7
2	-90000	1.55	0.887	16.8
2	-100000	1.34	0.767	14.5
2	-110000	1.23	0.705	13.3
2	-120000	1.39	0.793	15
2	-130000	1.33	0.763	14.4
2	-140000	1.21	0.692	13.1
2	-150000	1.3	0.747	14.1
2	-160000	1.44	0.823	15.6
2	-170000	1.2	0.686	13
2	-180000	1.23	0.703	13.3
2	-190000	1.27	0.725	13.7
2	-200000	1.34	0.768	14.5
2	-210000	1.51	0.867	16.4
2	-220000	1.79	1.02	19.3
2	-230000	1.79	1.03	19.4
2	-240000	1.83	1.05	19.8
2	-250000	1.97	1.13	21.3
2	-260000	1.76	1.01	19.1
2	-270000	1.81	1.04	19.6
2	-280000	2.42	1.39	26.2
2	-290000	2.93	1.68	31.7
2	-300000	2.77	1.59	30
2	-310000	2.09	1.2	22.6
2	-320000	2.09	1.2	22.7
2	-330000	2.01	1.15	21.7
2	-340000	1.23	0.707	13.4
2	-350000	1.07	0.615	11.6
2	-360000	0.517	0.296	5.6
2	0	1.74	2.02	38.2
2	10000	4.22	4.51	85.2
2	20000	3.66	3.94	74.5
2	30000	3.9	4.19	79.2
2	40000	4.77	5.06	95.6
2	50000	4.69	4.97	94
2	60000	4.59	4.88	92.2
2	70000	5.03	5.31	100
2	80000	5.83	6.15	116
2	90000	6.14	6.47	122
2	100000	6.37	6.72	127
2	110000	6.51	6.86	130
2	120000	6.82	7.19	136
2	130000	6.58	6.94	131
2	140000	7.05	7.43	140
2	150000	6.9	7.28	138
2	160000	6.78	7.15	135
2	170000	6.95	7.33	139
2	180000	7.29	7.69	145
2	190000	7.04	7.42	140
2	200000	6.94	7.31	138
2	210000	7.48	7.89	149
2	220000	7.74	8.16	154
2	230000	7.8	8.22	155
2	240000	8.04	8.48	160
2	250000	8.19	8.63	163
2	260000	8.04	8.47	160
2	270000	8.31	8.76	166
2	280000	8.37	8.82	167
2	290000	8.28	8.73	165
2	300000	7.93	8.36	158
2	310000	8.22	8.67	164
2	320000	7.94	8.37	158
2	330000	7.57	7.98	151
2	340000	8.05	8.49	160
2	350000	7.48	7.89	149
2	360000	7.66	8.07	153
3	0	8.61	6.35	120
3	-10000	9.85	7.59	143
3	-20000	9.93	7.67	145
3	-30000	9.86	7.6	144
3	-40000	9.47	7.21	136
3	-50000	9.52	7.26	137
3	-60000	9.36	7.1	134
3	-70000	9.05	6.79	128
3	-80000	9.04	6.78	128
3	-90000	9.49	7.23	137
3	-100000	9.19	6.93	131
3	-110000	9.56	7.3	138
3	-120000	9.4	7.14	135
3	-130000	9.14	6.88	130
3	-140000	8.28	6.02	114
3	-150000	8.44	6.18	117
3	-160000	9.07	6.81	129
3	-170000	8.49	6.23	118
3	-180000	8.22	5.96	113
3	-190000	8.56	6.3	119
3	-200000	9.03	6.77	128
3	-210000	8.84	6.58	124
3	-220000	8.68	6.42	121
3	-230000	8.79	6.53	123
3	-240000	8.71	6.45	122
3	-250000	8.6	6.34	120
3	-260000	8.36	6.1	115
3	-270000	8.63	6.37	120
3	-280000	8.7	6.44	122
3	-290000	8.39	6.13	116
3	-300000	7.86	5.6	106
3	-310000	8.2	5.94	112
3	-320000	8.46	6.2	117
3	-330000	8.49	6.23	118
3	-340000	8.22	5.96	113
3	-350000	8.51	6.25	118
3	-360000	8.27	6.01	114
3	0	6.95	7.33	138
3	10000	6.6	6.96	132
3	20000	6.16	6.49	123
3	30000	6.51	6.86	130
3	40000	6.45	6.8	128
3	50000	5.94	6.26	118
3	60000	5.93	6.25	118
3	70000	6.25	6.58	124
3	80000	5.99	6.31	119
3	90000	5.89	6.21	117
3	100000	6.04	6.37	120
3	110000	6.29	6.63	125
3	120000	5.92	6.24	118
3	130000	5.53	5.83	110
3	140000	5.92	6.24	118
3	150000	6.14	6.47	122
3	160000	6.17	6.5	123
3	170000	6.47	6.82	129
3	180000	6.7	7.06	133
3	190000	6.64	7	132
3	200000	6.56	6.92	131
3	210000	7.02	7.4	140
3	220000	6.86	7.23	137
3	230000	6.87	7.24	137
3	240000	6.72	7.09	134
3	250000	6.72	7.09	134
3	260000	6.34	6.69	126
3	270000	6.48	6.83	129
3	280000	6.86	7.23	137
3	290000	6.91	7.29	138
3	300000	6.52	6.87	130
3	310000	6.63	6.99	132
3	320000	6.11	6.44	122
3	330000	6.06	6.39	121
3	340000	6.41	6.76	128
3	350000	6.11	6.44	122
3	360000	5.65	5.96	113
4	0	6.72	4.46	84.3
4	-10000	7.57	5.31	100
4	-20000	7.56	5.3	100
4	-30000	7.75	5.49	104
4	-40000	7.68	5.42	102
4	-50000	8.48	6.22	118
4	-60000	9.11	6.85	129
4	-70000	9.29	7.03	133
4	-80000	9.19	6.93	131
4	-90000	9.59	7.33	139
4	-100000	8.98	6.72	127
4	-110000	8.33	6.07	115
4	-120000	8.62	6.36	120
4	-130000	9.38	7.12	134
4	-140000	9.24	6.98	132
4	-150000	9.02	6.76	128
4	-160000	9.26	7	132
4	-170000	9.12	6.86	130
4	-180000	8.82	6.56	124
4	-190000	8.4	6.14	116
4	-200000	8.52	6.26	118
4	-210000	8.52	6.26	118
4	-220000	8.34	6.08	115
4	-230000	8.43	6.17	117
4	-240000	8.08	5.82	110
4	-250000	8.24	5.98	113
4	-260000	8.46	6.2	117
4	-270000	8.54	6.28	119
4	-280000	8.39	6.13	116
4	-290000	8.47	6.21	117
4	-300000	8.32	6.06	115
4	-310000	8.19	5.93	112
4	-320000	7.61	5.35	101
4	-330000	7.35	5.09	96.2
4	-340000	7.12	4.86	91.9
4	-350000	6.88	4.62	87.3
4	-360000	6.39	4.13	78.1
4	0	5.21	5.5	104
4	10000	5.84	6.16	116
4	20000	5.45	5.75	109
4	30000	4.78	5.06	95.7
4	40000	4.97	5.26	99.4
4	50000	4.7	4.98	94.2
4	60000	4.96	5.25	99.2
4	70000	5.82	6.13	116
4	80000	6.08	6.41	121
4	90000	5.86	6.17	117
4	100000	6.07	6.4	121
4	110000	6.17	6.5	123
4	120000	5.95	6.27	119
4	130000	5.63	5.94	112
4	140000	5.77	6.08	115
4	150000	6.02	6.34	120
4	160000	5.46	5.75	109
4	170000	5.4	5.69	108
4	180000	5.56	5.86	111
4	190000	5.38	5.67	107
4	200000	5.11	5.4	102
4	210000	5.35	5.64	107
4	220000	5.35	5.64	107
4	230000	5.43	5.72	108
4	240000	5.16	5.45	103
4	250000	5.12	5.41	102
4	260000	5.1	5.39	102
4	270000	5.33	5.62	106
4	280000	5.8	6.12	116
4	290000	5.21	5.49	104
4	300000	4.92	5.2	98.3
4	310000	5.11	5.4	102
4	320000	4.95	5.23	98.9
4	330000	4.64	4.92	93
4	340000	4.68	4.96	93.8
4	350000	4.72	5.01	94.6
4	360000	4.5	4.78	90.4
5	0	5.19	2.98	56.2
5	-10000	6.68	4.42	83.5
5	-20000	7.52	5.26	99.5
5	-30000	8.43	6.17	117
5	-40000	8.89	6.63	125
5	-50000	9.3	7.04	133
5	-60000	9.7	7.44	141
5	-70000	9.39	7.13	135
5	-80000	9.02	6.76	128
5	-90000	9.14	6.88	130
5	-100000	9	6.74	127
5	-110000	8.16	5.9	111
5	-120000	8.27	6.01	114
5	-130000	8.23	5.97	113
5	-140000	8.05	5.79	109
5	-150000	8.1	5.84	110
5	-160000	8.59	6.33	120
5	-170000	8.57	6.31	119
5	-180000	8.25	5.99	113
5	-190000	8.57	6.31	119
5	-200000	9.44	7.18	136
5	-210000	9.8	7.54	142
5	-220000	9.51	7.25	137
5	-230000	9.03	6.77	128
5	-240000	8.6	6.34	120
5	-250000	8.25	5.99	113
5	-260000	7.85	5.59	106
5	-270000	7.39	5.13	96.9
5	-280000	7.41	5.15	97.3
5	-290000	7.34	5.08	95.9
5	-300000	7.41	5.15	97.4
5	-310000	7.11	4.85	91.7
5	-320000	7.04	4.78	90.3
5	-330000	7	4.74	89.6
5	-340000	7.18	4.92	93
5	-350000	7.31	5.05	95.4
5	-360000	6.98	4.72	89.2
5	0	5.76	6.07	115
5	10000	5.47	5.77	109
5	20000	5.12	5.41	102
5	30000	4.97	5.26	99.4
5	40000	4.76	5.04	95.3
5	50000	4.74	5.03	95.1
5	60000	5.24	5.52	104
5	70000	5.37	5.66	107
5	80000	5.34	5.63	106
5	90000	5.08	5.37	101
5	100000	5.01	5.3	100
5	110000	4.92	5.2	98.3
5	120000	5	5.28	99.8
5	130000	5.14	5.42	102
5	140000	5.43	5.72	108
5	150000	5.61	5.92	112
5	160000	4.75	5.04	95.2
5	170000	4.82	5.11	96.6
5	180000	5.02	5.31	100
5	190000	4.57	4.85	91.7
5	200000	4.4	4.68	88.5
5	210000	4.61	4.9	92.6
5	220000	4.43	4.72	89.2
5	230000	4.33	4.62	87.3
5	240000	3.92	4.2	79.4
5	250000	4.14	4.43	83.7
5	260000	3.78	4.07	76.9
5	270000	3.89	4.18	79
5	280000	3.79	4.07	77
5	290000	3.62	3.9	73.7
5	300000	3.93	4.22	79.7
5	310000	4.4	4.69	88.6
5	320000	4.29	4.58	86.5
5	330000	4.07	4.36	82.3
5	340000	3.91	4.2	79.4
5	350000	4.08	4.37	82.6
5	360000	4.24	4.53	85.6
6	0	5.54	3.28	62
6	-10000	6.2	3.94	74.4
6	-20000	6.37	4.11	77.7
6	-30000	6.39	4.13	78.1
6	-40000	6.22	3.96	74.8
6	-50000	6.31	4.05	76.6
6	-60000	7.04	4.78	90.4
6	-70000	7.5	5.24	99
6	-80000	8.49	6.23	118
6	-90000	9.02	6.76	128
6	-100000	8.57	6.31	119
6	-110000	8.17	5.91	112
6	-120000	8.28	6.02	114
6	-130000	8.13	5.87	111
6	-140000	7.64	5.38	102
6	-150000	7.4	5.14	97.2
6	-160000	7.61	5.35	101
6	-170000	7.59	5.33	101
6	-180000	7.42	5.16	97.6
6	-190000	7.59	5.33	101
6	-200000	8.13	5.87	111
6	-210000	8.15	5.89	111
6	-220000	8.05	5.79	109
6	-230000	7.94	5.68	107
6	-240000	7.86	5.6	106
6	-250000	7.59	5.33	101
6	-260000	6.96	4.7	88.9
6	-270000	7.03	4.77	90.2
6	-280000	6.92	4.66	88
6	-290000	6.45	4.19	79.2
6	-300000	6.76	4.5	85
6	-310000	6.92	4.66	88.1
6	-320000	6.95	4.69	88.7
6	-330000	6.91	4.65	88
6	-340000	6.61	4.35	82.1
6	-350000	6.37	4.11	77.7
6	-360000	5.85	3.59	67.9
