rep_num	position	torque	torque_compensated	lbs_compensated
1	0	3.98	4.26	80.6
1	10000	6.1	6.43	121
1	20000	7.03	7.41	140
1	30000	6.51	6.86	130
1	40000	5.81	6.13	116
1	50000	6.42	6.77	128
1	60000	6.27	6.61	125
1	70000	6.05	6.38	121
1	80000	6.47	6.82	129
1	90000	7.09	7.48	141
1	100000	7.58	7.99	151
1	110000	7.76	8.18	155
1	120000	7.81	8.24	156
1	130000	7.94	8.37	158
1	140000	7.77	8.19	155
1	150000	7.89	8.31	157
1	160000	7.38	7.77	147
1	170000	7.62	8.04	152
1	180000	7.97	8.4	159
1	190000	7.55	7.96	150
1	200000	7.15	7.53	142
1	210000	8.29	8.74	165
1	220000	8.38	8.83	167
1	230000	7.92	8.34	158
1	240000	8.11	8.55	162
1	250000	8.18	8.62	163
1	260000	8.08	8.52	161
1	270000	8.06	8.49	160
1	280000	8.12	8.56	162
1	290000	8.89	9.37	177
1	300000	8.51	8.97	169
1	310000	8.46	8.92	169
1	320000	8.22	8.66	164
1	330000	8.48	8.94	169
1	340000	8.44	8.9	168
1	350000	8.41	8.87	168
1	360000	8.31	8.76	166
2	0	8.7	6.44	122
2	-10000	11.1	8.79	166
2	-20000	12.1	9.81	185
2	-30000	12.1	9.82	186
2	-40000	11.6	9.37	177
2	-50000	11.7	9.42	178
2	-60000	11.8	9.57	181
2	-70000	11.5	9.26	175
2	-80000	11.6	9.29	176
2	-90000	11.2	8.9	168
2	-100000	11.1	8.86	167
2	-110000	10.5	8.24	156
2	-120000	9.76	7.5	142
2	-130000	10.1	7.87	149
2	-140000	9.78	7.52	142
2	-150000	9.37	7.11	134
2	-160000	10	7.76	147
2	-170000	11	8.74	165
2	-180000	10.8	8.53	161
2	-190000	9.66	7.4	140
2	-200000	9.48	7.22	136
2	-210000	10.2	7.95	150
2	-220000	10.6	8.36	158
2	-230000	10.8	8.53	161
2	-240000	11.1	8.82	167
2	-250000	10.3	8.09	153
2	-260000	10	7.77	147
2	-270000	9.67	7.41	140
2	-280000	9.32	7.06	133
2	-290000	10.2	7.93	150
2	-300000	10.6	8.33	158
2	-310000	10.2	7.93	150
2	-320000	9.77	7.51	142
2	-330000	9.74	7.48	141
2	-340000	9.51	7.25	137
2	-350000	8.86	6.6	125
2	-360000	9.17	6.91	131
2	0	7.02	7.4	140
2	10000	6.69	7.05	133
2	20000	7.22	7.61	144
2	30000	6.99	7.37	139
2	40000	6.46	6.81	129
2	50000	6.78	7.14	135
2	60000	6.67	7.03	133
2	70000	7.01	7.39	140
2	80000	6.74	7.11	134
2	90000	7.37	7.77	147
2	100000	7.68	8.09	153
2	110000	7.55	7.96	150
2	120000	7.4	7.81	148
2	130000	7.7	8.12	153
2	140000	7.85	8.28	156
2	150000	7.85	8.27	156
2	160000	7.16	7.55	143
2	170000	7.44	7.84	148
2	180000	7.95	8.38	158
2	190000	7.46	7.86	149
2	200000	7.05	7.43	140
2	210000	7.9	8.33	157
2	220000	8.03	8.47	160
2	230000	6.97	7.35	139
2	240000	7	7.38	140
2	250000	7.46	7.87	149
2	260000	7.31	7.71	146
2	270000	7.15	7.53	142
2	280000	6.85	7.22	136
2	290000	6.97	7.35	139
2	300000	6.45	6.8	128
2	310000	6.43	6.77	128
2	320000	6.1	6.43	122
2	330000	6.56	6.91	131
2	340000	7.14	7.53	142
2	350000	6.81	7.18	136
2	360000	6.67	7.04	133
3	0	8.11	5.85	111
3	-10000	8.77	6.51	123
3	-20000	10.2	7.94	150
3	-30000	9.3	7.04	133
3	-40000	9.8	7.54	143
3	-50000	11.4	9.12	172
3	-60000	12.8	10.5	199
3	-70000	12.7	10.4	197
3	-80000	12.6	10.3	195
3	-90000	13.1	10.8	204
3	-100000	13.6	11.3	214
3	-110000	13.5	11.2	212
3	-120000	12.5	10.3	194
3	-130000	12.7	10.4	197
3	-140000	11.9	9.69	183
3	-150000	11.3	9.02	171
3	-160000	11.1	8.8	166
3	-170000	11.1	8.81	166
3	-180000	11.3	9.04	171
3	-190000	10.7	8.43	159
3	-200000	10.3	8.04	152
3	-210000	10.2	7.94	150
3	-220000	10.4	8.14	154
3	-230000	10.3	8.04	152
3	-240000	10.7	8.42	159
3	-250000	11.3	9.03	171
3	-260000	9.74	7.48	141
3	-270000	9.39	7.13	135
3	-280000	8.99	6.73	127
3	-290000	8.54	6.28	119
3	-300000	8.05	5.79	110
3	-310000	7.86	5.6	106
3	-320000	7.89	5.63	106
3	-330000	8.01	5.75	109
3	-340000	7.43	5.17	97.7
3	-350000	6.5	4.24	80.1
3	-360000	7	4.74	89.6
3	0	5.53	5.83	110
3	10000	6.73	7.09	134
3	20000	6.43	6.78	128
3	30000	5.37	5.66	107
3	40000	6.38	6.73	127
3	50000	6.69	7.06	133
3	60000	6.66	7.01	133
3	70000	6.71	7.07	134
3	80000	6.96	7.33	139
3	90000	7.35	7.74	146
3	100000	7.25	7.65	145
3	110000	6.74	7.1	134
3	120000	6.44	6.79	128
3	130000	6.79	7.15	135
3	140000	6.57	6.92	131
3	150000	6.35	6.7	127
3	160000	5.8	6.11	116
3	170000	6.38	6.72	127
3	180000	6.4	6.75	128
3	190000	6.02	6.35	120
3	200000	5.83	6.14	116
3	210000	6.27	6.6	125
3	220000	6.37	6.72	127
3	230000	5.59	5.89	111
3	240000	5.91	6.23	118
3	250000	6.5	6.85	130
3	260000	6.98	7.36	139
3	270000	6.57	6.93	131
3	280000	6.91	7.29	138
3	290000	7.32	7.72	146
3	300000	6.82	7.19	136
3	310000	6.21	6.54	124
3	320000	5.62	5.92	112
3	330000	5.8	6.11	115
3	340000	5.77	6.08	115
3	350000	5.86	6.17	117
3	360000	6.12	6.45	122
4	0	7.3	5.04	95.2
4	-10000	7.9	5.64	107
4	-20000	7.87	5.61	106
4	-30000	8.16	5.9	112
4	-40000	7.43	5.17	97.6
4	-50000	8.13	5.87	111
4	-60000	9.1	6.84	129
4	-70000	8.29	6.03	114
4	-80000	8.21	5.95	112
4	-90000	9.24	6.98	132
4	-100000	9.91	7.65	145
4	-110000	9.69	7.43	140
4	-120000	9.1	6.84	129
4	-130000	9.69	7.43	140
4	-140000	9.39	7.13	135
4	-150000	8.91	6.65	126
4	-160000	8.94	6.68	126
4	-170000	9.45	7.19	136
4	-180000	9.12	6.86	130
4	-190000	9.26	7	132
4	-200000	9.47	7.21	136
4	-210000	9.46	7.2	136
4	-220000	9.21	6.95	131
4	-230000	9.18	6.92	131
4	-240000	8.59	6.33	120
4	-250000	8.58	6.32	119
4	-260000	8.48	6.22	117
4	-270000	8.2	5.94	112
4	-280000	8.35	6.09	115
4	-290000	8.02	5.76	109
4	-300000	8.31	6.05	114
4	-310000	8.21	5.95	113
4	-320000	7.88	5.62	106
4	-330000	7.5	5.24	99.1
4	-340000	7.19	4.93	93.3
4	-350000	6.88	4.62	87.4
4	-360000	7.69	5.43	103
4	0	5.97	6.3	119
4	10000	5.87	6.19	117
4	20000	6	6.33	120
4	30000	5.49	5.79	109
4	40000	5.25	5.53	105
4	50000	5.41	5.7	108
4	60000	5.11	5.4	102
4	70000	4.71	4.99	94.4
4	80000	4.44	4.73	89.4
4	90000	5.18	5.46	103
4	100000	5.36	5.65	107
4	110000	4.95	5.23	98.9
4	120000	4.56	4.84	91.5
4	130000	4.64	4.93	93.2
4	140000	4.52	4.81	90.9
4	150000	4.18	4.46	84.3
4	160000	4.52	4.8	90.8
4	170000	5.3	5.58	106
4	180000	5.67	5.97	113
4	190000	5.1	5.39	102
4	200000	4.44	4.73	89.3
4	210000	5.29	5.57	105
4	220000	5.84	6.15	116
4	230000	4.98	5.26	99.5
4	240000	5.36	5.65	107
4	250000	5.47	5.77	109
4	260000	5.15	5.44	103
4	270000	4.69	4.97	94
4	280000	4.34	4.63	87.5
4	290000	4.32	4.61	87.1
4	300000	3.94	4.23	79.9
4	310000	3.72	4.01	75.8
4	320000	3.72	4	75.6
4	330000	4	4.29	81
4	340000	4.03	4.31	81.5
4	350000	4.15	4.44	83.9
4	360000	4.49	4.77	90.2
5	0	6.18	3.92	74.1
5	-10000	7.54	5.28	99.8
5	-20000	7.91	5.65	107
5	-30000	7.85	5.59	106
5	-40000	7.39	5.13	97
5	-50000	7.24	4.98	94.1
5	-60000	7.56	5.3	100
5	-70000	7.65	5.39	102
5	-80000	7.6	5.34	101
5	-90000	8.31	6.05	114
5	-100000	9.18	6.92	131
5	-110000	9.01	6.75	128
5	-120000	9.07	6.81	129
5	-130000	9.36	7.1	134
5	-140000	8.91	6.65	126
5	-150000	9.78	7.52	142
5	-160000	10.7	8.41	159
5	-170000	10.6	8.31	157
5	-180000	10	7.76	147
5	-190000	9.23	6.97	132
5	-200000	8.52	6.26	118
5	-210000	8.29	6.03	114
5	-220000	8.34	6.08	115
5	-230000	8.06	5.8	110
5	-240000	7.6	5.34	101
5	-250000	7.34	5.08	96.1
5	-260000	7.72	5.46	103
5	-270000	7.41	5.15	97.3
5	-280000	6.89	4.63	87.5
5	-290000	7.21	4.95	93.6
5	-300000	7.49	5.23	98.9
5	-310000	7.27	5.01	94.6
5	-320000	7.46	5.2	98.2
5	-330000	7.17	4.91	92.8
5	-340000	7.11	4.85	91.7
5	-350000	6.42	4.16	78.7
5	-360000	6.96	4.7	88.7
5	0	5.87	6.19	117
5	10000	5.35	5.63	106
5	20000	4.82	5.11	96.5
5	30000	4.01	4.3	81.3
5	40000	3.57	3.85	72.8
5	50000	3.73	4.02	75.9
5	60000	4.2	4.49	84.8
5	70000	3.78	4.07	76.9
5	80000	3.73	4.01	75.9
5	90000	4.36	4.65	87.8
5	100000	4.7	4.99	94.3
5	110000	4.33	4.62	87.3
5	120000	4.27	4.56	86.2
5	130000	4.52	4.81	90.9
5	140000	4.23	4.52	85.4
5	150000	4.12	4.41	83.3
5	160000	3.7	3.99	75.4
5	170000	3.81	4.1	77.4
5	180000	4.16	4.45	84.1
5	190000	3.74	4.03	76.2
5	200000	3.43	3.72	70.3
5	210000	4.17	4.46	84.2
5	220000	4.11	4.4	83.1
5	230000	3.96	4.25	80.3
5	240000	3.61	3.9	73.7
5	250000	4.23	4.52	85.4
5	260000	3.96	4.25	80.3
5	270000	3.28	3.57	67.4
5	280000	3.21	3.5	66.2
5	290000	3.62	3.91	73.9
5	300000	3.21	3.49	66
5	310000	2.91	3.19	60.4
5	320000	3.01	3.29	62.2
5	330000	3.35	3.63	68.7
5	340000	3.76	4.05	76.5
5	350000	3.57	3.85	72.9
5	360000	3.87	4.16	78.6
6	0	5.33	3.07	58
6	-10000	5.51	3.25	61.4
6	-20000	6.25	3.99	75.4
6	-30000	7	4.74	89.6
6	-40000	7.12	4.86	91.8
6	-50000	7.57	5.31	100
6	-60000	7.82	5.56	105
6	-70000	7.38	5.12	96.8
6	-80000	6.98	4.72	89.3
6	-90000	7.29	5.03	95.1
6	-100000	7.81	5.55	105
6	-110000	7.76	5.5	104
6	-120000	8.15	5.89	111
6	-130000	8.93	6.67	126
6	-140000	8.47	6.21	117
6	-150000	7.61	5.35	101
6	-160000	7.73	5.47	103
6	-170000	7.9	5.64	107
6	-180000	7.53	5.27	99.6
6	-190000	6.84	4.58	86.5
6	-200000	6.93	4.67	88.2
6	-210000	7.59	5.33	101
6	-220000	7.67	5.41	102
6	-230000	7.39	5.13	97
6	-240000	7.01	4.75	89.7
6	-250000	7.01	4.75	89.7
6	-260000	7.12	4.86	91.8
6	-270000	7.11	4.85	91.7
6	-280000	6.61	4.35	82.2
6	-290000	6.64	4.38	82.7
6	-300000	7.1	4.84	91.4
6	-310000	6.79	4.53	85.6
6	-320000	6.55	4.29	81.2
6	-330000	6.55	4.29	81.2
6	-340000	6.46	4.2	79.3
6	-350000	5.55	3.29	62.2
6	-360000	5.63	3.37	63.6
