rep_num	position	torque	torque_compensated	lbs_compensated
1	0	4.08	4.37	82.6
1	10000	6.04	6.37	120
1	20000	6.28	6.62	125
1	30000	6.36	6.71	127
1	40000	6.32	6.66	126
1	50000	6.71	7.07	134
1	60000	6.89	7.26	137
1	70000	7.15	7.54	143
1	80000	7.15	7.54	143
1	90000	7.31	7.7	146
1	100000	7.48	7.89	149
1	110000	7.24	7.63	144
1	120000	7.02	7.4	140
1	130000	7.13	7.51	142
1	140000	6.92	7.29	138
1	150000	6.83	7.2	136
1	160000	7.25	7.64	144
1	170000	7.41	7.81	148
1	180000	7.44	7.85	148
1	190000	7.51	7.92	150
1	200000	7.85	8.27	156
1	210000	7.88	8.31	157
1	220000	7.77	8.19	155
1	230000	8.1	8.54	161
1	240000	8.05	8.49	160
1	250000	7.8	8.22	155
1	260000	7.84	8.26	156
1	270000	7.79	8.21	155
1	280000	8.02	8.45	160
1	290000	7.91	8.34	158
1	300000	7.83	8.25	156
1	310000	8.2	8.64	163
1	320000	8.14	8.58	162
1	330000	8.66	9.13	173
1	340000	8.7	9.17	173
1	350000	8.92	9.4	178
1	360000	8.87	9.35	177
2	0	10.2	7.91	149
2	-10000	11.4	9.18	174
2	-20000	11.5	9.26	175
2	-30000	11.3	9.06	171
2	-40000	11.5	9.28	175
2	-50000	11	8.75	165
2	-60000	10.4	8.1	153
2	-70000	10.1	7.86	149
2	-80000	10.2	7.98	151
2	-90000	9.79	7.53	142
2	-100000	9.18	6.92	131
2	-110000	9.63	7.37	139
2	-120000	9.56	7.3	138
2	-130000	9.4	7.14	135
2	-140000	9.43	7.17	135
2	-150000	9.07	6.81	129
2	-160000	8.72	6.46	122
2	-170000	8.38	6.12	116
2	-180000	8.58	6.32	119
2	-190000	8.53	6.27	118
2	-200000	8.13	5.87	111
2	-210000	8.55	6.29	119
2	-220000	9	6.74	127
2	-230000	9.3	7.04	133
2	-240000	9.63	7.37	139
2	-250000	8.98	6.72	127
2	-260000	8.5	6.24	118
2	-270000	8.29	6.03	114
2	-280000	8.44	6.18	117
2	-290000	8.41	6.15	116
2	-300000	7.89	5.63	106
2	-310000	7.72	5.46	103
2	-320000	8.09	5.83	110
2	-330000	8.62	6.36	120
2	-340000	8.46	6.2	117
2	-350000	8.16	5.9	111
2	-360000	7.91	5.65	107
2	0	7.02	7.4	140
2	10000	6.85	7.22	136
2	20000	6.58	6.94	131
2	30000	6.32	6.67	126
2	40000	6.4	6.75	128
2	50000	6.7	7.06	133
2	60000	7	7.38	139
2	70000	6.34	6.68	126
2	80000	6.61	6.96	132
2	90000	6.99	7.37	139
2	100000	7.6	8.01	151
2	110000	7.45	7.86	149
2	120000	7.2	7.59	144
2	130000	7.44	7.84	148
2	140000	7.61	8.02	152
2	150000	7.27	7.67	145
2	160000	7.57	7.98	151
2	170000	7.37	7.77	147
2	180000	6.88	7.25	137
2	190000	7.04	7.42	140
2	200000	7.33	7.73	146
2	210000	7.25	7.65	145
2	220000	7.54	7.95	150
2	230000	7.75	8.17	154
2	240000	7.64	8.05	152
2	250000	7.32	7.71	146
2	260000	7.62	8.03	152
2	270000	7.88	8.3	157
2	280000	7.73	8.15	154
2	290000	7.68	8.1	153
2	300000	7.63	8.04	152
2	310000	8.04	8.47	160
2	320000	7.48	7.88	149
2	330000	7.4	7.8	147
2	340000	7.2	7.59	143
2	350000	7.38	7.78	147
2	360000	7.19	7.58	143
3	0	8.4	6.14	116
3	-10000	9.52	7.26	137
3	-20000	10.1	7.84	148
3	-30000	10.1	7.88	149
3	-40000	10.4	8.15	154
3	-50000	10.2	7.91	149
3	-60000	9.72	7.46	141
3	-70000	9.48	7.22	136
3	-80000	9.21	6.95	131
3	-90000	8.8	6.54	124
3	-100000	8.91	6.65	126
3	-110000	9.58	7.32	138
3	-120000	9.48	7.22	136
3	-130000	9.11	6.85	129
3	-140000	9.1	6.84	129
3	-150000	8.72	6.46	122
3	-160000	8.56	6.3	119
3	-170000	8.47	6.21	117
3	-180000	8.29	6.03	114
3	-190000	8.34	6.08	115
3	-200000	8.46	6.2	117
3	-210000	7.74	5.48	104
3	-220000	7.96	5.7	108
3	-230000	8.32	6.06	115
3	-240000	9.38	7.12	135
3	-250000	9.7	7.44	141
3	-260000	9.44	7.18	136
3	-270000	9.08	6.82	129
3	-280000	9.4	7.14	135
3	-290000	8.84	6.58	124
3	-300000	8.39	6.13	116
3	-310000	8.38	6.12	116
3	-320000	8.79	6.53	123
3	-330000	8.71	6.45	122
3	-340000	8.47	6.21	117
3	-350000	8.13	5.87	111
3	-360000	7.78	5.52	104
3	0	6.62	6.98	132
3	10000	5.87	6.19	117
3	20000	5.87	6.18	117
3	30000	5.9	6.21	117
3	40000	6.06	6.38	121
3	50000	6.49	6.85	129
3	60000	6.9	7.28	138
3	70000	7.12	7.51	142
3	80000	7.08	7.46	141
3	90000	7.02	7.4	140
3	100000	7.12	7.51	142
3	110000	6.24	6.58	124
3	120000	6.64	7	132
3	130000	6.97	7.34	139
3	140000	6.92	7.29	138
3	150000	6.91	7.28	138
3	160000	7.09	7.48	141
3	170000	6.73	7.1	134
3	180000	6.33	6.68	126
3	190000	6.51	6.86	130
3	200000	6.65	7.01	132
3	210000	6.25	6.59	124
3	220000	5.69	6	113
3	230000	6.3	6.64	125
3	240000	6.27	6.61	125
3	250000	6.02	6.35	120
3	260000	6.52	6.87	130
3	270000	6.92	7.29	138
3	280000	7.13	7.51	142
3	290000	7.02	7.4	140
3	300000	6.87	7.25	137
3	310000	6.62	6.98	132
3	320000	6.11	6.44	122
3	330000	6.15	6.48	123
3	340000	5.61	5.91	112
3	350000	6.37	6.72	127
3	360000	6.97	7.35	139
4	0	8.1	5.84	110
4	-10000	8.83	6.57	124
4	-20000	8.95	6.69	126
4	-30000	9.14	6.88	130
4	-40000	9.48	7.22	137
4	-50000	9.27	7.01	132
4	-60000	9.02	6.76	128
4	-70000	9.16	6.9	130
4	-80000	9.95	7.69	145
4	-90000	9.64	7.38	140
4	-100000	9.46	7.2	136
4	-110000	9.74	7.48	141
4	-120000	9.6	7.34	139
4	-130000	8.96	6.7	127
4	-140000	8.87	6.61	125
4	-150000	8.89	6.63	125
4	-160000	8.7	6.44	122
4	-170000	8.45	6.19	117
4	-180000	8.33	6.07	115
4	-190000	8.14	5.88	111
4	-200000	8.04	5.78	109
4	-210000	8.08	5.82	110
4	-220000	8.16	5.9	112
4	-230000	8.06	5.8	110
4	-240000	8.45	6.19	117
4	-250000	8.5	6.24	118
4	-260000	8.07	5.81	110
4	-270000	8.07	5.81	110
4	-280000	8.4	6.14	116
4	-290000	8.98	6.72	127
4	-300000	8.72	6.46	122
4	-310000	8.51	6.25	118
4	-320000	8.35	6.09	115
4	-330000	7.95	5.69	108
4	-340000	7.54	5.28	99.8
4	-350000	7.17	4.91	92.8
4	-360000	7.03	4.77	90.2
4	0	6.11	6.44	122
4	10000	5.7	6	113
4	20000	4.69	4.97	94
4	30000	5.14	5.42	102
4	40000	5.2	5.48	104
4	50000	5.04	5.33	101
4	60000	5.46	5.76	109
4	70000	6.15	6.49	123
4	80000	6.21	6.55	124
4	90000	6.11	6.44	122
4	100000	6.27	6.61	125
4	110000	6	6.33	120
4	120000	5.92	6.24	118
4	130000	5.82	6.14	116
4	140000	4.79	5.08	96
4	150000	4.84	5.13	96.9
4	160000	5.35	5.64	107
4	170000	5.28	5.57	105
4	180000	5.26	5.55	105
4	190000	5.31	5.59	106
4	200000	5.48	5.77	109
4	210000	5.44	5.74	108
4	220000	5.43	5.73	108
4	230000	5.61	5.92	112
4	240000	5.49	5.79	109
4	250000	5.13	5.42	102
4	260000	5.18	5.47	103
4	270000	5.43	5.72	108
4	280000	5.24	5.53	105
4	290000	5.09	5.38	102
4	300000	4.69	4.98	94.1
4	310000	5.01	5.29	100
4	320000	4.35	4.64	87.7
4	330000	4.75	5.04	95.3
4	340000	4.71	5	94.4
4	350000	5.28	5.56	105
4	360000	5.56	5.86	111
5	0	6.88	4.62	87.4
5	-10000	8.36	6.1	115
5	-20000	8.63	6.37	120
5	-30000	8.67	6.41	121
5	-40000	8.99	6.73	127
5	-50000	8.65	6.39	121
5	-60000	8.09	5.83	110
5	-70000	8.25	5.99	113
5	-80000	8.47	6.21	117
5	-90000	8.18	5.92	112
5	-100000	8.09	5.83	110
5	-110000	8.8	6.54	124
5	-120000	8.73	6.47	122
5	-130000	8.57	6.31	119
5	-140000	8.7	6.44	122
5	-150000	8.34	6.08	115
5	-160000	7.94	5.68	107
5	-170000	7.68	5.42	102
5	-180000	7.84	5.58	106
5	-190000	7.64	5.38	102
5	-200000	7.45	5.19	98
5	-210000	7.38	5.12	96.8
5	-220000	7.72	5.46	103
5	-230000	7.79	5.53	104
5	-240000	8.15	5.89	111
5	-250000	8.27	6.01	114
5	-260000	8.37	6.11	115
5	-270000	8.64	6.38	121
5	-280000	8.79	6.53	123
5	-290000	8.28	6.02	114
5	-300000	8.04	5.78	109
5	-310000	7.71	5.45	103
5	-320000	7.82	5.56	105
5	-330000	7.76	5.5	104
5	-340000	7.55	5.29	100
5	-350000	7.12	4.86	91.8
5	-360000	6.61	4.35	82.2
5	0	5.72	6.03	114
5	10000	5.38	5.67	107
5	20000	4.97	5.26	99.4
5	30000	4.95	5.24	99
5	40000	4.84	5.13	96.9
5	50000	4.33	4.62	87.3
5	60000	4.39	4.67	88.3
5	70000	4.41	4.7	88.8
5	80000	4.06	4.35	82.2
5	90000	4.26	4.55	85.9
5	100000	4.43	4.72	89.2
5	110000	4.46	4.75	89.8
5	120000	4.44	4.72	89.3
5	130000	4.53	4.82	91.1
5	140000	4.2	4.48	84.7
5	150000	4.42	4.7	88.9
5	160000	4.47	4.75	89.9
5	170000	4.23	4.51	85.3
5	180000	3.98	4.27	80.7
5	190000	3.65	3.93	74.3
5	200000	3.95	4.24	80.1
5	210000	3.58	3.87	73.1
5	220000	3.73	4.01	75.8
5	230000	4.21	4.49	84.9
5	240000	4.02	4.31	81.5
5	250000	3.91	4.19	79.2
5	260000	3.96	4.25	80.3
5	270000	3.85	4.14	78.2
5	280000	3.9	4.18	79.1
5	290000	3.39	3.67	69.4
5	300000	3.51	3.8	71.7
5	310000	3.82	4.11	77.6
5	320000	3.29	3.58	67.7
5	330000	3.4	3.68	69.6
5	340000	2.82	3.1	58.6
5	350000	3.49	3.78	71.4
5	360000	3.79	4.08	77
6	0	5.1	2.92	55.2
6	-10000	6.08	3.82	72.2
6	-20000	6.23	3.97	75.1
6	-30000	6.77	4.51	85.2
6	-40000	7.11	4.85	91.7
6	-50000	7.11	4.85	91.6
6	-60000	7.04	4.78	90.3
6	-70000	7.44	5.18	97.9
6	-80000	7.63	5.37	101
6	-90000	7.45	5.19	98
6	-100000	7.36	5.1	96.4
6	-110000	8.01	5.75	109
6	-120000	7.83	5.57	105
6	-130000	7.48	5.22	98.7
6	-140000	7.51	5.25	99.2
6	-150000	7.52	5.26	99.4
6	-160000	7.39	5.13	96.9
6	-170000	7.05	4.79	90.4
6	-180000	7	4.74	89.5
6	-190000	6.94	4.68	88.4
6	-200000	7.02	4.76	89.9
6	-210000	7.31	5.05	95.4
6	-220000	7.52	5.26	99.4
6	-230000	7.44	5.18	97.9
6	-240000	7.93	5.67	107
6	-250000	7.84	5.58	105
6	-260000	7.69	5.43	103
6	-270000	7.76	5.5	104
6	-280000	7.98	5.72	108
6	-290000	7.86	5.6	106
6	-300000	7.78	5.52	104
6	-310000	7.62	5.36	101
6	-320000	7.52	5.26	99.3
6	-330000	7.29	5.03	95
6	-340000	7.36	5.1	96.4
6	-350000	6.99	4.73	89.3
6	-360000	6.45	4.19	79.3
