rep_num	position	torque	torque_compensated	lbs_compensated
1	0	3.08	3.37	63.7
1	10000	4.89	5.17	97.8
1	20000	4.65	4.93	93.2
1	30000	4.53	4.82	91.1
1	40000	5.76	6.07	115
1	50000	5.72	6.02	114
1	60000	5.99	6.32	119
1	70000	6.39	6.73	127
1	80000	6.6	6.95	131
1	90000	7.06	7.44	141
1	100000	6.89	7.26	137
1	110000	7.27	7.66	145
1	120000	7.42	7.82	148
1	130000	7.54	7.94	150
1	140000	7.74	8.16	154
1	150000	7.92	8.34	158
1	160000	7.41	7.81	148
1	170000	7.8	8.22	155
1	180000	8.14	8.58	162
1	190000	8.22	8.66	164
1	200000	8.07	8.51	161
1	210000	8.63	9.1	172
1	220000	8.51	8.97	170
1	230000	8.29	8.74	165
1	240000	8.49	8.95	169
1	250000	8.4	8.86	167
1	260000	8.16	8.6	163
1	270000	8.18	8.62	163
1	280000	8.27	8.72	165
1	290000	7.81	8.23	156
1	300000	7.23	7.62	144
1	310000	7.85	8.27	156
1	320000	7.12	7.51	142
1	330000	6.47	6.82	129
1	340000	7.54	7.95	150
1	350000	8.15	8.59	162
1	360000	8.34	8.79	166
2	0	9.19	6.93	131
2	-10000	8.86	6.6	125
2	-20000	9.64	7.38	139
2	-30000	9.74	7.48	141
2	-40000	8.2	5.94	112
2	-50000	8.66	6.4	121
2	-60000	8.95	6.69	126
2	-70000	9.21	6.95	131
2	-80000	9.14	6.88	130
2	-90000	8.71	6.45	122
2	-100000	9.55	7.29	138
2	-110000	9.66	7.4	140
2	-120000	9.72	7.46	141
2	-130000	10.1	7.86	149
2	-140000	9.43	7.17	136
2	-150000	9.2	6.94	131
2	-160000	9.3	7.04	133
2	-170000	9.21	6.95	131
2	-180000	9.1	6.84	129
2	-190000	8.91	6.65	126
2	-200000	9.03	6.77	128
2	-210000	8.65	6.39	121
2	-220000	8.97	6.71	127
2	-230000	8.93	6.67	126
2	-240000	9	6.74	127
2	-250000	8.82	6.56	124
2	-260000	8.92	6.66	126
2	-270000	8.84	6.58	124
2	-280000	8.93	6.67	126
2	-290000	9.1	6.84	129
2	-300000	9.14	6.88	130
2	-310000	8.79	6.53	123
2	-320000	8.83	6.57	124
2	-330000	8.36	6.1	115
2	-340000	7.72	5.46	103
2	-350000	6.68	4.42	83.5
2	-360000	7.34	5.08	96
2	0	6.9	7.27	137
2	10000	7.86	8.29	157
2	20000	7.52	7.93	150
2	30000	6.85	7.22	136
2	40000	6.78	7.14	135
2	50000	6.74	7.1	134
2	60000	6.74	7.11	134
2	70000	7.1	7.48	141
2	80000	7.3	7.69	145
2	90000	7.66	8.07	153
2	100000	7.4	7.8	147
2	110000	7.66	8.07	153
2	120000	7.79	8.21	155
2	130000	7.89	8.32	157
2	140000	7.45	7.86	148
2	150000	6.85	7.22	136
2	160000	6.81	7.18	136
2	170000	6.98	7.36	139
2	180000	7.05	7.44	141
2	190000	7.02	7.4	140
2	200000	6.8	7.16	135
2	210000	7.2	7.59	143
2	220000	6.7	7.06	133
2	230000	6.46	6.8	129
2	240000	6.88	7.25	137
2	250000	7.25	7.65	144
2	260000	7.35	7.74	146
2	270000	7.57	7.98	151
2	280000	7.44	7.85	148
2	290000	7.33	7.73	146
2	300000	7.06	7.44	141
2	310000	7.45	7.86	149
2	320000	7.16	7.54	143
2	330000	6.92	7.3	138
2	340000	7.03	7.41	140
2	350000	6.71	7.07	134
2	360000	6.54	6.89	130
3	0	7.88	5.62	106
3	-10000	9.89	7.63	144
3	-20000	11.2	8.89	168
3	-30000	12.2	9.91	187
3	-40000	11.5	9.29	176
3	-50000	10.8	8.51	161
3	-60000	10.8	8.53	161
3	-70000	11.5	9.27	175
3	-80000	11.5	9.21	174
3	-90000	11.4	9.16	173
3	-100000	11.9	9.63	182
3	-110000	11.7	9.39	178
3	-120000	11.5	9.25	175
3	-130000	12.3	10	189
3	-140000	12.1	9.86	186
3	-150000	11.6	9.38	177
3	-160000	11.7	9.46	179
3	-170000	11.6	9.31	176
3	-180000	11.7	9.46	179
3	-190000	11.2	8.97	169
3	-200000	11.1	8.88	168
3	-210000	10.8	8.54	161
3	-220000	10.7	8.44	160
3	-230000	10.6	8.3	157
3	-240000	10.4	8.13	154
3	-250000	10	7.74	146
3	-260000	9.69	7.43	140
3	-270000	9.09	6.83	129
3	-280000	9.52	7.26	137
3	-290000	9.02	6.76	128
3	-300000	8.18	5.92	112
3	-310000	8.61	6.35	120
3	-320000	9.12	6.86	130
3	-330000	9.09	6.83	129
3	-340000	9.2	6.94	131
3	-350000	8.94	6.68	126
3	-360000	9	6.74	127
3	0	7.48	7.89	149
3	10000	3.78	4.07	76.9
3	20000	5.64	5.95	112
3	30000	6.63	6.99	132
3	40000	6.96	7.34	139
3	50000	6.86	7.23	137
3	60000	7	7.38	139
3	70000	6.93	7.3	138
3	80000	7.21	7.6	144
3	90000	7.09	7.48	141
3	100000	6.64	7	132
3	110000	6.84	7.21	136
3	120000	7.51	7.92	150
3	130000	7.52	7.93	150
3	140000	7.37	7.76	147
3	150000	7.16	7.55	143
3	160000	6.85	7.22	137
3	170000	6.67	7.03	133
3	180000	6.86	7.23	137
3	190000	6.38	6.73	127
3	200000	6.05	6.38	121
3	210000	6.43	6.78	128
3	220000	6.53	6.88	130
3	230000	6.45	6.79	128
3	240000	7.2	7.59	144
3	250000	7.11	7.49	142
3	260000	6.78	7.15	135
3	270000	6.71	7.07	134
3	280000	6.44	6.79	128
3	290000	6	6.32	119
3	300000	5.9	6.22	117
3	310000	6.28	6.62	125
3	320000	6.11	6.44	122
3	330000	6.04	6.36	120
3	340000	6.05	6.38	121
3	350000	6.11	6.44	122
3	360000	6.75	7.11	134
4	0	8.3	6.04	114
4	-10000	8.86	6.6	125
4	-20000	10.1	7.83	148
4	-30000	10.2	7.95	150
4	-40000	9.83	7.57	143
4	-50000	9.92	7.66	145
4	-60000	10.9	8.59	162
4	-70000	11.6	9.35	177
4	-80000	11.7	9.47	179
4	-90000	12.4	10.2	192
4	-100000	12.8	10.5	199
4	-110000	11.9	9.66	183
4	-120000	11.3	9.07	171
4	-130000	11.4	9.15	173
4	-140000	11.1	8.85	167
4	-150000	10.6	8.31	157
4	-160000	9.86	7.6	144
4	-170000	9.27	7.01	132
4	-180000	9.53	7.27	137
4	-190000	9.47	7.21	136
4	-200000	9.58	7.32	138
4	-210000	9.68	7.42	140
4	-220000	8.79	6.53	123
4	-230000	8.8	6.54	124
4	-240000	8.69	6.43	121
4	-250000	8.41	6.15	116
4	-260000	7.99	5.73	108
4	-270000	8	5.74	108
4	-280000	8.36	6.1	115
4	-290000	8.78	6.52	123
4	-300000	9.2	6.94	131
4	-310000	9.36	7.1	134
4	-320000	9.52	7.26	137
4	-330000	8.96	6.7	127
4	-340000	8.82	6.56	124
4	-350000	8.53	6.27	119
4	-360000	8.65	6.39	121
4	0	7.34	7.74	146
4	10000	6.38	6.72	127
4	20000	5.45	5.74	108
4	30000	5.38	5.67	107
4	40000	5.75	6.06	114
4	50000	5.49	5.79	109
4	60000	5.42	5.71	108
4	70000	5.72	6.02	114
4	80000	5.59	5.9	111
4	90000	5.42	5.71	108
4	100000	5.72	6.02	114
4	110000	5.96	6.28	119
4	120000	5.49	5.79	109
4	130000	5.53	5.82	110
4	140000	5.66	5.96	113
4	150000	5.56	5.86	111
4	160000	4.42	4.71	89
4	170000	4.63	4.92	92.9
4	180000	4.87	5.15	97.4
4	190000	4.94	5.23	98.8
4	200000	4.89	5.18	97.8
4	210000	4.9	5.19	98.1
4	220000	4.96	5.25	99.2
4	230000	5.01	5.3	100
4	240000	5.54	5.84	110
4	250000	5.51	5.81	110
4	260000	4.58	4.87	92
4	270000	4.92	5.2	98.3
4	280000	4.75	5.03	95.1
4	290000	4.8	5.08	96.1
4	300000	4.5	4.78	90.4
4	310000	4.5	4.79	90.5
4	320000	4.18	4.47	84.5
4	330000	4.34	4.63	87.5
4	340000	4.48	4.76	90
4	350000	4.39	4.68	88.5
4	360000	4.4	4.69	88.6
5	0	5.81	3.55	67
5	-10000	7.48	5.22	98.7
5	-20000	7.75	5.49	104
5	-30000	7.84	5.58	105
5	-40000	7.79	5.53	104
5	-50000	8.9	6.64	125
5	-60000	9.86	7.6	144
5	-70000	10.6	8.32	157
5	-80000	11.2	8.93	169
5	-90000	11.3	9.09	172
5	-100000	11.3	9.04	171
5	-110000	10.2	7.94	150
5	-120000	8.83	6.57	124
5	-130000	9.28	7.02	133
5	-140000	8.44	6.18	117
5	-150000	7.6	5.34	101
5	-160000	8.29	6.03	114
5	-170000	8.75	6.49	123
5	-180000	8.89	6.63	125
5	-190000	8.77	6.51	123
5	-200000	8.98	6.72	127
5	-210000	8.53	6.27	119
5	-220000	8.27	6.01	114
5	-230000	8.08	5.82	110
5	-240000	8.15	5.89	111
5	-250000	7.54	5.28	99.8
5	-260000	7.89	5.63	106
5	-270000	8.17	5.91	112
5	-280000	7.74	5.48	104
5	-290000	7.49	5.23	98.9
5	-300000	8.38	6.12	116
5	-310000	8.35	6.09	115
5	-320000	8.2	5.94	112
5	-330000	7.84	5.58	105
5	-340000	7.45	5.19	98
5	-350000	6.92	4.66	88
5	-360000	6.82	4.56	86.2
5	0	5.98	6.3	119
5	10000	5.52	5.82	110
5	20000	5.33	5.62	106
5	30000	4.76	5.05	95.4
5	40000	4.56	4.85	91.6
5	50000	4.07	4.36	82.4
5	60000	3.72	4.01	75.7
5	70000	3.79	4.08	77.1
5	80000	3.66	3.95	74.6
5	90000	3.71	4	75.6
5	100000	3.82	4.1	77.6
5	110000	3.75	4.03	76.2
5	120000	3.78	4.06	76.8
5	130000	3.17	3.46	65.3
5	140000	3.31	3.6	68
5	150000	3.39	3.67	69.4
5	160000	3.32	3.61	68.2
5	170000	3.1	3.39	64
5	180000	3.19	3.48	65.7
5	190000	3.17	3.46	65.4
5	200000	3.22	3.51	66.3
5	210000	3.7	3.99	75.4
5	220000	3.65	3.94	74.4
5	230000	3.7	3.99	75.4
5	240000	3.91	4.19	79.3
5	250000	3.74	4.03	76.2
5	260000	3.34	3.63	68.5
5	270000	3.51	3.8	71.8
5	280000	3.31	3.6	68
5	290000	3.28	3.57	67.4
5	300000	2.87	3.16	59.7
5	310000	3.07	3.35	63.4
5	320000	2.8	3.08	58.3
5	330000	2.91	3.2	60.4
5	340000	3.41	3.69	69.8
5	350000	3.29	3.58	67.6
5	360000	3.42	3.71	70.1
6	0	4.49	2.57	48.6
6	-10000	5.31	3.05	57.6
6	-20000	6.17	3.91	74
6	-30000	6.8	4.54	85.8
6	-40000	7.07	4.81	90.9
6	-50000	7.56	5.3	100
6	-60000	8.31	6.05	114
6	-70000	8.64	6.38	121
6	-80000	8.4	6.14	116
6	-90000	8.13	5.87	111
6	-100000	8.82	6.56	124
6	-110000	8.73	6.47	122
6	-120000	8.56	6.3	119
6	-130000	9.09	6.83	129
6	-140000	8.52	6.26	118
6	-150000	8.15	5.89	111
6	-160000	8.04	5.78	109
6	-170000	7.66	5.4	102
6	-180000	7.72	5.46	103
6	-190000	7.16	4.9	92.7
6	-200000	7.09	4.83	91.4
6	-210000	6.89	4.63	87.4
6	-220000	6.46	4.2	79.4
6	-230000	6.38	4.12	77.9
6	-240000	6.48	4.22	79.8
6	-250000	6.27	4.01	75.8
6	-260000	6.46	4.2	79.4
6	-270000	6.22	3.96	74.9
6	-280000	6.27	4.01	75.9
6	-290000	5.89	3.63	68.7
6	-300000	6.02	3.76	71.1
6	-310000	5.96	3.7	69.9
6	-320000	6.21	3.95	74.7
6	-330000	5.84	3.58	67.6
6	-340000	5.78	3.52	66.5
6	-350000	5.17	2.96	55.9
6	-360000	5.05	2.89	54.7
