rep_num	position	torque	torque_compensated	lbs_compensated
1	0	6.27	6.61	125
1	10000	8.09	8.52	161
1	20000	8.17	8.62	163
1	30000	8.98	9.46	179
1	40000	9.32	9.82	186
1	50000	9.11	9.6	181
1	60000	9.4	9.91	187
1	70000	10	10.6	199
1	80000	10.1	10.6	201
1	90000	9.65	10.2	192
1	100000	10.1	10.7	202
1	110000	10.8	11.4	216
1	120000	10.4	11	208
1	130000	10.1	10.7	202
1	140000	10.1	10.6	201
1	150000	10.5	11	208
1	160000	10.3	10.9	205
1	170000	9.85	10.4	196
1	180000	10.2	10.7	203
1	190000	10.2	10.7	203
1	200000	10.4	10.9	206
1	210000	10.1	10.6	200
1	220000	10	10.5	199
1	230000	10.6	11.1	211
1	240000	10.4	11	207
1	250000	9.78	10.3	195
1	260000	9.97	10.5	199
1	270000	10.5	11	208
1	280000	10.4	11	208
1	290000	9.92	10.5	198
1	300000	10.4	11	208
1	310000	10.9	11.5	218
1	320000	10.8	11.3	214
1	330000	10.7	11.3	213
1	340000	11.3	11.9	225
1	350000	11	11.6	220
1	360000	11.3	11.9	225
2	0	12.6	10.3	196
2	-10000	14.3	12.1	228
2	-20000	14.9	12.6	239
2	-30000	15.8	13.6	257
2	-40000	16.1	13.9	262
2	-50000	17.2	15	283
2	-60000	17.8	15.5	293
2	-70000	17.3	15	284
2	-80000	17.2	15	283
2	-90000	18.3	16	302
2	-100000	18.3	16	303
2	-110000	17.7	15.4	291
2	-120000	18.1	15.8	299
2	-130000	18	15.8	298
2	-140000	17.6	15.3	290
2	-150000	16.8	14.6	275
2	-160000	16.7	14.5	273
2	-170000	16.9	14.7	277
2	-180000	16.6	14.4	272
2	-190000	16.1	13.8	261
2	-200000	16.5	14.2	269
2	-210000	16.7	14.5	273
2	-220000	16.9	14.6	277
2	-230000	16.3	14	265
2	-240000	15.8	13.5	256
2	-250000	16.5	14.2	269
2	-260000	16.5	14.3	270
2	-270000	15.8	13.5	256
2	-280000	16	13.8	260
2	-290000	16.4	14.1	266
2	-300000	16.4	14.2	268
2	-310000	15.4	13.1	248
2	-320000	15.3	13	246
2	-330000	14.9	12.6	239
2	-340000	14.7	12.4	235
2	-350000	14.5	12.2	231
2	-360000	14.1	11.8	223
2	0	12.7	13.4	253
2	10000	10.9	11.5	217
2	20000	10.4	10.9	207
2	30000	10.4	11	207
2	40000	9.87	10.4	197
2	50000	9.17	9.66	183
2	60000	9.3	9.8	185
2	70000	9.93	10.5	198
2	80000	9.76	10.3	194
2	90000	9.06	9.55	181
2	100000	9.08	9.57	181
2	110000	9.54	10.1	190
2	120000	9.27	9.77	185
2	130000	8.45	8.9	168
2	140000	8.65	9.12	172
2	150000	9.19	9.69	183
2	160000	8.97	9.45	179
2	170000	8.59	9.05	171
2	180000	8.49	8.94	169
2	190000	8.44	8.89	168
2	200000	8.71	9.18	173
2	210000	8.27	8.72	165
2	220000	8.01	8.45	160
2	230000	8.66	9.13	173
2	240000	8.57	9.03	171
2	250000	7.95	8.38	158
2	260000	7.89	8.32	157
2	270000	8.36	8.81	167
2	280000	7.92	8.34	158
2	290000	7.15	7.54	142
2	300000	7.43	7.83	148
2	310000	8.05	8.49	160
2	320000	8.07	8.5	161
2	330000	7.69	8.11	153
2	340000	8.14	8.58	162
2	350000	8.07	8.51	161
2	360000	8.7	9.17	173
3	0	9.76	7.5	142
3	-10000	11.7	9.42	178
3	-20000	12.5	10.2	193
3	-30000	13.3	11	209
3	-40000	13.6	11.3	214
3	-50000	14.7	12.4	234
3	-60000	15.2	12.9	244
3	-70000	14.7	12.5	236
3	-80000	14.5	12.2	231
3	-90000	15.1	12.8	243
3	-100000	14.9	12.6	238
3	-110000	14.2	12	227
3	-120000	14.7	12.4	234
3	-130000	15	12.8	242
3	-140000	15.4	13.1	247
3	-150000	14.8	12.6	237
3	-160000	14.9	12.6	239
3	-170000	14.9	12.7	239
3	-180000	14.6	12.3	233
3	-190000	14.4	12.1	229
3	-200000	14.5	12.2	231
3	-210000	14.8	12.6	237
3	-220000	15	12.7	240
3	-230000	14.5	12.2	231
3	-240000	14.4	12.1	229
3	-250000	14.8	12.5	236
3	-260000	15.4	13.1	248
3	-270000	14.6	12.3	233
3	-280000	14.7	12.5	235
3	-290000	14.9	12.7	240
3	-300000	15.1	12.8	243
3	-310000	14.9	12.6	238
3	-320000	14.7	12.4	235
3	-330000	14.4	12.1	229
3	-340000	14.4	12.1	229
3	-350000	14.1	11.8	224
3	-360000	13.6	11.3	214
3	0	12.2	12.9	243
3	10000	9.67	10.2	193
3	20000	9.16	9.65	182
3	30000	8.97	9.45	179
3	40000	8.43	8.88	168
3	50000	7.76	8.18	155
3	60000	7.61	8.03	152
3	70000	8.16	8.6	162
3	80000	7.79	8.22	155
3	90000	7.35	7.75	146
3	100000	7.78	8.2	155
3	110000	8.3	8.75	165
3	120000	7.71	8.13	154
3	130000	7.15	7.54	142
3	140000	7.42	7.82	148
3	150000	7.59	8	151
3	160000	7.2	7.59	144
3	170000	6.91	7.29	138
3	180000	6.56	6.91	131
3	190000	6.79	7.15	135
3	200000	6.77	7.13	135
3	210000	6.35	6.69	127
3	220000	5.85	6.17	117
3	230000	6.44	6.78	128
3	240000	6.36	6.7	127
3	250000	5.62	5.93	112
3	260000	5.74	6.05	114
3	270000	6.32	6.66	126
3	280000	5.98	6.31	119
3	290000	5.06	5.34	101
3	300000	5.08	5.36	101
3	310000	5.53	5.83	110
3	320000	5.36	5.65	107
3	330000	5.19	5.48	104
3	340000	5.74	6.05	114
3	350000	5.65	5.96	113
3	360000	6.07	6.39	121
4	0	7.2	4.94	93.3
4	-10000	9.12	6.86	130
4	-20000	9.81	7.55	143
4	-30000	10.3	8.06	152
4	-40000	10.5	8.27	156
4	-50000	11.6	9.29	176
4	-60000	12	9.74	184
4	-70000	11.5	9.29	176
4	-80000	11.6	9.32	176
4	-90000	12.7	10.5	198
4	-100000	12.7	10.4	197
4	-110000	12.1	9.88	187
4	-120000	12.4	10.1	191
4	-130000	12.8	10.5	199
4	-140000	12.7	10.4	197
4	-150000	11.9	9.68	183
4	-160000	12.3	10	189
4	-170000	12.8	10.5	199
4	-180000	12.5	10.3	194
4	-190000	11.9	9.59	181
4	-200000	12	9.79	185
4	-210000	12.3	10.1	191
4	-220000	12.4	10.2	192
4	-230000	11.6	9.3	176
4	-240000	11.5	9.22	174
4	-250000	11.8	9.58	181
4	-260000	12.7	10.4	197
4	-270000	12.2	9.92	187
4	-280000	12.5	10.2	193
4	-290000	12.8	10.6	200
4	-300000	13	10.7	203
4	-310000	12.4	10.1	191
4	-320000	12	9.74	184
4	-330000	11.8	9.56	181
4	-340000	11.5	9.24	175
4	-350000	11.3	9.01	170
4	-360000	11	8.71	165
4	0	9.67	10.2	193
4	10000	7.28	7.67	145
4	20000	6.26	6.6	125
4	30000	6.89	7.26	137
4	40000	7.08	7.46	141
4	50000	6.68	7.04	133
4	60000	6.37	6.72	127
4	70000	6.55	6.9	130
4	80000	6.31	6.65	126
4	90000	5.57	5.87	111
4	100000	5.87	6.19	117
4	110000	6.47	6.82	129
4	120000	5.74	6.05	114
4	130000	5.27	5.56	105
4	140000	5.13	5.41	102
4	150000	5.31	5.6	106
4	160000	4.95	5.23	98.9
4	170000	4.61	4.9	92.6
4	180000	4.49	4.78	90.3
4	190000	4.59	4.87	92.1
4	200000	4.62	4.9	92.7
4	210000	3.92	4.2	79.4
4	220000	3.66	3.95	74.6
4	230000	4.22	4.51	85.2
4	240000	4.19	4.47	84.6
4	250000	3.42	3.71	70
4	260000	3.49	3.77	71.3
4	270000	3.94	4.22	79.8
4	280000	3.77	4.06	76.7
4	290000	3.1	3.39	64.1
4	300000	2.98	3.27	61.8
4	310000	3.63	3.92	74.1
4	320000	3.49	3.78	71.4
4	330000	3.36	3.64	68.8
4	340000	4.05	4.34	82
4	350000	3.72	4.01	75.8
4	360000	3.91	4.19	79.3
5	0	4.98	2.85	53.9
5	-10000	6.41	4.15	78.4
5	-20000	7.18	4.92	92.9
5	-30000	7.56	5.3	100
5	-40000	7.47	5.21	98.5
5	-50000	8.11	5.85	111
5	-60000	8.6	6.34	120
5	-70000	7.96	5.7	108
5	-80000	7.79	5.53	105
5	-90000	8.8	6.54	124
5	-100000	8.67	6.41	121
5	-110000	8.15	5.89	111
5	-120000	8.16	5.9	112
5	-130000	8.46	6.2	117
5	-140000	8.37	6.11	115
5	-150000	7.83	5.57	105
5	-160000	8.1	5.84	110
5	-170000	8.58	6.32	119
5	-180000	8.56	6.3	119
5	-190000	8	5.74	108
5	-200000	8.46	6.2	117
5	-210000	8.99	6.73	127
5	-220000	9.41	7.15	135
5	-230000	8.9	6.64	126
5	-240000	8.77	6.51	123
5	-250000	9.2	6.94	131
5	-260000	9.35	7.09	134
5	-270000	8.87	6.61	125
5	-280000	8.96	6.7	127
5	-290000	9.21	6.95	131
5	-300000	9.51	7.25	137
5	-310000	9.05	6.79	128
5	-320000	8.91	6.65	126
5	-330000	8.7	6.44	122
5	-340000	8.78	6.52	123
5	-350000	8.61	6.35	120
5	-360000	8.44	6.18	117
5	0	7.36	7.76	147
5	10000	6.19	6.53	123
5	20000	5.86	6.18	117
5	30000	6.08	6.4	121
5	40000	5.67	5.98	113
5	50000	4.85	5.14	97.2
5	60000	4.96	5.24	99.1
5	70000	5.06	5.35	101
5	80000	4.9	5.19	98.1
5	90000	4.17	4.46	84.2
5	100000	4.31	4.6	86.9
5	110000	4.73	5.02	94.8
5	120000	4.32	4.6	87
5	130000	3.6	3.89	73.5
5	140000	3.99	4.28	80.9
5	150000	3.98	4.27	80.7
5	160000	3.8	4.08	77.2
5	170000	3.51	3.8	71.8
5	180000	3.27	3.56	67.2
5	190000	3.53	3.81	72
5	200000	3.41	3.69	69.8
5	210000	2.85	3.14	59.3
5	220000	2.62	2.91	55
5	230000	3.07	3.35	63.4
5	240000	2.87	3.16	59.7
5	250000	2.11	2.4	45.3
5	260000	2.23	2.51	47.5
5	270000	2.75	3.04	57.4
5	280000	2.39	2.68	50.6
5	290000	1.83	2.12	40.1
5	300000	2.03	2.31	43.7
5	310000	2.46	2.74	51.9
5	320000	2.27	2.55	48.2
5	330000	2.23	2.52	47.6
5	340000	2.79	3.08	58.2
5	350000	2.42	2.71	51.2
5	360000	2.6	2.88	54.5
6	0	3.65	2.09	39.5
6	-10000	4.82	2.76	52.2
6	-20000	5.26	3.01	56.9
6	-30000	5.66	3.4	64.3
6	-40000	5.37	3.11	58.8
6	-50000	6.15	3.89	73.6
6	-60000	6.59	4.33	81.9
6	-70000	6.02	3.76	71.1
6	-80000	5.69	3.43	64.9
6	-90000	6.31	4.05	76.5
6	-100000	6.24	3.98	75.2
6	-110000	5.91	3.65	68.9
6	-120000	6.32	4.06	76.8
6	-130000	6.83	4.57	86.4
6	-140000	7.03	4.77	90.1
6	-150000	6.45	4.19	79.2
6	-160000	6.65	4.39	83
6	-170000	7.19	4.93	93.2
6	-180000	6.89	4.63	87.6
6	-190000	6.51	4.25	80.4
6	-200000	6.99	4.73	89.5
6	-210000	7.27	5.01	94.6
6	-220000	7.73	5.47	103
6	-230000	7.4	5.14	97.1
6	-240000	7.93	5.67	107
6	-250000	8.83	6.57	124
6	-260000	9.12	6.86	130
6	-270000	8.2	5.94	112
6	-280000	8.33	6.07	115
6	-290000	8.44	6.18	117
6	-300000	8.6	6.34	120
6	-310000	8.04	5.78	109
6	-320000	7.73	5.47	103
6	-330000	7.59	5.33	101
6	-340000	7.44	5.18	97.9
6	-350000	7.26	5	94.5
6	-360000	6.94	4.68	88.5
