rep_num	position	torque	torque_compensated	lbs_compensated
1	0	5.22	5.51	104
1	10000	6.58	6.93	131
1	20000	6.31	6.65	126
1	30000	7	7.37	139
1	40000	6.96	7.34	139
1	50000	7.22	7.61	144
1	60000	7.39	7.79	147
1	70000	7.25	7.65	145
1	80000	7.31	7.7	146
1	90000	7.3	7.69	145
1	100000	7.27	7.66	145
1	110000	7.63	8.04	152
1	120000	7.48	7.89	149
1	130000	7.3	7.7	146
1	140000	7.46	7.86	149
1	150000	7.71	8.13	154
1	160000	7.9	8.33	157
1	170000	7.57	7.98	151
1	180000	7.5	7.9	149
1	190000	7.64	8.05	152
1	200000	7.33	7.73	146
1	210000	7.23	7.62	144
1	220000	7.35	7.75	146
1	230000	7.49	7.9	149
1	240000	7.61	8.02	152
1	250000	8.08	8.52	161
1	260000	8.2	8.65	163
1	270000	8.21	8.65	164
1	280000	8.32	8.77	166
1	290000	8.45	8.9	168
1	300000	8.54	9	170
1	310000	8.05	8.49	160
1	320000	8.43	8.88	168
1	330000	8.31	8.76	166
1	340000	8.42	8.87	168
1	350000	8.45	8.91	168
1	360000	8.08	8.52	161
2	0	9.71	7.45	141
2	-10000	11.3	9.08	172
2	-20000	11.3	9.08	172
2	-30000	10.7	8.45	160
2	-40000	11	8.73	165
2	-50000	11.8	9.53	180
2	-60000	11.4	9.13	173
2	-70000	11	8.77	166
2	-80000	11.5	9.24	175
2	-90000	11.9	9.63	182
2	-100000	12	9.79	185
2	-110000	11.6	9.39	177
2	-120000	12.2	9.89	187
2	-130000	11.8	9.51	180
2	-140000	11.2	8.91	168
2	-150000	11.4	9.13	173
2	-160000	11	8.73	165
2	-170000	10.7	8.46	160
2	-180000	10.4	8.1	153
2	-190000	10.1	7.83	148
2	-200000	9.85	7.59	143
2	-210000	9.31	7.05	133
2	-220000	9.08	6.82	129
2	-230000	9.49	7.23	137
2	-240000	9.28	7.02	133
2	-250000	9.47	7.21	136
2	-260000	9.35	7.09	134
2	-270000	9.28	7.02	133
2	-280000	9.26	7	132
2	-290000	9.56	7.3	138
2	-300000	9.43	7.17	136
2	-310000	9.17	6.91	131
2	-320000	8.48	6.22	118
2	-330000	8.53	6.27	118
2	-340000	8.6	6.34	120
2	-350000	8.5	6.24	118
2	-360000	8.05	5.79	109
2	0	7.4	7.8	147
2	10000	7.28	7.67	145
2	20000	7.26	7.65	145
2	30000	7.23	7.63	144
2	40000	7.4	7.8	147
2	50000	7.03	7.41	140
2	60000	7.33	7.72	146
2	70000	7.3	7.7	145
2	80000	7.22	7.62	144
2	90000	7.52	7.93	150
2	100000	7.31	7.7	146
2	110000	7.4	7.8	147
2	120000	7.19	7.58	143
2	130000	6.64	7	132
2	140000	6.69	7.05	133
2	150000	6.83	7.2	136
2	160000	6.81	7.18	136
2	170000	6.63	6.99	132
2	180000	6.83	7.2	136
2	190000	6.91	7.28	138
2	200000	6.3	6.64	125
2	210000	6.22	6.56	124
2	220000	6.83	7.2	136
2	230000	6.67	7.04	133
2	240000	6.48	6.83	129
2	250000	6.83	7.2	136
2	260000	7.09	7.48	141
2	270000	6.69	7.05	133
2	280000	6.19	6.53	123
2	290000	6.27	6.6	125
2	300000	6.72	7.08	134
2	310000	6.47	6.82	129
2	320000	6.57	6.92	131
2	330000	6.41	6.75	128
2	340000	6.14	6.47	122
2	350000	6.6	6.95	131
2	360000	6.74	7.11	134
3	0	8.14	5.88	111
3	-10000	10.9	8.64	163
3	-20000	10.9	8.66	164
3	-30000	10	7.77	147
3	-40000	10	7.77	147
3	-50000	9.9	7.64	144
3	-60000	9.6	7.34	139
3	-70000	9.52	7.26	137
3	-80000	9.51	7.25	137
3	-90000	9.69	7.43	140
3	-100000	10.1	7.82	148
3	-110000	10.4	8.15	154
3	-120000	10.8	8.59	162
3	-130000	10.3	8.06	152
3	-140000	9.66	7.4	140
3	-150000	10	7.74	146
3	-160000	10.3	8	151
3	-170000	9.76	7.5	142
3	-180000	9.24	6.98	132
3	-190000	8.68	6.42	121
3	-200000	8.24	5.98	113
3	-210000	7.87	5.61	106
3	-220000	8.64	6.38	121
3	-230000	8.67	6.41	121
3	-240000	8.24	5.98	113
3	-250000	8.24	5.98	113
3	-260000	8.03	5.77	109
3	-270000	7.5	5.24	99.1
3	-280000	8.24	5.98	113
3	-290000	8.69	6.43	121
3	-300000	8.7	6.44	122
3	-310000	8.69	6.43	122
3	-320000	8.92	6.66	126
3	-330000	9.22	6.96	132
3	-340000	9.29	7.03	133
3	-350000	8.98	6.72	127
3	-360000	8.41	6.15	116
3	0	7.41	7.81	148
3	10000	6.43	6.78	128
3	20000	5.76	6.07	115
3	30000	5.44	5.73	108
3	40000	5.38	5.67	107
3	50000	5.52	5.82	110
3	60000	5.89	6.21	117
3	70000	5.5	5.79	109
3	80000	5.85	6.17	117
3	90000	6.4	6.74	127
3	100000	6.35	6.69	126
3	110000	6.29	6.63	125
3	120000	6.09	6.42	121
3	130000	5.9	6.22	118
3	140000	5.8	6.12	116
3	150000	6.02	6.34	120
3	160000	5.85	6.17	117
3	170000	5.68	5.98	113
3	180000	5.64	5.95	112
3	190000	6.06	6.39	121
3	200000	5.54	5.84	110
3	210000	5.17	5.46	103
3	220000	5.61	5.91	112
3	230000	5.37	5.66	107
3	240000	5	5.29	100
3	250000	5.45	5.74	109
3	260000	5.36	5.65	107
3	270000	5.5	5.8	110
3	280000	5.28	5.57	105
3	290000	4.95	5.24	99
3	300000	5.31	5.59	106
3	310000	4.88	5.17	97.7
3	320000	5.07	5.36	101
3	330000	5.19	5.48	104
3	340000	5.32	5.61	106
3	350000	5.86	6.17	117
3	360000	6.11	6.44	122
4	0	7.45	5.19	98.2
4	-10000	8.82	6.56	124
4	-20000	9.43	7.17	136
4	-30000	9.42	7.16	135
4	-40000	10.1	7.86	149
4	-50000	10.9	8.65	163
4	-60000	10.6	8.29	157
4	-70000	10.1	7.79	147
4	-80000	9.93	7.67	145
4	-90000	9.96	7.7	146
4	-100000	10.1	7.8	147
4	-110000	9.41	7.15	135
4	-120000	9.39	7.13	135
4	-130000	8.96	6.7	127
4	-140000	8.68	6.42	121
4	-150000	9.29	7.03	133
4	-160000	9.03	6.77	128
4	-170000	9.1	6.84	129
4	-180000	8.57	6.31	119
4	-190000	8.13	5.87	111
4	-200000	8.18	5.92	112
4	-210000	7.94	5.68	107
4	-220000	7.71	5.45	103
4	-230000	8.03	5.77	109
4	-240000	7.9	5.64	107
4	-250000	7.8	5.54	105
4	-260000	7.84	5.58	105
4	-270000	7.57	5.31	100
4	-280000	7.66	5.4	102
4	-290000	7.59	5.33	101
4	-300000	7.34	5.08	96.1
4	-310000	6.48	4.22	79.8
4	-320000	6.87	4.61	87.1
4	-330000	7.16	4.9	92.6
4	-340000	7.23	4.97	94
4	-350000	7.4	5.14	97.1
4	-360000	7.3	5.04	95.3
4	0	6.25	6.59	124
4	10000	5.25	5.53	105
4	20000	4.93	5.21	98.6
4	30000	4.82	5.11	96.5
4	40000	4.76	5.05	95.4
4	50000	4.92	5.21	98.4
4	60000	4.77	5.06	95.6
4	70000	4.55	4.83	91.4
4	80000	4.75	5.04	95.2
4	90000	4.5	4.79	90.5
4	100000	4.23	4.52	85.3
4	110000	4.57	4.85	91.7
4	120000	4.29	4.58	86.6
4	130000	3.94	4.22	79.8
4	140000	3.79	4.07	77
4	150000	3.98	4.26	80.5
4	160000	4.08	4.37	82.6
4	170000	3.81	4.09	77.4
4	180000	3.96	4.24	80.2
4	190000	4.36	4.64	87.7
4	200000	4.22	4.51	85.2
4	210000	3.92	4.2	79.4
4	220000	4.27	4.55	86.1
4	230000	4.2	4.48	84.7
4	240000	3.74	4.02	76.1
4	250000	4.06	4.34	82.1
4	260000	4	4.28	81
4	270000	4.11	4.4	83.1
4	280000	4.15	4.43	83.8
4	290000	4.15	4.44	83.9
4	300000	4.02	4.31	81.4
4	310000	3.98	4.26	80.6
4	320000	4	4.29	81
4	330000	3.65	3.94	74.4
4	340000	3.52	3.81	72
4	350000	4.24	4.53	85.6
4	360000	4.36	4.65	87.9
5	0	5.7	3.44	65
5	-10000	8.14	5.88	111
5	-20000	8.69	6.43	122
5	-30000	8.55	6.29	119
5	-40000	8.85	6.59	125
5	-50000	9.43	7.17	135
5	-60000	9.39	7.13	135
5	-70000	9.29	7.03	133
5	-80000	9.51	7.25	137
5	-90000	9.93	7.67	145
5	-100000	10.3	8.02	151
5	-110000	10.4	8.16	154
5	-120000	11	8.7	165
5	-130000	11	8.69	164
5	-140000	10.5	8.28	157
5	-150000	10.8	8.54	161
5	-160000	10.6	8.3	157
5	-170000	10.1	7.88	149
5	-180000	9.6	7.34	139
5	-190000	9.9	7.64	144
5	-200000	9.68	7.42	140
5	-210000	9.34	7.08	134
5	-220000	9.11	6.85	129
5	-230000	8.92	6.66	126
5	-240000	8.75	6.49	123
5	-250000	8.73	6.47	122
5	-260000	8.86	6.6	125
5	-270000	8.89	6.63	125
5	-280000	8.89	6.63	125
5	-290000	8.91	6.65	126
5	-300000	8.6	6.34	120
5	-310000	8.59	6.33	120
5	-320000	8.48	6.22	118
5	-330000	8.74	6.48	122
5	-340000	8.5	6.24	118
5	-350000	8.37	6.11	116
5	-360000	7.71	5.45	103
5	0	6.5	6.86	130
5	10000	5.28	5.57	105
5	20000	4.83	5.12	96.8
5	30000	4.28	4.56	86.2
5	40000	3.87	4.15	78.5
5	50000	3.91	4.19	79.3
5	60000	4.05	4.33	81.9
5	70000	3.56	3.85	72.8
5	80000	3.3	3.58	67.7
5	90000	2.96	3.24	61.3
5	100000	3.11	3.4	64.2
5	110000	3.7	3.99	75.4
5	120000	3.84	4.12	77.9
5	130000	3.69	3.98	75.2
5	140000	3.79	4.08	77
5	150000	3.84	4.13	78
5	160000	3.77	4.06	76.7
5	170000	3.2	3.48	65.8
5	180000	3.4	3.68	69.6
5	190000	3.73	4.02	76
5	200000	3.16	3.44	65.1
5	210000	2.93	3.21	60.7
5	220000	3.51	3.8	71.8
5	230000	3.26	3.54	67
5	240000	2.97	3.26	61.5
5	250000	2.84	3.13	59.1
5	260000	3.05	3.34	63
5	270000	3.11	3.4	64.3
5	280000	3.01	3.3	62.4
5	290000	2.66	2.95	55.7
5	300000	2.86	3.15	59.5
5	310000	2.39	2.68	50.6
5	320000	2.01	2.3	43.4
5	330000	2.42	2.71	51.2
5	340000	2.51	2.8	52.9
5	350000	3.04	3.32	62.8
5	360000	3.11	3.4	64.2
6	0	4.18	2.4	45.3
6	-10000	5.2	2.98	56.3
6	-20000	6.03	3.77	71.3
6	-30000	6.18	3.92	74.2
6	-40000	5.86	3.6	68.1
6	-50000	6.51	4.25	80.4
6	-60000	6.56	4.3	81.2
6	-70000	5.87	3.61	68.3
6	-80000	5.77	3.51	66.4
6	-90000	5.95	3.69	69.7
6	-100000	6.29	4.03	76.2
6	-110000	6.62	4.36	82.4
6	-120000	7.41	5.15	97.3
6	-130000	6.82	4.56	86.2
6	-140000	6.52	4.26	80.5
6	-150000	7.23	4.97	93.9
6	-160000	7.22	4.96	93.7
6	-170000	6.94	4.68	88.5
6	-180000	6.91	4.65	87.8
6	-190000	6.69	4.43	83.7
6	-200000	6.31	4.05	76.6
6	-210000	6.36	4.1	77.5
6	-220000	6.75	4.49	84.9
6	-230000	7.19	4.93	93.1
6	-240000	7.35	5.09	96.2
6	-250000	7.46	5.2	98.2
6	-260000	7.09	4.83	91.2
6	-270000	6.54	4.28	80.8
6	-280000	6.56	4.3	81.2
6	-290000	6.61	4.35	82.2
6	-300000	6.43	4.17	78.7
6	-310000	6.79	4.53	85.6
6	-320000	6.8	4.54	85.8
6	-330000	6.77	4.51	85.3
6	-340000	6.61	4.35	82.1
6	-350000	6.61	4.35	82.3
6	-360000	5.91	3.65	68.9
