rep_num	position	torque	torque_compensated	lbs_compensated
1	0	6.11	6.44	122
1	10000	6.86	7.23	137
1	20000	7.71	8.12	154
1	30000	7.15	7.54	143
1	40000	7.13	7.52	142
1	50000	7.34	7.74	146
1	60000	7.63	8.04	152
1	70000	7.59	8	151
1	80000	7.75	8.17	154
1	90000	7.78	8.2	155
1	100000	7.76	8.18	155
1	110000	7.63	8.05	152
1	120000	7.84	8.27	156
1	130000	7.84	8.26	156
1	140000	7.96	8.39	159
1	150000	7.63	8.04	152
1	160000	7.62	8.03	152
1	170000	8.02	8.46	160
1	180000	8.12	8.56	162
1	190000	7.6	8.01	151
1	200000	7.86	8.28	157
1	210000	8.21	8.65	164
1	220000	8.22	8.67	164
1	230000	8.27	8.71	165
1	240000	8.46	8.92	169
1	250000	8.36	8.81	166
1	260000	8.36	8.81	167
1	270000	8.44	8.9	168
1	280000	8.41	8.86	168
1	290000	8.39	8.85	167
1	300000	8.74	9.22	174
1	310000	8.67	9.14	173
1	320000	8.91	9.39	178
1	330000	9.01	9.5	180
1	340000	9.15	9.64	182
1	350000	9.48	10	189
1	360000	9.95	10.5	198
2	0	11.9	9.66	183
2	-10000	13.9	11.6	219
2	-20000	13.6	11.3	214
2	-30000	13.5	11.2	212
2	-40000	12.9	10.6	201
2	-50000	12.4	10.1	192
2	-60000	12.9	10.6	200
2	-70000	13.5	11.2	213
2	-80000	13.6	11.3	214
2	-90000	13.5	11.2	212
2	-100000	13.5	11.3	213
2	-110000	12.9	10.7	201
2	-120000	12.6	10.3	195
2	-130000	12.6	10.4	196
2	-140000	11.9	9.63	182
2	-150000	11.5	9.27	175
2	-160000	10.7	8.47	160
2	-170000	10.3	8.02	152
2	-180000	10.1	7.88	149
2	-190000	9.84	7.58	143
2	-200000	9.99	7.73	146
2	-210000	10.1	7.84	148
2	-220000	10	7.77	147
2	-230000	9.79	7.53	142
2	-240000	9.64	7.38	140
2	-250000	9.15	6.89	130
2	-260000	9.51	7.25	137
2	-270000	9.74	7.48	141
2	-280000	9.53	7.27	137
2	-290000	9.77	7.51	142
2	-300000	9.24	6.98	132
2	-310000	9.37	7.11	134
2	-320000	9.73	7.47	141
2	-330000	9.82	7.56	143
2	-340000	9.71	7.45	141
2	-350000	9.41	7.15	135
2	-360000	9.43	7.17	136
2	0	7.84	8.27	156
2	10000	6.65	7.01	133
2	20000	6.97	7.35	139
2	30000	6.53	6.89	130
2	40000	6.56	6.92	131
2	50000	6.68	7.04	133
2	60000	6.86	7.23	137
2	70000	6.97	7.35	139
2	80000	7.15	7.54	142
2	90000	6.91	7.29	138
2	100000	7.09	7.48	141
2	110000	7.14	7.53	142
2	120000	6.97	7.35	139
2	130000	7.45	7.85	148
2	140000	7.33	7.73	146
2	150000	6.79	7.16	135
2	160000	6.8	7.17	136
2	170000	7.03	7.41	140
2	180000	6.72	7.08	134
2	190000	6.27	6.61	125
2	200000	6.51	6.86	130
2	210000	7.02	7.4	140
2	220000	6.8	7.16	135
2	230000	6.7	7.06	133
2	240000	6.99	7.37	139
2	250000	6.67	7.03	133
2	260000	6.57	6.93	131
2	270000	6.75	7.12	135
2	280000	6.81	7.18	136
2	290000	6.59	6.95	131
2	300000	6.65	7	132
2	310000	6.19	6.53	123
2	320000	6.7	7.06	133
2	330000	6.55	6.91	131
2	340000	6.78	7.15	135
2	350000	6.7	7.06	133
2	360000	7.21	7.6	144
3	0	9.08	6.82	129
3	-10000	9.16	6.9	130
3	-20000	9.68	7.42	140
3	-30000	10.1	7.79	147
3	-40000	10.3	8.01	151
3	-50000	10.1	7.85	148
3	-60000	10	7.77	147
3	-70000	10	7.75	147
3	-80000	9.72	7.46	141
3	-90000	9.35	7.09	134
3	-100000	9.54	7.28	138
3	-110000	9.47	7.21	136
3	-120000	9.21	6.95	131
3	-130000	9.28	7.02	133
3	-140000	9.24	6.98	132
3	-150000	8.94	6.68	126
3	-160000	8.54	6.28	119
3	-170000	8.39	6.13	116
3	-180000	8.39	6.13	116
3	-190000	7.95	5.69	108
3	-200000	7.83	5.57	105
3	-210000	8.03	5.77	109
3	-220000	8.13	5.87	111
3	-230000	8.44	6.18	117
3	-240000	8.59	6.33	120
3	-250000	8.64	6.38	121
3	-260000	8.4	6.14	116
3	-270000	8.49	6.23	118
3	-280000	8.29	6.03	114
3	-290000	8.48	6.22	118
3	-300000	8.3	6.04	114
3	-310000	8.15	5.89	111
3	-320000	8.09	5.83	110
3	-330000	8.16	5.9	112
3	-340000	7.98	5.72	108
3	-350000	7.91	5.65	107
3	-360000	7.64	5.38	102
3	0	6.29	6.63	125
3	10000	5.63	5.93	112
3	20000	5.94	6.26	118
3	30000	5.63	5.93	112
3	40000	5.68	5.99	113
3	50000	5.84	6.16	116
3	60000	5.97	6.3	119
3	70000	5.88	6.2	117
3	80000	5.78	6.09	115
3	90000	6.03	6.35	120
3	100000	6.03	6.35	120
3	110000	6.1	6.43	122
3	120000	6.18	6.52	123
3	130000	6.29	6.63	125
3	140000	5.7	6.01	114
3	150000	5.55	5.85	111
3	160000	5.73	6.04	114
3	170000	5.67	5.98	113
3	180000	5.45	5.75	109
3	190000	5.42	5.71	108
3	200000	5.44	5.73	108
3	210000	5.76	6.08	115
3	220000	5.87	6.18	117
3	230000	5.97	6.29	119
3	240000	6.23	6.56	124
3	250000	6.21	6.55	124
3	260000	6.13	6.46	122
3	270000	6.29	6.63	125
3	280000	6.08	6.41	121
3	290000	6.08	6.4	121
3	300000	6.52	6.87	130
3	310000	6.12	6.45	122
3	320000	5.98	6.3	119
3	330000	5.82	6.14	116
3	340000	6.15	6.48	123
3	350000	5.77	6.08	115
3	360000	5.8	6.11	115
4	0	7.23	4.97	93.9
4	-10000	8.38	6.12	116
4	-20000	8.48	6.22	118
4	-30000	8.37	6.11	115
4	-40000	8.38	6.12	116
4	-50000	8	5.74	109
4	-60000	8.28	6.02	114
4	-70000	8.57	6.31	119
4	-80000	8.25	5.99	113
4	-90000	7.88	5.62	106
4	-100000	8.66	6.4	121
4	-110000	9.14	6.88	130
4	-120000	9.64	7.38	140
4	-130000	10.8	8.56	162
4	-140000	11.2	8.98	170
4	-150000	10.9	8.64	163
4	-160000	10.5	8.22	155
4	-170000	11	8.74	165
4	-180000	11.1	8.88	168
4	-190000	10.4	8.11	153
4	-200000	9.79	7.53	142
4	-210000	9.47	7.21	136
4	-220000	9.2	6.94	131
4	-230000	9.22	6.96	132
4	-240000	8.64	6.38	121
4	-250000	8.52	6.26	118
4	-260000	8.87	6.61	125
4	-270000	9.27	7.01	132
4	-280000	8.88	6.62	125
4	-290000	8.44	6.18	117
4	-300000	8.12	5.86	111
4	-310000	7.91	5.65	107
4	-320000	8	5.74	108
4	-330000	7.8	5.54	105
4	-340000	7.23	4.97	94
4	-350000	7.14	4.88	92.2
4	-360000	7.48	5.22	98.7
4	0	6.31	6.65	126
4	10000	5.15	5.43	103
4	20000	5.89	6.2	117
4	30000	5.35	5.63	106
4	40000	4.46	4.74	89.6
4	50000	4.76	5.05	95.4
4	60000	5.36	5.65	107
4	70000	5.36	5.65	107
4	80000	5.81	6.13	116
4	90000	6.05	6.38	121
4	100000	6.1	6.43	121
4	110000	5.82	6.13	116
4	120000	5.49	5.78	109
4	130000	5.36	5.65	107
4	140000	5.15	5.44	103
4	150000	4.98	5.27	99.6
4	160000	4.98	5.27	99.6
4	170000	5.01	5.3	100
4	180000	4.97	5.25	99.3
4	190000	4.28	4.56	86.3
4	200000	4.6	4.89	92.4
4	210000	4.53	4.82	91
4	220000	4.57	4.85	91.7
4	230000	4.7	4.99	94.3
4	240000	5.17	5.45	103
4	250000	4.99	5.28	99.8
4	260000	4.96	5.25	99.2
4	270000	4.75	5.04	95.3
4	280000	4.77	5.06	95.6
4	290000	4.69	4.98	94.1
4	300000	4.81	5.1	96.3
4	310000	4.47	4.76	89.9
4	320000	4.47	4.75	89.9
4	330000	4.29	4.57	86.4
4	340000	4.42	4.7	88.9
4	350000	4.26	4.54	85.8
4	360000	4.25	4.54	85.7
5	0	5.83	3.57	67.4
5	-10000	7.16	4.9	92.6
5	-20000	7.07	4.81	91
5	-30000	6.68	4.42	83.5
5	-40000	6.94	4.68	88.5
5	-50000	7.43	5.17	97.8
5	-60000	7.86	5.6	106
5	-70000	8.21	5.95	112
5	-80000	8.51	6.25	118
5	-90000	9	6.74	127
5	-100000	9.88	7.62	144
5	-110000	9.26	7	132
5	-120000	8.77	6.51	123
5	-130000	9.14	6.88	130
5	-140000	9.15	6.89	130
5	-150000	8.77	6.51	123
5	-160000	9.04	6.78	128
5	-170000	9.33	7.07	134
5	-180000	8.88	6.62	125
5	-190000	8.06	5.8	110
5	-200000	8.05	5.79	109
5	-210000	8.08	5.82	110
5	-220000	7.87	5.61	106
5	-230000	7.57	5.31	100
5	-240000	7.33	5.07	95.8
5	-250000	7.55	5.29	100
5	-260000	7.82	5.56	105
5	-270000	7.55	5.29	100
5	-280000	7.27	5.01	94.8
5	-290000	7.33	5.07	95.7
5	-300000	7.22	4.96	93.7
5	-310000	7.04	4.78	90.4
5	-320000	7.04	4.78	90.4
5	-330000	7.16	4.9	92.7
5	-340000	6.89	4.63	87.4
5	-350000	6.63	4.37	82.6
5	-360000	6.58	4.32	81.6
5	0	5.17	5.46	103
5	10000	4.69	4.97	94
5	20000	4.76	5.05	95.4
5	30000	4.02	4.31	81.4
5	40000	3.47	3.75	70.9
5	50000	3.06	3.35	63.2
5	60000	3.48	3.77	71.3
5	70000	3.79	4.08	77.1
5	80000	4.14	4.43	83.7
5	90000	4.53	4.81	91
5	100000	4.66	4.95	93.5
5	110000	4.56	4.85	91.6
5	120000	4.2	4.49	84.9
5	130000	4.42	4.7	88.9
5	140000	4.27	4.56	86.1
5	150000	3.81	4.09	77.3
5	160000	3.64	3.93	74.2
5	170000	3.96	4.24	80.2
5	180000	3.65	3.94	74.5
5	190000	3.35	3.63	68.7
5	200000	3.34	3.62	68.5
5	210000	3.66	3.94	74.5
5	220000	3.49	3.78	71.4
5	230000	3.07	3.36	63.5
5	240000	3.34	3.62	68.5
5	250000	3.25	3.54	66.9
5	260000	3.06	3.34	63.2
5	270000	3.28	3.56	67.3
5	280000	3.18	3.47	65.6
5	290000	3.17	3.46	65.3
5	300000	3.28	3.57	67.5
5	310000	2.92	3.21	60.6
5	320000	3.15	3.44	64.9
5	330000	3.21	3.5	66.1
5	340000	3.58	3.86	73
5	350000	3.44	3.73	70.5
5	360000	3.83	4.12	77.8
6	0	5.12	2.93	55.4
6	-10000	5.62	3.36	63.5
6	-20000	5.86	3.6	68
6	-30000	6.06	3.8	71.9
6	-40000	6.19	3.93	74.3
6	-50000	5.96	3.7	70
6	-60000	6.09	3.83	72.3
6	-70000	6.42	4.16	78.6
6	-80000	6.36	4.1	77.4
6	-90000	6.44	4.18	78.9
6	-100000	7.06	4.8	90.7
6	-110000	7.21	4.95	93.6
6	-120000	7.22	4.96	93.7
6	-130000	7.92	5.66	107
6	-140000	8.53	6.27	118
6	-150000	8.5	6.24	118
6	-160000	8.18	5.92	112
6	-170000	8.57	6.31	119
6	-180000	8.59	6.33	120
6	-190000	8.26	6	113
6	-200000	8.16	5.9	112
6	-210000	8.22	5.96	113
6	-220000	7.73	5.47	103
6	-230000	7.65	5.39	102
6	-240000	7.57	5.31	100
6	-250000	7.3	5.04	95.3
6	-260000	7.45	5.19	98.1
6	-270000	7.31	5.05	95.5
6	-280000	6.91	4.65	88
6	-290000	6.97	4.71	89
6	-300000	6.87	4.61	87.1
6	-310000	6.71	4.45	84.2
6	-320000	6.61	4.35	82.2
6	-330000	6.34	4.08	77.1
6	-340000	5.86	3.6	68
6	-350000	5.66	3.4	64.3
6	-360000	5.58	3.32	62.8
