rep_num	position	torque	torque_compensated	lbs_compensated
1	0	4.16	4.44	84
1	10000	6.45	6.79	128
1	20000	6.91	7.29	138
1	30000	6.9	7.28	138
1	40000	6.98	7.35	139
1	50000	6.87	7.25	137
1	60000	6.86	7.23	137
1	70000	7.19	7.58	143
1	80000	7.16	7.55	143
1	90000	7.05	7.43	140
1	100000	7.25	7.64	144
1	110000	7.72	8.14	154
1	120000	8.01	8.44	160
1	130000	7.78	8.21	155
1	140000	7.9	8.33	157
1	150000	7.89	8.32	157
1	160000	7.47	7.87	149
1	170000	7.81	8.24	156
1	180000	8.22	8.67	164
1	190000	7.99	8.42	159
1	200000	7.74	8.16	154
1	210000	8.11	8.55	162
1	220000	8.42	8.87	168
1	230000	8.12	8.56	162
1	240000	7.98	8.41	159
1	250000	8.14	8.58	162
1	260000	8.22	8.67	164
1	270000	8.48	8.93	169
1	280000	8.63	9.1	172
1	290000	8.71	9.18	174
1	300000	8.88	9.36	177
1	310000	9.05	9.54	180
1	320000	8.82	9.29	176
1	330000	8.32	8.77	166
1	340000	8.97	9.45	179
1	350000	8.75	9.22	174
1	360000	8.77	9.24	175
2	0	10.1	7.79	147
2	-10000	10.9	8.67	164
2	-20000	10.6	8.3	157
2	-30000	10.4	8.14	154
2	-40000	10.5	8.25	156
2	-50000	10.7	8.41	159
2	-60000	10.7	8.46	160
2	-70000	11.3	9.04	171
2	-80000	10.3	8.01	151
2	-90000	10.2	7.98	151
2	-100000	10.5	8.26	156
2	-110000	10.8	8.59	162
2	-120000	11.1	8.83	167
2	-130000	11.5	9.22	174
2	-140000	11.1	8.84	167
2	-150000	11.1	8.88	168
2	-160000	11.5	9.25	175
2	-170000	11.1	8.84	167
2	-180000	10.5	8.28	156
2	-190000	10.5	8.2	155
2	-200000	10.4	8.1	153
2	-210000	10.4	8.17	154
2	-220000	10.2	7.89	149
2	-230000	10.4	8.1	153
2	-240000	9.7	7.44	141
2	-250000	8.93	6.67	126
2	-260000	9.71	7.45	141
2	-270000	10.4	8.16	154
2	-280000	10.8	8.5	161
2	-290000	10.5	8.23	156
2	-300000	10.2	7.97	151
2	-310000	10.1	7.85	148
2	-320000	10.4	8.13	154
2	-330000	10.5	8.27	156
2	-340000	10	7.75	146
2	-350000	9	6.74	127
2	-360000	8.91	6.65	126
2	0	7.67	8.09	153
2	10000	7.51	7.91	150
2	20000	7.16	7.55	143
2	30000	6.86	7.23	137
2	40000	6.95	7.33	138
2	50000	7.03	7.41	140
2	60000	7.46	7.86	149
2	70000	6.95	7.33	139
2	80000	6.54	6.89	130
2	90000	6.84	7.21	136
2	100000	7.15	7.53	142
2	110000	7.2	7.59	144
2	120000	7.36	7.76	147
2	130000	7.44	7.84	148
2	140000	8.01	8.44	160
2	150000	8.06	8.5	161
2	160000	7.48	7.89	149
2	170000	7.32	7.71	146
2	180000	7.15	7.54	143
2	190000	7.22	7.61	144
2	200000	6.58	6.94	131
2	210000	7.12	7.51	142
2	220000	7.17	7.56	143
2	230000	7.24	7.63	144
2	240000	7.64	8.05	152
2	250000	7.82	8.24	156
2	260000	7.68	8.1	153
2	270000	7.62	8.04	152
2	280000	7.48	7.89	149
2	290000	7.31	7.71	146
2	300000	7.37	7.76	147
2	310000	7.54	7.95	150
2	320000	6.97	7.35	139
2	330000	6.92	7.29	138
2	340000	7.27	7.66	145
2	350000	7.09	7.48	141
2	360000	6.91	7.29	138
3	0	7.94	5.68	107
3	-10000	8.79	6.53	123
3	-20000	9.65	7.39	140
3	-30000	10.4	8.19	155
3	-40000	11.5	9.24	175
3	-50000	12.3	10	189
3	-60000	12.1	9.8	185
3	-70000	11.4	9.16	173
3	-80000	10.2	7.91	150
3	-90000	9.98	7.72	146
3	-100000	10.3	8.08	153
3	-110000	10.4	8.1	153
3	-120000	11.2	8.95	169
3	-130000	11.6	9.33	176
3	-140000	11	8.74	165
3	-150000	10.3	8.05	152
3	-160000	10.4	8.1	153
3	-170000	10.1	7.87	149
3	-180000	9.29	7.03	133
3	-190000	9.14	6.88	130
3	-200000	9.21	6.95	131
3	-210000	9.33	7.07	134
3	-220000	9.37	7.11	134
3	-230000	9.67	7.41	140
3	-240000	10.4	8.17	154
3	-250000	10.4	8.19	155
3	-260000	10	7.76	147
3	-270000	9.3	7.04	133
3	-280000	9.5	7.24	137
3	-290000	9.83	7.57	143
3	-300000	9.46	7.2	136
3	-310000	9.28	7.02	133
3	-320000	9.38	7.12	135
3	-330000	9.75	7.49	142
3	-340000	9.57	7.31	138
3	-350000	9.22	6.96	132
3	-360000	8.82	6.56	124
3	0	7.63	8.05	152
3	10000	5.73	6.04	114
3	20000	5.52	5.82	110
3	30000	6.12	6.46	122
3	40000	6.62	6.97	132
3	50000	5.91	6.23	118
3	60000	6.37	6.71	127
3	70000	6.69	7.05	133
3	80000	6.67	7.03	133
3	90000	6.76	7.13	135
3	100000	6.92	7.29	138
3	110000	6.91	7.28	138
3	120000	7.07	7.46	141
3	130000	6.51	6.86	130
3	140000	6.49	6.84	129
3	150000	6.55	6.9	130
3	160000	6.08	6.41	121
3	170000	6.19	6.53	123
3	180000	6.64	7	132
3	190000	6.51	6.87	130
3	200000	6.4	6.74	127
3	210000	6.78	7.15	135
3	220000	6.79	7.16	135
3	230000	6.42	6.76	128
3	240000	6.2	6.53	123
3	250000	6.31	6.66	126
3	260000	6.5	6.85	129
3	270000	6.26	6.6	125
3	280000	6.36	6.7	127
3	290000	6.25	6.58	124
3	300000	6.24	6.58	124
3	310000	7.08	7.46	141
3	320000	6.05	6.38	121
3	330000	5.74	6.05	114
3	340000	6.1	6.43	121
3	350000	5.93	6.25	118
3	360000	6.12	6.45	122
4	0	7.37	5.11	96.6
4	-10000	8.28	6.02	114
4	-20000	8.67	6.41	121
4	-30000	8.99	6.73	127
4	-40000	8.68	6.42	121
4	-50000	9.5	7.24	137
4	-60000	10.2	7.93	150
4	-70000	10.4	8.11	153
4	-80000	9.9	7.64	144
4	-90000	10.2	7.99	151
4	-100000	10.4	8.1	153
4	-110000	10.8	8.54	161
4	-120000	11.4	9.09	172
4	-130000	12.2	9.99	189
4	-140000	11.7	9.42	178
4	-150000	10.9	8.67	164
4	-160000	11	8.76	166
4	-170000	10.6	8.33	157
4	-180000	9.36	7.1	134
4	-190000	8.99	6.73	127
4	-200000	9.28	7.02	133
4	-210000	9.24	6.98	132
4	-220000	8.99	6.73	127
4	-230000	8.83	6.57	124
4	-240000	8.39	6.13	116
4	-250000	8.79	6.53	123
4	-260000	8.66	6.4	121
4	-270000	8.11	5.85	111
4	-280000	8.19	5.93	112
4	-290000	8.06	5.8	110
4	-300000	8.26	6	113
4	-310000	8.25	5.99	113
4	-320000	8.44	6.18	117
4	-330000	9.04	6.78	128
4	-340000	8.95	6.69	126
4	-350000	8.17	5.91	112
4	-360000	8.12	5.86	111
4	0	6.55	6.91	131
4	10000	5.76	6.07	115
4	20000	5.49	5.79	109
4	30000	5.07	5.36	101
4	40000	5.15	5.43	103
4	50000	5.03	5.32	101
4	60000	4.85	5.14	97.1
4	70000	4.73	5.02	94.9
4	80000	4.77	5.06	95.6
4	90000	4.99	5.27	99.7
4	100000	5.24	5.53	105
4	110000	5.31	5.6	106
4	120000	5.64	5.95	112
4	130000	5.48	5.78	109
4	140000	5.24	5.52	104
4	150000	5.23	5.52	104
4	160000	4.76	5.05	95.4
4	170000	5.22	5.51	104
4	180000	5.42	5.71	108
4	190000	4.93	5.22	98.6
4	200000	4.57	4.86	91.8
4	210000	5.08	5.36	101
4	220000	4.79	5.08	96
4	230000	4.72	5.01	94.6
4	240000	4.86	5.15	97.3
4	250000	4.83	5.11	96.6
4	260000	4.68	4.97	93.9
4	270000	4.41	4.7	88.8
4	280000	4	4.29	81
4	290000	4.66	4.94	93.4
4	300000	4.46	4.75	89.7
4	310000	4.59	4.88	92.1
4	320000	3.98	4.27	80.7
4	330000	4.13	4.42	83.5
4	340000	4.12	4.41	83.3
4	350000	4.07	4.35	82.3
4	360000	3.96	4.25	80.3
5	0	5.88	3.62	68.4
5	-10000	7.9	5.64	107
5	-20000	7.85	5.59	106
5	-30000	7.96	5.7	108
5	-40000	7.68	5.42	102
5	-50000	7.82	5.56	105
5	-60000	8.1	5.84	110
5	-70000	7.87	5.61	106
5	-80000	7.85	5.59	106
5	-90000	8.03	5.77	109
5	-100000	8.82	6.56	124
5	-110000	9.08	6.82	129
5	-120000	8.47	6.21	117
5	-130000	9.38	7.12	134
5	-140000	9.49	7.23	137
5	-150000	9.08	6.82	129
5	-160000	9.13	6.87	130
5	-170000	9.67	7.41	140
5	-180000	9.94	7.68	145
5	-190000	10.5	8.2	155
5	-200000	10.8	8.53	161
5	-210000	11	8.75	165
5	-220000	10.9	8.63	163
5	-230000	10.5	8.2	155
5	-240000	10.1	7.81	148
5	-250000	9.88	7.62	144
5	-260000	9.51	7.25	137
5	-270000	9.55	7.29	138
5	-280000	9.47	7.21	136
5	-290000	9.67	7.41	140
5	-300000	9.48	7.22	136
5	-310000	9.16	6.9	130
5	-320000	8.85	6.59	125
5	-330000	8.71	6.45	122
5	-340000	8.48	6.22	118
5	-350000	7.76	5.5	104
5	-360000	7.63	5.37	101
5	0	6.21	6.55	124
5	10000	5.42	5.71	108
5	20000	4.74	5.03	95.1
5	30000	4.29	4.58	86.5
5	40000	4.41	4.7	88.7
5	50000	4.08	4.36	82.5
5	60000	4.31	4.59	86.8
5	70000	4.38	4.66	88.1
5	80000	4.31	4.6	86.9
5	90000	4.13	4.42	83.5
5	100000	4.14	4.42	83.6
5	110000	3.95	4.23	80
5	120000	3.99	4.27	80.8
5	130000	3.64	3.92	74.1
5	140000	3.39	3.67	69.4
5	150000	3.42	3.71	70.1
5	160000	2.86	3.15	59.5
5	170000	2.96	3.24	61.3
5	180000	3.85	4.14	78.2
5	190000	3.5	3.79	71.6
5	200000	3.45	3.74	70.7
5	210000	3.81	4.1	77.4
5	220000	3.66	3.94	74.5
5	230000	3.39	3.67	69.4
5	240000	3.31	3.6	68.1
5	250000	3.67	3.96	74.8
5	260000	3.7	3.98	75.3
5	270000	3.66	3.95	74.6
5	280000	3.9	4.19	79.1
5	290000	3.79	4.08	77.1
5	300000	3.53	3.81	72
5	310000	3.62	3.9	73.8
5	320000	3.09	3.38	63.8
5	330000	3.27	3.56	67.2
5	340000	2.94	3.23	61
5	350000	3.19	3.48	65.8
5	360000	2.98	3.26	61.6
6	0	4.34	2.48	46.9
6	-10000	5.95	3.69	69.8
6	-20000	6.7	4.44	83.9
6	-30000	7.02	4.76	90
6	-40000	6.61	4.35	82.3
6	-50000	6.46	4.2	79.4
6	-60000	6.92	4.66	88
6	-70000	7.33	5.07	95.7
6	-80000	7.06	4.8	90.7
6	-90000	7.31	5.05	95.5
6	-100000	7.3	5.04	95.3
6	-110000	7.24	4.98	94.1
6	-120000	7.39	5.13	96.9
6	-130000	7.54	5.28	99.7
6	-140000	6.97	4.71	89
6	-150000	6.43	4.17	78.9
6	-160000	6.46	4.2	79.4
6	-170000	6.34	4.08	77.1
6	-180000	6.14	3.88	73.4
6	-190000	6.5	4.24	80.1
6	-200000	7.35	5.09	96.2
6	-210000	7.98	5.72	108
6	-220000	8.04	5.78	109
6	-230000	7.8	5.54	105
6	-240000	7.26	5	94.5
6	-250000	7.35	5.09	96.1
6	-260000	7.03	4.77	90.2
6	-270000	6.95	4.69	88.6
6	-280000	7.16	4.9	92.6
6	-290000	7.05	4.79	90.5
6	-300000	7.09	4.83	91.3
6	-310000	6.67	4.41	83.3
6	-320000	6.66	4.4	83.2
6	-330000	6.56	4.3	81.3
6	-340000	6.15	3.89	73.5
6	-350000	5.83	3.57	67.4
6	-360000	5.7	3.44	65
