^C:\USERS\JUSTIN\GIT\DYNOFLEX\APP\DYNOFLEX\DYNOFLEX.CPP
C:\USERS\JUSTIN\GIT\DYNOFLEX\APP\DYNOFLEX\WIN32\DEBUG\INTERMEDIATE\VC141.PDB
C:\USERS\JUSTIN\GIT\DYNOFLEX\APP\DYNOFLEX\WIN32\DEBUG\INTERMEDIATE\VC141.IDB
C:\USERS\JUSTIN\GIT\DYNOFLEX\APP\DYNOFLEX\WIN32\DEBUG\INTERMEDIATE\DYNOFLEX.OBJ
