^C:\Users\justin\git\dynoflex\app\dynoflex\dynoflex.vcxproj
C:\Users\justin\git\dynoflex\app\dynoflex\Win32\Debug\dynoflex.lib
C:\Users\justin\git\dynoflex\app\dynoflex\Win32\Debug\dynoflex.exp
^C:\Users\justin\git\dynoflex\app\dynoflex\dynoflex.vcxproj
C:\Users\justin\git\dynoflex\app\dynoflex\Win32\Debug\dynoflex.lib
C:\Users\justin\git\dynoflex\app\dynoflex\Win32\Debug\dynoflex.exp
^C:\Users\justin\git\dynoflex\app\dynoflex\dynoflex.vcxproj
C:\Users\justin\git\dynoflex\app\dynoflex\Win32\Debug\dynoflex.lib
C:\Users\justin\git\dynoflex\app\dynoflex\Win32\Debug\dynoflex.exp
^C:\Users\justin\git\dynoflex\app\dynoflex\dynoflex.vcxproj
C:\Users\justin\git\dynoflex\app\dynoflex\Win32\Debug\dynoflex.lib
C:\Users\justin\git\dynoflex\app\dynoflex\Win32\Debug\dynoflex.exp
^C:\Users\justin\git\dynoflex\app\dynoflex\dynoflex.vcxproj
C:\Users\justin\git\dynoflex\app\dynoflex\Win32\Debug\dynoflex.lib
C:\Users\justin\git\dynoflex\app\dynoflex\Win32\Debug\dynoflex.exp
^C:\Users\justin\git\dynoflex\app\dynoflex\dynoflex.vcxproj
C:\Users\justin\git\dynoflex\app\dynoflex\Win32\Debug\dynoflex.lib
C:\Users\justin\git\dynoflex\app\dynoflex\Win32\Debug\dynoflex.exp
^C:\Users\justin\git\dynoflex\app\dynoflex\dynoflex.vcxproj
C:\Users\justin\git\dynoflex\app\dynoflex\Win32\Debug\dynoflex.lib
C:\Users\justin\git\dynoflex\app\dynoflex\Win32\Debug\dynoflex.exp
^C:\Users\justin\git\dynoflex\app\dynoflex\dynoflex.vcxproj
C:\Users\justin\git\dynoflex\app\dynoflex\Win32\Debug\dynoflex.lib
C:\Users\justin\git\dynoflex\app\dynoflex\Win32\Debug\dynoflex.exp
^C:\Users\justin\git\dynoflex\app\dynoflex\dynoflex.vcxproj
C:\Users\justin\git\dynoflex\app\dynoflex\Win32\Debug\dynoflex.lib
C:\Users\justin\git\dynoflex\app\dynoflex\Win32\Debug\dynoflex.exp
^C:\Users\justin\git\dynoflex\app\dynoflex\dynoflex.vcxproj
C:\Users\justin\git\dynoflex\app\dynoflex\Win32\Debug\dynoflex.lib
C:\Users\justin\git\dynoflex\app\dynoflex\Win32\Debug\dynoflex.exp
^C:\Users\justin\git\dynoflex\app\dynoflex\dynoflex.vcxproj
C:\Users\justin\git\dynoflex\app\dynoflex\Win32\Debug\dynoflex.lib
C:\Users\justin\git\dynoflex\app\dynoflex\Win32\Debug\dynoflex.exp
^C:\Users\justin\git\dynoflex\app\dynoflex\dynoflex.vcxproj
C:\Users\justin\git\dynoflex\app\dynoflex\Win32\Debug\dynoflex.lib
C:\Users\justin\git\dynoflex\app\dynoflex\Win32\Debug\dynoflex.exp
^C:\Users\justin\git\dynoflex\app\dynoflex\dynoflex.vcxproj
C:\Users\justin\git\dynoflex\app\dynoflex\Win32\Debug\dynoflex.lib
C:\Users\justin\git\dynoflex\app\dynoflex\Win32\Debug\dynoflex.exp
^C:\Users\justin\git\dynoflex\app\dynoflex\dynoflex.vcxproj
C:\Users\justin\git\dynoflex\app\dynoflex\Win32\Debug\dynoflex.lib
C:\Users\justin\git\dynoflex\app\dynoflex\Win32\Debug\dynoflex.exp
^C:\Users\justin\git\dynoflex\app\dynoflex\dynoflex.vcxproj
C:\Users\justin\git\dynoflex\app\dynoflex\Win32\Debug\dynoflex.lib
C:\Users\justin\git\dynoflex\app\dynoflex\Win32\Debug\dynoflex.exp
^C:\Users\justin\git\dynoflex\app\dynoflex\dynoflex.vcxproj
C:\Users\justin\git\dynoflex\app\dynoflex\Win32\Debug\dynoflex.lib
C:\Users\justin\git\dynoflex\app\dynoflex\Win32\Debug\dynoflex.exp
^C:\Users\justin\git\dynoflex\app\dynoflex\dynoflex.vcxproj
C:\Users\justin\git\dynoflex\app\dynoflex\Win32\Debug\dynoflex.lib
C:\Users\justin\git\dynoflex\app\dynoflex\Win32\Debug\dynoflex.exp
^C:\Users\justin\git\dynoflex\app\dynoflex\dynoflex.vcxproj
C:\Users\justin\git\dynoflex\app\dynoflex\Win32\Debug\dynoflex.lib
C:\Users\justin\git\dynoflex\app\dynoflex\Win32\Debug\dynoflex.exp
^C:\Users\justin\git\dynoflex\app\dynoflex\dynoflex.vcxproj
C:\Users\justin\git\dynoflex\app\dynoflex\Win32\Debug\dynoflex.lib
C:\Users\justin\git\dynoflex\app\dynoflex\Win32\Debug\dynoflex.exp
^C:\Users\justin\git\dynoflex\app\dynoflex\dynoflex.vcxproj
C:\Users\justin\git\dynoflex\app\dynoflex\Win32\Debug\dynoflex.lib
C:\Users\justin\git\dynoflex\app\dynoflex\Win32\Debug\dynoflex.exp
^C:\Users\justin\git\dynoflex\app\dynoflex\dynoflex.vcxproj
C:\Users\justin\git\dynoflex\app\dynoflex\Win32\Debug\dynoflex.lib
C:\Users\justin\git\dynoflex\app\dynoflex\Win32\Debug\dynoflex.exp
^C:\Users\justin\git\dynoflex\app\dynoflex\dynoflex.vcxproj
C:\Users\justin\git\dynoflex\app\dynoflex\Win32\Debug\dynoflex.lib
C:\Users\justin\git\dynoflex\app\dynoflex\Win32\Debug\dynoflex.exp
^C:\Users\justin\git\dynoflex\app\dynoflex\dynoflex.vcxproj
C:\Users\justin\git\dynoflex\app\dynoflex\Win32\Debug\dynoflex.lib
C:\Users\justin\git\dynoflex\app\dynoflex\Win32\Debug\dynoflex.exp
^C:\Users\justin\git\dynoflex\app\dynoflex\dynoflex.vcxproj
C:\Users\justin\git\dynoflex\app\dynoflex\Win32\Debug\dynoflex.lib
C:\Users\justin\git\dynoflex\app\dynoflex\Win32\Debug\dynoflex.exp
^C:\Users\justin\git\dynoflex\app\dynoflex\dynoflex.vcxproj
C:\Users\justin\git\dynoflex\app\dynoflex\Win32\Debug\dynoflex.lib
C:\Users\justin\git\dynoflex\app\dynoflex\Win32\Debug\dynoflex.exp
^C:\Users\justin\git\dynoflex\app\dynoflex\dynoflex.vcxproj
C:\Users\justin\git\dynoflex\app\dynoflex\Win32\Debug\dynoflex.lib
C:\Users\justin\git\dynoflex\app\dynoflex\Win32\Debug\dynoflex.exp
^C:\Users\justin\git\dynoflex\app\dynoflex\dynoflex.vcxproj
C:\Users\justin\git\dynoflex\app\dynoflex\Win32\Debug\dynoflex.lib
C:\Users\justin\git\dynoflex\app\dynoflex\Win32\Debug\dynoflex.exp
^C:\Users\justin\git\dynoflex\app\dynoflex\dynoflex.vcxproj
C:\Users\justin\git\dynoflex\app\dynoflex\Win32\Debug\dynoflex.lib
C:\Users\justin\git\dynoflex\app\dynoflex\Win32\Debug\dynoflex.exp
^C:\Users\justin\git\dynoflex\app\dynoflex\dynoflex.vcxproj
C:\Users\justin\git\dynoflex\app\dynoflex\Win32\Debug\dynoflex.lib
C:\Users\justin\git\dynoflex\app\dynoflex\Win32\Debug\dynoflex.exp
^C:\Users\justin\git\dynoflex\app\dynoflex\dynoflex.vcxproj
C:\Users\justin\git\dynoflex\app\dynoflex\Win32\Debug\dynoflex.lib
C:\Users\justin\git\dynoflex\app\dynoflex\Win32\Debug\dynoflex.exp
^C:\Users\justin\git\dynoflex\app\dynoflex\dynoflex.vcxproj
C:\Users\justin\git\dynoflex\app\dynoflex\Win32\Debug\dynoflex.lib
C:\Users\justin\git\dynoflex\app\dynoflex\Win32\Debug\dynoflex.exp
^C:\Users\justin\git\dynoflex\app\dynoflex\dynoflex.vcxproj
C:\Users\justin\git\dynoflex\app\dynoflex\Win32\Debug\dynoflex.lib
C:\Users\justin\git\dynoflex\app\dynoflex\Win32\Debug\dynoflex.exp
^C:\Users\justin\git\dynoflex\app\dynoflex\dynoflex.vcxproj
C:\Users\justin\git\dynoflex\app\dynoflex\Win32\Debug\dynoflex.lib
C:\Users\justin\git\dynoflex\app\dynoflex\Win32\Debug\dynoflex.exp
^C:\Users\justin\git\dynoflex\app\dynoflex\dynoflex.vcxproj
C:\Users\justin\git\dynoflex\app\dynoflex\Win32\Debug\dynoflex.lib
C:\Users\justin\git\dynoflex\app\dynoflex\Win32\Debug\dynoflex.exp
^C:\Users\justin\git\dynoflex\app\dynoflex\dynoflex.vcxproj
C:\Users\justin\git\dynoflex\app\dynoflex\Win32\Debug\dynoflex.lib
C:\Users\justin\git\dynoflex\app\dynoflex\Win32\Debug\dynoflex.exp
^C:\Users\justin\git\dynoflex\app\dynoflex\dynoflex.vcxproj
C:\Users\justin\git\dynoflex\app\dynoflex\Win32\Debug\dynoflex.lib
C:\Users\justin\git\dynoflex\app\dynoflex\Win32\Debug\dynoflex.exp
^C:\Users\justin\git\dynoflex\app\dynoflex\dynoflex.vcxproj
C:\Users\justin\git\dynoflex\app\dynoflex\Win32\Debug\dynoflex.lib
C:\Users\justin\git\dynoflex\app\dynoflex\Win32\Debug\dynoflex.exp
^C:\Users\justin\git\dynoflex\app\dynoflex\dynoflex.vcxproj
C:\Users\justin\git\dynoflex\app\dynoflex\Win32\Debug\dynoflex.lib
C:\Users\justin\git\dynoflex\app\dynoflex\Win32\Debug\dynoflex.exp
^C:\Users\justin\git\dynoflex\app\dynoflex\dynoflex.vcxproj
C:\Users\justin\git\dynoflex\app\dynoflex\Win32\Debug\dynoflex.lib
C:\Users\justin\git\dynoflex\app\dynoflex\Win32\Debug\dynoflex.exp
^C:\Users\justin\git\dynoflex\app\dynoflex\dynoflex.vcxproj
C:\Users\justin\git\dynoflex\app\dynoflex\Win32\Debug\dynoflex.lib
C:\Users\justin\git\dynoflex\app\dynoflex\Win32\Debug\dynoflex.exp
^C:\Users\justin\git\dynoflex\app\dynoflex\dynoflex.vcxproj
C:\Users\justin\git\dynoflex\app\dynoflex\Win32\Debug\dynoflex.lib
C:\Users\justin\git\dynoflex\app\dynoflex\Win32\Debug\dynoflex.exp
^C:\Users\justin\git\dynoflex\app\dynoflex\dynoflex.vcxproj
C:\Users\justin\git\dynoflex\app\dynoflex\Win32\Debug\dynoflex.lib
C:\Users\justin\git\dynoflex\app\dynoflex\Win32\Debug\dynoflex.exp
^C:\Users\justin\git\dynoflex\app\dynoflex\dynoflex.vcxproj
C:\Users\justin\git\dynoflex\app\dynoflex\Win32\Debug\dynoflex.lib
C:\Users\justin\git\dynoflex\app\dynoflex\Win32\Debug\dynoflex.exp
^C:\Users\justin\git\dynoflex\app\dynoflex\dynoflex.vcxproj
C:\Users\justin\git\dynoflex\app\dynoflex\Win32\Debug\dynoflex.lib
C:\Users\justin\git\dynoflex\app\dynoflex\Win32\Debug\dynoflex.exp
^C:\Users\justin\git\dynoflex\app\dynoflex\dynoflex.vcxproj
C:\Users\justin\git\dynoflex\app\dynoflex\Win32\Debug\dynoflex.lib
C:\Users\justin\git\dynoflex\app\dynoflex\Win32\Debug\dynoflex.exp
^C:\Users\justin\git\dynoflex\app\dynoflex\dynoflex.vcxproj
C:\Users\justin\git\dynoflex\app\dynoflex\Win32\Debug\dynoflex.lib
C:\Users\justin\git\dynoflex\app\dynoflex\Win32\Debug\dynoflex.exp
^C:\Users\justin\git\dynoflex\app\dynoflex\dynoflex.vcxproj
C:\Users\justin\git\dynoflex\app\dynoflex\Win32\Debug\dynoflex.lib
C:\Users\justin\git\dynoflex\app\dynoflex\Win32\Debug\dynoflex.exp
^C:\Users\justin\git\dynoflex\app\dynoflex\dynoflex.vcxproj
C:\Users\justin\git\dynoflex\app\dynoflex\Win32\Debug\dynoflex.lib
C:\Users\justin\git\dynoflex\app\dynoflex\Win32\Debug\dynoflex.exp
^C:\Users\justin\git\dynoflex\app\dynoflex\dynoflex.vcxproj
C:\Users\justin\git\dynoflex\app\dynoflex\Win32\Debug\dynoflex.lib
C:\Users\justin\git\dynoflex\app\dynoflex\Win32\Debug\dynoflex.exp
^C:\Users\justin\git\dynoflex\app\dynoflex\dynoflex.vcxproj
C:\Users\justin\git\dynoflex\app\dynoflex\Win32\Debug\dynoflex.lib
C:\Users\justin\git\dynoflex\app\dynoflex\Win32\Debug\dynoflex.exp
^C:\Users\justin\git\dynoflex\app\dynoflex\dynoflex.vcxproj
C:\Users\justin\git\dynoflex\app\dynoflex\Win32\Debug\dynoflex.lib
C:\Users\justin\git\dynoflex\app\dynoflex\Win32\Debug\dynoflex.exp
^C:\Users\justin\git\dynoflex\app\dynoflex\dynoflex.vcxproj
C:\Users\justin\git\dynoflex\app\dynoflex\Win32\Debug\dynoflex.lib
C:\Users\justin\git\dynoflex\app\dynoflex\Win32\Debug\dynoflex.exp
^C:\Users\justin\git\dynoflex\app\dynoflex\dynoflex.vcxproj
C:\Users\justin\git\dynoflex\app\dynoflex\Win32\Debug\dynoflex.lib
C:\Users\justin\git\dynoflex\app\dynoflex\Win32\Debug\dynoflex.exp
^C:\Users\justin\git\dynoflex\app\dynoflex\dynoflex.vcxproj
C:\Users\justin\git\dynoflex\app\dynoflex\Win32\Debug\dynoflex.lib
C:\Users\justin\git\dynoflex\app\dynoflex\Win32\Debug\dynoflex.exp
^C:\Users\justin\git\dynoflex\app\dynoflex\dynoflex.vcxproj
C:\Users\justin\git\dynoflex\app\dynoflex\Win32\Debug\dynoflex.lib
C:\Users\justin\git\dynoflex\app\dynoflex\Win32\Debug\dynoflex.exp
^C:\Users\justin\git\dynoflex\app\dynoflex\dynoflex.vcxproj
C:\Users\justin\git\dynoflex\app\dynoflex\Win32\Debug\dynoflex.lib
C:\Users\justin\git\dynoflex\app\dynoflex\Win32\Debug\dynoflex.exp
^C:\Users\justin\git\dynoflex\app\dynoflex\dynoflex.vcxproj
C:\Users\justin\git\dynoflex\app\dynoflex\Win32\Debug\dynoflex.lib
C:\Users\justin\git\dynoflex\app\dynoflex\Win32\Debug\dynoflex.exp
^C:\Users\justin\git\dynoflex\app\dynoflex\dynoflex.vcxproj
C:\Users\justin\git\dynoflex\app\dynoflex\Win32\Debug\dynoflex.lib
C:\Users\justin\git\dynoflex\app\dynoflex\Win32\Debug\dynoflex.exp
^C:\Users\justin\git\dynoflex\app\dynoflex\dynoflex.vcxproj
C:\Users\justin\git\dynoflex\app\dynoflex\Win32\Debug\dynoflex.lib
C:\Users\justin\git\dynoflex\app\dynoflex\Win32\Debug\dynoflex.exp
^C:\Users\justin\git\dynoflex\app\dynoflex\dynoflex.vcxproj
C:\Users\justin\git\dynoflex\app\dynoflex\Win32\Debug\dynoflex.lib
C:\Users\justin\git\dynoflex\app\dynoflex\Win32\Debug\dynoflex.exp
^C:\Users\justin\git\dynoflex\app\dynoflex\dynoflex.vcxproj
C:\Users\justin\git\dynoflex\app\dynoflex\Win32\Debug\dynoflex.lib
C:\Users\justin\git\dynoflex\app\dynoflex\Win32\Debug\dynoflex.exp
^C:\Users\justin\git\dynoflex\app\dynoflex\dynoflex.vcxproj
C:\Users\justin\git\dynoflex\app\dynoflex\Win32\Debug\dynoflex.lib
C:\Users\justin\git\dynoflex\app\dynoflex\Win32\Debug\dynoflex.exp
^C:\Users\justin\git\dynoflex\app\dynoflex\dynoflex.vcxproj
C:\Users\justin\git\dynoflex\app\dynoflex\Win32\Debug\dynoflex.lib
C:\Users\justin\git\dynoflex\app\dynoflex\Win32\Debug\dynoflex.exp
^C:\Users\justin\git\dynoflex\app\dynoflex\dynoflex.vcxproj
C:\Users\justin\git\dynoflex\app\dynoflex\Win32\Debug\dynoflex.lib
C:\Users\justin\git\dynoflex\app\dynoflex\Win32\Debug\dynoflex.exp
^C:\Users\justin\git\dynoflex\app\dynoflex\dynoflex.vcxproj
C:\Users\justin\git\dynoflex\app\dynoflex\Win32\Debug\dynoflex.lib
C:\Users\justin\git\dynoflex\app\dynoflex\Win32\Debug\dynoflex.exp
^C:\Users\justin\git\dynoflex\app\dynoflex\dynoflex.vcxproj
C:\Users\justin\git\dynoflex\app\dynoflex\Win32\Debug\dynoflex.lib
C:\Users\justin\git\dynoflex\app\dynoflex\Win32\Debug\dynoflex.exp
^C:\Users\justin\git\dynoflex\app\dynoflex\dynoflex.vcxproj
C:\Users\justin\git\dynoflex\app\dynoflex\Win32\Debug\dynoflex.lib
C:\Users\justin\git\dynoflex\app\dynoflex\Win32\Debug\dynoflex.exp
^C:\Users\justin\git\dynoflex\app\dynoflex\dynoflex.vcxproj
C:\Users\justin\git\dynoflex\app\dynoflex\Win32\Debug\dynoflex.lib
C:\Users\justin\git\dynoflex\app\dynoflex\Win32\Debug\dynoflex.exp
^C:\Users\justin\git\dynoflex\app\dynoflex\dynoflex.vcxproj
C:\Users\justin\git\dynoflex\app\dynoflex\Win32\Debug\dynoflex.lib
C:\Users\justin\git\dynoflex\app\dynoflex\Win32\Debug\dynoflex.exp
^C:\Users\justin\git\dynoflex\app\dynoflex\dynoflex.vcxproj
C:\Users\justin\git\dynoflex\app\dynoflex\Win32\Debug\dynoflex.lib
C:\Users\justin\git\dynoflex\app\dynoflex\Win32\Debug\dynoflex.exp
^C:\Users\justin\git\dynoflex\app\dynoflex\dynoflex.vcxproj
C:\Users\justin\git\dynoflex\app\dynoflex\Win32\Debug\dynoflex.lib
C:\Users\justin\git\dynoflex\app\dynoflex\Win32\Debug\dynoflex.exp
^C:\Users\justin\git\dynoflex\app\dynoflex\dynoflex.vcxproj
C:\Users\justin\git\dynoflex\app\dynoflex\Win32\Debug\dynoflex.lib
C:\Users\justin\git\dynoflex\app\dynoflex\Win32\Debug\dynoflex.exp
^C:\Users\justin\git\dynoflex\app\dynoflex\dynoflex.vcxproj
C:\Users\justin\git\dynoflex\app\dynoflex\Win32\Debug\dynoflex.lib
C:\Users\justin\git\dynoflex\app\dynoflex\Win32\Debug\dynoflex.exp
^C:\Users\justin\git\dynoflex\app\dynoflex\dynoflex.vcxproj
C:\Users\justin\git\dynoflex\app\dynoflex\Win32\Debug\dynoflex.lib
C:\Users\justin\git\dynoflex\app\dynoflex\Win32\Debug\dynoflex.exp
^C:\Users\justin\git\dynoflex\app\dynoflex\dynoflex.vcxproj
C:\Users\justin\git\dynoflex\app\dynoflex\Win32\Debug\dynoflex.lib
C:\Users\justin\git\dynoflex\app\dynoflex\Win32\Debug\dynoflex.exp
^C:\Users\justin\git\dynoflex\app\dynoflex\dynoflex.vcxproj
C:\Users\justin\git\dynoflex\app\dynoflex\Win32\Debug\dynoflex.lib
C:\Users\justin\git\dynoflex\app\dynoflex\Win32\Debug\dynoflex.exp
^C:\Users\justin\git\dynoflex\app\dynoflex\dynoflex.vcxproj
C:\Users\justin\git\dynoflex\app\dynoflex\Win32\Debug\dynoflex.lib
C:\Users\justin\git\dynoflex\app\dynoflex\Win32\Debug\dynoflex.exp
^C:\Users\justin\git\dynoflex\app\dynoflex\dynoflex.vcxproj
C:\Users\justin\git\dynoflex\app\dynoflex\Win32\Debug\dynoflex.lib
C:\Users\justin\git\dynoflex\app\dynoflex\Win32\Debug\dynoflex.exp
^C:\Users\justin\git\dynoflex\app\dynoflex\dynoflex.vcxproj
C:\Users\justin\git\dynoflex\app\dynoflex\Win32\Debug\dynoflex.lib
C:\Users\justin\git\dynoflex\app\dynoflex\Win32\Debug\dynoflex.exp
^C:\Users\justin\git\dynoflex\app\dynoflex\dynoflex.vcxproj
C:\Users\justin\git\dynoflex\app\dynoflex\Win32\Debug\dynoflex.lib
C:\Users\justin\git\dynoflex\app\dynoflex\Win32\Debug\dynoflex.exp
^C:\Users\justin\git\dynoflex\app\dynoflex\dynoflex.vcxproj
C:\Users\justin\git\dynoflex\app\dynoflex\Win32\Debug\dynoflex.lib
C:\Users\justin\git\dynoflex\app\dynoflex\Win32\Debug\dynoflex.exp
^C:\Users\justin\git\dynoflex\app\dynoflex\dynoflex.vcxproj
C:\Users\justin\git\dynoflex\app\dynoflex\Win32\Debug\dynoflex.lib
C:\Users\justin\git\dynoflex\app\dynoflex\Win32\Debug\dynoflex.exp
^C:\Users\justin\git\dynoflex\app\dynoflex\dynoflex.vcxproj
C:\Users\justin\git\dynoflex\app\dynoflex\Win32\Debug\dynoflex.lib
C:\Users\justin\git\dynoflex\app\dynoflex\Win32\Debug\dynoflex.exp
^C:\Users\justin\git\dynoflex\app\dynoflex\dynoflex.vcxproj
C:\Users\justin\git\dynoflex\app\dynoflex\Win32\Debug\dynoflex.lib
C:\Users\justin\git\dynoflex\app\dynoflex\Win32\Debug\dynoflex.exp
^C:\Users\justin\git\dynoflex\app\dynoflex\dynoflex.vcxproj
C:\Users\justin\git\dynoflex\app\dynoflex\Win32\Debug\dynoflex.lib
C:\Users\justin\git\dynoflex\app\dynoflex\Win32\Debug\dynoflex.exp
^C:\Users\justin\git\dynoflex\app\dynoflex\dynoflex.vcxproj
C:\Users\justin\git\dynoflex\app\dynoflex\Win32\Debug\dynoflex.lib
C:\Users\justin\git\dynoflex\app\dynoflex\Win32\Debug\dynoflex.exp
^C:\Users\justin\git\dynoflex\app\dynoflex\dynoflex.vcxproj
C:\Users\justin\git\dynoflex\app\dynoflex\Win32\Debug\dynoflex.lib
C:\Users\justin\git\dynoflex\app\dynoflex\Win32\Debug\dynoflex.exp
^C:\Users\justin\git\dynoflex\app\dynoflex\dynoflex.vcxproj
C:\Users\justin\git\dynoflex\app\dynoflex\Win32\Debug\dynoflex.lib
C:\Users\justin\git\dynoflex\app\dynoflex\Win32\Debug\dynoflex.exp
^C:\Users\justin\git\dynoflex\app\dynoflex\dynoflex.vcxproj
C:\Users\justin\git\dynoflex\app\dynoflex\Win32\Debug\dynoflex.lib
C:\Users\justin\git\dynoflex\app\dynoflex\Win32\Debug\dynoflex.exp
^C:\Users\justin\git\dynoflex\app\dynoflex\dynoflex.vcxproj
C:\Users\justin\git\dynoflex\app\dynoflex\Win32\Debug\dynoflex.lib
C:\Users\justin\git\dynoflex\app\dynoflex\Win32\Debug\dynoflex.exp
^C:\Users\justin\git\dynoflex\app\dynoflex\dynoflex.vcxproj
C:\Users\justin\git\dynoflex\app\dynoflex\Win32\Debug\dynoflex.lib
C:\Users\justin\git\dynoflex\app\dynoflex\Win32\Debug\dynoflex.exp
^C:\Users\justin\git\dynoflex\app\dynoflex\dynoflex.vcxproj
C:\Users\justin\git\dynoflex\app\dynoflex\Win32\Debug\dynoflex.lib
C:\Users\justin\git\dynoflex\app\dynoflex\Win32\Debug\dynoflex.exp
^C:\Users\justin\git\dynoflex\app\dynoflex\dynoflex.vcxproj
C:\Users\justin\git\dynoflex\app\dynoflex\Win32\Debug\dynoflex.lib
C:\Users\justin\git\dynoflex\app\dynoflex\Win32\Debug\dynoflex.exp
^C:\Users\justin\git\dynoflex\app\dynoflex\dynoflex.vcxproj
C:\Users\justin\git\dynoflex\app\dynoflex\Win32\Debug\dynoflex.lib
C:\Users\justin\git\dynoflex\app\dynoflex\Win32\Debug\dynoflex.exp
^C:\Users\justin\git\dynoflex\app\dynoflex\dynoflex.vcxproj
C:\Users\justin\git\dynoflex\app\dynoflex\Win32\Debug\dynoflex.lib
C:\Users\justin\git\dynoflex\app\dynoflex\Win32\Debug\dynoflex.exp
^C:\Users\justin\git\dynoflex\app\dynoflex\dynoflex.vcxproj
C:\Users\justin\git\dynoflex\app\dynoflex\Win32\Debug\dynoflex.lib
C:\Users\justin\git\dynoflex\app\dynoflex\Win32\Debug\dynoflex.exp
^C:\Users\justin\git\dynoflex\app\dynoflex\dynoflex.vcxproj
C:\Users\justin\git\dynoflex\app\dynoflex\Win32\Debug\dynoflex.lib
C:\Users\justin\git\dynoflex\app\dynoflex\Win32\Debug\dynoflex.exp
^C:\Users\justin\git\dynoflex\app\dynoflex\dynoflex.vcxproj
C:\Users\justin\git\dynoflex\app\dynoflex\Win32\Debug\dynoflex.lib
C:\Users\justin\git\dynoflex\app\dynoflex\Win32\Debug\dynoflex.exp
^C:\Users\justin\git\dynoflex\app\dynoflex\dynoflex.vcxproj
C:\Users\justin\git\dynoflex\app\dynoflex\Win32\Debug\dynoflex.lib
C:\Users\justin\git\dynoflex\app\dynoflex\Win32\Debug\dynoflex.exp
^C:\Users\justin\git\dynoflex\app\dynoflex\dynoflex.vcxproj
C:\Users\justin\git\dynoflex\app\dynoflex\Win32\Debug\dynoflex.lib
C:\Users\justin\git\dynoflex\app\dynoflex\Win32\Debug\dynoflex.exp
^C:\Users\justin\git\dynoflex\app\dynoflex\dynoflex.vcxproj
C:\Users\justin\git\dynoflex\app\dynoflex\Win32\Debug\dynoflex.lib
C:\Users\justin\git\dynoflex\app\dynoflex\Win32\Debug\dynoflex.exp
^C:\Users\justin\git\dynoflex\app\dynoflex\dynoflex.vcxproj
C:\Users\justin\git\dynoflex\app\dynoflex\Win32\Debug\dynoflex.lib
C:\Users\justin\git\dynoflex\app\dynoflex\Win32\Debug\dynoflex.exp
^C:\Users\justin\git\dynoflex\app\dynoflex\dynoflex.vcxproj
C:\Users\justin\git\dynoflex\app\dynoflex\Win32\Debug\dynoflex.lib
C:\Users\justin\git\dynoflex\app\dynoflex\Win32\Debug\dynoflex.exp
^C:\Users\justin\git\dynoflex\app\dynoflex\dynoflex.vcxproj
C:\Users\justin\git\dynoflex\app\dynoflex\Win32\Debug\dynoflex.lib
C:\Users\justin\git\dynoflex\app\dynoflex\Win32\Debug\dynoflex.exp
^C:\Users\justin\git\dynoflex\app\dynoflex\dynoflex.vcxproj
C:\Users\justin\git\dynoflex\app\dynoflex\Win32\Debug\dynoflex.lib
C:\Users\justin\git\dynoflex\app\dynoflex\Win32\Debug\dynoflex.exp
^C:\Users\justin\git\dynoflex\app\dynoflex\dynoflex.vcxproj
C:\Users\justin\git\dynoflex\app\dynoflex\Win32\Debug\dynoflex.lib
C:\Users\justin\git\dynoflex\app\dynoflex\Win32\Debug\dynoflex.exp
^C:\Users\justin\git\dynoflex\app\dynoflex\dynoflex.vcxproj
C:\Users\justin\git\dynoflex\app\dynoflex\Win32\Debug\dynoflex.lib
C:\Users\justin\git\dynoflex\app\dynoflex\Win32\Debug\dynoflex.exp
^C:\Users\justin\git\dynoflex\app\dynoflex\dynoflex.vcxproj
C:\Users\justin\git\dynoflex\app\dynoflex\Win32\Debug\dynoflex.lib
C:\Users\justin\git\dynoflex\app\dynoflex\Win32\Debug\dynoflex.exp
^C:\Users\justin\git\dynoflex\app\dynoflex\dynoflex.vcxproj
C:\Users\justin\git\dynoflex\app\dynoflex\Win32\Debug\dynoflex.lib
C:\Users\justin\git\dynoflex\app\dynoflex\Win32\Debug\dynoflex.exp
^C:\Users\justin\git\dynoflex\app\dynoflex\dynoflex.vcxproj
C:\Users\justin\git\dynoflex\app\dynoflex\Win32\Debug\dynoflex.lib
C:\Users\justin\git\dynoflex\app\dynoflex\Win32\Debug\dynoflex.exp
^C:\Users\justin\git\dynoflex\app\dynoflex\dynoflex.vcxproj
C:\Users\justin\git\dynoflex\app\dynoflex\Win32\Debug\dynoflex.lib
C:\Users\justin\git\dynoflex\app\dynoflex\Win32\Debug\dynoflex.exp
^C:\Users\justin\git\dynoflex\app\dynoflex\dynoflex.vcxproj
C:\Users\justin\git\dynoflex\app\dynoflex\Win32\Debug\dynoflex.lib
C:\Users\justin\git\dynoflex\app\dynoflex\Win32\Debug\dynoflex.exp
^C:\Users\justin\git\dynoflex\app\dynoflex\dynoflex.vcxproj
C:\Users\justin\git\dynoflex\app\dynoflex\Win32\Debug\dynoflex.lib
C:\Users\justin\git\dynoflex\app\dynoflex\Win32\Debug\dynoflex.exp
^C:\Users\justin\git\dynoflex\app\dynoflex\dynoflex.vcxproj
C:\Users\justin\git\dynoflex\app\dynoflex\Win32\Debug\dynoflex.lib
C:\Users\justin\git\dynoflex\app\dynoflex\Win32\Debug\dynoflex.exp
^C:\Users\justin\git\dynoflex\app\dynoflex\dynoflex.vcxproj
C:\Users\justin\git\dynoflex\app\dynoflex\Win32\Debug\dynoflex.lib
C:\Users\justin\git\dynoflex\app\dynoflex\Win32\Debug\dynoflex.exp
^C:\Users\justin\git\dynoflex\app\dynoflex\dynoflex.vcxproj
C:\Users\justin\git\dynoflex\app\dynoflex\Win32\Debug\dynoflex.lib
C:\Users\justin\git\dynoflex\app\dynoflex\Win32\Debug\dynoflex.exp
^C:\Users\justin\git\dynoflex\app\dynoflex\dynoflex.vcxproj
C:\Users\justin\git\dynoflex\app\dynoflex\Win32\Debug\dynoflex.lib
C:\Users\justin\git\dynoflex\app\dynoflex\Win32\Debug\dynoflex.exp
^C:\Users\justin\git\dynoflex\app\dynoflex\dynoflex.vcxproj
C:\Users\justin\git\dynoflex\app\dynoflex\Win32\Debug\dynoflex.lib
C:\Users\justin\git\dynoflex\app\dynoflex\Win32\Debug\dynoflex.exp
^C:\Users\justin\git\dynoflex\app\dynoflex\dynoflex.vcxproj
C:\Users\justin\git\dynoflex\app\dynoflex\Win32\Debug\dynoflex.lib
C:\Users\justin\git\dynoflex\app\dynoflex\Win32\Debug\dynoflex.exp
^C:\Users\justin\git\dynoflex\app\dynoflex\dynoflex.vcxproj
C:\Users\justin\git\dynoflex\app\dynoflex\Win32\Debug\dynoflex.lib
C:\Users\justin\git\dynoflex\app\dynoflex\Win32\Debug\dynoflex.exp
^C:\Users\justin\git\dynoflex\app\dynoflex\dynoflex.vcxproj
C:\Users\justin\git\dynoflex\app\dynoflex\Win32\Debug\dynoflex.lib
C:\Users\justin\git\dynoflex\app\dynoflex\Win32\Debug\dynoflex.exp
^C:\Users\justin\git\dynoflex\app\dynoflex\dynoflex.vcxproj
C:\Users\justin\git\dynoflex\app\dynoflex\Win32\Debug\dynoflex.lib
C:\Users\justin\git\dynoflex\app\dynoflex\Win32\Debug\dynoflex.exp
^C:\Users\justin\git\dynoflex\app\dynoflex\dynoflex.vcxproj
C:\Users\justin\git\dynoflex\app\dynoflex\Win32\Debug\dynoflex.lib
C:\Users\justin\git\dynoflex\app\dynoflex\Win32\Debug\dynoflex.exp
