rep_num	position	torque	torque_compensated	lbs_compensated
1	0	3.34	3.63	68.6
1	10000	3.96	4.25	80.3
1	20000	5.22	5.5	104
1	30000	3.88	4.17	78.8
1	40000	2.87	3.16	59.7
1	50000	3.92	4.2	79.4
1	60000	5.23	5.51	104
1	70000	4.21	4.5	85.1
1	80000	3.39	3.68	69.6
1	90000	4.21	4.49	84.9
1	100000	5.14	5.43	103
1	110000	4.38	4.66	88.1
1	120000	4.29	4.58	86.5
1	130000	5.46	5.76	109
1	140000	6.48	6.83	129
1	150000	5.93	6.25	118
1	160000	5.46	5.75	109
1	170000	6.36	6.7	127
1	180000	7.45	7.85	148
1	190000	6.97	7.34	139
1	200000	6.28	6.62	125
1	210000	7.04	7.42	140
1	220000	8.61	9.08	172
1	230000	7.39	7.79	147
1	240000	6.22	6.55	124
1	250000	6.78	7.14	135
1	260000	6.48	6.84	129
1	270000	4.95	5.24	99
1	280000	4.57	4.85	91.8
1	290000	5.21	5.5	104
1	300000	5.9	6.22	117
2	0	7.19	4.93	93.2
2	-10000	10.6	8.32	157
2	-20000	9.56	7.3	138
2	-30000	11.6	9.29	176
2	-40000	11.5	9.22	174
2	-50000	10.6	8.32	157
2	-60000	10.9	8.62	163
2	-70000	12.2	9.89	187
2	-80000	11.5	9.22	174
2	-90000	10.4	8.13	154
2	-100000	10.4	8.12	153
2	-110000	11.1	8.84	167
2	-120000	10.6	8.34	158
2	-130000	9.66	7.4	140
2	-140000	9.35	7.09	134
2	-150000	10.3	8.06	152
2	-160000	9.93	7.67	145
2	-170000	8.59	6.33	120
2	-180000	8.67	6.41	121
2	-190000	10.2	7.92	150
2	-200000	9.28	7.02	133
2	-210000	8.11	5.85	111
2	-220000	8.02	5.76	109
2	-230000	8.72	6.46	122
2	-240000	8.19	5.93	112
2	-250000	6.86	4.6	87
2	-260000	6.87	4.61	87.2
2	-270000	8.07	5.81	110
2	-280000	7.67	5.41	102
2	-290000	5.03	2.88	54.4
2	-300000	4.42	2.53	47.9
2	0	4.43	4.72	89.2
2	10000	5.37	5.66	107
2	20000	6.5	6.86	130
2	30000	5.72	6.03	114
2	40000	5.01	5.3	100
2	50000	6.14	6.47	122
2	60000	7.04	7.42	140
2	70000	5.6	5.9	112
2	80000	4.91	5.2	98.2
2	90000	5.89	6.21	117
2	100000	6.55	6.9	130
2	110000	5.58	5.88	111
2	120000	5.2	5.48	104
2	130000	6.42	6.77	128
2	140000	7.04	7.42	140
2	150000	6.56	6.91	131
2	160000	6.16	6.5	123
2	170000	7.35	7.74	146
2	180000	8.28	8.72	165
2	190000	8.05	8.49	160
2	200000	7.66	8.08	153
2	210000	7.71	8.12	154
2	220000	8.68	9.15	173
2	230000	6.74	7.11	134
2	240000	5.24	5.53	105
2	250000	5.37	5.66	107
2	260000	4.9	5.19	98.1
2	270000	4.4	4.68	88.5
2	280000	4.05	4.34	82
2	290000	4.9	5.18	98
2	300000	5.35	5.64	107
3	0	7.02	4.76	89.9
3	-10000	9.71	7.45	141
3	-20000	9.32	7.06	133
3	-30000	11.1	8.85	167
3	-40000	11.3	9.04	171
3	-50000	10.1	7.87	149
3	-60000	10	7.78	147
3	-70000	11	8.73	165
3	-80000	11	8.7	164
3	-90000	9.9	7.64	144
3	-100000	9.85	7.59	143
3	-110000	10.8	8.55	162
3	-120000	10.8	8.58	162
3	-130000	9.43	7.17	135
3	-140000	9.42	7.16	135
3	-150000	11.2	8.91	168
3	-160000	11.2	8.96	169
3	-170000	9.89	7.63	144
3	-180000	9.41	7.15	135
3	-190000	10.2	7.98	151
3	-200000	9.21	6.95	131
3	-210000	8.75	6.49	123
3	-220000	8.53	6.27	118
3	-230000	9.49	7.23	137
3	-240000	8.55	6.29	119
3	-250000	7.04	4.78	90.3
3	-260000	7.23	4.97	93.9
3	-270000	8.24	5.98	113
3	-280000	7.57	5.31	100
3	-290000	4.77	2.73	51.6
3	-300000	4.75	2.72	51.4
3	0	4.47	4.75	89.9
3	10000	4.61	4.9	92.5
3	20000	5.79	6.1	115
3	30000	4.97	5.26	99.3
3	40000	3.85	4.14	78.2
3	50000	4.47	4.76	89.9
3	60000	5.39	5.68	107
3	70000	4.51	4.8	90.7
3	80000	3.54	3.83	72.3
3	90000	4.83	5.11	96.6
3	100000	5.98	6.3	119
3	110000	5.09	5.38	102
3	120000	4.69	4.97	94
3	130000	5.31	5.6	106
3	140000	5.85	6.17	117
3	150000	5.54	5.84	110
3	160000	4.77	5.05	95.5
3	170000	5.2	5.48	104
3	180000	5.74	6.05	114
3	190000	4.78	5.07	95.8
3	200000	4.01	4.3	81.3
3	210000	4.28	4.57	86.4
3	220000	4.84	5.13	96.9
3	230000	3.34	3.63	68.6
3	240000	2.16	2.45	46.3
3	250000	3.05	3.33	63
3	260000	3.55	3.84	72.5
3	270000	2.47	2.76	52.1
3	280000	2.6	2.89	54.6
3	290000	3.61	3.9	73.7
3	300000	5.04	5.33	101
4	0	6.27	4.01	75.8
4	-10000	8.4	6.14	116
4	-20000	7.92	5.66	107
4	-30000	10.2	7.97	151
4	-40000	9.82	7.56	143
4	-50000	8.58	6.32	119
4	-60000	8.59	6.33	120
4	-70000	9.45	7.19	136
4	-80000	9.18	6.92	131
4	-90000	7.72	5.46	103
4	-100000	7.42	5.16	97.4
4	-110000	8.29	6.03	114
4	-120000	7.85	5.59	106
4	-130000	6.66	4.4	83.2
4	-140000	6.71	4.45	84.2
4	-150000	7.98	5.72	108
4	-160000	7.96	5.7	108
4	-170000	6.45	4.19	79.3
4	-180000	6.6	4.34	82
4	-190000	8	5.74	109
4	-200000	7.66	5.4	102
4	-210000	6.43	4.17	78.9
4	-220000	5.99	3.73	70.4
4	-230000	7.2	4.94	93.3
4	-240000	7.01	4.75	89.7
4	-250000	5.39	3.13	59.1
4	-260000	5.71	3.45	65.3
4	-270000	6.43	4.17	78.8
4	-280000	5.93	3.67	69.3
4	-290000	3.94	2.26	42.6
4	-300000	4.8	2.75	52
4	0	5.24	5.53	104
4	10000	6.84	7.21	136
4	20000	7.86	8.29	157
4	30000	7.13	7.52	142
4	40000	6.09	6.42	121
4	50000	7.53	7.94	150
4	60000	8.19	8.63	163
4	70000	6.84	7.21	136
4	80000	5.65	5.95	112
4	90000	7.54	7.95	150
4	100000	7.59	8	151
4	110000	6.27	6.61	125
4	120000	5.03	5.32	100
4	130000	5.64	5.94	112
4	140000	5.85	6.17	117
4	150000	4.82	5.1	96.5
4	160000	4.21	4.49	84.9
4	170000	5.18	5.47	103
4	180000	5.75	6.06	115
4	190000	4.59	4.87	92.1
4	200000	3.88	4.17	78.8
4	210000	4.41	4.7	88.8
4	220000	5.61	5.92	112
4	230000	4.08	4.36	82.5
4	240000	3.03	3.32	62.7
4	250000	3.66	3.94	74.5
4	260000	3.6	3.88	73.4
4	270000	2.08	2.36	44.7
4	280000	2.04	2.32	43.9
4	290000	3.01	3.29	62.3
4	300000	3.69	3.98	75.1
5	0	5.86	3.6	68
5	-10000	6.92	4.66	88
5	-20000	6.36	4.1	77.5
5	-30000	8.45	6.19	117
5	-40000	8.55	6.29	119
5	-50000	6.86	4.6	86.9
5	-60000	6.99	4.73	89.4
5	-70000	8.23	5.97	113
5	-80000	7.81	5.55	105
5	-90000	6.64	4.38	82.8
5	-100000	6.01	3.75	70.8
5	-110000	7.12	4.86	91.8
5	-120000	7.13	4.87	92.1
5	-130000	5.99	3.73	70.5
5	-140000	5.89	3.63	68.6
5	-150000	6.69	4.43	83.8
5	-160000	6.42	4.16	78.7
5	-170000	5.29	3.03	57.3
5	-180000	5.34	3.08	58.2
5	-190000	6.85	4.59	86.7
5	-200000	6.07	3.81	72.1
5	-210000	4.97	2.85	53.8
5	-220000	5.07	2.9	54.9
5	-230000	6.5	4.24	80.1
5	-240000	6.23	3.97	75.1
5	-250000	4.73	2.71	51.2
5	-260000	4.64	2.66	50.2
5	-270000	6.17	3.91	73.9
5	-280000	6.15	3.89	73.5
5	-290000	4.25	2.44	46
5	-300000	4.39	2.51	47.5
5	0	3.56	3.85	72.7
5	10000	3.49	3.78	71.4
5	20000	3.99	4.28	80.9
5	30000	3.31	3.6	68
5	40000	2.57	2.86	54
5	50000	3.74	4.03	76.2
5	60000	4.91	5.2	98.3
5	70000	3.75	4.04	76.3
5	80000	3.08	3.37	63.7
5	90000	4.26	4.55	86
5	100000	5.06	5.34	101
5	110000	4.18	4.46	84.4
5	120000	3.56	3.84	72.6
5	130000	4.44	4.73	89.4
5	140000	5.34	5.62	106
5	150000	4.57	4.85	91.7
5	160000	3.53	3.82	72.2
5	170000	4.59	4.88	92.2
5	180000	5.48	5.78	109
5	190000	4.88	5.17	97.6
5	200000	4.27	4.55	86
5	210000	4.82	5.1	96.4
5	220000	5.33	5.61	106
5	230000	3.81	4.09	77.4
5	240000	2.89	3.18	60.1
5	250000	3.75	4.03	76.2
5	260000	3.59	3.88	73.3
5	270000	1.95	2.24	42.3
5	280000	1.76	2.05	38.7
5	290000	2.57	2.85	54
5	300000	3.18	3.46	65.4
6	0	4.45	2.55	48.2
6	-10000	6.35	4.09	77.3
6	-20000	6.11	3.85	72.7
6	-30000	8.34	6.08	115
6	-40000	8.23	5.97	113
6	-50000	6.78	4.52	85.5
6	-60000	6.92	4.66	88.2
6	-70000	7.81	5.55	105
6	-80000	7.08	4.82	91.2
6	-90000	6	3.74	70.6
6	-100000	6.09	3.83	72.5
6	-110000	6.8	4.54	85.8
6	-120000	7	4.74	89.5
6	-130000	5.69	3.43	64.8
6	-140000	5.63	3.37	63.7
6	-150000	6.75	4.49	84.9
6	-160000	6.5	4.24	80.1
6	-170000	5.11	2.93	55.4
6	-180000	4.41	2.52	47.7
6	-190000	5.7	3.44	65.1
6	-200000	5.43	3.17	60
6	-210000	3.94	2.25	42.6
6	-220000	4.08	2.33	44.1
6	-230000	5.17	2.96	56
6	-240000	4.73	2.71	51.2
6	-250000	3.24	1.85	35
6	-260000	3.63	2.08	39.3
6	-270000	4.82	2.76	52.2
6	-280000	4.47	2.56	48.4
6	-290000	2.98	1.71	32.3
6	-300000	2.93	1.68	31.7
