rep_num	position	torque	torque_compensated	lbs_compensated
1	0	2.28	2.56	48.5
1	10000	4.25	4.53	85.6
1	20000	4.64	4.93	93.1
1	30000	3.59	3.88	73.3
1	40000	3.05	3.34	63.1
1	50000	3.3	3.58	67.7
1	60000	3.48	3.77	71.2
1	70000	2.6	2.88	54.5
1	80000	3.27	3.56	67.3
1	90000	5.09	5.37	102
1	100000	6.06	6.39	121
1	110000	5.76	6.07	115
1	120000	5.98	6.31	119
1	130000	7.4	7.8	147
1	140000	8.02	8.45	160
1	150000	7.09	7.47	141
1	160000	6.98	7.35	139
1	170000	8.16	8.6	163
1	180000	8.64	9.11	172
1	190000	8.06	8.5	161
1	200000	8.99	9.47	179
1	210000	10.1	10.7	201
1	220000	9.74	10.3	194
1	230000	8.34	8.79	166
1	240000	6.63	6.99	132
1	250000	6.55	6.91	131
1	260000	5.44	5.73	108
1	270000	3.33	3.62	68.4
1	280000	2.98	3.27	61.8
1	290000	4.08	4.36	82.5
1	300000	3.95	4.23	80
2	0	5.85	3.59	67.9
2	-10000	7.37	5.11	96.5
2	-20000	7.81	5.55	105
2	-30000	9.61	7.35	139
2	-40000	10.1	7.83	148
2	-50000	9.83	7.57	143
2	-60000	9.01	6.75	128
2	-70000	9.12	6.86	130
2	-80000	10	7.76	147
2	-90000	9.4	7.14	135
2	-100000	8.33	6.07	115
2	-110000	8.54	6.28	119
2	-120000	8.86	6.6	125
2	-130000	7.69	5.43	103
2	-140000	6.61	4.35	82.3
2	-150000	7.52	5.26	99.4
2	-160000	7.87	5.61	106
2	-170000	6.32	4.06	76.7
2	-180000	5.7	3.44	64.9
2	-190000	5.84	3.58	67.7
2	-200000	6.69	4.43	83.8
2	-210000	6.15	3.89	73.4
2	-220000	5.31	3.05	57.6
2	-230000	5.48	3.22	60.8
2	-240000	6.25	3.99	75.4
2	-250000	5.08	2.91	55
2	-260000	4.86	2.79	52.6
2	-270000	4.54	2.6	49.2
2	-280000	4.02	2.3	43.5
2	-290000	3.06	1.75	33.1
2	-300000	2.12	1.22	23
2	0	1.93	2.21	41.8
2	10000	3.5	3.79	71.6
2	20000	4.72	5	94.6
2	30000	3.84	4.12	77.9
2	40000	3.4	3.69	69.7
2	50000	4.48	4.77	90.1
2	60000	4.9	5.18	97.9
2	70000	4.07	4.35	82.2
2	80000	4.09	4.37	82.6
2	90000	5.02	5.31	100
2	100000	5.49	5.78	109
2	110000	4.61	4.9	92.6
2	120000	4.64	4.93	93.2
2	130000	6.09	6.41	121
2	140000	6.26	6.6	125
2	150000	5.29	5.57	105
2	160000	5.17	5.46	103
2	170000	6.4	6.75	128
2	180000	6.32	6.67	126
2	190000	5.37	5.66	107
2	200000	4.92	5.21	98.4
2	210000	5.79	6.1	115
2	220000	5.85	6.17	117
2	230000	4.9	5.19	98.1
2	240000	4.45	4.74	89.5
2	250000	5.01	5.3	100
2	260000	4.79	5.08	96
2	270000	3.71	3.99	75.4
2	280000	3.69	3.98	75.2
2	290000	4.52	4.81	90.9
2	300000	4.22	4.5	85.1
3	0	5.41	3.15	59.5
3	-10000	9.05	6.79	128
3	-20000	9.51	7.25	137
3	-30000	10.9	8.68	164
3	-40000	11.6	9.33	176
3	-50000	11.4	9.11	172
3	-60000	10.5	8.2	155
3	-70000	10.9	8.61	163
3	-80000	11.2	8.96	169
3	-90000	10.3	8	151
3	-100000	9.29	7.03	133
3	-110000	10.2	7.92	150
3	-120000	10.5	8.26	156
3	-130000	8.65	6.39	121
3	-140000	8.13	5.87	111
3	-150000	8.44	6.18	117
3	-160000	8.75	6.49	123
3	-170000	7.11	4.85	91.6
3	-180000	7.02	4.76	90
3	-190000	6.99	4.73	89.4
3	-200000	6.7	4.44	83.9
3	-210000	6.03	3.77	71.3
3	-220000	4.94	2.83	53.5
3	-230000	5.38	3.12	58.9
3	-240000	5.15	2.95	55.8
3	-250000	4.2	2.41	45.5
3	-260000	3.09	1.77	33.4
3	-270000	3.15	1.81	34.1
3	-280000	3.18	1.82	34.4
3	-290000	1.64	0.941	17.8
3	-300000	1.35	0.772	14.6
3	0	2.09	2.37	44.9
3	10000	5.97	6.3	119
3	20000	7.21	7.6	144
3	30000	6.26	6.6	125
3	40000	6.41	6.76	128
3	50000	7.18	7.57	143
3	60000	8.28	8.73	165
3	70000	7.23	7.63	144
3	80000	6.93	7.3	138
3	90000	8.2	8.64	163
3	100000	8.81	9.29	176
3	110000	7.46	7.86	149
3	120000	7.25	7.64	144
3	130000	8.64	9.11	172
3	140000	8.12	8.56	162
3	150000	7.33	7.73	146
3	160000	7.61	8.02	152
3	170000	8.02	8.45	160
3	180000	7.92	8.35	158
3	190000	6.71	7.07	134
3	200000	6.41	6.76	128
3	210000	7.06	7.44	141
3	220000	6.92	7.29	138
3	230000	5.23	5.52	104
3	240000	4.49	4.78	90.3
3	250000	5.14	5.43	103
3	260000	4.86	5.14	97.2
3	270000	3.38	3.67	69.3
3	280000	3.41	3.69	69.8
3	290000	4.22	4.5	85.1
3	300000	4.69	4.97	94
4	0	5.58	3.32	62.8
4	-10000	7.93	5.67	107
4	-20000	8.21	5.95	112
4	-30000	9.29	7.03	133
4	-40000	9.92	7.66	145
4	-50000	9.6	7.34	139
4	-60000	9.13	6.87	130
4	-70000	9.5	7.24	137
4	-80000	9.96	7.7	146
4	-90000	8.77	6.51	123
4	-100000	7.92	5.66	107
4	-110000	8.55	6.29	119
4	-120000	8.82	6.56	124
4	-130000	8.02	5.76	109
4	-140000	7.34	5.08	96
4	-150000	8.47	6.21	117
4	-160000	8.3	6.04	114
4	-170000	6.45	4.19	79.1
4	-180000	6.06	3.8	71.8
4	-190000	6.72	4.46	84.2
4	-200000	6.41	4.15	78.5
4	-210000	5.39	3.13	59.1
4	-220000	5.01	2.87	54.3
4	-230000	5.27	3.02	57.1
4	-240000	5.76	3.5	66.1
4	-250000	4.69	2.69	50.8
4	-260000	4.74	2.71	51.3
4	-270000	5.01	2.87	54.2
4	-280000	5.07	2.9	54.9
4	-290000	3.73	2.14	40.4
4	-300000	3.87	2.22	42
4	0	2.82	3.1	58.6
4	10000	4.49	4.78	90.3
4	20000	5.69	6	113
4	30000	4.66	4.95	93.5
4	40000	4.44	4.73	89.4
4	50000	5.84	6.15	116
4	60000	6.66	7.02	133
4	70000	6.05	6.38	121
4	80000	6.05	6.38	121
4	90000	7.38	7.78	147
4	100000	7.39	7.79	147
4	110000	6.74	7.1	134
4	120000	6.27	6.61	125
4	130000	6.92	7.3	138
4	140000	6.83	7.2	136
4	150000	6.05	6.38	121
4	160000	6.72	7.08	134
4	170000	7.6	8.01	151
4	180000	7.87	8.29	157
4	190000	6.6	6.96	132
4	200000	6.31	6.66	126
4	210000	6.87	7.25	137
4	220000	6.52	6.87	130
4	230000	5.15	5.44	103
4	240000	4.08	4.37	82.5
4	250000	4.34	4.63	87.5
4	260000	3.57	3.85	72.8
4	270000	1.54	1.83	34.5
4	280000	1.26	1.54	29.2
4	290000	2.11	2.4	45.3
4	300000	2.19	2.47	46.8
5	0	3.34	1.91	36.2
5	-10000	6.36	4.1	77.6
5	-20000	6.78	4.52	85.5
5	-30000	8.2	5.94	112
5	-40000	8.59	6.33	120
5	-50000	8.09	5.83	110
5	-60000	7.61	5.35	101
5	-70000	8.46	6.2	117
5	-80000	9.18	6.92	131
5	-90000	7.96	5.7	108
5	-100000	7.2	4.94	93.4
5	-110000	8.26	6	113
5	-120000	8.79	6.53	123
5	-130000	7.41	5.15	97.3
5	-140000	6.87	4.61	87.2
5	-150000	7.72	5.46	103
5	-160000	7.55	5.29	99.9
5	-170000	6.2	3.94	74.5
5	-180000	5.93	3.67	69.4
5	-190000	6.26	4	75.6
5	-200000	6.24	3.98	75.2
5	-210000	5.66	3.4	64.2
5	-220000	4.94	2.83	53.4
5	-230000	5.44	3.18	60.2
5	-240000	5.47	3.21	60.7
5	-250000	4.7	2.69	50.9
5	-260000	4.28	2.45	46.3
5	-270000	5.13	2.94	55.6
5	-280000	4.76	2.73	51.5
5	-290000	3.9	2.23	42.2
5	-300000	3.45	1.97	37.3
5	0	2.4	2.69	50.8
5	10000	6.36	6.7	127
5	20000	7.35	7.74	146
5	30000	7.9	8.32	157
5	40000	8.12	8.56	162
5	50000	8.37	8.83	167
5	60000	8.83	9.31	176
5	70000	7.82	8.24	156
5	80000	7.83	8.26	156
5	90000	8.01	8.44	160
5	100000	8.49	8.94	169
5	110000	7.34	7.73	146
5	120000	6.85	7.22	136
5	130000	7.79	8.21	155
5	140000	8.02	8.45	160
5	150000	7.33	7.73	146
5	160000	7.16	7.54	143
5	170000	7.74	8.15	154
5	180000	7.82	8.25	156
5	190000	6.58	6.93	131
5	200000	6.5	6.86	130
5	210000	7.07	7.45	141
5	220000	6.02	6.35	120
5	230000	5.28	5.57	105
5	240000	4.13	4.41	83.4
5	250000	4.49	4.78	90.3
5	260000	4.2	4.49	84.9
5	270000	2.08	2.37	44.7
5	280000	1.92	2.21	41.7
5	290000	2.66	2.95	55.7
5	300000	2.83	3.12	59
6	0	3.8	2.18	41.1
6	-10000	7.46	5.2	98.2
6	-20000	7.88	5.62	106
6	-30000	9.23	6.97	132
6	-40000	9.84	7.58	143
6	-50000	9.4	7.14	135
6	-60000	9.36	7.1	134
6	-70000	10.1	7.83	148
6	-80000	10.5	8.22	155
6	-90000	9.79	7.53	142
6	-100000	8.93	6.67	126
6	-110000	9.66	7.4	140
6	-120000	10.1	7.79	147
6	-130000	9.16	6.9	130
6	-140000	8.24	5.98	113
6	-150000	9.43	7.17	136
6	-160000	9.22	6.96	132
6	-170000	8.08	5.82	110
6	-180000	7.48	5.22	98.7
6	-190000	7.13	4.87	92
6	-200000	6.43	4.17	78.9
6	-210000	5	2.86	54.1
6	-220000	3.98	2.28	43.1
6	-230000	4.01	2.3	43.4
6	-240000	3.45	1.98	37.4
6	-250000	1.7	0.973	18.4
6	-260000	1.25	0.717	13.6
6	-270000	2	1.15	21.6
6	-280000	1.66	0.954	18
6	-290000	0.509	0.292	5.51
6	-300000	0.0712	0.0408	0.771
