rep_num	position	torque	torque_compensated	lbs_compensated
1	0	1.91	2.2	41.6
1	10000	2.55	2.84	53.6
1	20000	2.86	3.15	59.5
1	30000	2.97	3.26	61.6
1	40000	2.43	2.72	51.3
1	50000	2.52	2.8	53
1	60000	2.73	3.02	57
1	70000	2.85	3.14	59.3
1	80000	2.35	2.64	49.9
1	90000	1.23	1.51	28.6
1	100000	1.73	2.01	38.1
1	110000	1.46	1.74	32.9
1	120000	2.21	2.5	47.2
1	130000	2.04	2.32	43.9
1	140000	3.34	3.63	68.6
1	150000	3.5	3.79	71.6
1	160000	3.66	3.95	74.6
1	170000	3.44	3.73	70.5
1	180000	4.16	4.44	84
1	190000	4.67	4.96	93.7
1	200000	4.04	4.33	81.8
1	210000	4.47	4.75	89.8
1	220000	4.85	5.14	97.1
1	230000	4.79	5.08	96
1	240000	4.33	4.61	87.2
1	250000	4.29	4.58	86.5
1	260000	4.74	5.03	95
1	270000	4.38	4.67	88.2
1	280000	4.67	4.95	93.6
1	290000	4.92	5.21	98.4
1	300000	5.9	6.21	117
2	0	8.28	6.02	114
2	-10000	12.7	10.4	196
2	-20000	12.5	10.3	194
2	-30000	13.8	11.5	217
2	-40000	13.3	11	209
2	-50000	13.2	10.9	206
2	-60000	13.4	11.2	211
2	-70000	13.4	11.1	210
2	-80000	12.7	10.4	196
2	-90000	12.4	10.2	192
2	-100000	12.4	10.2	192
2	-110000	13	10.7	203
2	-120000	12.9	10.7	202
2	-130000	12.5	10.3	194
2	-140000	12.1	9.87	186
2	-150000	12.7	10.4	197
2	-160000	11.5	9.21	174
2	-170000	11.1	8.89	168
2	-180000	11.5	9.21	174
2	-190000	12	9.7	183
2	-200000	11.2	8.93	169
2	-210000	10.4	8.12	153
2	-220000	11.1	8.89	168
2	-230000	11.5	9.22	174
2	-240000	10.4	8.15	154
2	-250000	10.1	7.89	149
2	-260000	10.2	7.93	150
2	-270000	9.82	7.56	143
2	-280000	9.22	6.96	131
2	-290000	7.33	5.07	95.8
2	-300000	7.95	5.69	107
2	0	7.62	8.03	152
2	10000	10.2	10.7	203
2	20000	10.2	10.8	203
2	30000	10.2	10.7	202
2	40000	9.18	9.68	183
2	50000	9.59	10.1	191
2	60000	10.3	10.9	205
2	70000	10.1	10.7	202
2	80000	9.12	9.61	182
2	90000	9.05	9.54	180
2	100000	9.61	10.1	191
2	110000	9.09	9.59	181
2	120000	8.46	8.92	169
2	130000	9.05	9.54	180
2	140000	9.16	9.65	182
2	150000	9.07	9.56	181
2	160000	9.02	9.51	180
2	170000	9.17	9.66	183
2	180000	9.74	10.3	194
2	190000	9.85	10.4	196
2	200000	9.17	9.66	183
2	210000	8.93	9.42	178
2	220000	9	9.49	179
2	230000	8.27	8.72	165
2	240000	6.99	7.37	139
2	250000	6.09	6.42	121
2	260000	6.29	6.63	125
2	270000	5.44	5.74	108
2	280000	5.13	5.42	102
2	290000	4.7	4.99	94.2
2	300000	5.13	5.42	102
3	0	6.62	4.36	82.4
3	-10000	9.34	7.08	134
3	-20000	9.61	7.35	139
3	-30000	11	8.72	165
3	-40000	11.5	9.26	175
3	-50000	11.9	9.67	183
3	-60000	12.4	10.2	192
3	-70000	12.9	10.7	202
3	-80000	12.8	10.5	199
3	-90000	12.6	10.3	195
3	-100000	12.7	10.5	198
3	-110000	12.7	10.5	198
3	-120000	12.6	10.3	195
3	-130000	12.2	9.94	188
3	-140000	11.9	9.66	183
3	-150000	12.8	10.5	199
3	-160000	11.9	9.67	183
3	-170000	11.1	8.82	167
3	-180000	11	8.75	165
3	-190000	10.9	8.64	163
3	-200000	9.92	7.66	145
3	-210000	8.9	6.64	125
3	-220000	9.9	7.64	144
3	-230000	9.88	7.62	144
3	-240000	8.99	6.73	127
3	-250000	8.2	5.94	112
3	-260000	8.07	5.81	110
3	-270000	7.44	5.18	98
3	-280000	6.66	4.4	83.1
3	-290000	5.65	3.39	64
3	-300000	5.33	3.07	58.1
3	0	4.29	4.58	86.6
3	10000	7.78	8.2	155
3	20000	7.96	8.39	159
3	30000	8.35	8.8	166
3	40000	7.11	7.5	142
3	50000	7.27	7.67	145
3	60000	8.34	8.79	166
3	70000	8.15	8.59	162
3	80000	7.53	7.94	150
3	90000	7.52	7.92	150
3	100000	8.06	8.5	161
3	110000	7.54	7.95	150
3	120000	6.76	7.13	135
3	130000	7.22	7.61	144
3	140000	7.52	7.92	150
3	150000	7.03	7.41	140
3	160000	7.28	7.68	145
3	170000	6.97	7.35	139
3	180000	7.22	7.62	144
3	190000	7.16	7.54	143
3	200000	6.28	6.61	125
3	210000	6.54	6.9	130
3	220000	7.2	7.59	144
3	230000	7.09	7.47	141
3	240000	6.26	6.6	125
3	250000	5.65	5.95	112
3	260000	5.92	6.24	118
3	270000	5.63	5.94	112
3	280000	4.97	5.26	99.4
3	290000	4.61	4.89	92.5
3	300000	5.32	5.61	106
4	0	6.81	4.55	86
4	-10000	10.8	8.57	162
4	-20000	11.9	9.6	181
4	-30000	13.5	11.2	212
4	-40000	13.1	10.8	204
4	-50000	13.2	10.9	206
4	-60000	13.1	10.8	204
4	-70000	13.2	10.9	206
4	-80000	12.5	10.2	193
4	-90000	12	9.75	184
4	-100000	11.5	9.22	174
4	-110000	11.4	9.11	172
4	-120000	11.4	9.13	173
4	-130000	10.5	8.28	157
4	-140000	10.6	8.39	159
4	-150000	11.2	8.89	168
4	-160000	10.2	7.91	149
4	-170000	9.46	7.2	136
4	-180000	10	7.79	147
4	-190000	10.3	8.04	152
4	-200000	9.23	6.97	132
4	-21