rep_num	position	torque	torque_compensated	lbs_compensated
1	0	1.6	1.88	35.6
1	10000	2.23	2.52	47.6
1	20000	3.63	3.91	73.9
1	30000	2.11	2.39	45.2
1	40000	1.66	1.95	36.9
1	50000	2.49	2.78	52.5
1	60000	3.25	3.54	66.9
1	70000	2.57	2.86	54
1	80000	2.24	2.53	47.8
1	90000	3.33	3.62	68.3
1	100000	4.37	4.65	87.9
1	110000	3.41	3.7	69.8
1	120000	3.33	3.62	68.4
1	130000	5.22	5.51	104
1	140000	5.82	6.14	116
1	150000	4.85	5.14	97.1
1	160000	4.97	5.25	99.3
1	170000	5.58	5.89	111
1	180000	5.81	6.12	116
1	190000	4.54	4.83	91.3
1	200000	4.48	4.77	90.1
1	210000	5.88	6.2	117
1	220000	6.17	6.5	123
1	230000	5.22	5.5	104
1	240000	4.59	4.88	92.2
1	250000	5.6	5.9	111
1	260000	5.77	6.09	115
1	270000	4.4	4.68	88.5
1	280000	3.93	4.22	79.7
1	290000	5.28	5.56	105
1	300000	5.85	6.16	116
2	0	6.84	4.58	86.6
2	-10000	9.42	7.16	135
2	-20000	8.99	6.73	127
2	-30000	10.3	8.02	152
2	-40000	10.9	8.59	162
2	-50000	10.4	8.15	154
2	-60000	10	7.77	147
2	-70000	10.9	8.63	163
2	-80000	11.4	9.12	172
2	-90000	9.95	7.69	145
2	-100000	9.46	7.2	136
2	-110000	9.86	7.6	144
2	-120000	10.5	8.2	155
2	-130000	8.64	6.38	121
2	-140000	7.45	5.19	98.1
2	-150000	8.2	5.94	112
2	-160000	8.64	6.38	121
2	-170000	7.24	4.98	94
2	-180000	6.54	4.28	80.8
2	-190000	6.93	4.67	88.2
2	-200000	7.13	4.87	92
2	-210000	6.34	4.08	77.1
2	-220000	5.7	3.44	65
2	-230000	6.33	4.07	76.9
2	-240000	6.54	4.28	80.9
2	-250000	5.63	3.37	63.7
2	-260000	5.44	3.18	60.2
2	-270000	5.77	3.51	66.3
2	-280000	5.94	3.68	69.5
2	-290000	3.72	2.13	40.3
2	-300000	3.45	1.98	37.4
2	0	2.73	3.02	57
2	10000	5.75	6.06	115
2	20000	7.41	7.81	148
2	30000	6.2	6.54	124
2	40000	6.03	6.36	120
2	50000	7.1	7.48	141
2	60000	8.09	8.52	161
2	70000	7.21	7.6	144
2	80000	6.42	6.77	128
2	90000	7.73	8.15	154
2	100000	7.09	7.47	141
2	110000	5.74	6.05	114
2	120000	5.41	5.7	108
2	130000	6.9	7.27	137
2	140000	7.04	7.42	140
2	150000	5.5	5.79	110
2	160000	5.68	5.99	113
2	170000	6.45	6.8	129
2	180000	6.89	7.26	137
2	190000	5.36	5.65	107
2	200000	5.22	5.51	104
2	210000	6.51	6.86	130
2	220000	6.05	6.38	121
2	230000	5.02	5.31	100
2	240000	4.49	4.78	90.3
2	250000	5.07	5.36	101
2	260000	5.15	5.43	103
2	270000	4.12	4.41	83.3
2	280000	4.08	4.37	82.5
2	290000	5.65	5.96	113
2	300000	5.6	5.91	112
3	0	6.74	4.48	84.6
3	-10000	9.23	6.97	132
3	-20000	9.55	7.29	138
3	-30000	11.2	8.96	169
3	-40000	11.8	9.54	180
3	-50000	10.6	8.3	157
3	-60000	10.2	7.95	150
3	-70000	11.6	9.31	176
3	-80000	12.1	9.85	186
3	-90000	10.5	8.2	155
3	-100000	9.67	7.41	140
3	-110000	10.3	8.07	152
3	-120000	10.5	8.2	155
3	-130000	8.86	6.6	125
3	-140000	8.23	5.97	113
3	-150000	9.16	6.9	130
3	-160000	9.01	6.75	128
3	-170000	7.14	4.88	92.2
3	-180000	6.56	4.3	81.2
3	-190000	7.08	4.82	91
3	-200000	7.4	5.14	97.1
3	-210000	6.22	3.96	74.9
3	-220000	5.84	3.58	67.6
3	-230000	6.48	4.22	79.8
3	-240000	6.42	4.16	78.5
3	-250000	5.2	2.98	56.3
3	-260000	5.12	2.93	55.5
3	-270000	5.59	3.33	63
3	-280000	5.04	2.89	54.6
3	-290000	3.12	1.79	33.7
3	-300000	2.79	1.6	30.2
3	0	1.89	2.17	41.1
3	10000	3.31	3.6	68
3	20000	4.83	5.12	96.7
3	30000	4.06	4.35	82.2
3	40000	3.68	3.97	75
3	50000	5.14	5.42	102
3	60000	5.79	6.1	115
3	70000	4.44	4.72	89.3
3	80000	4.04	4.32	81.7
3	90000	5.23	5.52	104
3	100000	5.75	6.06	115
3	110000	4.43	4.72	89.2
3	120000	4.23	4.51	85.3
3	130000	5.9	6.22	118
3	140000	5.87	6.18	117
3	150000	4.81	5.09	96.2
3	160000	4.42	4.7	88.9
3	170000	4.79	5.07	95.9
3	180000	5.34	5.63	106
3	190000	4.02	4.31	81.5
3	200000	3.95	4.24	80.1
3	210000	5.06	5.35	101
3	220000	4.72	5.01	94.6
3	230000	3.5	3.79	71.6
3	240000	2.89	3.18	60.1
3	250000	3.75	4.04	76.3
3	260000	3.94	4.22	79.8
3	270000	2.63	2.92	55.1
3	280000	2.97	3.26	61.6
3	290000	4.64	4.92	93.1
3	300000	5.12	5.41	102
4	0	6.05	3.79	71.6
4	-10000	8.36	6.1	115
4	-20000	8.3	6.04	114
4	-30000	9.35	7.09	134
4	-40000	9.57	7.31	138
4	-50000	8.44	6.18	117
4	-60000	8	5.74	108
4	-70000	9.03	6.77	128
4	-80000	9.36	7.1	134
4	-90000	7.94	5.68	107
4	-100000	6.95	4.69	88.6
4	-110000	7.99	5.73	108
4	-120000	8.3	6.04	114
4	-130000	6.74	4.48	84.7
4	-140000	5.81	3.55	67.2
4	-150000	7.24	4.98	94.1
4	-160000	6.93	4.67	88.2
4	-170000	5.45	3.19	60.2
4	-180000	5.15	2.95	55.7
4	-190000	5.31	3.05	57.6
4	-200000	5.66	3.4	64.3
4	-210000	4.92	2.82	53.2
4	-220000	4.31	2.47	46.6
4	-230000	5.23	2.99	56.6
4	-240000	5.56	3.3	62.4
4	-250000	4.38	2.51	47.4
4	-260000	4.26	2.44	46.2
4	-270000	5.29	3.03	57.2
4	-280000	4.95	2.83	53.5
4	-290000	3.89	2.23	42.2
4	-300000	3.76	2.15	40.7
4	0	2.19	2.48	46.8
4	10000	2.92	3.2	60.5
4	20000	4.59	4.88	92.2
4	30000	3.81	4.09	77.4
4	40000	3.2	3.49	65.9
4	50000	4.12	4.41	83.3
4	60000	4.25	4.53	85.6
4	70000	3.12	3.41	64.5
4	80000	2.7	2.99	56.4
4	90000	3.4	3.68	69.6
4	100000	3.83	4.12	77.8
4	110000	2.81	3.1	58.6
4	120000	2.14	2.43	45.9
4	130000	2.93	3.22	60.8
4	140000	3.74	4.03	76.1
4	150000	2.91	3.2	60.4
4	160000	3.01	3.29	62.2
4	170000	3.52	3.81	71.9
4	180000	3.66	3.95	74.6
4	190000	2.49	2.77	52.4
4	200000	2.65	2.94	55.6
4	210000	2.94	3.22	60.9
4	220000	3.08	3.36	63.5
4	230000	2.01	2.3	43.4
4	240000	1.57	1.86	35.1
4	250000	2.47	2.75	52.1
4	260000	2.55	2.83	53.5
4	270000	1.24	1.53	28.9
4	280000	1.43	1.72	32.4
4	290000	2.74	3.03	57.3
4	300000	3.1	3.39	64
5	0	4.68	2.68	50.7
5	-10000	5.56	3.3	62.3
5	-20000	5.72	3.46	65.3
5	-30000	7.23	4.97	93.9
5	-40000	7.76	5.5	104
5	-50000	7.1	4.84	91.5
5	-60000	6.76	4.5	85
5	-70000	7.67	5.41	102
5	-80000	8.53	6.27	118
5	-90000	7.52	5.26	99.4
5	-100000	7.36	5.1	96.4
5	-110000	8.02	5.76	109
5	-120000	8.08	5.82	110
5	-130000	6.52	4.26	80.6
5	-140000	5.67	3.41	64.4
5	-150000	6.03	3.77	71.2
5	-160000	5.92	3.66	69.1
5	-170000	4.06	2.33	44
5	-180000	4.32	2.47	46.7
5	-190000	4.71	2.7	51
5	-200000	4.87	2.79	52.7
5	-210000	3.94	2.26	42.6
5	-220000	2.93	1.68	31.8
5	-230000	3.86	2.21	41.8
5	-240000	4.38	2.51	47.4
5	-250000	3.19	1.83	34.6
5	-260000	3.1	1.78	33.6
5	-270000	3.78	2.16	40.9
5	-280000	3.49	2	37.8
5	-290000	2.25	1.29	24.4
5	-300000	2.09	1.2	22.6
5	0	0.857	1.14	21.6
5	10000	4.5	4.79	90.5
5	20000	5.67	5.97	113
5	30000	5.08	5.37	101
5	40000	4.57	4.85	91.7
5	50000	5.91	6.23	118
5	60000	6.45	6.8	129
5	70000	5.18	5.47	103
5	80000	5.83	6.14	116
5	90000	6.27	6.6	125
5	100000	6.53	6.88	130
5	110000	4.86	5.15	97.3
5	120000	4.35	4.63	87.6
5	130000	5.22	5.51	104
5	140000	5.64	5.95	112
5	150000	3.59	3.88	73.3
5	160000	3.34	3.62	68.5
5	170000	4.98	5.27	99.6
5	180000	5.13	5.41	102
5	190000	3.96	4.24	80.2
5	200000	3.85	4.13	78.2
5	210000	4.87	5.16	97.5
5	220000	4.68	4.97	93.9
5	230000	3.92	4.2	79.4
5	240000	3.02	3.31	62.5
5	250000	3.35	3.64	68.7
5	260000	3.1	3.38	63.9
5	270000	1.74	2.03	38.3
5	280000	1.51	1.79	33.9
5	290000	2.66	2.94	55.6
5	300000	3.15	3.44	64.9
6	0	4.25	2.43	46
6	-10000	7.85	5.59	106
6	-20000	8.95	6.69	126
6	-30000	10.5	8.21	155
6	-40000	11.3	9.03	171
6	-50000	11.3	9.01	170
6	-60000	10.4	8.17	154
6	-70000	11	8.74	165
6	-80000	11.7	9.44	178
6	-90000	10.3	8.06	152
6	-100000	8.87	6.61	125
6	-110000	9.45	7.19	136
6	-120000	9.68	7.42	140
6	-130000	8.02	5.76	109
6	-140000	6.86	4.6	86.9
6	-150000	7.41	5.15	97.3
6	-160000	7.26	5	94.6
6	-170000	5.79	3.53	66.7
6	-180000	4.86	2.78	52.6
6	-190000	5.02	2.88	54.4
6	-200000	4.48	2.57	48.5
6	-210000	2.87	1.64	31.1
6	-220000	1.97	1.13	21.4
6	-230000	2.52	1.44	27.3
6	-240000	2.75	1.58	29.8
6	-250000	1.1	0.628	11.9
6	-260000	0.728	0.417	7.89
6	-270000	1.49	0.856	16.2
6	-280000	1.72	0.985	18.6
6	-290000	0.507	0.29	5.49
6	-300000	0.285	0.163	3.08
