rep_num	position	torque	torque_compensated	lbs_compensated
1	0	2.91	3.2	60.5
1	10000	4.55	4.84	91.4
1	20000	5.2	5.49	104
1	30000	4.23	4.52	85.4
1	40000	3.4	3.69	69.7
1	50000	4.21	4.5	85.1
1	60000	4.94	5.23	98.8
1	70000	3.8	4.08	77.2
1	80000	3.08	3.37	63.7
1	90000	3.96	4.25	80.2
1	100000	5	5.29	99.9
1	110000	4.18	4.47	84.5
1	120000	3.55	3.84	72.5
1	130000	4.58	4.87	92
1	140000	5.37	5.66	107
1	150000	4.23	4.52	85.4
1	160000	3.38	3.67	69.3
1	170000	4.88	5.17	97.7
1	180000	5.61	5.92	112
1	190000	5.03	5.32	100
1	200000	4.38	4.67	88.2
1	210000	5.3	5.59	106
1	220000	6.15	6.48	122
1	230000	4.85	5.14	97.1
1	240000	4.45	4.74	89.6
1	250000	4.89	5.17	97.8
1	260000	5.21	5.5	104
1	270000	4.12	4.4	83.2
1	280000	3.61	3.9	73.7
1	290000	4.42	4.7	88.9
1	300000	5.15	5.43	103
2	0	7.07	4.81	90.8
2	-10000	9.46	7.2	136
2	-20000	8.79	6.53	123
2	-30000	10.6	8.31	157
2	-40000	10.5	8.24	156
2	-50000	8.92	6.66	126
2	-60000	8.57	6.31	119
2	-70000	9.59	7.33	139
2	-80000	9.34	7.08	134
2	-90000	8.48	6.22	118
2	-100000	8.02	5.76	109
2	-110000	8.78	6.52	123
2	-120000	8.74	6.48	122
2	-130000	7.01	4.75	89.7
2	-140000	6.45	4.19	79.1
2	-150000	7.94	5.68	107
2	-160000	7.86	5.6	106
2	-170000	5.81	3.55	67
2	-180000	5.9	3.64	68.8
2	-190000	7.16	4.9	92.6
2	-200000	6.64	4.38	82.7
2	-210000	5.07	2.9	54.9
2	-220000	5.44	3.18	60.1
2	-230000	7.49	5.23	98.8
2	-240000	6.75	4.49	84.9
2	-250000	5.74	3.48	65.9
2	-260000	5.33	3.07	58.1
2	-270000	6.31	4.05	76.5
2	-280000	6.08	3.82	72.3
2	-290000	4.74	2.72	51.3
2	-300000	5.18	2.97	56.1
2	0	3.95	4.24	80.1
2	10000	5.18	5.47	103
2	20000	5.71	6.02	114
2	30000	4.44	4.73	89.4
2	40000	3.3	3.59	67.8
2	50000	4.01	4.3	81.2
2	60000	4.83	5.12	96.7
2	70000	4.15	4.44	83.9
2	80000	3.47	3.75	71
2	90000	5.26	5.55	105
2	100000	6	6.32	119
2	110000	5.19	5.48	103
2	120000	4.6	4.88	92.3
2	130000	5.57	5.87	111
2	140000	6.39	6.74	127
2	150000	5.79	6.11	115
2	160000	5.3	5.59	106
2	170000	6.33	6.67	126
2	180000	7.26	7.66	145
2	190000	6.51	6.87	130
2	200000	6.14	6.47	122
2	210000	7.19	7.57	143
2	220000	7.86	8.28	157
2	230000	6.54	6.89	130
2	240000	5.04	5.32	101
2	250000	4.83	5.12	96.8
2	260000	4.79	5.08	96
2	270000	2.92	3.21	60.7
2	280000	2.38	2.67	50.4
2	290000	3.08	3.36	63.5
2	300000	3.39	3.67	69.4
3	0	4.48	2.57	48.5
3	-10000	6.66	4.4	83.2
3	-20000	5.31	3.05	57.6
3	-30000	6.91	4.65	87.8
3	-40000	6.87	4.61	87.2
3	-50000	5.42	3.16	59.6
3	-60000	5.61	3.35	63.3
3	-70000	6.59	4.33	81.9
3	-80000	6.46	4.2	79.4
3	-90000	5.48	3.22	60.9
3	-100000	5.5	3.24	61.2
3	-110000	6.83	4.57	86.5
3	-120000	6.76	4.5	85.1
3	-130000	5.35	3.09	58.3
3	-140000	4.99	2.86	54
3	-150000	6.68	4.42	83.5
3	-160000	6	3.74	70.7
3	-170000	4.23	2.42	45.8
3	-180000	4.91	2.81	53.2
3	-190000	6.21	3.95	74.6
3	-200000	5.82	3.56	67.4
3	-210000	4.07	2.33	44.1
3	-220000	4.42	2.53	47.8
3	-230000	5.47	3.21	60.7
3	-240000	5.18	2.97	56
3	-250000	4.16	2.38	45
3	-260000	4.39	2.52	47.6
3	-270000	5.66	3.4	64.4
3	-280000	5.84	3.58	67.6
3	-290000	4.43	2.54	47.9
3	-300000	5.27	3.02	57.1
3	0	3.95	4.24	80.1
3	10000	3.85	4.14	78.3
3	20000	5.47	5.77	109
3	30000	3.79	4.08	77.1
3	40000	3.02	3.3	62.4
3	50000	3.74	4.02	76
3	60000	4.51	4.8	90.7
3	70000	4.03	4.31	81.5
3	80000	3.29	3.58	67.6
3	90000	4.79	5.07	95.8
3	100000	5.76	6.07	115
3	110000	4.8	5.09	96.1
3	120000	4.22	4.51	85.3
3	130000	5.58	5.88	111
3	140000	6.19	6.52	123
3	150000	5.29	5.58	105
3	160000	4.74	5.03	95.1
3	170000	6.02	6.35	120
3	180000	6.61	6.97	132
3	190000	5.72	6.03	114
3	200000	5.23	5.51	104
3	210000	6.36	6.7	127
3	220000	6.63	6.98	132
3	230000	5.06	5.35	101
3	240000	4.61	4.89	92.5
3	250000	4.83	5.12	96.7
3	260000	4.98	5.27	99.5
3	270000	3.85	4.13	78.1
3	280000	2.93	3.21	60.8
3	290000	3.64	3.92	74.2
3	300000	4.06	4.34	82.1
4	0	5.47	3.21	60.7
4	-10000	7.9	5.64	107
4	-20000	7.21	4.95	93.5
4	-30000	8.31	6.05	114
4	-40000	8.37	6.11	115
4	-50000	7.61	5.35	101
4	-60000	7.51	5.25	99.2
4	-70000	8.31	6.05	114
4	-80000	8.13	5.87	111
4	-90000	6.69	4.43	83.6
4	-100000	6.45	4.19	79.3
4	-110000	7.38	5.12	96.7
4	-120000	7.21	4.95	93.6
4	-130000	5.67	3.41	64.5
4	-140000	5.35	3.09	58.4
4	-150000	6.35	4.09	77.3
4	-160000	6.04	3.78	71.3
4	-170000	4.58	2.62	49.6
4	-180000	4.28	2.45	46.3
4	-190000	5.82	3.56	67.2
4	-200000	5.4	3.14	59.3
4	-210000	4.4	2.52	47.6
4	-220000	4.33	2.48	46.8
4	-230000	5.28	3.03	57.2
4	-240000	4.96	2.84	53.7
4	-250000	3.7	2.12	40
4	-260000	3.83	2.2	41.5
4	-270000	4.95	2.84	53.6
4	-280000	4.99	2.86	54.1
4	-290000	3	1.72	32.5
4	-300000	4.11	2.35	44.5
4	0	3.48	3.77	71.2
4	10000	5.3	5.59	106
4	20000	6.66	7.02	133
4	30000	5.55	5.85	111
4	40000	4.71	4.99	94.4
4	50000	5.98	6.3	119
4	60000	6.48	6.83	129
4	70000	5.28	5.57	105
4	80000	4.4	4.68	88.5
4	90000	5.64	5.95	112
4	100000	6.11	6.44	122
4	110000	4.96	5.25	99.2
4	120000	4.37	4.66	88.1
4	130000	5.45	5.74	109
4	140000	6.03	6.36	120
4	150000	5.35	5.64	107
4	160000	4.8	5.09	96.1
4	170000	5.88	6.2	117
4	180000	6.69	7.05	133
4	190000	5.63	5.94	112
4	200000	4.59	4.88	92.2
4	210000	5.9	6.22	117
4	220000	6.94	7.32	138
4	230000	5.33	5.62	106
4	240000	4.15	4.43	83.8
4	250000	4.76	5.05	95.5
4	260000	4.79	5.07	95.9
4	270000	3.66	3.95	74.6
4	280000	2.79	3.07	58
4	290000	3.76	4.04	76.4
4	300000	3.62	3.91	73.9
5	0	4.53	2.59	49
5	-10000	7.03	4.77	90.1
5	-20000	6.87	4.61	87
5	-30000	8.44	6.18	117
5	-40000	8.22	5.96	113
5	-50000	7.26	5	94.5
5	-60000	7.14	4.88	92.3
5	-70000	7.7	5.44	103
5	-80000	7.52	5.26	99.4
5	-90000	6.54	4.28	80.9
5	-100000	6.27	4.01	75.7
5	-110000	6.98	4.72	89.3
5	-120000	6.88	4.62	87.2
5	-130000	5.3	3.04	57.4
5	-140000	4.86	2.78	52.6
5	-150000	5.81	3.55	67.1
5	-160000	6.06	3.8	71.8
5	-170000	4.22	2.42	45.7
5	-180000	3.98	2.28	43.1
5	-190000	5.08	2.91	55
5	-200000	4.88	2.8	52.9
5	-210000	3.55	2.04	38.5
5	-220000	3.66	2.1	39.7
5	-230000	4.62	2.65	50.1
5	-240000	4.21	2.41	45.6
5	-250000	3.24	1.86	35.1
5	-260000	3.15	1.8	34.1
5	-270000	4.19	2.4	45.4
5	-280000	3.86	2.21	41.8
5	-290000	1.99	1.14	21.6
5	-300000	1.87	1.07	20.2
5	0	2.36	2.64	49.9
5	10000	5.44	5.73	108
5	20000	6.43	6.78	128
5	30000	5.75	6.07	115
5	40000	4.9	5.19	98.1
5	50000	5.96	6.28	119
5	60000	6.9	7.27	137
5	70000	5.6	5.9	112
5	80000	4.42	4.7	88.9
5	90000	5.63	5.94	112
5	100000	6.19	6.52	123
5	110000	5.1	5.38	102
5	120000	4.41	4.7	88.8
5	130000	5.34	5.62	106
5	140000	5.99	6.31	119
5	150000	5.38	5.67	107
5	160000	4.7	4.98	94.2
5	170000	5.41	5.7	108
5	180000	5.91	6.23	118
5	190000	5.08	5.37	101
5	200000	4.85	5.13	97
5	210000	5.81	6.12	116
5	220000	6.07	6.4	121
5	230000	4.87	5.15	97.4
5	240000	3.88	4.17	78.8
5	250000	4.26	4.55	86
5	260000	4.38	4.67	88.2
5	270000	2.74	3.03	57.2
5	280000	2.03	2.32	43.9
5	290000	2.87	3.16	59.7
5	300000	3.13	3.42	64.6
6	0	4.54	2.6	49.2
6	-10000	6.3	4.04	76.4
6	-20000	5.54	3.28	62
6	-30000	6.12	3.86	72.9
6	-40000	6.2	3.94	74.6
6	-50000	5.54	3.28	62
6	-60000	5.59	3.33	63
6	-70000	5.94	3.68	69.5
6	-80000	5.16	2.96	55.9
6	-90000	3.88	2.22	42
6	-100000	3.27	1.88	35.4
6	-110000	4.32	2.48	46.8
6	-120000	5.01	2.87	54.2
6	-130000	3.35	1.92	36.3
6	-140000	3.27	1.87	35.4
6	-150000	4.35	2.49	47.1
6	-160000	3.98	2.28	43.1
6	-170000	2.46	1.41	26.6
6	-180000	2.41	1.38	26.1
6	-190000	3.39	1.94	36.7
6	-200000	2.98	1.71	32.3
6	-210000	1.55	0.888	16.8
6	-220000	1.13	0.647	12.2
6	-230000	2.02	1.16	21.8
6	-240000	1.71	0.98	18.5
6	-250000	0.616	0.353	6.67
6	-260000	0.752	0.431	8.14
6	-270000	1.71	0.977	18.5
6	-280000	1.96	1.13	21.3
6	-290000	0.369	0.212	4
6	-300000	0.478	0.274	5.17
