rep_num	position	torque	torque_compensated	lbs_compensated
1	0	3.74	4.03	76.2
1	10000	4.37	4.66	88.1
1	20000	4.91	5.19	98.2
1	30000	3.96	4.24	80.2
1	40000	3.95	4.23	80
1	50000	5.35	5.64	107
1	60000	6.39	6.74	127
1	70000	5.5	5.79	109
1	80000	5.21	5.49	104
1	90000	6.35	6.69	126
1	100000	7.28	7.68	145
1	110000	6.05	6.38	121
1	120000	5.13	5.41	102
1	130000	6.77	7.14	135
1	140000	7.38	7.78	147
1	150000	6.38	6.72	127
1	160000	6.63	6.98	132
1	170000	8.26	8.71	165
1	180000	9.12	9.62	182
1	190000	8.19	8.63	163
1	200000	8.1	8.54	161
1	210000	9.64	10.2	192
1	220000	9.42	9.92	188
1	230000	8.01	8.44	160
1	240000	6.67	7.03	133
1	250000	6.89	7.27	137
1	260000	6.37	6.71	127
1	270000	4.39	4.67	88.3
1	280000	4.19	4.47	84.5
1	290000	5.26	5.54	105
1	300000	5.39	5.68	107
2	0	6.69	4.43	83.7
2	-10000	9.14	6.88	130
2	-20000	8.73	6.47	122
2	-30000	10.6	8.36	158
2	-40000	11.6	9.35	177
2	-50000	10.8	8.57	162
2	-60000	10.1	7.86	149
2	-70000	11	8.76	166
2	-80000	10.6	8.38	158
2	-90000	9.82	7.56	143
2	-100000	9.67	7.41	140
2	-110000	10.7	8.45	160
2	-120000	11.8	9.52	180
2	-130000	9.99	7.73	146
2	-140000	9.06	6.8	129
2	-150000	10.2	7.99	151
2	-160000	10.4	8.14	154
2	-170000	9.29	7.03	133
2	-180000	8.91	6.65	126
2	-190000	9.71	7.45	141
2	-200000	10.1	7.8	147
2	-210000	8.23	5.97	113
2	-220000	7.68	5.42	102
2	-230000	8.99	6.73	127
2	-240000	8.64	6.38	121
2	-250000	6.46	4.2	79.3
2	-260000	6.59	4.33	81.8
2	-270000	7.17	4.91	92.7
2	-280000	6.96	4.7	88.8
2	-290000	4.97	2.85	53.8
2	-300000	5.2	2.98	56.3
2	0	4.12	4.4	83.2
2	10000	5.17	5.46	103
2	20000	6.81	7.18	136
2	30000	5.84	6.15	116
2	40000	5.48	5.78	109
2	50000	6.7	7.06	134
2	60000	7.11	7.49	142
2	70000	5.52	5.82	110
2	80000	4.32	4.61	87.1
2	90000	6.11	6.44	122
2	100000	7.08	7.47	141
2	110000	5.95	6.28	119
2	120000	5.44	5.73	108
2	130000	7.54	7.95	150
2	140000	7.6	8.01	151
2	150000	6.75	7.12	135
2	160000	6.67	7.03	133
2	170000	7.6	8.01	151
2	180000	8.47	8.93	169
2	190000	7.05	7.43	140
2	200000	6.42	6.77	128
2	210000	7.73	8.15	154
2	220000	7.78	8.2	155
2	230000	7.17	7.55	143
2	240000	6.15	6.48	123
2	250000	6.83	7.2	136
2	260000	6.41	6.76	128
2	270000	4.72	5.01	94.7
2	280000	4.09	4.38	82.8
2	290000	4.94	5.22	98.8
2	300000	5.1	5.38	102
3	0	6.55	4.29	81.1
3	-10000	9.26	7	132
3	-20000	9.27	7.01	133
3	-30000	10.9	8.6	162
3	-40000	11.6	9.32	176
3	-50000	9.66	7.4	140
3	-60000	8.95	6.69	126
3	-70000	10.4	8.14	154
3	-80000	10.2	7.99	151
3	-90000	9.04	6.78	128
3	-100000	8	5.74	108
3	-110000	9.12	6.86	130
3	-120000	9.93	7.67	145
3	-130000	7.87	5.61	106
3	-140000	7.41	5.15	97.4
3	-150000	9.2	6.94	131
3	-160000	8.66	6.4	121
3	-170000	7.57	5.31	100
3	-180000	7.17	4.91	92.7
3	-190000	7.38	5.12	96.7
3	-200000	7.53	5.27	99.7
3	-210000	6.27	4.01	75.8
3	-220000	6.09	3.83	72.4
3	-230000	6.85	4.59	86.8
3	-240000	7.92	5.66	107
3	-250000	6.14	3.88	73.3
3	-260000	5.31	3.05	57.7
3	-270000	6.04	3.78	71.5
3	-280000	5.93	3.67	69.3
3	-290000	5.65	3.39	64
3	-300000	5.45	3.19	60.3
3	0	4.62	4.9	92.7
3	10000	5.11	5.39	102
3	20000	6.24	6.58	124
3	30000	5.3	5.58	106
3	40000	4.43	4.72	89.2
3	50000	5.24	5.52	104
3	60000	5.9	6.21	117
3	70000	4.4	4.69	88.6
3	80000	3.82	4.11	77.7
3	90000	4.87	5.16	97.5
3	100000	6.04	6.37	120
3	110000	4.49	4.78	90.3
3	120000	3.99	4.28	80.8
3	130000	5.53	5.83	110
3	140000	6.19	6.53	123
3	150000	4.86	5.14	97.2
3	160000	4.59	4.88	92.2
3	170000	5.41	5.7	108
3	180000	5.99	6.32	119
3	190000	4.94	5.22	98.7
3	200000	4.24	4.53	85.5
3	210000	5.97	6.29	119
3	220000	5.68	5.99	113
3	230000	4.47	4.76	89.9
3	240000	3.73	4.01	75.8
3	250000	4.24	4.53	85.5
3	260000	4.28	4.57	86.3
3	270000	2.48	2.76	52.3
3	280000	1.73	2.01	38
3	290000	2.47	2.76	52.2
3	300000	2.93	3.22	60.9
4	0	4.22	2.42	45.7
4	-10000	4.99	2.86	54
4	-20000	4.64	2.66	50.2
4	-30000	6.84	4.58	86.5
4	-40000	6.93	4.67	88.3
4	-50000	6.36	4.1	77.5
4	-60000	5.6	3.34	63.1
4	-70000	6.92	4.66	88
4	-80000	7.67	5.41	102
4	-90000	6.5	4.24	80.2
4	-100000	5.99	3.73	70.4
4	-110000	7.26	5	94.5
4	-120000	7.38	5.12	96.7
4	-130000	5.8	3.54	66.9
4	-140000	5.31	3.05	57.7
4	-150000	6.57	4.31	81.5
4	-160000	6.21	3.95	74.7
4	-170000	4.49	2.57	48.7
4	-180000	4.16	2.39	45.1
4	-190000	5.24	3	56.7
4	-200000	5.7	3.44	65
4	-210000	4.26	2.44	46.1
4	-220000	3.89	2.23	42.1
4	-230000	5.33	3.07	58
4	-240000	5.56	3.3	62.4
4	-250000	4.11	2.35	44.5
4	-260000	3.74	2.14	40.5
4	-270000	5.07	2.91	54.9
4	-280000	4.38	2.51	47.4
4	-290000	4.05	2.32	43.8
4	-300000	4.2	2.41	45.5
4	0	3.28	3.56	67.4
4	10000	4.42	4.7	88.8
4	20000	5.91	6.23	118
4	30000	4.22	4.51	85.2
4	40000	3.72	4	75.6
4	50000	5.53	5.83	110
4	60000	5.27	5.56	105
4	70000	4.11	4.39	83
4	80000	3.88	4.16	78.7
4	90000	5.01	5.29	100
4	100000	5.92	6.24	118
4	110000	4.42	4.71	88.9
4	120000	4.1	4.38	82.8
4	130000	5.88	6.2	117
4	140000	6.46	6.81	129
4	150000	4.07	4.35	82.2
4	160000	4.12	4.41	83.3
4	170000	5.45	5.74	109
4	180000	6	6.32	120
4	190000	4.72	5	94.6
4	200000	4.38	4.67	88.3
4	210000	5.86	6.18	117
4	220000	5.59	5.89	111
4	230000	4.2	4.49	84.8
4	240000	3.44	3.72	70.4
4	250000	4.14	4.43	83.7
4	260000	3.74	4.03	76.1
4	270000	2	2.29	43.2
4	280000	1.3	1.59	30
4	290000	2.25	2.53	47.9
4	300000	2.6	2.88	54.5
5	0	4.12	2.36	44.6
5	-10000	5.01	2.87	54.2
5	-20000	4.09	2.34	44.2
5	-30000	5.65	3.39	64
5	-40000	6.74	4.48	84.7
5	-50000	6.04	3.78	71.4
5	-60000	5.82	3.56	67.3
5	-70000	7.5	5.24	99
5	-80000	8.05	5.79	109
5	-90000	6.63	4.37	82.6
5	-100000	5.97	3.71	70.1
5	-110000	7.05	4.79	90.6
5	-120000	7.15	4.89	92.5
5	-130000	5.16	2.95	55.8
5	-140000	4.75	2.72	51.4
5	-150000	6.4	4.14	78.3
5	-160000	5.85	3.59	67.9
5	-170000	4.59	2.63	49.7
5	-180000	4.26	2.44	46.2
5	-190000	5	2.86	54.1
5	-200000	5.06	2.9	54.8
5	-210000	3.9	2.24	42.2
5	-220000	3.47	1.99	37.5
5	-230000	4.36	2.5	47.2
5	-240000	4.42	2.53	47.9
5	-250000	3.14	1.8	34
5	-260000	2.78	1.59	30.1
5	-270000	3.72	2.13	40.3
5	-280000	4.42	2.53	47.9
5	-290000	3.27	1.87	35.4
5	-300000	3.97	2.27	43
5	0	3.1	3.39	64.1
5	10000	3.68	3.96	74.9
5	20000	5.22	5.5	104
5	30000	3.81	4.09	77.4
5	40000	3.82	4.1	77.6
5	50000	5.66	5.97	113
5	60000	6.33	6.67	126
5	70000	4.86	5.15	97.3
5	80000	4.51	4.79	90.6
5	90000	5.88	6.19	117
5	100000	6.37	6.72	127
5	110000	4.81	5.1	96.4
5	120000	4.35	4.63	87.6
5	130000	6.13	6.46	122
5	140000	6.2	6.54	124
5	150000	4.75	5.03	95.2
5	160000	4.83	5.12	96.8
5	170000	5.8	6.11	116
5	180000	6.05	6.37	120
5	190000	4.36	4.65	87.9
5	200000	3.78	4.07	76.9
5	210000	5.21	5.5	104
5	220000	4.84	5.13	96.9
5	230000	3.6	3.89	73.5
5	240000	2.62	2.91	55
5	250000	3.61	3.9	73.6
5	260000	3.67	3.96	74.8
5	270000	1.74	2.03	38.4
5	280000	1.55	1.83	34.7
5	290000	2.61	2.9	54.8
5	300000	2.97	3.26	61.6
6	0	4.4	2.52	47.7
6	-10000	6.94	4.68	88.4
6	-20000	7.02	4.76	90
6	-30000	8.82	6.56	124
6	-40000	9.7	7.44	141
6	-50000	8.99	6.73	127
6	-60000	8.7	6.44	122
6	-70000	9.3	7.04	133
6	-80000	10.1	7.83	148
6	-90000	8.2	5.94	112
6	-100000	7.13	4.87	92
6	-110000	7.91	5.65	107
6	-120000	9	6.74	127
6	-130000	7.41	5.15	97.4
6	-140000	7.01	4.75	89.9
6	-150000	8.73	6.47	122
6	-160000	8.54	6.28	119
6	-170000	6.68	4.42	83.5
6	-180000	6.37	4.11	77.7
6	-190000	6.49	4.23	79.9
6	-200000	6.93	4.67	88.3
6	-210000	5.49	3.23	61
6	-220000	4.06	2.33	44
6	-230000	4.41	2.53	47.8
6	-240000	3.91	2.24	42.3
6	-250000	1.38	0.792	15
6	-260000	0.579	0.332	6.27
6	-270000	1.45	0.831	15.7
6	-280000	1.79	1.02	19.4
6	-290000	0.26	0.149	2.81
6	-300000	0.0488	0.028	0.529
