rep_num	position	torque	torque_compensated	lbs_compensated
1	0	2.87	3.15	59.6
1	10000	5.16	5.44	103
1	20000	4.75	5.04	95.2
1	30000	5.89	6.21	117
1	40000	5.44	5.74	108
1	50000	4.45	4.73	89.4
1	60000	5.34	5.63	106
1	70000	6.36	6.71	127
1	80000	5.77	6.08	115
1	90000	5.13	5.42	102
1	100000	6.39	6.73	127
1	110000	7.32	7.71	146
1	120000	7.15	7.54	143
1	130000	6.84	7.21	136
1	140000	7.49	7.89	149
1	150000	8.14	8.58	162
1	160000	7.95	8.38	158
1	170000	7.47	7.88	149
1	180000	7.85	8.27	156
1	190000	8.92	9.4	178
1	200000	8.53	8.99	170
1	210000	7.54	7.95	150
1	220000	7.73	8.15	154
1	230000	8.49	8.95	169
1	240000	6.83	7.2	136
1	250000	5.28	5.57	105
1	260000	5.12	5.41	102
1	270000	5.11	5.4	102
1	280000	5.19	5.48	104
1	290000	3.17	3.45	65.3
1	300000	3.16	3.45	65.2
2	0	4.38	2.51	47.4
2	-10000	8.23	5.97	113
2	-20000	9.3	7.04	133
2	-30000	9.84	7.58	143
2	-40000	9.41	7.15	135
2	-50000	10.3	8.05	152
2	-60000	11.2	8.93	169
2	-70000	10.7	8.46	160
2	-80000	10.2	7.91	150
2	-90000	10.6	8.31	157
2	-100000	11.5	9.21	174
2	-110000	13	10.7	203
2	-120000	11.4	9.14	173
2	-130000	10.9	8.67	164
2	-140000	10.9	8.65	163
2	-150000	10.6	8.37	158
2	-160000	9.06	6.8	128
2	-170000	8.38	6.12	116
2	-180000	9.39	7.13	135
2	-190000	9.25	6.99	132
2	-200000	7.53	5.27	99.7
2	-210000	7.6	5.34	101
2	-220000	8.87	6.61	125
2	-230000	8.25	5.99	113
2	-240000	6.77	4.51	85.3
2	-250000	7.56	5.3	100
2	-260000	8.22	5.96	113
2	-270000	7.64	5.38	102
2	-280000	6.84	4.58	86.6
2	-290000	5.98	3.72	70.3
2	-300000	5.84	3.58	67.6
2	0	5.34	5.63	106
2	10000	7.56	7.97	151
2	20000	6.54	6.89	130
2	30000	7.47	7.87	149
2	40000	6.92	7.29	138
2	50000	6.2	6.53	123
2	60000	7.29	7.68	145
2	70000	7.65	8.07	152
2	80000	7.19	7.58	143
2	90000	6.49	6.84	129
2	100000	7.14	7.53	142
2	110000	7.49	7.9	149
2	120000	7.01	7.39	140
2	130000	6.79	7.16	135
2	140000	6.84	7.21	136
2	150000	7.22	7.61	144
2	160000	7.14	7.53	142
2	170000	6.23	6.57	124
2	180000	7.09	7.48	141
2	190000	6.94	7.31	138
2	200000	5.77	6.08	115
2	210000	5.07	5.36	101
2	220000	5.28	5.56	105
2	230000	6.35	6.69	126
2	240000	4.87	5.16	97.5
2	250000	3.65	3.94	74.5
2	260000	3.61	3.89	73.6
2	270000	3.81	4.1	77.5
2	280000	4.03	4.32	81.6
2	290000	2.25	2.53	47.9
2	300000	2.25	2.54	48
3	0	3.42	1.96	37
3	-10000	7.08	4.82	91
3	-20000	7.93	5.67	107
3	-30000	7.97	5.71	108
3	-40000	7.53	5.27	99.6
3	-50000	7.83	5.57	105
3	-60000	7.6	5.34	101
3	-70000	7.41	5.15	97.3
3	-80000	6.74	4.48	84.6
3	-90000	6.65	4.39	83.1
3	-100000	7.27	5.01	94.6
3	-110000	6.93	4.67	88.3
3	-120000	7.02	4.76	89.9
3	-130000	7.78	5.52	104
3	-140000	9.18	6.92	131
3	-150000	9.83	7.57	143
3	-160000	9.36	7.1	134
3	-170000	9.46	7.2	136
3	-180000	10.4	8.14	154
3	-190000	10.1	7.88	149
3	-200000	8.44	6.18	117
3	-210000	8.07	5.81	110
3	-220000	8.59	6.33	120
3	-230000	8.42	6.16	117
3	-240000	6.72	4.46	84.2
3	-250000	6.35	4.09	77.3
3	-260000	6.9	4.64	87.6
3	-270000	6.24	3.98	75.3
3	-280000	5.65	3.39	64.1
3	-290000	4.38	2.51	47.4
3	-300000	5.81	3.55	67.1
3	0	6.11	6.44	122
3	10000	6.97	7.35	139
3	20000	6.52	6.87	130
3	30000	7.54	7.95	150
3	40000	6.74	7.1	134
3	50000	6.53	6.89	130
3	60000	6.95	7.32	138
3	70000	7.62	8.03	152
3	80000	6.64	7	132
3	90000	6.21	6.55	124
3	100000	7.1	7.49	142
3	110000	7.62	8.03	152
3	120000	7.12	7.51	142
3	130000	6.99	7.37	139
3	140000	7.66	8.08	153
3	150000	7.93	8.36	158
3	160000	7.67	8.09	153
3	170000	7.05	7.43	141
3	180000	7.96	8.39	159
3	190000	8.36	8.81	167
3	200000	7.77	8.19	155
3	210000	6.59	6.94	131
3	220000	6.24	6.57	124
3	230000	6.7	7.07	134
3	240000	5.13	5.41	102
3	250000	2.98	3.27	61.8
3	260000	2.82	3.11	58.7
3	270000	3.32	3.61	68.2
3	280000	3.67	3.96	74.8
3	290000	2.29	2.57	48.6
3	300000	1.89	2.18	41.2
4	0	3.22	1.84	34.8
4	-10000	6.68	4.42	83.6
4	-20000	7.14	4.88	92.3
4	-30000	6.9	4.64	87.8
4	-40000	6.07	3.81	71.9
4	-50000	6.41	4.15	78.5
4	-60000	7.09	4.83	91.4
4	-70000	6.79	4.53	85.7
4	-80000	5.91	3.65	69
4	-90000	6.29	4.03	76.1
4	-100000	7.35	5.09	96.3
4	-110000	7.26	5	94.4
4	-120000	6.63	4.37	82.6
4	-130000	6.35	4.09	77.3
4	-140000	6.49	4.23	80
4	-150000	6.56	4.3	81.3
4	-160000	5.42	3.16	59.8
4	-170000	5.08	2.91	55
4	-180000	6.23	3.97	75.1
4	-190000	6.01	3.75	70.9
4	-200000	5.05	2.9	54.7
4	-210000	4.77	2.73	51.7
4	-220000	5.32	3.06	57.8
4	-230000	5.47	3.21	60.7
4	-240000	4.53	2.6	49.1
4	-250000	4.62	2.64	50
4	-260000	5.78	3.52	66.5
4	-270000	5.26	3.01	57
4	-280000	4.94	2.83	53.5
4	-290000	5.04	2.89	54.6
4	-300000	6.26	4	75.7
4	0	5.2	5.48	104
4	10000	5.57	5.87	111
4	20000	4.49	4.78	90.3
4	30000	5.66	5.97	113
4	40000	4.97	5.25	99.3
4	50000	4.38	4.66	88.1
4	60000	5.03	5.32	101
4	70000	5.78	6.09	115
4	80000	5.05	5.33	101
4	90000	4.42	4.7	88.9
4	100000	5.66	5.97	113
4	110000	6.19	6.53	123
4	120000	5.77	6.08	115
4	130000	5.89	6.21	117
4	140000	6.85	7.22	136
4	150000	7.21	7.6	144
4	160000	6.96	7.33	139
4	170000	6.1	6.43	121
4	180000	6.6	6.96	131
4	190000	7.14	7.53	142
4	200000	6.53	6.89	130
4	210000	5.75	6.06	115
4	220000	5.7	6	113
4	230000	6.29	6.63	125
4	240000	5.21	5.49	104
4	250000	3.84	4.13	78.1
4	260000	3.92	4.21	79.6
4	270000	3.79	4.08	77.1
4	280000	3.5	3.79	71.6
4	290000	1.5	1.78	33.7
4	300000	1.42	1.71	32.3
5	0	2.67	1.53	28.9
5	-10000	5.9	3.64	68.9
5	-20000	8.87	6.61	125
5	-30000	9.92	7.66	145
5	-40000	9.58	7.32	138
5	-50000	10.3	8.05	152
5	-60000	10.9	8.6	162
5	-70000	10.5	8.24	156
5	-80000	9.15	6.89	130
5	-90000	8.98	6.72	127
5	-100000	9.71	7.45	141
5	-110000	9.03	6.77	128
5	-120000	8.14	5.88	111
5	-130000	8.07	5.81	110
5	-140000	8.62	6.36	120
5	-150000	8.22	5.96	113
5	-160000	7.14	4.88	92.3
5	-170000	6.84	4.58	86.6
5	-180000	7.8	5.54	105
5	-190000	7.48	5.22	98.7
5	-200000	6.19	3.93	74.3
5	-210000	6.33	4.07	76.9
5	-220000	6.94	4.68	88.4
5	-230000	6.06	3.8	71.8
5	-240000	5.18	2.97	56.1
5	-250000	5.21	2.98	56.4
5	-260000	6.21	3.95	74.6
5	-270000	5.51	3.25	61.4
5	-280000	4.94	2.83	53.5
5	-290000	4.2	2.41	45.5
5	-300000	5.79	3.53	66.7
5	0	5.08	5.37	101
5	10000	5.43	5.73	108
5	20000	4.59	4.87	92.1
5	30000	5.59	5.89	111
5	40000	4.56	4.84	91.5
5	50000	3.99	4.27	80.8
5	60000	4.98	5.26	99.4
5	70000	5.73	6.04	114
5	80000	5.05	5.33	101
5	90000	4.4	4.69	88.6
5	100000	5.7	6.01	114
5	110000	6.36	6.7	127
5	120000	5.96	6.28	119
5	130000	5.15	5.44	103
5	140000	5.54	5.84	110
5	150000	6.07	6.4	121
5	160000	6.01	6.33	120
5	170000	5.23	5.52	104
5	180000	5.7	6.01	114
5	190000	6.14	6.48	122
5	200000	5.12	5.4	102
5	210000	4.6	4.89	92.3
5	220000	4.54	4.82	91.1
5	230000	5.16	5.44	103
5	240000	4.32	4.61	87
5	250000	2.93	3.22	60.8
5	260000	3.11	3.4	64.2
5	270000	3.09	3.38	63.9
5	280000	3.02	3.31	62.5
5	290000	1.85	2.13	40.3
5	300000	1.83	2.12	40
6	0	2.95	1.69	32
6	-10000	6.39	4.13	78
6	-20000	7.95	5.69	108
6	-30000	8.75	6.49	123
6	-40000	8.44	6.18	117
6	-50000	8.93	6.67	126
6	-60000	9.41	7.15	135
6	-70000	9.16	6.9	130
6	-80000	8.65	6.39	121
6	-90000	8.75	6.49	123
6	-100000	9.42	7.16	135
6	-110000	9	6.74	127
6	-120000	7.93	5.67	107
6	-130000	7.8	5.54	105
6	-140000	8.01	5.75	109
6	-150000	7.63	5.37	101
6	-160000	5.91	3.65	69.1
6	-170000	5.32	3.06	57.9
6	-180000	6.16	3.9	73.6
6	-190000	5.74	3.48	65.8
6	-200000	4.55	2.6	49.2
6	-210000	4.6	2.64	49.8
6	-220000	5.32	3.06	57.8
6	-230000	4.63	2.65	50.1
6	-240000	3.45	1.97	37.3
6	-250000	3.11	1.78	33.7
6	-260000	3.9	2.23	42.2
6	-270000	3.57	2.05	38.7
6	-280000	2.91	1.67	31.5
6	-290000	1.72	0.987	18.6
6	-300000	1.49	0.855	16.2
