rep_num	position	torque	torque_compensated	lbs_compensated
1	0	5.03	5.32	101
1	10000	4.95	5.23	98.9
1	20000	6.52	6.88	130
1	30000	6.37	6.72	127
1	40000	5.95	6.28	119
1	50000	7.44	7.84	148
1	60000	7.79	8.21	155
1	70000	6.96	7.34	139
1	80000	7.05	7.43	141
1	90000	8.23	8.68	164
1	100000	8.7	9.17	173
1	110000	7.1	7.49	142
1	120000	7.05	7.43	140
1	130000	8.29	8.74	165
1	140000	8	8.43	159
1	150000	6.78	7.15	135
1	160000	6.61	6.96	132
1	170000	8	8.43	159
1	180000	8.19	8.64	163
1	190000	7.48	7.88	149
1	200000	7.13	7.51	142
1	210000	8.3	8.75	165
1	220000	8.28	8.73	165
1	230000	7.4	7.8	147
1	240000	6.48	6.83	129
1	250000	6.65	7.01	132
1	260000	6.8	7.16	135
1	270000	5.42	5.71	108
1	280000	4.95	5.23	98.9
1	290000	5.9	6.22	118
1	300000	6.03	6.36	120
2	0	6.87	4.61	87.2
2	-10000	8.94	6.68	126
2	-20000	7.95	5.69	108
2	-30000	9.16	6.9	130
2	-40000	9.73	7.47	141
2	-50000	8.88	6.62	125
2	-60000	8.23	5.97	113
2	-70000	8.95	6.69	126
2	-80000	8.6	6.34	120
2	-90000	7.75	5.49	104
2	-100000	6.67	4.41	83.4
2	-110000	7.52	5.26	99.4
2	-120000	8.09	5.83	110
2	-130000	6.9	4.64	87.8
2	-140000	5.8	3.54	66.8
2	-150000	7.45	5.19	98
2	-160000	6.95	4.69	88.7
2	-170000	5.37	3.11	58.9
2	-180000	5.1	2.92	55.3
2	-190000	5.85	3.59	67.9
2	-200000	5.82	3.56	67.3
2	-210000	4.47	2.56	48.3
2	-220000	4.08	2.34	44.2
2	-230000	4.68	2.68	50.6
2	-240000	4.51	2.58	48.8
2	-250000	2.93	1.68	31.8
2	-260000	2.26	1.3	24.5
2	-270000	2.58	1.48	27.9
2	-280000	2.45	1.4	26.5
2	-290000	0.888	0.508	9.61
2	-300000	0.861	0.493	9.32
2	0	7	7.37	139
2	10000	7.28	7.68	145
2	20000	8.71	9.18	174
2	30000	7.9	8.33	157
2	40000	7.49	7.89	149
2	50000	8.55	9.01	170
2	60000	9.15	9.64	182
2	70000	8.1	8.54	161
2	80000	7.46	7.86	149
2	90000	8.77	9.24	175
2	100000	8.72	9.19	174
2	110000	7.52	7.93	150
2	120000	6.85	7.22	136
2	130000	8.09	8.52	161
2	140000	8.14	8.59	162
2	150000	6.92	7.29	138
2	160000	6.86	7.23	137
2	170000	8.05	8.49	160
2	180000	8.29	8.73	165
2	190000	7.15	7.54	142
2	200000	6.54	6.89	130
2	210000	7.33	7.73	146
2	220000	7.51	7.91	150
2	230000	6.67	7.03	133
2	240000	6.12	6.45	122
2	250000	6.32	6.66	126
2	260000	6.1	6.43	122
2	270000	5.14	5.42	103
2	280000	4.56	4.84	91.6
2	290000	6.34	6.68	126
2	300000	8.1	8.53	161
3	0	9.01	6.75	128
3	-10000	11	8.69	164
3	-20000	10.4	8.15	154
3	-30000	11.5	9.24	175
3	-40000	11.8	9.51	180
3	-50000	10.3	7.99	151
3	-60000	10	7.74	146
3	-70000	11.1	8.81	167
3	-80000	10.6	8.34	158
3	-90000	10.1	7.89	149
3	-100000	9.76	7.5	142
3	-110000	10.5	8.27	156
3	-120000	11.1	8.84	167
3	-130000	9.96	7.7	146
3	-140000	8.96	6.7	127
3	-150000	10	7.77	147
3	-160000	10	7.79	147
3	-170000	9.11	6.85	130
3	-180000	8.73	6.47	122
3	-190000	10.3	8.01	151
3	-200000	10.2	7.96	150
3	-210000	8.76	6.5	123
3	-220000	8.54	6.28	119
3	-230000	8.91	6.65	126
3	-240000	8.66	6.4	121
3	-250000	7.22	4.96	93.7
3	-260000	6.25	3.99	75.3
3	-270000	6.21	3.95	74.7
3	-280000	5.85	3.59	67.9
3	-290000	3.95	2.26	42.8
3	-300000	3.81	2.18	41.3
3	0	3.99	4.28	80.9
3	10000	5.95	6.27	119
3	20000	6.28	6.62	125
3	30000	5.27	5.56	105
3	40000	5.08	5.36	101
3	50000	6.75	7.11	134
3	60000	7.49	7.9	149
3	70000	5.96	6.28	119
3	80000	4.14	4.43	83.7
3	90000	4.76	5.05	95.4
3	100000	4.5	4.79	90.5
3	110000	2.57	2.85	53.9
3	120000	2.63	2.92	55.2
3	130000	4.17	4.46	84.3
3	140000	4.06	4.35	82.1
3	150000	3.83	4.12	77.8
3	160000	3.91	4.19	79.2
3	170000	5.37	5.66	107
3	180000	6.15	6.48	122
3	190000	5.43	5.72	108
3	200000	4.85	5.14	97.1
3	210000	5.88	6.2	117
3	220000	5.64	5.95	112
3	230000	4.63	4.92	93
3	240000	4.41	4.69	88.7
3	250000	5.09	5.37	102
3	260000	5.02	5.31	100
3	270000	4.01	4.3	81.3
3	280000	3.52	3.8	71.8
3	290000	4.95	5.23	98.9
3	300000	7.11	7.5	142
4	0	8.77	6.51	123
4	-10000	8.71	6.45	122
4	-20000	7.19	4.93	93.1
4	-30000	8.22	5.96	113
4	-40000	8.93	6.67	126
4	-50000	7.83	5.57	105
4	-60000	7.66	5.4	102
4	-70000	8.16	5.9	112
4	-80000	8.84	6.58	124
4	-90000	7.97	5.71	108
4	-100000	7.62	5.36	101
4	-110000	7.61	5.35	101
4	-120000	8.11	5.85	110
4	-130000	7.24	4.98	94.1
4	-140000	6.1	3.84	72.6
4	-150000	6.85	4.59	86.8
4	-160000	6.89	4.63	87.5
4	-170000	5.35	3.09	58.4
4	-180000	4.7	2.69	50.9
4	-190000	5.47	3.21	60.6
4	-200000	5.27	3.02	57
4	-210000	3.97	2.27	42.9
4	-220000	3.6	2.06	39
4	-230000	4.49	2.57	48.7
4	-240000	4.65	2.66	50.3
4	-250000	3.65	2.09	39.6
4	-260000	2.7	1.55	29.2
4	-270000	3.14	1.8	34
4	-280000	3.23	1.85	34.9
4	-290000	1.42	0.816	15.4
4	-300000	1.55	0.89	16.8
4	0	2.33	2.62	49.5
4	10000	6.67	7.03	133
4	20000	8.11	8.55	162
4	30000	7.62	8.04	152
4	40000	7.5	7.91	149
4	50000	8.39	8.85	167
4	60000	9.11	9.61	182
4	70000	8.2	8.65	163
4	80000	7.7	8.11	153
4	90000	8.52	8.98	170
4	100000	8.85	9.33	176
4	110000	7.31	7.71	146
4	120000	6.93	7.3	138
4	130000	8.3	8.75	165
4	140000	7.99	8.42	159
4	150000	6.95	7.32	138
4	160000	6.23	6.57	124
4	170000	7.38	7.78	147
4	180000	7.38	7.78	147
4	190000	6.6	6.96	132
4	200000	6.1	6.43	122
4	210000	6.33	6.67	126
4	220000	6.51	6.87	130
4	230000	4.91	5.19	98.1
4	240000	4.4	4.68	88.5
4	250000	4.72	5.01	94.7
4	260000	4.82	5.1	96.4
4	270000	3.35	3.64	68.8
4	280000	3.25	3.54	66.8
4	290000	5.14	5.42	103
4	300000	4.95	5.24	99
5	0	5.37	3.11	58.7
5	-10000	6.46	4.2	79.4
5	-20000	5.45	3.19	60.3
5	-30000	6.88	4.62	87.3
5	-40000	7.19	4.93	93.1
5	-50000	6.43	4.17	78.8
5	-60000	5.69	3.43	64.9
5	-70000	6.51	4.25	80.4
5	-80000	6.38	4.12	77.8
5	-90000	5.63	3.37	63.8
5	-100000	4.67	2.68	50.6
5	-110000	5.78	3.52	66.6
5	-120000	6.46	4.2	79.4
5	-130000	5.23	3	56.7
5	-140000	4.27	2.45	46.2
5	-150000	5.51	3.25	61.4
5	-160000	5.69	3.43	64.9
5	-170000	4.17	2.39	45.1
5	-180000	3.64	2.08	39.4
5	-190000	4.56	2.61	49.4
5	-200000	5.36	3.1	58.7
5	-210000	3.92	2.25	42.5
5	-220000	4.63	2.65	50.1
5	-230000	5.29	3.03	57.3
5	-240000	5.03	2.88	54.4
5	-250000	4.26	2.44	46.1
5	-260000	3.34	1.92	36.2
5	-270000	4.37	2.5	47.3
5	-280000	4.03	2.31	43.6
5	-290000	1.79	1.03	19.4
5	-300000	2.32	1.33	25.1
5	0	4.01	4.3	81.3
5	10000	6.63	6.99	132
5	20000	7.97	8.4	159
5	30000	6.88	7.25	137
5	40000	6.43	6.78	128
5	50000	7.68	8.1	153
5	60000	7.94	8.37	158
5	70000	7	7.38	140
5	80000	6.42	6.77	128
5	90000	7.58	7.99	151
5	100000	8.15	8.59	162
5	110000	7.07	7.46	141
5	120000	6.81	7.18	136
5	130000	8.33	8.78	166
5	140000	8.08	8.52	161
5	150000	6.81	7.18	136
5	160000	6.57	6.92	131
5	170000	7.64	8.05	152
5	180000	7.83	8.26	156
5	190000	7.05	7.43	140
5	200000	6.67	7.03	133
5	210000	7.14	7.53	142
5	220000	7.05	7.43	140
5	230000	5.66	5.97	113
5	240000	5.11	5.4	102
5	250000	5.59	5.89	111
5	260000	5.28	5.56	105
5	270000	3.78	4.07	76.9
5	280000	2.96	3.24	61.3
5	290000	3.68	3.97	75
5	300000	4.22	4.5	85.1
6	0	5.16	2.96	55.9
6	-10000	6.44	4.18	79.1
6	-20000	6.12	3.86	72.9
6	-30000	7.25	4.99	94.3
6	-40000	7.78	5.52	104
6	-50000	6.98	4.72	89.2
6	-60000	6.44	4.18	79
6	-70000	6.72	4.46	84.3
6	-80000	7.26	5	94.5
6	-90000	6.36	4.1	77.4
6	-100000	5.36	3.1	58.5
6	-110000	6.6	4.34	82
6	-120000	5.83	3.57	67.4
6	-130000	4.9	2.81	53.1
6	-140000	3.38	1.94	36.6
6	-150000	4.09	2.34	44.3
6	-160000	4.33	2.48	46.8
6	-170000	3.24	1.86	35.1
6	-180000	2.21	1.27	23.9
6	-190000	2.87	1.64	31.1
6	-200000	2.98	1.71	32.3
6	-210000	1.71	0.98	18.5
6	-220000	1.23	0.707	13.4
6	-230000	1.77	1.01	19.1
6	-240000	1.75	1	18.9
6	-250000	1.09	0.627	11.8
6	-260000	0.672	0.385	7.28
6	-270000	1.45	0.829	15.7
6	-280000	1.75	1	18.9
6	-290000	0.504	0.289	5.46
6	-300000	0.135	0.0772	1.46
