rep_num	position	torque	torque_compensated	lbs_compensated
1	0	2.86	3.15	59.5
1	10000	3.92	4.21	79.6
1	20000	4.39	4.67	88.3
1	30000	4.67	4.96	93.7
1	40000	4.87	5.15	97.4
1	50000	5.2	5.49	104
1	60000	5.08	5.37	101
1	70000	5.14	5.43	103
1	80000	5.3	5.58	106
1	90000	5.6	5.91	112
1	100000	5.8	6.12	116
1	110000	6.05	6.38	120
1	120000	6.59	6.95	131
1	130000	6.79	7.16	135
1	140000	6.55	6.91	131
1	150000	6.81	7.18	136
1	160000	7.64	8.05	152
1	170000	7.48	7.89	149
1	180000	7.39	7.79	147
1	190000	8.17	8.62	163
1	200000	8.44	8.89	168
1	210000	8.31	8.75	165
1	220000	8.29	8.74	165
1	230000	8.07	8.51	161
1	240000	8.05	8.48	160
1	250000	7.34	7.73	146
1	260000	5.45	5.75	109
1	270000	4.47	4.76	89.9
1	280000	4.79	5.07	95.9
1	290000	5.1	5.39	102
1	300000	4.83	5.12	96.7
2	0	6.08	3.82	72.2
2	-10000	9.32	7.06	133
2	-20000	10.2	7.91	150
2	-30000	9.9	7.64	144
2	-40000	9.82	7.56	143
2	-50000	10.1	7.84	148
2	-60000	10.2	7.93	150
2	-70000	9.63	7.37	139
2	-80000	9.13	6.87	130
2	-90000	9.6	7.34	139
2	-100000	8.62	6.36	120
2	-110000	8.22	5.96	113
2	-120000	8.42	6.16	116
2	-130000	8.71	6.45	122
2	-140000	8.25	5.99	113
2	-150000	7.85	5.59	106
2	-160000	8.18	5.92	112
2	-170000	8.11	5.85	111
2	-180000	7.54	5.28	99.8
2	-190000	7.28	5.02	94.9
2	-200000	7.23	4.97	93.9
2	-210000	7.5	5.24	99
2	-220000	7.15	4.89	92.5
2	-230000	7	4.74	89.6
2	-240000	7.44	5.18	97.8
2	-250000	7.6	5.34	101
2	-260000	7.68	5.42	102
2	-270000	6.78	4.52	85.5
2	-280000	6.24	3.98	75.2
2	-290000	6.23	3.97	75
2	-300000	6.03	3.77	71.3
2	0	4.34	4.63	87.5
2	10000	4.99	5.28	99.8
2	20000	5.76	6.07	115
2	30000	6.09	6.42	121
2	40000	6.13	6.46	122
2	50000	5.91	6.23	118
2	60000	5.98	6.3	119
2	70000	6.05	6.38	120
2	80000	6.3	6.64	126
2	90000	6.54	6.89	130
2	100000	6.18	6.52	123
2	110000	6.13	6.46	122
2	120000	6.77	7.14	135
2	130000	6.86	7.23	137
2	140000	6.91	7.29	138
2	150000	6.86	7.23	137
2	160000	7.69	8.11	153
2	170000	7.75	8.17	154
2	180000	7.21	7.6	144
2	190000	7.29	7.68	145
2	200000	7.48	7.88	149
2	210000	7.33	7.73	146
2	220000	6.82	7.18	136
2	230000	6.11	6.44	122
2	240000	6.26	6.59	125
2	250000	5.12	5.4	102
2	260000	4.07	4.36	82.4
2	270000	3.27	3.56	67.3
2	280000	2.62	2.91	55
2	290000	3.31	3.59	67.9
2	300000	3.85	4.14	78.2
3	0	5.14	2.95	55.7
3	-10000	8.56	6.3	119
3	-20000	9.04	6.78	128
3	-30000	8.8	6.54	124
3	-40000	8.8	6.54	124
3	-50000	8.35	6.09	115
3	-60000	8.14	5.88	111
3	-70000	7.18	4.92	93
3	-80000	7.26	5	94.4
3	-90000	7.79	5.53	104
3	-100000	7.16	4.9	92.6
3	-110000	6.58	4.32	81.7
3	-120000	7.02	4.76	90
3	-130000	6.99	4.73	89.4
3	-140000	6.24	3.98	75.2
3	-150000	6.27	4.01	75.8
3	-160000	6.07	3.81	72.1
3	-170000	5.98	3.72	70.3
3	-180000	5.68	3.42	64.7
3	-190000	5.42	3.16	59.7
3	-200000	5.65	3.39	64.1
3	-210000	5.44	3.18	60
3	-220000	5.23	3	56.7
3	-230000	4.95	2.83	53.6
3	-240000	4.57	2.62	49.5
3	-250000	5.3	3.04	57.5
3	-260000	5.2	2.98	56.3
3	-270000	4.29	2.46	46.4
3	-280000	4.17	2.39	45.2
3	-290000	3.92	2.24	42.4
3	-300000	3.88	2.22	42
3	0	2.87	3.15	59.6
3	10000	3.97	4.26	80.5
3	20000	3.96	4.25	80.3
3	30000	3.93	4.21	79.7
3	40000	4.25	4.54	85.8
3	50000	4.57	4.85	91.7
3	60000	4.53	4.81	91
3	70000	4.46	4.75	89.7
3	80000	4.9	5.19	98
3	90000	5.11	5.4	102
3	100000	4.61	4.89	92.5
3	110000	4.36	4.65	87.9
3	120000	5.1	5.38	102
3	130000	4.98	5.26	99.4
3	140000	4.61	4.89	92.5
3	150000	4.81	5.09	96.2
3	160000	5.58	5.89	111
3	170000	5.29	5.58	105
3	180000	4.75	5.04	95.2
3	190000	5.08	5.36	101
3	200000	5.08	5.36	101
3	210000	4.95	5.23	98.9
3	220000	4.56	4.85	91.6
3	230000	4.12	4.4	83.2
3	240000	4.38	4.67	88.2
3	250000	3.71	4	75.5
3	260000	3.21	3.5	66.1
3	270000	2.98	3.27	61.7
3	280000	2.73	3.01	57
3	290000	3.53	3.82	72.2
3	300000	3.55	3.84	72.6
4	0	4.98	2.85	53.9
4	-10000	7.32	5.06	95.6
4	-20000	7.6	5.34	101
4	-30000	7.2	4.94	93.4
4	-40000	7.24	4.98	94.1
4	-50000	7.36	5.1	96.4
4	-60000	7.1	4.84	91.4
4	-70000	6.47	4.21	79.5
4	-80000	6.54	4.28	80.9
4	-90000	6.68	4.42	83.6
4	-100000	6.17	3.91	73.9
4	-110000	6.01	3.75	70.9
4	-120000	6.01	3.75	70.9
4	-130000	6.1	3.84	72.6
4	-140000	5.35	3.09	58.4
4	-150000	5.57	3.31	62.5
4	-160000	5.59	3.33	62.9
4	-170000	5.43	3.17	59.9
4	-180000	5.12	2.93	55.5
4	-190000	4.88	2.8	52.9
4	-200000	4.96	2.84	53.7
4	-210000	5.09	2.92	55.1
4	-220000	4.98	2.85	53.9
4	-230000	4.63	2.65	50.1
4	-240000	4.74	2.72	51.4
4	-250000	5.35	3.09	58.3
4	-260000	4.93	2.82	53.4
4	-270000	4.15	2.38	44.9
4	-280000	4.08	2.34	44.2
4	-290000	4.08	2.33	44.1
4	-300000	4.52	2.59	48.9
4	0	3.22	3.51	66.3
4	10000	3.68	3.97	75
4	20000	4.14	4.43	83.7
4	30000	4.28	4.56	86.3
4	40000	4.47	4.75	89.8
4	50000	4.46	4.75	89.7
4	60000	4.56	4.85	91.6
4	70000	4.14	4.43	83.7
4	80000	4.63	4.92	93
4	90000	5.15	5.43	103
4	100000	5.13	5.42	102
4	110000	5.11	5.39	102
4	120000	5.8	6.11	115
4	130000	6.19	6.52	123
4	140000	5.88	6.19	117
4	150000	6.17	6.5	123
4	160000	6.29	6.63	125
4	170000	5.86	6.18	117
4	180000	5.16	5.45	103
4	190000	5.15	5.44	103
4	200000	5.36	5.65	107
4	210000	5.49	5.79	109
4	220000	4.77	5.05	95.5
4	230000	4.63	4.92	92.9
4	240000	4.81	5.09	96.3
4	250000	3.81	4.1	77.5
4	260000	3.4	3.69	69.7
4	270000	2.74	3.02	57.2
4	280000	2.35	2.63	49.8
4	290000	2.82	3.11	58.7
4	300000	2.91	3.2	60.5
5	0	4.15	2.38	45
5	-10000	6.62	4.36	82.4
5	-20000	7.84	5.58	105
5	-30000	7.58	5.32	101
5	-40000	7.64	5.38	102
5	-50000	7.52	5.26	99.5
5	-60000	7.25	4.99	94.3
5	-70000	6.49	4.23	80
5	-80000	6.6	4.34	82
5	-90000	6.97	4.71	89
5	-100000	6.45	4.19	79.2
5	-110000	6.21	3.95	74.6
5	-120000	6.34	4.08	77.2
5	-130000	6.33	4.07	77
5	-140000	5.79	3.53	66.7
5	-150000	5.38	3.12	59
5	-160000	5.64	3.38	63.8
5	-170000	5.77	3.51	66.4
5	-180000	5.15	2.95	55.8
5	-190000	5.08	2.91	55
5	-200000	5.15	2.95	55.8
5	-210000	5.21	2.99	56.5
5	-220000	5.33	3.07	58
5	-230000	4.92	2.82	53.3
5	-240000	4.9	2.81	53.1
5	-250000	5.39	3.13	59.1
5	-260000	5.33	3.07	57.9
5	-270000	4.79	2.74	51.9
5	-280000	4.63	2.65	50.1
5	-290000	4.58	2.62	49.6
5	-300000	4.61	2.64	49.9
5	0	3.88	4.16	78.7
5	10000	4.73	5.01	94.8
5	20000	4.55	4.83	91.4
5	30000	4.64	4.93	93.1
5	40000	4.61	4.9	92.6
5	50000	4.32	4.61	87.1
5	60000	4.54	4.83	91.2
5	70000	4.35	4.64	87.7
5	80000	4.46	4.75	89.8
5	90000	4.56	4.85	91.6
5	100000	4.51	4.8	90.7
5	110000	4.46	4.74	89.6
5	120000	4.8	5.09	96.1
5	130000	4.94	5.23	98.8
5	140000	4.71	5	94.5
5	150000	4.34	4.62	87.4
5	160000	4.79	5.08	96
5	170000	4.25	4.54	85.7
5	180000	3.86	4.15	78.4
5	190000	4.31	4.59	86.8
5	200000	3.86	4.15	78.4
5	210000	3.68	3.97	74.9
5	220000	3.67	3.96	74.8
5	230000	3.47	3.75	70.9
5	240000	3.74	4.03	76.1
5	250000	2.96	3.25	61.4
5	260000	2.23	2.52	47.6
5	270000	1.98	2.27	42.8
5	280000	1.69	1.98	37.4
5	290000	1.75	2.04	38.5
5	300000	1.72	2	37.9
6	0	2.96	1.69	32
6	-10000	5.5	3.24	61.2
6	-20000	6.19	3.93	74.3
6	-30000	5.94	3.68	69.5
6	-40000	5.71	3.45	65.1
6	-50000	6.08	3.82	72.2
6	-60000	5.86	3.6	68.1
6	-70000	5.07	2.91	54.9
6	-80000	5.12	2.93	55.4
6	-90000	5.58	3.32	62.8
6	-100000	4.89	2.8	52.9
6	-110000	4.74	2.72	51.3
6	-120000	4.95	2.83	53.6
6	-130000	4.91	2.81	53.1
6	-140000	4.48	2.57	48.5
6	-150000	4.44	2.54	48
6	-160000	4.48	2.57	48.5
6	-170000	4.37	2.5	47.3
6	-180000	3.9	2.23	42.2
6	-190000	3.8	2.17	41.1
6	-200000	3.93	2.25	42.6
6	-210000	4.07	2.33	44
6	-220000	3.73	2.14	40.4
6	-230000	3.43	1.97	37.2
6	-240000	3.24	1.86	35.1
6	-250000	3.67	2.1	39.7
6	-260000	3.27	1.87	35.4
6	-270000	2.94	1.68	31.8
6	-280000	2.76	1.58	29.8
6	-290000	2.9	1.66	31.4
6	-300000	2.62	1.5	28.4
