rep_num	position	torque	torque_compensated	lbs_compensated
1	0	2.3	2.59	49
1	10000	3.14	3.43	64.8
1	20000	2.95	3.24	61.2
1	30000	3.24	3.52	66.6
1	40000	3.35	3.63	68.6
1	50000	3.12	3.41	64.4
1	60000	3.51	3.8	71.8
1	70000	3.68	3.97	75
1	80000	3.31	3.6	68
1	90000	3.6	3.88	73.4
1	100000	4.22	4.51	85.2
1	110000	3.95	4.24	80.1
1	120000	3.56	3.85	72.7
1	130000	3.67	3.95	74.7
1	140000	3.7	3.99	75.4
1	150000	3.88	4.16	78.7
1	160000	3.91	4.19	79.2
1	170000	3.81	4.09	77.4
1	180000	3.99	4.28	80.9
1	190000	3.61	3.89	73.6
1	200000	3.31	3.59	67.9
1	210000	3.66	3.94	74.6
1	220000	3.6	3.89	73.5
1	230000	3.76	4.05	76.5
1	240000	3.5	3.78	71.5
1	250000	3.42	3.7	70
1	260000	3.28	3.57	67.4
1	270000	3.26	3.55	67
1	280000	3.75	4.03	76.2
1	290000	3.64	3.92	74.2
1	300000	3.51	3.8	71.8
2	0	4.43	2.54	48
2	-10000	7.23	4.97	93.9
2	-20000	7.69	5.43	103
2	-30000	8.1	5.84	110
2	-40000	8.79	6.53	123
2	-50000	9.28	7.02	133
2	-60000	8.91	6.65	126
2	-70000	8.57	6.31	119
2	-80000	8.69	6.43	121
2	-90000	8.31	6.05	114
2	-100000	7.94	5.68	107
2	-110000	7.82	5.56	105
2	-120000	7.56	5.3	100
2	-130000	6.98	4.72	89.3
2	-140000	7.18	4.92	92.9
2	-150000	7.39	5.13	96.9
2	-160000	6.91	4.65	87.8
2	-170000	5.98	3.72	70.3
2	-180000	6.16	3.9	73.7
2	-190000	5.05	2.89	54.7
2	-200000	4.71	2.7	51
2	-210000	4.43	2.54	48
2	-220000	4.66	2.67	50.4
2	-230000	3.78	2.16	40.9
2	-240000	3.73	2.14	40.4
2	-250000	3.53	2.02	38.3
2	-260000	3.92	2.25	42.4
2	-270000	3.69	2.11	39.9
2	-280000	3.62	2.08	39.2
2	-290000	3.39	1.94	36.7
2	-300000	3.15	1.8	34.1
2	0	2.54	2.83	53.5
2	10000	4.42	4.71	89
2	20000	4.1	4.38	82.8
2	30000	4.35	4.64	87.6
2	40000	4.14	4.42	83.6
2	50000	3.85	4.13	78.1
2	60000	3.95	4.23	80
2	70000	3.97	4.26	80.5
2	80000	3.76	4.05	76.5
2	90000	3.57	3.86	72.9
2	100000	3.49	3.78	71.4
2	110000	3.13	3.42	64.5
2	120000	3.45	3.74	70.7
2	130000	3.31	3.6	68
2	140000	3.41	3.7	69.9
2	150000	3.21	3.49	66
2	160000	3.14	3.43	64.8
2	170000	3.37	3.66	69.1
2	180000	3.24	3.52	66.6
2	190000	3.48	3.77	71.2
2	200000	3.67	3.96	74.9
2	210000	3.48	3.77	71.3
2	220000	3.24	3.52	66.6
2	230000	3.42	3.71	70.1
2	240000	2.98	3.27	61.7
2	250000	3.38	3.66	69.2
2	260000	3.19	3.47	65.7
2	270000	2.99	3.28	61.9
2	280000	3.63	3.92	74.1
2	290000	3.6	3.89	73.4
2	300000	3.7	3.99	75.4
3	0	5.36	3.1	58.7
3	-10000	8.6	6.34	120
3	-20000	9.71	7.45	141
3	-30000	9.85	7.59	143
3	-40000	10.4	8.15	154
3	-50000	11.2	8.94	169
3	-60000	10.5	8.23	156
3	-70000	10.6	8.31	157
3	-80000	10.7	8.39	159
3	-90000	9.83	7.57	143
3	-100000	9.54	7.28	137
3	-110000	9.44	7.18	136
3	-120000	8.99	6.73	127
3	-130000	8.23	5.97	113
3	-140000	8.28	6.02	114
3	-150000	8.22	5.96	113
3	-160000	7.64	5.38	102
3	-170000	7.14	4.88	92.2
3	-180000	7.35	5.09	96.2
3	-190000	6.61	4.35	82.3
3	-200000	6.12	3.86	73
3	-210000	5.94	3.68	69.6
3	-220000	5.54	3.28	62
3	-230000	5.08	2.91	55
3	-240000	4.83	2.77	52.3
3	-250000	4.64	2.66	50.2
3	-260000	4.71	2.7	51
3	-270000	4.26	2.44	46.2
3	-280000	3.93	2.25	42.6
3	-290000	3.45	1.97	37.3
3	-300000	4.31	2.47	46.6
3	0	4.45	4.73	89.4
3	10000	4.97	5.26	99.4
3	20000	4.97	5.25	99.3
3	30000	4.93	5.21	98.5
3	40000	4.5	4.78	90.4
3	50000	4.11	4.4	83.1
3	60000	4.09	4.37	82.6
3	70000	4.7	4.98	94.2
3	80000	4.19	4.47	84.5
3	90000	3.8	4.08	77.2
3	100000	4.04	4.33	81.8
3	110000	3.86	4.14	78.3
3	120000	3.87	4.15	78.5
3	130000	4.04	4.32	81.7
3	140000	3.94	4.23	79.9
3	150000	3.87	4.15	78.5
3	160000	3.71	4	75.6
3	170000	3.39	3.67	69.4
3	180000	3.34	3.63	68.5
3	190000	3.3	3.59	67.9
3	200000	2.92	3.21	60.6
3	210000	3.35	3.64	68.8
3	220000	3	3.29	62.1
3	230000	3.04	3.33	62.9
3	240000	2.61	2.89	54.7
3	250000	2.09	2.38	44.9
3	260000	1.49	1.78	33.6
3	270000	1.03	1.32	24.9
3	280000	2.23	2.52	47.6
3	290000	2.83	3.11	58.8
3	300000	3.15	3.44	65
4	0	4.75	2.72	51.4
4	-10000	8.7	6.44	122
4	-20000	10.1	7.83	148
4	-30000	10.7	8.41	159
4	-40000	11.4	9.15	173
4	-50000	11.9	9.64	182
4	-60000	11.7	9.47	179
4	-70000	11.4	9.1	172
4	-80000	11.9	9.59	181
4	-90000	11.6	9.34	176
4	-100000	11.1	8.86	167
4	-110000	11	8.77	166
4	-120000	10.2	7.93	150
4	-130000	9.93	7.67	145
4	-140000	9.19	6.93	131
4	-150000	8.98	6.72	127
4	-160000	8.08	5.82	110
4	-170000	8.32	6.06	115
4	-180000	8.36	6.1	115
4	-190000	7.56	5.3	100
4	-200000	7.11	4.85	91.7
4	-210000	6.99	4.73	89.5
4	-220000	6.36	4.1	77.5
4	-230000	5.8	3.54	67
4	-240000	5.57	3.31	62.5
4	-250000	5.64	3.38	63.9
4	-260000	5.28	3.02	57.1
4	-270000	4.65	2.66	50.4
4	-280000	4.05	2.32	43.9
4	-290000	3.41	1.95	36.9
4	-300000	2.95	1.69	32
4	0	1.85	2.13	40.3
4	10000	4.39	4.68	88.5
4	20000	3.88	4.17	78.8
4	30000	4.25	4.53	85.7
4	40000	4.29	4.58	86.5
4	50000	4.06	4.35	82.2
4	60000	3.61	3.9	73.7
4	70000	3.87	4.15	78.5
4	80000	3.41	3.69	69.8
4	90000	3.17	3.46	65.3
4	100000	3.57	3.86	72.9
4	110000	3.4	3.69	69.8
4	120000	3.08	3.37	63.6
4	130000	3.52	3.8	71.9
4	140000	3.69	3.98	75.2
4	150000	3.39	3.67	69.4
4	160000	3.47	3.75	71
4	170000	3.42	3.7	70
4	180000	3.57	3.86	73
4	190000	3.54	3.83	72.3
4	200000	3.73	4.02	75.9
4	210000	3.62	3.91	73.9
4	220000	3.51	3.79	71.7
4	230000	3.61	3.9	73.7
4	240000	3.02	3.31	62.6
4	250000	3.15	3.44	64.9
4	260000	2.96	3.25	61.4
4	270000	2.63	2.92	55.1
4	280000	3.05	3.33	63
4	290000	2.79	3.07	58
4	300000	3.64	3.92	74.1
5	0	5.13	2.94	55.5
5	-10000	7.91	5.65	107
5	-20000	8.3	6.04	114
5	-30000	8.43	6.17	117
5	-40000	8.22	5.96	113
5	-50000	8.33	6.07	115
5	-60000	8.4	6.14	116
5	-70000	8.54	6.28	119
5	-80000	8.68	6.42	121
5	-90000	8.35	6.09	115
5	-100000	7.76	5.5	104
5	-110000	7.8	5.54	105
5	-120000	8.26	6	113
5	-130000	8.41	6.15	116
5	-140000	8.24	5.98	113
5	-150000	8.5	6.24	118
5	-160000	8.27	6.01	114
5	-170000	7.85	5.59	106
5	-180000	8.12	5.86	111
5	-190000	7.3	5.04	95.2
5	-200000	6.94	4.68	88.4
5	-210000	7	4.74	89.5
5	-220000	6.67	4.41	83.4
5	-230000	6.95	4.69	88.7
5	-240000	6.71	4.45	84
5	-250000	6.35	4.09	77.3
5	-260000	6.71	4.45	84.1
5	-270000	5.97	3.71	70.1
5	-280000	4.7	2.69	50.9
5	-290000	4.52	2.59	48.9
5	-300000	3.2	1.83	34.7
5	0	2.92	3.2	60.5
5	10000	5.08	5.37	102
5	20000	4.61	4.9	92.6
5	30000	4.84	5.12	96.8
5	40000	4.65	4.93	93.2
5	50000	4.35	4.63	87.6
5	60000	4.65	4.94	93.3
5	70000	4.95	5.24	99
5	80000	4.74	5.02	94.9
5	90000	4.51	4.79	90.6
5	100000	4.9	5.19	98
5	110000	4.74	5.03	95.1
5	120000	3.6	3.88	73.4
5	130000	3.91	4.2	79.3
5	140000	4.11	4.4	83.2
5	150000	4	4.29	81.1
5	160000	4.13	4.42	83.5
5	170000	3.9	4.18	79
5	180000	3.73	4.02	75.9
5	190000	3.65	3.94	74.5
5	200000	3.7	3.99	75.4
5	210000	3.64	3.93	74.3
5	220000	3.25	3.53	66.8
5	230000	3.67	3.96	74.8
5	240000	2.93	3.22	60.8
5	250000	2.77	3.06	57.8
5	260000	2.75	3.03	57.3
5	270000	2.72	3	56.7
5	280000	2.9	3.19	60.3
5	290000	2.96	3.25	61.4
5	300000	3.62	3.9	73.8
6	0	4.76	2.72	51.5
6	-10000	7.55	5.29	99.9
6	-20000	8.13	5.87	111
6	-30000	8.16	5.9	111
6	-40000	7.98	5.72	108
6	-50000	8.13	5.87	111
6	-60000	8.07	5.81	110
6	-70000	7.59	5.33	101
6	-80000	7.57	5.31	100
6	-90000	7.16	4.9	92.6
6	-100000	6.98	4.72	89.1
6	-110000	6.55	4.29	81
6	-120000	6.46	4.2	79.3
6	-130000	6.01	3.75	70.9
6	-140000	5.66	3.4	64.3
6	-150000	6.17	3.91	73.9
6	-160000	5.41	3.15	59.5
6	-170000	5.27	3.02	57
6	-180000	5.41	3.15	59.6
6	-190000	4.95	2.83	53.6
6	-200000	4.62	2.65	50
6	-210000	4.65	2.66	50.3
6	-220000	4.84	2.77	52.4
6	-230000	4.26	2.44	46.1
6	-240000	3.83	2.2	41.5
6	-250000	3.83	2.19	41.4
6	-260000	3.93	2.25	42.6
6	-270000	3.3	1.89	35.7
6	-280000	3.16	1.81	34.2
6	-290000	2.96	1.69	32
6	-300000	3.66	2.09	39.6
