rep_num	position	torque	torque_compensated	lbs_compensated
1	0	1.6	1.88	35.6
1	10000	0.306	0.592	11.2
1	20000	0.4	0.686	13
1	30000	0.183	0.469	8.86
1	40000	0.621	0.907	17.1
1	50000	1.4	1.68	31.8
1	60000	2.31	2.59	49
1	70000	3.2	3.49	66
1	80000	3.36	3.65	69
1	90000	3.43	3.71	70.1
1	100000	3.94	4.23	79.9
1	110000	4.23	4.51	85.3
1	120000	4.35	4.64	87.7
1	130000	4.59	4.88	92.2
1	140000	4.64	4.93	93.1
1	150000	5.25	5.53	105
1	160000	5.99	6.31	119
1	170000	6.65	7.01	132
1	180000	6.71	7.07	134
1	190000	7.41	7.81	148
1	200000	7.65	8.07	152
1	210000	7.57	7.98	151
1	220000	7.77	8.19	155
1	230000	7.76	8.18	155
1	240000	7.41	7.82	148
1	250000	6.3	6.64	126
1	260000	5.46	5.76	109
1	270000	5.1	5.39	102
1	280000	4.33	4.62	87.2
1	290000	4.08	4.37	82.5
1	300000	4.13	4.42	83.6
2	0	5.11	2.93	55.4
2	-10000	8.71	6.45	122
2	-20000	11	8.73	165
2	-30000	11.4	9.17	173
2	-40000	11.3	9.09	172
2	-50000	12.2	9.89	187
2	-60000	11.9	9.61	182
2	-70000	10.9	8.62	163
2	-80000	10.3	8.01	151
2	-90000	10.1	7.86	149
2	-100000	9.33	7.07	134
2	-110000	8.52	6.26	118
2	-120000	8.17	5.91	112
2	-130000	7.84	5.58	105
2	-140000	7.63	5.37	102
2	-150000	6.95	4.69	88.6
2	-160000	6.38	4.12	78
2	-170000	6.19	3.93	74.3
2	-180000	6.1	3.84	72.6
2	-190000	6.06	3.8	71.8
2	-200000	5.27	3.02	57
2	-210000	5.16	2.95	55.8
2	-220000	5.7	3.44	65.1
2	-230000	5.13	2.94	55.5
2	-240000	4.64	2.66	50.2
2	-250000	5.09	2.92	55.2
2	-260000	5.14	2.94	55.6
2	-270000	4.33	2.48	46.9
2	-280000	4.05	2.32	43.9
2	-290000	3.83	2.19	41.5
2	-300000	3.18	1.82	34.4
2	0	2.91	3.19	60.3
2	10000	3.4	3.69	69.7
2	20000	2.94	3.23	61
2	30000	3.45	3.73	70.6
2	40000	3.23	3.51	66.4
2	50000	3.47	3.75	70.9
2	60000	3.26	3.54	67
2	70000	3.65	3.94	74.5
2	80000	3.95	4.23	80
2	90000	3.78	4.07	76.9
2	100000	3.88	4.17	78.8
2	110000	3.84	4.13	78
2	120000	3.46	3.74	70.7
2	130000	4.04	4.33	81.9
2	140000	4.27	4.56	86.1
2	150000	4.98	5.27	99.6
2	160000	5.86	6.18	117
2	170000	5.46	5.75	109
2	180000	5.4	5.69	108
2	190000	5.99	6.31	119
2	200000	6.24	6.58	124
2	210000	6.46	6.81	129
2	220000	6.83	7.2	136
2	230000	7.28	7.68	145
2	240000	6.98	7.36	139
2	250000	5.66	5.96	113
2	260000	4.59	4.88	92.2
2	270000	3.8	4.09	77.3
2	280000	3.47	3.75	70.9
2	290000	2.97	3.25	61.5
2	300000	2.69	2.97	56.2
3	0	4.12	2.36	44.6
3	-10000	7.49	5.23	98.8
3	-20000	7.97	5.71	108
3	-30000	7.32	5.06	95.7
3	-40000	7.29	5.03	95
3	-50000	7.92	5.66	107
3	-60000	7.54	5.28	99.8
3	-70000	6.55	4.29	81.1
3	-80000	6.51	4.25	80.3
3	-90000	6.37	4.11	77.8
3	-100000	6.03	3.77	71.2
3	-110000	5.9	3.64	68.9
3	-120000	5.83	3.57	67.4
3	-130000	5.99	3.73	70.4
3	-140000	5.5	3.24	61.2
3	-150000	5.33	3.07	57.9
3	-160000	4.59	2.63	49.7
3	-170000	4.74	2.71	51.3
3	-180000	5.02	2.88	54.4
3	-190000	4.4	2.52	47.6
3	-200000	3.91	2.24	42.4
3	-210000	4.29	2.46	46.5
3	-220000	4.14	2.37	44.8
3	-230000	3.68	2.11	39.9
3	-240000	3.56	2.04	38.5
3	-250000	4.02	2.3	43.5
3	-260000	4.43	2.54	48
3	-270000	3.78	2.17	40.9
3	-280000	3.57	2.05	38.7
3	-290000	3.41	1.95	36.9
3	-300000	3.23	1.85	35
3	0	4.27	4.56	86.2
3	10000	5.99	6.32	119
3	20000	5.96	6.28	119
3	30000	6.87	7.24	137
3	40000	6.67	7.03	133
3	50000	5.69	6	113
3	60000	5.84	6.16	116
3	70000	5.9	6.22	118
3	80000	5.81	6.12	116
3	90000	4.61	4.9	92.6
3	100000	5.32	5.6	106
3	110000	5.61	5.91	112
3	120000	5.84	6.16	116
3	130000	5.64	5.95	112
3	140000	5.16	5.45	103
3	150000	5.38	5.67	107
3	160000	5.38	5.67	107
3	170000	6.05	6.37	120
3	180000	6.41	6.76	128
3	190000	7.25	7.64	144
3	200000	7.11	7.5	142
3	210000	6.72	7.09	134
3	220000	6.15	6.48	122
3	230000	6.45	6.8	129
3	240000	6.04	6.36	120
3	250000	5.12	5.4	102
3	260000	4.28	4.57	86.3
3	270000	4.13	4.41	83.4
3	280000	3.7	3.98	75.2
3	290000	2.95	3.24	61.2
3	300000	2.98	3.26	61.7
4	0	4.07	2.33	44.1
4	-10000	5.13	2.94	55.6
4	-20000	5.83	3.57	67.5
4	-30000	5.57	3.31	62.5
4	-40000	5.39	3.13	59.2
4	-50000	6.11	3.85	72.8
4	-60000	6.29	4.03	76.1
4	-70000	5.68	3.42	64.7
4	-80000	5.17	2.96	56
4	-90000	5.33	3.07	58.1
4	-100000	5.43	3.17	59.9
4	-110000	4.9	2.81	53
4	-120000	4.47	2.56	48.4
4	-130000	4.4	2.52	47.6
4	-140000	4.4	2.52	47.7
4	-150000	4.08	2.34	44.2
4	-160000	3.61	2.07	39.1
4	-170000	3.81	2.18	41.2
4	-180000	4.04	2.32	43.8
4	-190000	3.42	1.96	37.1
4	-200000	3.23	1.85	35
4	-210000	3.26	1.87	35.3
4	-220000	3.69	2.11	39.9
4	-230000	3.97	2.27	43
4	-240000	3.98	2.28	43.1
4	-250000	4.86	2.78	52.6
4	-260000	4.62	2.64	50
4	-270000	4	2.29	43.3
4	-280000	3.63	2.08	39.3
4	-290000	3.29	1.88	35.6
4	-300000	2.65	1.52	28.7
4	0	2.32	2.61	49.3
4	10000	5.3	5.58	106
4	20000	6.07	6.4	121
4	30000	7.18	7.57	143
4	40000	7.33	7.73	146
4	50000	7.19	7.58	143
4	60000	7.39	7.79	147
4	70000	7.9	8.32	157
4	80000	7.27	7.66	145
4	90000	6.57	6.92	131
4	100000	6.64	7	132
4	110000	6.74	7.11	134
4	120000	6.31	6.65	126
4	130000	6.7	7.06	133
4	140000	6.75	7.12	135
4	150000	7.64	8.05	152
4	160000	7.89	8.31	157
4	170000	7.47	7.87	149
4	180000	7.28	7.67	145
4	190000	7.69	8.1	153
4	200000	7.84	8.26	156
4	210000	6.87	7.24	137
4	220000	6.17	6.51	123
4	230000	6.18	6.52	123
4	240000	5.24	5.53	104
4	250000	3.85	4.13	78.1
4	260000	2.67	2.96	56
4	270000	2.29	2.57	48.6
4	280000	1.84	2.13	40.2
4	290000	2	2.28	43.2
4	300000	2.19	2.48	46.8
5	0	3.16	1.81	34.2
5	-10000	5.31	3.05	57.7
5	-20000	6.92	4.66	88.1
5	-30000	6.94	4.68	88.5
5	-40000	7.09	4.83	91.3
5	-50000	7.75	5.49	104
5	-60000	7.76	5.5	104
5	-70000	7.18	4.92	92.9
5	-80000	7.31	5.05	95.5
5	-90000	7.22	4.96	93.7
5	-100000	6.95	4.69	88.6
5	-110000	6.78	4.52	85.5
5	-120000	6.24	3.98	75.3
5	-130000	5.87	3.61	68.3
5	-140000	5.56	3.3	62.4
5	-150000	5.77	3.51	66.4
5	-160000	5.15	2.95	55.8
5	-170000	4.98	2.85	53.9
5	-180000	5.12	2.93	55.5
5	-190000	4.74	2.72	51.3
5	-200000	4.44	2.55	48.1
5	-210000	4.99	2.86	54
5	-220000	5.06	2.9	54.8
5	-230000	4.73	2.71	51.2
5	-240000	3.99	2.28	43.2
5	-250000	4.17	2.39	45.2
5	-260000	4.14	2.37	44.8
5	-270000	3.98	2.28	43.1
5	-280000	3.74	2.14	40.5
5	-290000	3.6	2.06	38.9
5	-300000	3.48	1.99	37.7
5	0	3.43	3.72	70.3
5	10000	4.64	4.92	93.1
5	20000	4.03	4.32	81.6
5	30000	4.84	5.13	96.9
5	40000	4.87	5.16	97.5
5	50000	4.83	5.12	96.7
5	60000	4.84	5.12	96.9
5	70000	4.75	5.03	95.1
5	80000	4.58	4.86	91.9
5	90000	4.85	5.13	97
5	100000	5.21	5.5	104
5	110000	5.43	5.73	108
5	120000	5.35	5.64	107
5	130000	5.29	5.58	105
5	140000	5.43	5.72	108
5	150000	5.77	6.08	115
5	160000	6.26	6.6	125
5	170000	5.61	5.91	112
5	180000	5.45	5.75	109
5	190000	6.31	6.65	126
5	200000	6.21	6.54	124
5	210000	6.32	6.66	126
5	220000	5.33	5.62	106
5	230000	5.52	5.81	110
5	240000	4.87	5.16	97.5
5	250000	3.85	4.14	78.2
5	260000	3.03	3.32	62.7
5	270000	2.77	3.06	57.8
5	280000	2.23	2.52	47.6
5	290000	1.8	2.09	39.5
5	300000	1.86	2.14	40.5
6	0	2.98	1.71	32.3
6	-10000	5.12	2.93	55.4
6	-20000	6.38	4.12	77.8
6	-30000	6.4	4.14	78.3
6	-40000	6.51	4.25	80.3
6	-50000	6.93	4.67	88.3
6	-60000	6.82	4.56	86.3
6	-70000	6.36	4.1	77.4
6	-80000	6.37	4.11	77.7
6	-90000	6.78	4.52	85.4
6	-100000	6.27	4.01	75.8
6	-110000	5.64	3.38	63.8
6	-120000	5.66	3.4	64.2
6	-130000	5.73	3.47	65.5
6	-140000	5.84	3.58	67.7
6	-150000	6.56	4.3	81.3
6	-160000	6.96	4.7	88.9
6	-170000	7.26	5	94.5
6	-180000	8.39	6.13	116
6	-190000	7.28	5.02	95
6	-200000	6.91	4.65	87.8
6	-210000	6.78	4.52	85.4
6	-220000	6.26	4	75.6
6	-230000	5.06	2.9	54.8
6	-240000	4.5	2.58	48.7
6	-250000	4.21	2.41	45.6
6	-260000	3.82	2.19	41.4
6	-270000	2.4	1.38	26
6	-280000	1.77	1.01	19.2
6	-290000	1.17	0.669	12.6
6	-300000	0.96	0.55	10.4
