^C:\Users\justin\git\dyno\examples\3a-Example-Motion\Example-Motion.vcxproj
C:\Users\justin\git\dyno\examples\3a-Example-Motion\Win32\Debug\Example-Motion.lib
C:\Users\justin\git\dyno\examples\3a-Example-Motion\Win32\Debug\Example-Motion.exp
^C:\Users\justin\git\dyno\examples\3a-Example-Motion\Example-Motion.vcxproj
C:\Users\justin\git\dyno\examples\3a-Example-Motion\Win32\Debug\Example-Motion.lib
C:\Users\justin\git\dyno\examples\3a-Example-Motion\Win32\Debug\Example-Motion.exp
^C:\Users\justin\git\dyno\examples\3a-Example-Motion\Example-Motion.vcxproj
C:\Users\justin\git\dyno\examples\3a-Example-Motion\Win32\Debug\Example-Motion.lib
C:\Users\justin\git\dyno\examples\3a-Example-Motion\Win32\Debug\Example-Motion.exp
