rep_num	position	torque	torque_compensated	lbs_compensated
1	0	7.65	8.06	152
1	10000	11.3	11.9	226
1	20000	12	12.6	238
1	30000	12	12.7	240
1	40000	11.8	12.5	236
1	50000	12.5	13.2	249
1	60000	12.8	13.4	254
1	70000	12.6	13.2	250
1	80000	12.5	13.2	249
1	90000	12.9	13.6	256
1	100000	12.8	13.5	255
1	110000	12.2	12.9	243
1	120000	12.8	13.5	255
1	130000	12.9	13.5	256
1	140000	12.3	13	245
1	150000	12.3	12.9	244
1	160000	12.6	13.3	251
1	170000	12.7	13.4	253
1	180000	12.4	13.1	247
1	190000	12.2	12.9	244
1	200000	12	12.6	238
1	210000	12.1	12.8	242
1	220000	12.1	12.8	242
1	230000	11.3	11.9	225
1	240000	11.3	12	226
1	250000	11.6	12.2	231
1	260000	11.8	12.4	235
1	270000	11.3	11.9	225
1	280000	10.7	11.3	214
1	290000	11.2	11.8	223
1	300000	10.8	11.4	216
1	310000	10.4	11	208
1	320000	10.5	11.1	209
1	330000	10.5	11	209
1	340000	10.7	11.3	214
1	350000	9.97	10.5	199
1	360000	9.79	10.3	195
1	370000	10	10.5	199
1	380000	9.33	9.83	186
1	390000	7.91	8.34	158
1	400000	7.43	7.83	148
1	410000	8.14	8.58	162
1	420000	8.84	9.32	176
1	430000	9.2	9.7	183
1	440000	9.85	10.4	196
1	450000	9.11	9.6	181
2	0	11.6	9.3	176
2	-10000	12.9	10.6	201
2	-20000	13.3	11	208
2	-30000	12.7	10.5	198
2	-40000	13.2	10.9	206
2	-50000	12.9	10.6	201
2	-60000	12.4	10.2	192
2	-70000	12.2	9.96	188
2	-80000	12.9	10.7	202
2	-90000	12.9	10.6	201
2	-100000	13.2	10.9	207
2	-110000	14.1	11.8	223
2	-120000	14.9	12.6	238
2	-130000	14.5	12.3	232
2	-140000	13.7	11.4	215
2	-150000	13.3	11	208
2	-160000	13.7	11.5	216
2	-170000	13.5	11.2	212
2	-180000	13.1	10.9	206
2	-190000	13.3	11.1	209
2	-200000	13.8	11.5	217
2	-210000	13.3	11.1	209
2	-220000	13.7	11.4	215
2	-230000	13.8	11.6	219
2	-240000	14.5	12.2	231
2	-250000	14.7	12.4	235
2	-260000	14.9	12.6	239
2	-270000	14	11.8	223
2	-280000	14.9	12.6	238
2	-290000	14.8	12.5	236
2	-300000	14.9	12.6	238
2	-310000	14	11.7	222
2	-320000	14.3	12.1	228
2	-330000	14.7	12.4	235
2	-340000	14.6	12.3	233
2	-350000	14.7	12.4	235
2	-360000	15.3	13	246
2	-370000	15.4	13.1	248
2	-380000	15	12.7	240
2	-390000	14.8	12.6	238
2	-400000	14.8	12.6	237
2	-410000	14.8	12.5	237
2	-420000	14.1	11.8	223
2	-430000	13.6	11.3	214
2	-440000	13.6	11.4	215
2	-450000	13	10.7	203
2	0	11.5	12.1	229
2	10000	13.3	14	265
2	20000	12.8	13.5	255
2	30000	12.5	13.2	249
2	40000	12.5	13.2	249
2	50000	12.8	13.5	256
2	60000	12.8	13.5	254
2	70000	12	12.6	239
2	80000	12.1	12.7	241
2	90000	12.5	13.2	249
2	100000	12.6	13.3	252
2	110000	11.9	12.5	236
2	120000	12.1	12.8	241
2	130000	12.6	13.3	251
2	140000	12	12.7	239
2	150000	11.4	12	227
2	160000	11.4	12	226
2	170000	11.5	12.2	230
2	180000	11.5	12.1	230
2	190000	11.2	11.8	223
2	200000	11.1	11.7	221
2	210000	11	11.6	219
2	220000	10.1	10.7	202
2	230000	9.63	10.1	192
2	240000	9.53	10	190
2	250000	9.68	10.2	193
2	260000	9.56	10.1	190
2	270000	9.47	9.99	189
2	280000	9.04	9.53	180
2	290000	9.75	10.3	194
2	300000	9.29	9.79	185
2	310000	9.27	9.78	185
2	320000	8.83	9.31	176
2	330000	8.87	9.35	177
2	340000	8.97	9.46	179
2	350000	8.38	8.83	167
2	360000	8.28	8.72	165
2	370000	8.06	8.49	160
2	380000	8.29	8.73	165
2	390000	7.56	7.96	151
2	400000	7.38	7.78	147
2	410000	7.91	8.33	158
2	420000	7.96	8.39	159
2	430000	6.95	7.32	138
2	440000	7.14	7.53	142
2	450000	7.08	7.46	141
3	0	8.7	6.44	122
3	-10000	10.7	8.42	159
3	-20000	10.9	8.66	164
3	-30000	10.6	8.36	158
3	-40000	11.2	8.91	168
3	-50000	11.2	8.94	169
3	-60000	11.1	8.84	167
3	-70000	11.2	8.99	170
3	-80000	11.3	9.09	172
3	-90000	11.6	9.33	176
3	-100000	11.7	9.48	179
3	-110000	12.5	10.3	194
3	-120000	13.9	11.7	221
3	-130000	14.8	12.6	237
3	-140000	15	12.7	240
3	-150000	15.2	13	245
3	-160000	15.7	13.5	254
3	-170000	15.2	13	245
3	-180000	15	12.8	242
3	-190000	15.2	12.9	244
3	-200000	15.4	13.2	249
3	-210000	15.2	12.9	244
3	-220000	15.1	12.9	244
3	-230000	15.3	13	246
3	-240000	15.4	13.1	248
3	-250000	15.6	13.4	252
3	-260000	15.9	13.7	259
3	-270000	15.9	13.6	257
3	-280000	16.3	14	265
3	-290000	16.2	14	264
3	-300000	16.1	13.8	261
3	-310000	15.3	13.1	247
3	-320000	15.4	13.1	248
3	-330000	15.6	13.4	252
3	-340000	15.4	13.2	249
3	-350000	15.6	13.3	252
3	-360000	16.4	14.1	266
3	-370000	16.3	14	265
3	-380000	16.3	14	265
3	-390000	16.1	13.8	261
3	-400000	16.3	14	265
3	-410000	16	13.8	260
3	-420000	15.8	13.6	256
3	-430000	15.6	13.3	252
3	-440000	15.4	13.1	248
3	-450000	14.5	12.2	231
3	0	13.1	13.8	261
3	10000	11.6	12.2	231
3	20000	11.8	12.4	234
3	30000	11.7	12.3	232
3	40000	11.1	11.7	221
3	50000	11.9	12.5	237
3	60000	11.8	12.5	236
3	70000	11.4	12	227
3	80000	11.1	11.7	222
3	90000	11.2	11.8	224
3	100000	11	11.6	219
3	110000	10.2	10.8	204
3	120000	10.1	10.7	202
3	130000	10.6	11.2	212
3	140000	10.3	10.9	206
3	150000	10.1	10.6	201
3	160000	10.2	10.8	203
3	170000	10.3	10.9	205
3	180000	9.75	10.3	194
3	190000	9.62	10.1	192
3	200000	9.21	9.71	183
3	210000	9.46	9.97	188
3	220000	9.68	10.2	193
3	230000	8.82	9.3	176
3	240000	8.49	8.95	169
3	250000	8.37	8.82	167
3	260000	8.75	9.23	174
3	270000	8.82	9.29	176
3	280000	8.47	8.93	169
3	290000	9.01	9.5	180
3	300000	8.32	8.77	166
3	310000	7.84	8.26	156
3	320000	7.28	7.68	145
3	330000	7.29	7.68	145
3	340000	6.98	7.36	139
3	350000	6.19	6.53	123
3	360000	5.8	6.12	116
3	370000	5.85	6.16	116
3	380000	6.15	6.48	122
3	390000	6.1	6.43	122
3	400000	5.63	5.94	112
3	410000	5.9	6.22	117
3	420000	6.03	6.35	120
3	430000	5.39	5.68	107
3	440000	5.79	6.1	115
3	450000	5.66	5.96	113
4	0	7.74	5.48	104
4	-10000	9.59	7.33	139
4	-20000	10.6	8.38	158
4	-30000	10.1	7.82	148
4	-40000	10.7	8.44	160
4	-50000	10.5	8.19	155
4	-60000	10.5	8.23	156
4	-70000	10.9	8.64	163
4	-80000	11.6	9.36	177
4	-90000	12	9.71	184
4	-100000	11.3	9	170
4	-110000	11.2	8.89	168
4	-120000	11.8	9.51	180
4	-130000	12.1	9.85	186
4	-140000	11.4	9.1	172
4	-150000	12	9.71	183
4	-160000	12.4	10.2	192
4	-170000	11.8	9.59	181
4	-180000	11.4	9.15	173
4	-190000	11.7	9.46	179
4	-200000	12.1	9.84	186
4	-210000	11.6	9.33	176
4	-220000	11.3	9	170
4	-230000	11.6	9.33	176
4	-240000	11.8	9.56	181
4	-250000	11.6	9.38	177
4	-260000	11.4	9.13	173
4	-270000	11	8.78	166
4	-280000	11.5	9.29	176
4	-290000	11.9	9.61	182
4	-300000	11.7	9.45	179
4	-310000	11.4	9.16	173
4	-320000	11.8	9.56	181
4	-330000	12.3	10	190
4	-340000	11.9	9.63	182
4	-350000	11.3	9.07	171
4	-360000	11.8	9.54	180
4	-370000	12.4	10.1	192
4	-380000	12	9.73	184
4	-390000	11.8	9.58	181
4	-400000	12	9.77	185
4	-410000	12.3	10	189
4	-420000	11.9	9.66	183
4	-430000	11.9	9.63	182
4	-440000	12.5	10.3	194
4	-450000	12.1	9.81	185
4	0	10.6	11.2	211
4	10000	10.3	10.8	205
4	20000	10.7	11.3	214
4	30000	10.6	11.2	212
4	40000	10.4	11	208
4	50000	10.6	11.1	210
4	60000	10.6	11.2	212
4	70000	9.69	10.2	193
4	80000	9.5	10	189
4	90000	9.8	10.3	195
4	100000	9.13	9.62	182
4	110000	8.32	8.77	166
4	120000	8.36	8.82	167
4	130000	8.71	9.18	173
4	140000	8.11	8.55	162
4	150000	7.78	8.2	155
4	160000	8.32	8.77	166
4	170000	8.37	8.83	167
4	180000	8.19	8.64	163
4	190000	8.17	8.61	163
4	200000	8.02	8.45	160
4	210000	8.31	8.75	165
4	220000	8.19	8.63	163
4	230000	7.05	7.43	140
4	240000	6.92	7.29	138
4	250000	6.97	7.35	139
4	260000	7.07	7.46	141
4	270000	6.86	7.23	137
4	280000	6.51	6.86	130
4	290000	6.96	7.33	139
4	300000	6.43	6.78	128
4	310000	6.3	6.64	125
4	320000	6.66	7.02	133
4	330000	6.43	6.77	128
4	340000	6.21	6.55	124
4	350000	6.06	6.39	121
4	360000	5.77	6.08	115
4	370000	5.92	6.23	118
4	380000	5.76	6.08	115
4	390000	4.73	5.02	94.8
4	400000	4.81	5.1	96.4
4	410000	5.21	5.5	104
4	420000	5.17	5.45	103
4	430000	4.26	4.55	85.9
4	440000	5.02	5.31	100
4	450000	4.87	5.16	97.5
5	0	6.73	4.47	84.4
5	-10000	8.75	6.49	123
5	-20000	9.35	7.09	134
5	-30000	8.95	6.69	126
5	-40000	9.73	7.47	141
5	-50000	10.3	8.06	152
5	-60000	10.4	8.19	155
5	-70000	10.9	8.66	164
5	-80000	11.5	9.22	174
5	-90000	11.5	9.21	174
5	-100000	11.2	8.94	169
5	-110000	11.4	9.17	173
5	-120000	11.7	9.48	179
5	-130000	11.7	9.45	179
5	-140000	11.3	9.03	171
5	-150000	11.4	9.14	173
5	-160000	12.2	9.93	188
5	-170000	12.1	9.88	187
5	-180000	11.5	9.23	174
5	-190000	11.8	9.51	180
5	-200000	12	9.74	184
5	-210000	11.9	9.67	183
5	-220000	11.8	9.5	180
5	-230000	12.2	9.97	188
5	-240000	12.4	10.2	192
5	-250000	12.4	10.2	192
5	-260000	12.5	10.2	193
5	-270000	12.1	9.81	185
5	-280000	12.4	10.1	191
5	-290000	12.8	10.6	200
5	-300000	12.9	10.6	201
5	-310000	12.6	10.3	195
5	-320000	13.2	11	207
5	-330000	13.6	11.3	213
5	-340000	13.6	11.3	214
5	-350000	13.8	11.6	219
5	-360000	15.6	13.4	253
5	-370000	16.4	14.2	268
5	-380000	16.1	13.9	262
5	-390000	16.1	13.9	262
5	-400000	16	13.8	260
5	-410000	15.7	13.4	254
5	-420000	15.1	12.9	243
5	-430000	14.5	12.3	232
5	-440000	14.4	12.1	229
5	-450000	13.2	11	207
5	0	11.4	12.1	228
5	10000	9.37	9.87	187
5	20000	9.56	10.1	190
5	30000	9.41	9.91	187
5	40000	9.03	9.52	180
5	50000	9.54	10.1	190
5	60000	9.53	10	190
5	70000	8.71	9.18	174
5	80000	8.8	9.27	175
5	90000	9.14	9.63	182
5	100000	8.44	8.89	168
5	110000	7.83	8.25	156
5	120000	7.79	8.21	155
5	130000	7.98	8.42	159
5	140000	7.31	7.71	146
5	150000	7.24	7.63	144
5	160000	7.33	7.73	146
5	170000	7.28	7.67	145
5	180000	6.91	7.28	138
5	190000	6.12	6.45	122
5	200000	5.66	5.96	113
5	210000	5.59	5.89	111
5	220000	5.26	5.55	105
5	230000	4.81	5.1	96.4
5	240000	4.64	4.93	93.1
5	250000	4.67	4.96	93.7
5	260000	4.13	4.41	83.4
5	270000	3.78	4.06	76.8
5	280000	3.84	4.12	77.9
5	290000	4.31	4.6	86.9
5	300000	4.07	4.35	82.2
5	310000	3.25	3.54	66.9
5	320000	3.48	3.76	71.1
5	330000	3.4	3.68	69.6
5	340000	3.44	3.73	70.5
5	350000	3.53	3.82	72.2
5	360000	3.37	3.66	69.2
5	370000	3.77	4.05	76.6
5	380000	3.51	3.8	71.8
5	390000	2.75	3.04	57.5
5	400000	2.84	3.13	59.1
5	410000	3.22	3.51	66.3
5	420000	3.24	3.53	66.7
5	430000	2.81	3.1	58.6
5	440000	3.65	3.93	74.3
5	450000	3.27	3.56	67.2
6	0	5.18	2.97	56
6	-10000	6.47	4.21	79.6
6	-20000	7.25	4.99	94.4
6	-30000	6.89	4.63	87.4
6	-40000	7.12	4.86	91.8
6	-50000	7.02	4.76	90
6	-60000	6.98	4.72	89.2
6	-70000	7.32	5.06	95.6
6	-80000	7.89	5.63	106
6	-90000	8.08	5.82	110
6	-100000	8.13	5.87	111
6	-110000	8.43	6.17	117
6	-120000	9.11	6.85	130
6	-130000	9.39	7.13	135
6	-140000	9.02	6.76	128
6	-150000	9.14	6.88	130
6	-160000	9.9	7.64	144
6	-170000	9.75	7.49	142
6	-180000	9.05	6.79	128
6	-190000	9.42	7.16	135
6	-200000	9.7	7.44	141
6	-210000	9.52	7.26	137
6	-220000	9.13	6.87	130
6	-230000	9.44	7.18	136
6	-240000	9.51	7.25	137
6	-250000	9.31	7.05	133
6	-260000	9.28	7.02	133
6	-270000	8.7	6.44	122
6	-280000	9.21	6.95	131
6	-290000	9.65	7.39	140
6	-300000	9.56	7.3	138
6	-310000	9.7	7.44	141
6	-320000	10.2	7.9	149
6	-330000	11.1	8.81	167
6	-340000	11.1	8.83	167
6	-350000	11.7	9.42	178
6	-360000	12.5	10.2	193
6	-370000	12	9.74	184
6	-380000	11.3	9.05	171
6	-390000	11.3	9.03	171
6	-400000	11.7	9.43	178
6	-410000	11.5	9.21	174
6	-420000	11.4	9.12	172
6	-430000	10.6	8.35	158
6	-440000	10.8	8.54	161
6	-450000	9.86	7.6	144
