^C:\USERS\JUSTIN\GIT\DYNOFLEX\APP\EXAMPLES\DYNOFLEX\WIN32\DEBUG\INTERMEDIATE\HELLOWORLD.OBJ
C:\USERS\JUSTIN\GIT\DYNOFLEX\APP\EXAMPLES\DYNOFLEX\WIN32\DEBUG\DYNOFLEX.ILK
C:\USERS\JUSTIN\GIT\DYNOFLEX\APP\EXAMPLES\DYNOFLEX\WIN32\DEBUG\DYNOFLEX.EXE
C:\USERS\JUSTIN\GIT\DYNOFLEX\APP\EXAMPLES\DYNOFLEX\WIN32\DEBUG\DYNOFLEX.PDB
