^C:\PROGRAM FILES (X86)\TEKNIC\CLEARVIEW\SDK\EXAMPLES\1-HELLOWORLD\HELLOWORLD.CPP
C:\PROGRAM FILES (X86)\TEKNIC\CLEARVIEW\SDK\EXAMPLES\1-HELLOWORLD\WIN32\DEBUG\INTERMEDIATE\VC141.PDB
C:\PROGRAM FILES (X86)\TEKNIC\CLEARVIEW\SDK\EXAMPLES\1-HELLOWORLD\WIN32\DEBUG\INTERMEDIATE\VC141.IDB
C:\PROGRAM FILES (X86)\TEKNIC\CLEARVIEW\SDK\EXAMPLES\1-HELLOWORLD\WIN32\DEBUG\INTERMEDIATE\HELLOWORLD.OBJ
^C:\USERS\JUSTIN\GIT\DYNOFLEX\APP\EXAMPLES\1-HELLOWORLD\HELLOWORLD.CPP
C:\USERS\JUSTIN\GIT\DYNOFLEX\APP\EXAMPLES\1-HELLOWORLD\WIN32\DEBUG\INTERMEDIATE\VC141.PDB
C:\USERS\JUSTIN\GIT\DYNOFLEX\APP\EXAMPLES\1-HELLOWORLD\WIN32\DEBUG\INTERMEDIATE\VC141.IDB
C:\USERS\JUSTIN\GIT\DYNOFLEX\APP\EXAMPLES\1-HELLOWORLD\WIN32\DEBUG\INTERMEDIATE\HELLOWORLD.OBJ
