^C:\Program Files (x86)\Teknic\ClearView\sdk\examples\1-HelloWorld\HelloWorld.vcxproj
C:\Program Files (x86)\Teknic\ClearView\sdk\examples\1-HelloWorld\Win32\Debug\HelloWorld.lib
C:\Program Files (x86)\Teknic\ClearView\sdk\examples\1-HelloWorld\Win32\Debug\HelloWorld.exp
^C:\Users\justin\git\dyno\examples\1-HelloWorld\HelloWorld.vcxproj
C:\Users\justin\git\dyno\examples\1-HelloWorld\Win32\Debug\HelloWorld.lib
C:\Users\justin\git\dyno\examples\1-HelloWorld\Win32\Debug\HelloWorld.exp
^C:\Users\justin\git\dynoflex\app\examples\1-HelloWorld\HelloWorld.vcxproj
C:\Users\justin\git\dynoflex\app\examples\1-HelloWorld\Win32\Debug\HelloWorld.lib
C:\Users\justin\git\dynoflex\app\examples\1-HelloWorld\Win32\Debug\HelloWorld.exp
