rep_num	position	torque	torque_compensated	lbs_compensated
1	0	1.09	1.38	26
1	10000	0.776	1.06	20.1
1	20000	0.834	1.12	21.2
1	30000	0.712	0.998	18.9
1	40000	0.344	0.63	11.9
1	50000	0.548	0.834	15.8
1	60000	0.795	1.08	20.4
1	70000	0.651	0.937	17.7
1	80000	0.591	0.877	16.6
1	90000	0.663	0.949	17.9
1	100000	0.881	1.17	22.1
1	110000	0.906	1.19	22.5
1	120000	0.467	0.753	14.2
1	130000	0.422	0.708	13.4
1	140000	0.703	0.989	18.7
1	150000	0.449	0.735	13.9
1	160000	0.558	0.844	16
1	170000	0.965	1.25	23.7
1	180000	1.4	1.69	31.9
1	190000	1.25	1.53	29
1	200000	1.1	1.39	26.2
1	210000	1.17	1.46	27.5
1	220000	1.38	1.67	31.6
1	230000	1.28	1.56	29.5
1	240000	1.2	1.48	28
1	250000	1.12	1.41	26.7
1	260000	1.09	1.38	26.1
1	270000	1.19	1.48	27.9
1	280000	0.9	1.19	22.4
1	290000	1.33	1.62	30.6
1	300000	1.83	2.11	39.9
1	310000	1.88	2.16	40.9
1	320000	1.78	2.07	39.1
1	330000	1.94	2.23	42.1
1	340000	2.47	2.76	52.1
1	350000	2.37	2.66	50.3
1	360000	2.66	2.95	55.8
2	0	3.68	2.11	39.9
2	-10000	5.09	2.92	55.1
2	-20000	5.21	2.99	56.4
2	-30000	5.16	2.95	55.8
2	-40000	5.22	2.99	56.5
2	-50000	4.73	2.71	51.2
2	-60000	4.87	2.79	52.7
2	-70000	5.03	2.88	54.4
2	-80000	4.64	2.66	50.3
2	-90000	4.3	2.46	46.5
2	-100000	4.61	2.64	50
2	-110000	4.74	2.71	51.3
2	-120000	4.25	2.43	46
2	-130000	4.17	2.39	45.1
2	-140000	4.3	2.47	46.6
2	-150000	4.44	2.55	48.1
2	-160000	4	2.29	43.3
2	-170000	4.27	2.44	46.2
2	-180000	4.28	2.45	46.4
2	-190000	3.89	2.23	42.1
2	-200000	3.75	2.15	40.6
2	-210000	3.82	2.19	41.3
2	-220000	3.73	2.14	40.4
2	-230000	3.7	2.12	40
2	-240000	3.28	1.88	35.6
2	-250000	3.11	1.78	33.6
2	-260000	3.3	1.89	35.8
2	-270000	2.94	1.69	31.9
2	-280000	2.78	1.59	30.1
2	-290000	3.16	1.81	34.2
2	-300000	3.38	1.94	36.6
2	-310000	3.4	1.95	36.8
2	-320000	3.13	1.79	33.9
2	-330000	3.77	2.16	40.8
2	-340000	3.84	2.2	41.6
2	-350000	3.69	2.11	39.9
2	-360000	3.65	2.09	39.5
2	0	2.36	2.65	50
2	10000	1.21	1.5	28.3
2	20000	1.32	1.6	30.3
2	30000	1.08	1.36	25.8
2	40000	0.671	0.957	18.1
2	50000	0.821	1.11	20.9
2	60000	1.07	1.36	25.7
2	70000	0.771	1.06	20
2	80000	0.725	1.01	19.1
2	90000	0.635	0.921	17.4
2	100000	0.835	1.12	21.2
2	110000	0.841	1.13	21.3
2	120000	0.681	0.967	18.3
2	130000	0.914	1.2	22.7
2	140000	1.28	1.57	29.7
2	150000	1.06	1.35	25.5
2	160000	0.951	1.24	23.4
2	170000	1.29	1.57	29.8
2	180000	1.82	2.1	39.7
2	190000	1.91	2.2	41.6
2	200000	1.62	1.91	36
2	210000	1.67	1.95	36.9
2	220000	1.88	2.17	40.9
2	230000	1.55	1.84	34.8
2	240000	1.66	1.94	36.7
2	250000	1.67	1.96	37
2	260000	1.72	2	37.9
2	270000	1.8	2.08	39.4
2	280000	1.46	1.75	33
2	290000	1.72	2	37.9
2	300000	2.13	2.42	45.7
2	310000	2.13	2.41	45.6
2	320000	2.11	2.4	45.4
2	330000	2.48	2.76	52.2
2	340000	3.21	3.49	66
2	350000	2.7	2.99	56.4
2	360000	2.47	2.75	52
3	0	3.46	1.98	37.4
3	-10000	4.72	2.71	51.1
3	-20000	4.67	2.68	50.6
3	-30000	4.64	2.66	50.3
3	-40000	4.56	2.61	49.4
3	-50000	4.09	2.34	44.3
3	-60000	4.25	2.44	46
3	-70000	4.49	2.57	48.6
3	-80000	4	2.29	43.3
3	-90000	3.71	2.12	40.1
3	-100000	3.82	2.19	41.4
3	-110000	3.7	2.12	40
3	-120000	3.42	1.96	37
3	-130000	3.24	1.86	35.1
3	-140000	3.41	1.96	37
3	-150000	3.38	1.94	36.6
3	-160000	3.05	1.75	33
3	-170000	2.96	1.7	32.1
3	-180000	3.08	1.77	33.4
3	-190000	2.93	1.68	31.7
3	-200000	2.78	1.59	30
3	-210000	2.58	1.48	27.9
3	-220000	2.57	1.47	27.9
3	-230000	2.72	1.56	29.5
3	-240000	2.24	1.28	24.2
3	-250000	2.2	1.26	23.8
3	-260000	2.57	1.47	27.8
3	-270000	2.33	1.33	25.2
3	-280000	2.02	1.16	21.9
3	-290000	1.96	1.12	21.2
3	-300000	2.19	1.25	23.7
3	-310000	2.15	1.23	23.3
3	-320000	1.9	1.09	20.6
3	-330000	2.03	1.16	21.9
3	-340000	1.71	0.98	18.5
3	-350000	1.57	0.897	17
3	-360000	2.45	1.4	26.5
3	0	1.51	1.8	33.9
3	10000	0.961	1.25	23.6
3	20000	0.923	1.21	22.9
3	30000	1.36	1.65	31.1
3	40000	1.05	1.34	25.3
3	50000	1.72	2.01	38
3	60000	1.87	2.16	40.8
3	70000	1.36	1.64	31.1
3	80000	1.38	1.67	31.6
3	90000	1.16	1.45	27.4
3	100000	1.51	1.79	33.9
3	110000	1.35	1.63	30.9
3	120000	1.04	1.33	25.2
3	130000	1.19	1.48	28
3	140000	1.29	1.58	29.8
3	150000	1.04	1.32	25
3	160000	0.98	1.27	23.9
3	170000	0.869	1.16	21.8
3	180000	1.28	1.56	29.6
3	190000	1.59	1.88	35.5
3	200000	1.15	1.44	27.2
3	210000	1.66	1.94	36.7
3	220000	1.66	1.95	36.8
3	230000	1.66	1.94	36.7
3	240000	1.64	1.93	36.4
3	250000	1.35	1.64	31
3	260000	1.33	1.62	30.5
3	270000	1.69	1.98	37.4
3	280000	1.24	1.52	28.8
3	290000	1.22	1.51	28.5
3	300000	1.8	2.09	39.5
3	310000	1.6	1.88	35.6
3	320000	1.09	1.37	26
3	330000	0.774	1.06	20
3	340000	1.16	1.45	27.4
3	350000	0.964	1.25	23.6
3	360000	1.77	2.05	38.8
4	0	2.99	1.71	32.4
4	-10000	5.1	2.92	55.3
4	-20000	5.07	2.9	54.9
4	-30000	4.9	2.81	53.1
4	-40000	5.16	2.96	55.9
4	-50000	4.62	2.65	50
4	-60000	4.57	2.62	49.4
4	-70000	4.92	2.82	53.2
4	-80000	4.54	2.6	49.2
4	-90000	4.29	2.46	46.4
4	-100000	4.23	2.42	45.8
4	-110000	4.26	2.44	46.2
4	-120000	3.95	2.26	42.8
4	-130000	3.85	2.21	41.7
4	-140000	3.92	2.24	42.4
4	-150000	3.98	2.28	43.1
4	-160000	3.6	2.06	39
4	-170000	3.55	2.03	38.5
4	-180000	3.59	2.06	38.9
4	-190000	3.47	1.99	37.6
4	-200000	3.23	1.85	35
4	-210000	3.31	1.89	35.8
4	-220000	3.21	1.84	34.7
4	-230000	3.38	1.94	36.6
4	-240000	2.68	1.54	29.1
4	-250000	2.69	1.54	29.1
4	-260000	2.99	1.71	32.4
4	-270000	2.65	1.52	28.7
4	-280000	2.45	1.4	26.5
4	-290000	2.42	1.38	26.2
4	-300000	3.39	1.94	36.7
4	-310000	3.28	1.88	35.5
4	-320000	3.42	1.96	37
4	-330000	3.61	2.07	39.1
4	-340000	3.45	1.98	37.4
4	-350000	3.11	1.78	33.6
4	-360000	3.08	1.76	33.3
4	0	1.92	2.21	41.8
4	10000	0.659	0.945	17.9
4	20000	0.986	1.27	24
4	30000	1.15	1.43	27.1
4	40000	0.606	0.892	16.9
4	50000	0.887	1.17	22.2
4	60000	1.17	1.46	27.5
4	70000	0.851	1.14	21.5
4	80000	0.603	0.889	16.8
4	90000	0.677	0.963	18.2
4	100000	0.935	1.22	23.1
4	110000	0.897	1.18	22.4
4	120000	0.429	0.715	13.5
4	130000	0.646	0.932	17.6
4	140000	0.952	1.24	23.4
4	150000	0.668	0.954	18
4	160000	0.377	0.663	12.5
4	170000	0.467	0.753	14.2
4	180000	0.586	0.872	16.5
4	190000	0.914	1.2	22.7
4	200000	0.422	0.708	13.4
4	210000	0.653	0.939	17.7
4	220000	0.703	0.989	18.7
4	230000	0.632	0.918	17.4
4	240000	0.767	1.05	19.9
4	250000	0.687	0.973	18.4
4	260000	0.804	1.09	20.6
4	270000	1.12	1.41	26.6
4	280000	1.13	1.42	26.8
4	290000	1.58	1.87	35.3
4	300000	2.14	2.42	45.8
4	310000	2.41	2.69	50.9
4	320000	1.98	2.27	42.8
4	330000	2.2	2.48	46.9
4	340000	2.53	2.81	53.1
4	350000	2.16	2.45	46.3
4	360000	1.95	2.23	42.2
5	0	3.02	1.73	32.7
5	-10000	3.83	2.19	41.5
5	-20000	3.59	2.05	38.8
5	-30000	3.41	1.95	36.9
5	-40000	3.3	1.89	35.7
5	-50000	3.19	1.82	34.5
5	-60000	3.09	1.77	33.4
5	-70000	3.53	2.02	38.2
5	-80000	2.93	1.68	31.8
5	-90000	2.75	1.58	29.8
5	-100000	3.02	1.73	32.7
5	-110000	2.92	1.68	31.7
5	-120000	2.67	1.53	28.9
5	-130000	2.41	1.38	26.1
5	-140000	2.83	1.62	30.6
5	-150000	2.88	1.65	31.2
5	-160000	2.42	1.39	26.2
5	-170000	2.51	1.44	27.2
5	-180000	2.62	1.5	28.4
5	-190000	2.42	1.39	26.2
5	-200000	2.37	1.36	25.6
5	-210000	2.14	1.23	23.2
5	-220000	2.17	1.24	23.5
5	-230000	2.3	1.32	24.9
5	-240000	1.88	1.08	20.4
5	-250000	1.67	0.956	18.1
5	-260000	1.91	1.09	20.6
5	-270000	1.67	0.958	18.1
5	-280000	1.43	0.817	15.4
5	-290000	1.38	0.788	14.9
5	-300000	1.6	0.914	17.3
5	-310000	1.46	0.835	15.8
5	-320000	1.22	0.7	13.2
5	-330000	1.28	0.735	13.9
5	-340000	1.12	0.64	12.1
5	-350000	0.929	0.532	10.1
5	-360000	1.29	0.741	14
5	0	0.683	0.969	18.3
5	10000	0.605	0.891	16.8
5	20000	0.6	0.886	16.7
5	30000	0.614	0.9	17
5	40000	0.283	0.569	10.8
5	50000	0.504	0.79	14.9
5	60000	0.63	0.916	17.3
5	70000	0.436	0.722	13.6
5	80000	0.511	0.797	15.1
5	90000	0.227	0.513	9.7
5	100000	0.396	0.682	12.9
5	110000	0.443	0.729	13.8
5	120000	0.112	0.398	7.52
5	130000	0.29	0.576	10.9
5	140000	0.403	0.689	13
5	150000	0.262	0.548	10.4
5	160000	0.216	0.502	9.49
5	170000	0.336	0.622	11.8
5	180000	0.499	0.785	14.8
5	190000	0.652	0.938	17.7
5	200000	0.148	0.434	8.2
5	210000	0.331	0.617	11.7
5	220000	0.377	0.663	12.5
5	230000	0.24	0.526	9.94
5	240000	0.381	0.667	12.6
5	250000	0.369	0.655	12.4
5	260000	0.511	0.797	15.1
5	270000	0.892	1.18	22.3
5	280000	0.409	0.695	13.1
5	290000	0.55	0.836	15.8
5	300000	0.955	1.24	23.5
5	310000	0.758	1.04	19.7
5	320000	0.822	1.11	21
5	330000	1.05	1.34	25.3
5	340000	1.38	1.67	31.6
5	350000	1.87	2.15	40.7
5	360000	2.14	2.43	45.8
6	0	3.08	1.76	33.3
6	-10000	3.32	1.9	35.9
6	-20000	3.37	1.93	36.5
6	-30000	3.18	1.82	34.5
6	-40000	3.34	1.91	36.1
6	-50000	3.08	1.76	33.3
6	-60000	2.99	1.71	32.4
6	-70000	3.29	1.88	35.6
6	-80000	2.76	1.58	29.9
6	-90000	2.82	1.62	30.6
6	-100000	3.17	1.82	34.3
6	-110000	3.06	1.75	33.1
6	-120000	2.82	1.61	30.5
6	-130000	2.66	1.53	28.8
6	-140000	2.76	1.58	29.9
6	-150000	2.79	1.6	30.2
6	-160000	2.4	1.38	26
6	-170000	2.39	1.37	25.9
6	-180000	2.54	1.46	27.5
6	-190000	2.49	1.43	27
6	-200000	2.44	1.4	26.4
6	-210000	2.23	1.28	24.1
6	-220000	2.3	1.32	24.9
6	-230000	2.54	1.46	27.5
6	-240000	2.12	1.21	22.9
6	-250000	1.99	1.14	21.5
6	-260000	2.39	1.37	25.9
6	-270000	2.05	1.17	22.2
6	-280000	2.05	1.17	22.2
6	-290000	1.9	1.09	20.5
6	-300000	2.2	1.26	23.8
6	-310000	2.03	1.16	22
6	-320000	1.73	0.993	18.8
6	-330000	1.7	0.974	18.4
6	-340000	1.51	0.863	16.3
6	-350000	1.05	0.601	11.4
6	-360000	0.971	0.556	10.5
