rep_num	position	torque	torque_compensated	lbs_compensated
1	0	2.55	2.84	53.7
1	10000	2.23	2.51	47.5
1	20000	1.95	2.24	42.3
1	30000	2.09	2.37	44.9
1	40000	1.13	1.42	26.8
1	50000	0.768	1.05	19.9
1	60000	1.49	1.78	33.6
1	70000	1.13	1.42	26.8
1	80000	0.924	1.21	22.9
1	90000	0.861	1.15	21.7
1	100000	1.38	1.66	31.4
1	110000	1.77	2.06	38.9
1	120000	1.09	1.37	26
1	130000	1.04	1.33	25.1
1	140000	2	2.28	43.2
1	150000	1.9	2.18	41.3
1	160000	1.52	1.8	34
1	170000	1.52	1.8	34.1
1	180000	2.06	2.34	44.3
1	190000	2.39	2.67	50.5
1	200000	1.72	2.01	38
1	210000	1.61	1.89	35.8
1	220000	2.23	2.52	47.6
1	230000	2.47	2.76	52.2
1	240000	2.37	2.65	50.2
1	250000	1.94	2.22	42
1	260000	2.42	2.71	51.1
1	270000	2.99	3.28	61.9
1	280000	2.07	2.36	44.5
1	290000	1.94	2.22	42
1	300000	3.28	3.57	67.5
1	310000	3.17	3.46	65.4
1	320000	2.85	3.14	59.3
1	330000	2.63	2.92	55.2
1	340000	3.15	3.44	65
1	350000	3.4	3.68	69.6
1	360000	3.13	3.41	64.5
2	0	4.21	2.41	45.6
2	-10000	7.21	4.95	93.6
2	-20000	7.8	5.54	105
2	-30000	7.73	5.47	103
2	-40000	7.14	4.88	92.2
2	-50000	7.61	5.35	101
2	-60000	7.63	5.37	101
2	-70000	7.59	5.33	101
2	-80000	6.79	4.53	85.7
2	-90000	6.64	4.38	82.8
2	-100000	6.86	4.6	86.9
2	-110000	6.56	4.3	81.3
2	-120000	5.64	3.38	63.9
2	-130000	5.72	3.46	65.4
2	-140000	6.18	3.92	74.1
2	-150000	5.68	3.42	64.6
2	-160000	4.91	2.81	53.2
2	-170000	5.1	2.92	55.3
2	-180000	5.49	3.23	61
2	-190000	5.43	3.17	59.9
2	-200000	4.77	2.73	51.7
2	-210000	4.81	2.75	52.1
2	-220000	5.03	2.88	54.5
2	-230000	4.76	2.73	51.5
2	-240000	3.57	2.05	38.7
2	-250000	3.6	2.06	38.9
2	-260000	4.14	2.37	44.9
2	-270000	3.55	2.03	38.4
2	-280000	2.75	1.57	29.7
2	-290000	2.99	1.71	32.4
2	-300000	3.71	2.12	40.2
2	-310000	3.04	1.74	32.9
2	-320000	2.74	1.57	29.7
2	-330000	3.15	1.81	34.1
2	-340000	3.07	1.76	33.2
2	-350000	1.93	1.1	20.9
2	-360000	3.14	1.8	34
2	0	2.69	2.98	56.3
2	10000	1.73	2.02	38.1
2	20000	1.57	1.86	35.1
2	30000	1.7	1.98	37.5
2	40000	1.03	1.32	24.9
2	50000	1	1.29	24.3
2	60000	1.68	1.97	37.2
2	70000	1.67	1.95	36.9
2	80000	1.23	1.52	28.7
2	90000	0.711	0.997	18.8
2	100000	1.28	1.57	29.6
2	110000	1.62	1.91	36
2	120000	0.881	1.17	22.1
2	130000	0.954	1.24	23.4
2	140000	1.81	2.09	39.6
2	150000	1.87	2.16	40.8
2	160000	1.63	1.91	36.1
2	170000	1.4	1.69	31.9
2	180000	2.05	2.33	44.1
2	190000	2.23	2.51	47.5
2	200000	1.2	1.49	28.1
2	210000	1.21	1.5	28.3
2	220000	1.9	2.18	41.3
2	230000	1.93	2.22	41.9
2	240000	1.54	1.83	34.5
2	250000	1.2	1.48	28
2	260000	1.8	2.08	39.4
2	270000	2.38	2.67	50.5
2	280000	1.55	1.84	34.8
2	290000	1.33	1.61	30.5
2	300000	2.18	2.46	46.6
2	310000	2.1	2.39	45.1
2	320000	1.87	2.15	40.7
2	330000	1.38	1.67	31.5
2	340000	2.3	2.59	49
2	350000	1.8	2.09	39.5
2	360000	2.46	2.74	51.8
3	0	3.4	1.95	36.9
3	-10000	5.95	3.69	69.7
3	-20000	6.65	4.39	83
3	-30000	6.56	4.3	81.3
3	-40000	6.52	4.26	80.6
3	-50000	6.64	4.38	82.8
3	-60000	7.02	4.76	90
3	-70000	6.58	4.32	81.7
3	-80000	5.85	3.59	67.8
3	-90000	5.68	3.42	64.6
3	-100000	5.76	3.5	66.1
3	-110000	5.87	3.61	68.2
3	-120000	4.81	2.76	52.1
3	-130000	4.71	2.7	51
3	-140000	5.14	2.95	55.7
3	-150000	4.72	2.7	51.1
3	-160000	3.84	2.2	41.5
3	-170000	4.05	2.32	43.9
3	-180000	4.18	2.39	45.3
3	-190000	3.52	2.02	38.2
3	-200000	2.62	1.5	28.4
3	-210000	2.92	1.67	31.6
3	-220000	3.34	1.91	36.1
3	-230000	3.16	1.81	34.3
3	-240000	1.89	1.08	20.5
3	-250000	2.13	1.22	23
3	-260000	2.57	1.47	27.8
3	-270000	2.1	1.2	22.7
3	-280000	1.32	0.756	14.3
3	-290000	1.6	0.918	17.4
3	-300000	2.19	1.26	23.8
3	-310000	1.8	1.03	19.5
3	-320000	1.09	0.625	11.8
3	-330000	1.6	0.914	17.3
3	-340000	1.47	0.842	15.9
3	-350000	0.657	0.376	7.11
3	-360000	1.73	0.993	18.8
3	0	1.84	2.12	40.1
3	10000	1.66	1.94	36.7
3	20000	1.59	1.88	35.5
3	30000	1.66	1.94	36.7
3	40000	0.732	1.02	19.2
3	50000	1.09	1.37	26
3	60000	1.6	1.89	35.7
3	70000	1.33	1.61	30.4
3	80000	0.934	1.22	23.1
3	90000	0.466	0.752	14.2
3	100000	1.24	1.52	28.8
3	110000	1.51	1.8	34
3	120000	0.577	0.863	16.3
3	130000	0.598	0.884	16.7
3	140000	1.45	1.73	32.7
3	150000	1.33	1.62	30.6
3	160000	0.802	1.09	20.6
3	170000	0.692	0.978	18.5
3	180000	1.28	1.57	29.6
3	190000	1.48	1.77	33.4
3	200000	0.669	0.955	18
3	210000	0.645	0.931	17.6
3	220000	1.19	1.48	28
3	230000	1.42	1.7	32.2
3	240000	1.31	1.6	30.2
3	250000	1.01	1.29	24.4
3	260000	1.78	2.07	39.1
3	270000	2.46	2.75	51.9
3	280000	1.81	2.1	39.6
3	290000	1.76	2.05	38.7
3	300000	3.01	3.3	62.3
3	310000	3.43	3.72	70.3
3	320000	3.3	3.59	67.8
3	330000	3.4	3.69	69.7
3	340000	3.06	3.34	63.2
3	350000	2.84	3.13	59.2
3	360000	2.35	2.63	49.8
4	0	3.13	1.79	33.9
4	-10000	5.56	3.3	62.3
4	-20000	6.42	4.16	78.6
4	-30000	6.25	3.99	75.4
4	-40000	6.35	4.09	77.3
4	-50000	6.22	3.96	74.8
4	-60000	6.02	3.76	71
4	-70000	6.16	3.9	73.6
4	-80000	5.37	3.11	58.8
4	-90000	5.22	2.99	56.5
4	-100000	5.33	3.07	58
4	-110000	4.96	2.84	53.7
4	-120000	4.4	2.52	47.6
4	-130000	4.19	2.4	45.4
4	-140000	4.54	2.6	49.2
4	-150000	4.33	2.48	46.9
4	-160000	3.25	1.86	35.2
4	-170000	3.68	2.11	39.9
4	-180000	4.09	2.34	44.3
4	-190000	3.61	2.07	39.1
4	-200000	2.99	1.71	32.4
4	-210000	2.85	1.63	30.9
4	-220000	3.26	1.86	35.2
4	-230000	2.9	1.66	31.4
4	-240000	1.94	1.11	21
4	-250000	2.11	1.21	22.9
4	-260000	2.63	1.51	28.4
4	-270000	2.17	1.24	23.5
4	-280000	1.27	0.728	13.8
4	-290000	1.68	0.962	18.2
4	-300000	2.13	1.22	23
4	-310000	1.87	1.07	20.2
4	-320000	1.33	0.761	14.4
4	-330000	1.77	1.01	19.1
4	-340000	1.7	0.976	18.4
4	-350000	0.997	0.571	10.8
4	-360000	1.46	0.835	15.8
4	0	1.42	1.71	32.3
4	10000	1.41	1.69	32
4	20000	1.43	1.72	32.4
4	30000	1.7	1.99	37.6
4	40000	0.911	1.2	22.6
4	50000	0.872	1.16	21.9
4	60000	1.52	1.8	34
4	70000	1.42	1.71	32.3
4	80000	1.23	1.51	28.6
4	90000	0.991	1.28	24.1
4	100000	1.54	1.83	34.5
4	110000	1.66	1.95	36.8
4	120000	1.07	1.35	25.6
4	130000	0.831	1.12	21.1
4	140000	1.68	1.96	37.1
4	150000	1.54	1.83	34.5
4	160000	1.15	1.44	27.1
4	170000	1.14	1.43	26.9
4	180000	1.78	2.06	39
4	190000	2.11	2.39	45.2
4	200000	1.63	1.92	36.3
4	210000	1.7	1.99	37.6
4	220000	2.16	2.44	46.2
4	230000	2.3	2.59	49
4	240000	2.1	2.38	45
4	250000	2.01	2.3	43.5
4	260000	2.88	3.17	59.9
4	270000	3.47	3.76	71.1
4	280000	2.71	3	56.6
4	290000	2.39	2.68	50.6
4	300000	3.01	3.29	62.2
4	310000	2.91	3.19	60.4
4	320000	2.61	2.9	54.8
4	330000	1.63	1.92	36.2
4	340000	1.78	2.07	39.1
4	350000	0.966	1.25	23.7
4	360000	1.05	1.33	25.2
5	0	1.85	1.06	20.1
5	-10000	3.89	2.23	42.2
5	-20000	4.68	2.68	50.6
5	-30000	4.77	2.73	51.6
5	-40000	4.6	2.63	49.8
5	-50000	4.96	2.84	53.7
5	-60000	5.19	2.97	56.2
5	-70000	4.91	2.81	53.1
5	-80000	4.32	2.47	46.7
5	-90000	4.16	2.38	45
5	-100000	4.64	2.66	50.3
5	-110000	4.49	2.57	48.6
5	-120000	3.7	2.12	40.1
5	-130000	3.6	2.06	39
5	-140000	4.19	2.4	45.4
5	-150000	3.93	2.25	42.5
5	-160000	3.03	1.74	32.8
5	-170000	3.14	1.8	34
5	-180000	3.56	2.04	38.5
5	-190000	3.32	1.9	35.9
5	-200000	2.48	1.42	26.8
5	-210000	2.43	1.39	26.3
5	-220000	2.67	1.53	28.9
5	-230000	2.4	1.38	26
5	-240000	1.34	0.768	14.5
5	-250000	1.66	0.949	17.9
5	-260000	2.12	1.21	22.9
5	-270000	1.72	0.983	18.6
5	-280000	1.09	0.624	11.8
5	-290000	1.34	0.77	14.6
5	-300000	1.86	1.06	20.1
5	-310000	1.59	0.911	17.2
5	-320000	0.889	0.509	9.63
5	-330000	1.33	0.764	14.4
5	-340000	1.48	0.85	16.1
5	-350000	0.576	0.33	6.23
5	-360000	0.918	0.526	9.93
5	0	0.833	1.12	21.1
5	10000	1.17	1.46	27.5
5	20000	1	1.29	24.4
5	30000	1.35	1.63	30.9
5	40000	0.683	0.969	18.3
5	50000	0.718	1	19
5	60000	1.4	1.69	31.9
5	70000	1.37	1.66	31.3
5	80000	1	1.29	24.3
5	90000	0.47	0.756	14.3
5	100000	1.09	1.37	25.9
5	110000	1.28	1.57	29.7
5	120000	0.96	1.25	23.6
5	130000	0.473	0.759	14.3
5	140000	1.37	1.66	31.3
5	150000	1.15	1.43	27.1
5	160000	0.579	0.865	16.4
5	170000	0.457	0.743	14
5	180000	0.982	1.27	24
5	190000	1.25	1.53	28.9
5	200000	0.522	0.808	15.3
5	210000	0.43	0.716	13.5
5	220000	0.911	1.2	22.6
5	230000	0.882	1.17	22.1
5	240000	0.95	1.24	23.4
5	250000	0.806	1.09	20.6
5	260000	1.13	1.42	26.8
5	270000	1.69	1.98	37.4
5	280000	0.927	1.21	22.9
5	290000	1.02	1.31	24.8
5	300000	1.81	2.09	39.5
5	310000	1.9	2.19	41.4
5	320000	0.868	1.15	21.8
5	330000	0.755	1.04	19.7
5	340000	1.44	1.73	32.7
5	350000	1.45	1.74	32.8
5	360000	1.7	1.98	37.5
6	0	2.56	1.47	27.7
6	-10000	4.83	2.77	52.3
6	-20000	5.38	3.12	58.9
6	-30000	5.26	3.01	57
6	-40000	5.17	2.96	56
6	-50000	4.82	2.76	52.2
6	-60000	4.98	2.85	53.9
6	-70000	4.66	2.67	50.4
6	-80000	3.88	2.22	42
6	-90000	3.83	2.19	41.4
6	-100000	4.21	2.41	45.6
6	-110000	4.03	2.31	43.6
6	-120000	3.08	1.76	33.3
6	-130000	3.28	1.88	35.6
6	-140000	3.85	2.2	41.6
6	-150000	3.62	2.07	39.2
6	-160000	2.77	1.59	30
6	-170000	3.05	1.75	33
6	-180000	3.55	2.03	38.5
6	-190000	3.1	1.77	33.5
6	-200000	2.7	1.54	29.2
6	-210000	2.65	1.52	28.7
6	-220000	3.03	1.73	32.8
6	-230000	2.86	1.64	31
6	-240000	2.08	1.19	22.5
6	-250000	2.28	1.3	24.7
6	-260000	2.73	1.56	29.5
6	-270000	2.15	1.23	23.3
6	-280000	1.56	0.895	16.9
6	-290000	1.58	0.903	17.1
6	-300000	2.06	1.18	22.3
6	-310000	1.73	0.993	18.8
6	-320000	1.01	0.577	10.9
6	-330000	1.38	0.793	15
6	-340000	1.27	0.729	13.8
6	-350000	0.498	0.285	5.39
6	-360000	0.704	0.403	7.62
