rep_num	position	torque	torque_compensated	lbs_compensated
1	0	2.05	2.33	44.1
1	10000	1.46	1.74	33
1	20000	1.13	1.42	26.8
1	30000	1.17	1.45	27.5
1	40000	1.05	1.34	25.2
1	50000	0.825	1.11	21
1	60000	1.07	1.36	25.7
1	70000	0.637	0.923	17.5
1	80000	0.835	1.12	21.2
1	90000	0.78	1.07	20.2
1	100000	0.732	1.02	19.2
1	110000	0.832	1.12	21.1
1	120000	0.625	0.911	17.2
1	130000	0.612	0.898	17
1	140000	0.929	1.21	23
1	150000	0.855	1.14	21.6
1	160000	0.825	1.11	21
1	170000	0.81	1.1	20.7
1	180000	0.667	0.953	18
1	190000	0.831	1.12	21.1
1	200000	0.755	1.04	19.7
1	210000	0.699	0.985	18.6
1	220000	1.07	1.36	25.7
1	230000	1.01	1.29	24.5
1	240000	1.09	1.37	25.9
1	250000	1.33	1.62	30.6
1	260000	1.32	1.6	30.3
1	270000	1.49	1.78	33.6
1	280000	1.12	1.4	26.5
1	290000	1.08	1.37	25.9
1	300000	1.31	1.6	30.2
1	310000	1.73	2.02	38.2
1	320000	1.65	1.93	36.6
1	330000	1.82	2.11	39.8
1	340000	1.98	2.26	42.8
1	350000	2.28	2.57	48.6
1	360000	2.6	2.89	54.6
2	0	3.56	2.04	38.5
2	-10000	4.82	2.76	52.2
2	-20000	4.73	2.71	51.2
2	-30000	4.5	2.58	48.7
2	-40000	4.61	2.64	49.9
2	-50000	4.71	2.7	51
2	-60000	5.01	2.87	54.2
2	-70000	4.86	2.78	52.6
2	-80000	4.7	2.69	50.9
2	-90000	4.93	2.83	53.4
2	-100000	4.92	2.82	53.2
2	-110000	5.14	2.94	55.6
2	-120000	4.68	2.68	50.6
2	-130000	4.42	2.53	47.8
2	-140000	4.57	2.62	49.5
2	-150000	4.23	2.42	45.8
2	-160000	3.78	2.17	40.9
2	-170000	3.89	2.23	42.1
2	-180000	3.77	2.16	40.8
2	-190000	3.71	2.13	40.2
2	-200000	3.55	2.04	38.5
2	-210000	3.48	1.99	37.7
2	-220000	3.48	1.99	37.7
2	-230000	3.45	1.97	37.3
2	-240000	3.17	1.81	34.3
2	-250000	3.34	1.92	36.2
2	-260000	3.38	1.94	36.6
2	-270000	3.28	1.88	35.6
2	-280000	2.94	1.68	31.8
2	-290000	2.96	1.7	32.1
2	-300000	3.17	1.82	34.3
2	-310000	3	1.72	32.5
2	-320000	2.79	1.6	30.3
2	-330000	2.98	1.71	32.3
2	-340000	2.55	1.46	27.6
2	-350000	2.96	1.69	32
2	-360000	3.19	1.83	34.6
2	0	2.02	2.31	43.6
2	10000	1.33	1.62	30.6
2	20000	1.42	1.71	32.2
2	30000	1.41	1.7	32.1
2	40000	1.27	1.56	29.4
2	50000	0.981	1.27	23.9
2	60000	1.25	1.54	29
2	70000	0.954	1.24	23.4
2	80000	1.03	1.32	24.9
2	90000	0.766	1.05	19.9
2	100000	0.762	1.05	19.8
2	110000	0.781	1.07	20.2
2	120000	0.58	0.866	16.4
2	130000	0.323	0.609	11.5
2	140000	0.827	1.11	21
2	150000	0.684	0.97	18.3
2	160000	0.745	1.03	19.5
2	170000	0.918	1.2	22.8
2	180000	1.08	1.36	25.8
2	190000	1.22	1.5	28.4
2	200000	1.01	1.3	24.5
2	210000	0.993	1.28	24.2
2	220000	1.11	1.39	26.3
2	230000	1.1	1.39	26.2
2	240000	1.1	1.38	26.2
2	250000	0.862	1.15	21.7
2	260000	0.875	1.16	22
2	270000	1.22	1.5	28.4
2	280000	0.847	1.13	21.4
2	290000	0.986	1.27	24
2	300000	1.18	1.47	27.7
2	310000	1.05	1.33	25.2
2	320000	0.929	1.22	23
2	330000	0.957	1.24	23.5
2	340000	0.735	1.02	19.3
2	350000	0.951	1.24	23.4
2	360000	1.13	1.42	26.8
3	0	2.24	1.28	24.3
3	-10000	3.61	2.07	39.1
3	-20000	4.41	2.53	47.7
3	-30000	4.59	2.63	49.7
3	-40000	4.86	2.79	52.7
3	-50000	5.12	2.93	55.5
3	-60000	5	2.87	54.2
3	-70000	4.88	2.8	52.8
3	-80000	4.81	2.76	52.1
3	-90000	4.8	2.75	51.9
3	-100000	4.65	2.67	50.4
3	-110000	4.6	2.63	49.8
3	-120000	4.39	2.51	47.5
3	-130000	4.26	2.44	46.1
3	-140000	4.28	2.45	46.3
3	-150000	4.03	2.31	43.7
3	-160000	3.82	2.19	41.4
3	-170000	3.82	2.19	41.4
3	-180000	3.74	2.14	40.5
3	-190000	3.71	2.12	40.1
3	-200000	3.55	2.04	38.5
3	-210000	3.33	1.91	36.1
3	-220000	3.41	1.95	36.9
3	-230000	3.15	1.81	34.1
3	-240000	2.94	1.68	31.8
3	-250000	3	1.72	32.5
3	-260000	3.03	1.74	32.9
3	-270000	3.1	1.77	33.5
3	-280000	2.77	1.59	30
3	-290000	2.68	1.53	29
3	-300000	3.08	1.76	33.3
3	-310000	2.8	1.6	30.3
3	-320000	2.62	1.5	28.3
3	-330000	2.81	1.61	30.4
3	-340000	2.57	1.47	27.8
3	-350000	2.28	1.31	24.7
3	-360000	2.16	1.24	23.4
3	0	1.23	1.52	28.7
3	10000	0.716	1	18.9
3	20000	0.872	1.16	21.9
3	30000	0.734	1.02	19.3
3	40000	0.545	0.831	15.7
3	50000	0.573	0.859	16.2
3	60000	0.713	0.999	18.9
3	70000	0.538	0.824	15.6
3	80000	0.698	0.984	18.6
3	90000	0.504	0.79	14.9
3	100000	0.478	0.764	14.4
3	110000	0.611	0.897	17
3	120000	0.449	0.735	13.9
3	130000	0.241	0.527	9.95
3	140000	0.621	0.907	17.1
3	150000	0.606	0.892	16.9
3	160000	0.634	0.92	17.4
3	170000	0.615	0.901	17
3	180000	0.716	1	18.9
3	190000	0.889	1.17	22.2
3	200000	0.695	0.981	18.5
3	210000	0.714	1	18.9
3	220000	0.546	0.832	15.7
3	230000	0.613	0.899	17
3	240000	0.524	0.81	15.3
3	250000	0.509	0.795	15
3	260000	0.561	0.847	16
3	270000	0.927	1.21	22.9
3	280000	0.769	1.06	19.9
3	290000	0.562	0.848	16
3	300000	0.874	1.16	21.9
3	310000	0.864	1.15	21.7
3	320000	0.73	1.02	19.2
3	330000	0.694	0.98	18.5
3	340000	0.78	1.07	20.1
3	350000	1.43	1.72	32.4
3	360000	1.81	2.1	39.6
4	0	2.8	1.6	30.3
4	-10000	3.82	2.19	41.4
4	-20000	4.13	2.37	44.8
4	-30000	3.69	2.11	39.9
4	-40000	3.79	2.17	41
4	-50000	3.84	2.2	41.6
4	-60000	3.82	2.19	41.4
4	-70000	3.46	1.98	37.5
4	-80000	3.33	1.9	36
4	-90000	3.29	1.88	35.6
4	-100000	3.13	1.79	33.9
4	-110000	3.25	1.86	35.1
4	-120000	3.02	1.73	32.7
4	-130000	2.84	1.62	30.7
4	-140000	3.1	1.78	33.6
4	-150000	2.9	1.66	31.4
4	-160000	2.8	1.6	30.3
4	-170000	3.02	1.73	32.7
4	-180000	2.8	1.61	30.3
4	-190000	2.88	1.65	31.1
4	-200000	2.94	1.69	31.8
4	-210000	2.62	1.5	28.4
4	-220000	2.72	1.56	29.5
4	-230000	2.62	1.5	28.3
4	-240000	2.35	1.35	25.5
4	-250000	2.48	1.42	26.9
4	-260000	2.44	1.4	26.4
4	-270000	2.3	1.32	24.9
4	-280000	2.14	1.22	23.2
4	-290000	2.2	1.26	23.8
4	-300000	2.59	1.48	28
4	-310000	2.27	1.3	24.6
4	-320000	1.98	1.13	21.5
4	-330000	2.43	1.39	26.3
4	-340000	2.03	1.16	21.9
4	-350000	1.79	1.02	19.3
4	-360000	1.93	1.1	20.9
4	0	0.788	1.07	20.3
4	10000	0.455	0.741	14
4	20000	0.488	0.774	14.6
4	30000	0.567	0.853	16.1
4	40000	0.303	0.589	11.1
4	50000	0.268	0.554	10.5
4	60000	0.417	0.703	13.3
4	70000	0.32	0.606	11.5
4	80000	0.337	0.623	11.8
4	90000	0.273	0.559	10.6
4	100000	0.25	0.536	10.1
4	110000	0.41	0.696	13.2
4	120000	0.179	0.465	8.78
4	130000	0.182	0.468	8.85
4	140000	0.343	0.629	11.9
4	150000	0.387	0.673	12.7
4	160000	0.207	0.493	9.32
4	170000	0.307	0.593	11.2
4	180000	0.285	0.571	10.8
4	190000	0.459	0.745	14.1
4	200000	0.28	0.566	10.7
4	210000	0.202	0.488	9.23
4	220000	0.183	0.469	8.87
4	230000	0.294	0.58	11
4	240000	0.297	0.583	11
4	250000	0.205	0.491	9.29
4	260000	0.36	0.646	12.2
4	270000	0.41	0.696	13.2
4	280000	0.292	0.578	10.9
4	290000	0.252	0.538	10.2
4	300000	0.79	1.08	20.3
4	310000	0.928	1.21	22.9
4	320000	1.01	1.29	24.4
4	330000	1.26	1.55	29.2
4	340000	1.48	1.76	33.3
4	350000	1.58	1.86	35.2
4	360000	1.95	2.24	42.2
5	0	2.83	1.62	30.6
5	-10000	3.46	1.98	37.5
5	-20000	3.72	2.13	40.3
5	-30000	3.73	2.14	40.4
5	-40000	3.85	2.2	41.7
5	-50000	3.77	2.16	40.9
5	-60000	3.95	2.26	42.7
5	-70000	3.74	2.14	40.5
5	-80000	3.56	2.04	38.5
5	-90000	3.44	1.97	37.3
5	-100000	3.25	1.86	35.2
5	-110000	3.41	1.95	36.9
5	-120000	3.2	1.83	34.6
5	-130000	3.03	1.73	32.8
5	-140000	3.25	1.86	35.1
5	-150000	3.05	1.75	33
5	-160000	2.85	1.63	30.9
5	-170000	2.96	1.7	32
5	-180000	2.8	1.61	30.4
5	-190000	2.91	1.67	31.5
5	-200000	2.92	1.67	31.6
5	-210000	2.66	1.52	28.8
5	-220000	2.83	1.62	30.6
5	-230000	2.67	1.53	28.9
5	-240000	2.28	1.31	24.7
5	-250000	2.6	1.49	28.1
5	-260000	2.48	1.42	26.8
5	-270000	2.38	1.36	25.7
5	-280000	2.2	1.26	23.8
5	-290000	2.2	1.26	23.9
5	-300000	2.57	1.47	27.9
5	-310000	2.22	1.27	24
5	-320000	2.03	1.16	22
5	-330000	2.46	1.41	26.6
5	-340000	2.07	1.18	22.4
5	-350000	1.68	0.961	18.2
5	-360000	2.13	1.22	23
5	0	1.08	1.36	25.8
5	10000	0.561	0.847	16
5	20000	0.593	0.879	16.6
5	30000	0.721	1.01	19
5	40000	0.964	1.25	23.6
5	50000	1.05	1.33	25.2
5	60000	1.25	1.54	29
5	70000	1.06	1.34	25.4
5	80000	1.02	1.31	24.8
5	90000	0.617	0.903	17.1
5	100000	0.583	0.869	16.4
5	110000	0.85	1.14	21.5
5	120000	0.685	0.971	18.3
5	130000	0.374	0.66	12.5
5	140000	1.02	1.31	24.7
5	150000	0.639	0.925	17.5
5	160000	0.595	0.881	16.7
5	170000	0.534	0.82	15.5
5	180000	0.357	0.643	12.1
5	190000	0.617	0.903	17.1
5	200000	0.575	0.861	16.3
5	210000	0.537	0.823	15.5
5	220000	0.824	1.11	21
5	230000	0.792	1.08	20.4
5	240000	0.639	0.925	17.5
5	250000	0.532	0.818	15.5
5	260000	0.433	0.719	13.6
5	270000	0.701	0.987	18.7
5	280000	0.423	0.709	13.4
5	290000	0.406	0.692	13.1
5	300000	0.674	0.96	18.2
5	310000	0.939	1.22	23.2
5	320000	0.74	1.03	19.4
5	330000	0.843	1.13	21.3
5	340000	0.771	1.06	20
5	350000	0.851	1.14	21.5
5	360000	0.944	1.23	23.2
6	0	1.98	1.13	21.4
6	-10000	3.71	2.12	40.1
6	-20000	4.04	2.31	43.7
6	-30000	3.84	2.2	41.6
6	-40000	3.94	2.26	42.6
6	-50000	4.15	2.38	45
6	-60000	4.56	2.61	49.4
6	-70000	4.72	2.7	51.1
6	-80000	4.5	2.58	48.7
6	-90000	4.56	2.61	49.4
6	-100000	4.4	2.52	47.7
6	-110000	4.51	2.58	48.8
6	-120000	4.23	2.42	45.8
6	-130000	3.97	2.27	43
6	-140000	4	2.29	43.3
6	-150000	3.95	2.26	42.7
6	-160000	3.59	2.06	38.8
6	-170000	3.64	2.09	39.4
6	-180000	3.4	1.95	36.9
6	-190000	3.24	1.85	35
6	-200000	3.18	1.82	34.5
6	-210000	2.95	1.69	32
6	-220000	2.92	1.67	31.6
6	-230000	2.82	1.62	30.5
6	-240000	2.54	1.45	27.5
6	-250000	2.76	1.58	29.8
6	-260000	2.69	1.54	29.2
6	-270000	2.68	1.53	29
6	-280000	2.37	1.36	25.7
6	-290000	2.67	1.53	28.9
6	-300000	3.04	1.74	33
6	-310000	2.56	1.47	27.7
6	-320000	2.58	1.48	27.9
6	-330000	2.84	1.63	30.7
6	-340000	2.61	1.49	28.2
6	-350000	2.08	1.19	22.5
6	-360000	2.09	1.2	22.6
