rep_num	position	torque	torque_compensated	lbs_compensated
1	0	2.89	3.17	60
1	10000	1.44	1.73	32.7
1	20000	1.57	1.85	35
1	30000	1.07	1.35	25.5
1	40000	1.22	1.51	28.5
1	50000	1.32	1.6	30.3
1	60000	1.26	1.54	29.1
1	70000	0.792	1.08	20.4
1	80000	1.28	1.56	29.6
1	90000	1.24	1.53	28.9
1	100000	0.849	1.13	21.5
1	110000	0.684	0.97	18.3
1	120000	0.572	0.858	16.2
1	130000	0.724	1.01	19.1
1	140000	0.634	0.92	17.4
1	150000	0.457	0.743	14
1	160000	0.847	1.13	21.4
1	170000	1.11	1.4	26.5
1	180000	0.84	1.13	21.3
1	190000	0.802	1.09	20.6
1	200000	0.897	1.18	22.4
1	210000	1.06	1.35	25.5
1	220000	1.05	1.33	25.2
1	230000	0.835	1.12	21.2
1	240000	1.4	1.69	31.9
1	250000	1.27	1.56	29.4
1	260000	0.701	0.987	18.7
1	270000	0.983	1.27	24
1	280000	0.985	1.27	24
1	290000	1.2	1.49	28.1
1	300000	1.15	1.44	27.2
1	310000	0.825	1.11	21
1	320000	1.08	1.36	25.7
1	330000	1.42	1.7	32.2
1	340000	1.69	1.97	37.3
1	350000	1.97	2.26	42.7
1	360000	2.44	2.72	51.5
2	0	3.33	1.91	36
2	-10000	5.07	2.91	54.9
2	-20000	5.29	3.03	57.2
2	-30000	5.56	3.3	62.4
2	-40000	6.1	3.84	72.5
2	-50000	5.67	3.41	64.5
2	-60000	5.51	3.25	61.5
2	-70000	5.75	3.49	65.9
2	-80000	5.49	3.23	61
2	-90000	5.2	2.98	56.3
2	-100000	4.6	2.63	49.8
2	-110000	5.39	3.13	59.2
2	-120000	5.35	3.09	58.3
2	-130000	4.92	2.82	53.3
2	-140000	4.85	2.78	52.5
2	-150000	5.09	2.92	55.1
2	-160000	4.83	2.77	52.3
2	-170000	4.91	2.81	53.1
2	-180000	4.6	2.63	49.8
2	-190000	4.55	2.61	49.3
2	-200000	4.87	2.79	52.7
2	-210000	4.52	2.59	48.9
2	-220000	4.1	2.35	44.4
2	-230000	4.19	2.4	45.4
2	-240000	3.93	2.25	42.5
2	-250000	3.58	2.05	38.7
2	-260000	3.28	1.88	35.5
2	-270000	3.1	1.77	33.5
2	-280000	3.13	1.8	33.9
2	-290000	2.83	1.62	30.6
2	-300000	3.07	1.76	33.3
2	-310000	3.2	1.83	34.7
2	-320000	3.38	1.94	36.6
2	-330000	3.27	1.87	35.4
2	-340000	2.71	1.55	29.4
2	-350000	2.75	1.58	29.8
2	-360000	2.09	1.19	22.6
2	0	1.69	1.98	37.4
2	10000	1.21	1.5	28.3
2	20000	1.48	1.77	33.4
2	30000	1.03	1.32	24.9
2	40000	1.08	1.37	25.8
2	50000	1.48	1.76	33.3
2	60000	1.21	1.5	28.4
2	70000	0.735	1.02	19.3
2	80000	1.19	1.48	27.9
2	90000	1.25	1.54	29.1
2	100000	0.846	1.13	21.4
2	110000	0.848	1.13	21.4
2	120000	0.867	1.15	21.8
2	130000	0.872	1.16	21.9
2	140000	0.962	1.25	23.6
2	150000	0.477	0.763	14.4
2	160000	0.79	1.08	20.3
2	170000	0.994	1.28	24.2
2	180000	0.638	0.924	17.5
2	190000	0.646	0.932	17.6
2	200000	0.684	0.97	18.3
2	210000	0.937	1.22	23.1
2	220000	0.833	1.12	21.1
2	230000	0.701	0.987	18.7
2	240000	1.23	1.51	28.6
2	250000	1.32	1.61	30.4
2	260000	0.968	1.25	23.7
2	270000	1.05	1.34	25.3
2	280000	0.948	1.23	23.3
2	290000	1.07	1.36	25.6
2	300000	1.13	1.42	26.8
2	310000	0.885	1.17	22.1
2	320000	1.2	1.48	28.1
2	330000	1.94	2.23	42.1
2	340000	1.67	1.96	37
2	350000	2.38	2.67	50.5
2	360000	2.67	2.95	55.8
3	0	3.46	1.98	37.5
3	-10000	4.91	2.81	53.2
3	-20000	5.19	2.98	56.2
3	-30000	5.1	2.92	55.2
3	-40000	5.6	3.34	63.1
3	-50000	5.19	2.97	56.2
3	-60000	4.82	2.76	52.1
3	-70000	5.02	2.88	54.3
3	-80000	4.82	2.76	52.2
3	-90000	4.4	2.52	47.7
3	-100000	3.97	2.27	43
3	-110000	4.36	2.5	47.2
3	-120000	4.34	2.49	47
3	-130000	4.17	2.39	45.1
3	-140000	3.91	2.24	42.3
3	-150000	3.91	2.24	42.4
3	-160000	3.83	2.19	41.4
3	-170000	3.91	2.24	42.3
3	-180000	3.49	2	37.8
3	-190000	3.48	1.99	37.6
3	-200000	3.6	2.06	39
3	-210000	3.12	1.79	33.8
3	-220000	2.78	1.6	30.1
3	-230000	3.01	1.72	32.6
3	-240000	2.95	1.69	32
3	-250000	2.59	1.48	28.1
3	-260000	2.5	1.43	27
3	-270000	2.63	1.51	28.5
3	-280000	2.59	1.49	28.1
3	-290000	2.32	1.33	25.1
3	-300000	2.26	1.3	24.5
3	-310000	2.21	1.27	24
3	-320000	2.37	1.36	25.7
3	-330000	2.4	1.37	25.9
3	-340000	1.56	0.894	16.9
3	-350000	1.87	1.07	20.3
3	-360000	1.14	0.654	12.4
3	0	0.572	0.858	16.2
3	10000	0.364	0.65	12.3
3	20000	0.662	0.948	17.9
3	30000	0.331	0.617	11.7
3	40000	0.475	0.761	14.4
3	50000	0.697	0.983	18.6
3	60000	0.508	0.794	15
3	70000	0.214	0.5	9.44
3	80000	0.685	0.971	18.3
3	90000	0.766	1.05	19.9
3	100000	0.531	0.817	15.4
3	110000	0.555	0.841	15.9
3	120000	0.652	0.938	17.7
3	130000	0.727	1.01	19.2
3	140000	0.896	1.18	22.3
3	150000	0.349	0.635	12
3	160000	0.819	1.11	20.9
3	170000	0.69	0.976	18.5
3	180000	0.664	0.95	18
3	190000	0.509	0.795	15
3	200000	0.423	0.709	13.4
3	210000	0.838	1.12	21.2
3	220000	0.4	0.686	13
3	230000	0.248	0.534	10.1
3	240000	0.559	0.845	16
3	250000	0.641	0.927	17.5
3	260000	0.249	0.535	10.1
3	270000	0.381	0.667	12.6
3	280000	0.448	0.734	13.9
3	290000	0.69	0.976	18.4
3	300000	0.694	0.98	18.5
3	310000	0.503	0.789	14.9
3	320000	1.11	1.39	26.3
3	330000	1.49	1.77	33.5
3	340000	1.68	1.97	37.2
3	350000	2.07	2.35	44.5
3	360000	3	3.28	62
4	0	4.25	2.44	46.1
4	-10000	5.52	3.26	61.7
4	-20000	5.43	3.17	60
4	-30000	5.61	3.35	63.3
4	-40000	6.15	3.89	73.5
4	-50000	5.5	3.24	61.3
4	-60000	4.93	2.83	53.4
4	-70000	5.12	2.93	55.4
4	-80000	5.21	2.99	56.4
4	-90000	4.99	2.86	54
4	-100000	4.41	2.53	47.7
4	-110000	4.82	2.76	52.2
4	-120000	4.58	2.62	49.6
4	-130000	4.3	2.47	46.6
4	-140000	3.86	2.21	41.8
4	-150000	3.92	2.24	42.4
4	-160000	3.92	2.25	42.5
4	-170000	3.67	2.1	39.7
4	-180000	3.25	1.86	35.2
4	-190000	3.32	1.9	35.9
4	-200000	3.63	2.08	39.3
4	-210000	3.18	1.82	34.4
4	-220000	2.83	1.62	30.7
4	-230000	3.14	1.8	34
4	-240000	2.92	1.67	31.6
4	-250000	2.73	1.57	29.6
4	-260000	2.44	1.4	26.5
4	-270000	2.41	1.38	26.1
4	-280000	2.44	1.4	26.4
4	-290000	2.17	1.24	23.5
4	-300000	2.05	1.17	22.2
4	-310000	2.02	1.16	21.9
4	-320000	1.88	1.08	20.3
4	-330000	2.18	1.25	23.6
4	-340000	1.59	0.909	17.2
4	-350000	1.8	1.03	19.5
4	-360000	1.26	0.72	13.6
4	0	1.01	1.29	24.4
4	10000	0.364	0.65	12.3
4	20000	0.396	0.682	12.9
4	30000	0.185	0.471	8.9
4	40000	0.352	0.638	12.1
4	50000	0.617	0.903	17.1
4	60000	0.75	1.04	19.6
4	70000	0.341	0.627	11.8
4	80000	0.856	1.14	21.6
4	90000	0.796	1.08	20.5
4	100000	0.549	0.835	15.8
4	110000	0.455	0.741	14
4	120000	0.812	1.1	20.7
4	130000	0.981	1.27	23.9
4	140000	0.869	1.15	21.8
4	150000	0.473	0.759	14.3
4	160000	0.824	1.11	21
4	170000	1.17	1.45	27.4
4	180000	0.761	1.05	19.8
4	190000	0.625	0.911	17.2
4	200000	0.732	1.02	19.2
4	210000	0.969	1.25	23.7
4	220000	0.871	1.16	21.9
4	230000	0.539	0.825	15.6
4	240000	0.965	1.25	23.7
4	250000	1.13	1.41	26.7
4	260000	0.755	1.04	19.7
4	270000	0.929	1.22	23
4	280000	0.748	1.03	19.5
4	290000	1.11	1.4	26.5
4	300000	0.88	1.17	22
4	310000	0.57	0.856	16.2
4	320000	0.544	0.83	15.7
4	330000	0.469	0.755	14.3
4	340000	0.754	1.04	19.7
4	350000	0.92	1.21	22.8
4	360000	1.18	1.46	27.7
5	0	2.27	1.3	24.5
5	-10000	3.51	2.01	38
5	-20000	3.59	2.06	38.9
5	-30000	3.49	2	37.8
5	-40000	4.07	2.33	44
5	-50000	3.57	2.04	38.6
5	-60000	3.3	1.89	35.7
5	-70000	3.58	2.05	38.8
5	-80000	3.52	2.02	38.1
5	-90000	3.19	1.83	34.6
5	-100000	2.94	1.68	31.8
5	-110000	3.13	1.79	33.9
5	-120000	3.18	1.82	34.4
5	-130000	2.74	1.57	29.7
5	-140000	2.61	1.5	28.3
5	-150000	2.81	1.61	30.5
5	-160000	3.02	1.73	32.7
5	-170000	2.69	1.54	29.2
5	-180000	2.32	1.33	25.2
5	-190000	2.49	1.43	27
5	-200000	2.84	1.63	30.7
5	-210000	2.37	1.36	25.7
5	-220000	1.95	1.12	21.2
5	-230000	2.31	1.32	25
5	-240000	2.18	1.25	23.6
5	-250000	1.98	1.13	21.4
5	-260000	1.75	1	18.9
5	-270000	1.84	1.06	19.9
5	-280000	1.88	1.08	20.4
5	-290000	1.6	0.914	17.3
5	-300000	1.61	0.921	17.4
5	-310000	1.72	0.983	18.6
5	-320000	2.01	1.15	21.8
5	-330000	2.48	1.42	26.9
5	-340000	1.95	1.12	21.1
5	-350000	2.25	1.29	24.3
5	-360000	1.75	1	18.9
5	0	1.13	1.42	26.8
5	10000	0.305	0.591	11.2
5	20000	0.64	0.926	17.5
5	30000	0.303	0.589	11.1
5	40000	0.556	0.842	15.9
5	50000	0.597	0.883	16.7
5	60000	0.409	0.695	13.1
5	70000	0.253	0.539	10.2
5	80000	0.635	0.921	17.4
5	90000	0.497	0.783	14.8
5	100000	0.376	0.662	12.5
5	110000	0.31	0.596	11.3
5	120000	0.355	0.641	12.1
5	130000	0.591	0.877	16.6
5	140000	0.681	0.967	18.3
5	150000	0.141	0.427	8.07
5	160000	0.461	0.747	14.1
5	170000	0.618	0.904	17.1
5	180000	0.492	0.778	14.7
5	190000	0.396	0.682	12.9
5	200000	0.453	0.739	14
5	210000	0.67	0.956	18.1
5	220000	0.408	0.694	13.1
5	230000	0.171	0.457	8.64
5	240000	0.682	0.968	18.3
5	250000	0.684	0.97	18.3
5	260000	0.318	0.604	11.4
5	270000	0.439	0.725	13.7
5	280000	0.359	0.645	12.2
5	290000	0.48	0.766	14.5
5	300000	0.547	0.833	15.7
5	310000	0.439	0.725	13.7
5	320000	0.632	0.918	17.3
5	330000	1.1	1.39	26.2
5	340000	1.34	1.63	30.7
5	350000	1.53	1.82	34.3
5	360000	2.51	2.8	52.8
6	0	4.03	2.31	43.6
6	-10000	5.69	3.43	64.8
6	-20000	5.85	3.59	67.9
6	-30000	5.95	3.69	69.6
6	-40000	6.11	3.85	72.7
6	-50000	5.49	3.23	61
6	-60000	4.94	2.83	53.5
6	-70000	5.06	2.9	54.8
6	-80000	5.05	2.89	54.7
6	-90000	4.45	2.55	48.2
6	-100000	3.78	2.17	41
6	-110000	4.08	2.34	44.1
6	-120000	4.1	2.35	44.3
6	-130000	3.84	2.2	41.6
6	-140000	3.51	2.01	38.1
6	-150000	3.41	1.96	37
6	-160000	3.6	2.06	38.9
6	-170000	3.28	1.88	35.6
6	-180000	2.86	1.64	31
6	-190000	2.92	1.67	31.6
6	-200000	3.15	1.81	34.1
6	-210000	2.72	1.56	29.4
6	-220000	2.42	1.39	26.2
6	-230000	2.59	1.48	28
6	-240000	2.41	1.38	26.1
6	-250000	2.22	1.27	24
6	-260000	1.97	1.13	21.4
6	-270000	2.09	1.19	22.6
6	-280000	2.01	1.15	21.8
6	-290000	1.68	0.961	18.2
6	-300000	1.58	0.906	17.1
6	-310000	1.41	0.809	15.3
6	-320000	1.36	0.782	14.8
6	-330000	1.37	0.783	14.8
6	-340000	0.799	0.457	8.65
6	-350000	0.961	0.551	10.4
6	-360000	0.397	0.227	4.3
