rep_num	position	torque	torque_compensated	lbs_compensated
1	0	2.62	2.91	54.9
1	10000	2.41	2.7	51
1	20000	2.25	2.54	48
1	30000	1.96	2.24	42.4
1	40000	1.44	1.72	32.6
1	50000	1.6	1.89	35.7
1	60000	2.02	2.3	43.5
1	70000	1.85	2.14	40.4
1	80000	1.04	1.33	25.1
1	90000	1.54	1.83	34.6
1	100000	2.02	2.3	43.6
1	110000	1.96	2.25	42.5
1	120000	1.35	1.63	30.9
1	130000	1.48	1.77	33.4
1	140000	2.23	2.52	47.6
1	150000	1.98	2.27	42.8
1	160000	1.37	1.66	31.3
1	170000	1.84	2.13	40.2
1	180000	2.45	2.74	51.7
1	190000	2	2.28	43.2
1	200000	1.73	2.01	38.1
1	210000	1.8	2.09	39.5
1	220000	2.32	2.61	49.3
1	230000	2.45	2.74	51.8
1	240000	1.78	2.06	39
1	250000	1.94	2.22	42
1	260000	2.84	3.13	59.1
1	270000	3.01	3.3	62.3
1	280000	2.26	2.54	48.1
1	290000	2.74	3.02	57.1
1	300000	3.65	3.94	74.4
1	310000	3.26	3.54	66.9
1	320000	2.94	3.22	60.9
1	330000	3.46	3.75	70.8
1	340000	4.48	4.77	90.1
1	350000	4.01	4.3	81.2
1	360000	4.98	5.26	99.5
2	0	6.67	4.41	83.4
2	-10000	5.69	3.43	64.8
2	-20000	5.51	3.25	61.4
2	-30000	5.55	3.29	62.1
2	-40000	4.93	2.82	53.4
2	-50000	4.84	2.77	52.4
2	-60000	5.22	2.99	56.5
2	-70000	5.4	3.14	59.4
2	-80000	5.42	3.16	59.8
2	-90000	4.59	2.63	49.7
2	-100000	5.01	2.87	54.2
2	-110000	5.7	3.44	65
2	-120000	4.74	2.72	51.3
2	-130000	4.16	2.38	45.1
2	-140000	4.73	2.71	51.2
2	-150000	5	2.86	54.1
2	-160000	4.62	2.65	50
2	-170000	4.04	2.31	43.7
2	-180000	4.61	2.64	50
2	-190000	4.98	2.85	54
2	-200000	4.1	2.35	44.3
2	-210000	3.46	1.98	37.4
2	-220000	4	2.29	43.3
2	-230000	4.21	2.41	45.6
2	-240000	3.52	2.02	38.2
2	-250000	3.15	1.8	34.1
2	-260000	3.53	2.02	38.2
2	-270000	4.12	2.36	44.6
2	-280000	3.22	1.85	34.9
2	-290000	2.75	1.57	29.7
2	-300000	3.41	1.95	36.9
2	-310000	3.35	1.92	36.3
2	-320000	2.82	1.61	30.5
2	-330000	2.63	1.51	28.5
2	-340000	3.05	1.75	33
2	-350000	2.45	1.4	26.5
2	-360000	2.78	1.59	30.1
2	0	1.35	1.64	30.9
2	10000	1.42	1.7	32.2
2	20000	1.76	2.04	38.6
2	30000	1.27	1.56	29.4
2	40000	0.738	1.02	19.4
2	50000	0.845	1.13	21.4
2	60000	1.41	1.7	32.1
2	70000	1.09	1.38	26
2	80000	0.567	0.853	16.1
2	90000	0.953	1.24	23.4
2	100000	1.41	1.7	32.1
2	110000	1.08	1.37	25.9
2	120000	0.513	0.799	15.1
2	130000	0.686	0.972	18.4
2	140000	1.27	1.56	29.5
2	150000	1.28	1.57	29.6
2	160000	0.524	0.81	15.3
2	170000	0.865	1.15	21.7
2	180000	1.65	1.94	36.6
2	190000	1.6	1.88	35.6
2	200000	0.919	1.2	22.8
2	210000	0.931	1.22	23
2	220000	1.86	2.14	40.5
2	230000	2.03	2.32	43.8
2	240000	1.31	1.6	30.2
2	250000	1.61	1.9	35.9
2	260000	2.37	2.65	50.2
2	270000	2.36	2.64	49.9
2	280000	1.88	2.17	40.9
2	290000	2.32	2.61	49.3
2	300000	3.39	3.68	69.6
2	310000	3.43	3.72	70.2
2	320000	3.04	3.33	62.9
2	330000	3.55	3.83	72.4
2	340000	4.63	4.92	92.9
2	350000	4.37	4.66	88.1
2	360000	4.15	4.43	83.8
3	0	4.8	2.75	52
3	-10000	4.77	2.73	51.7
3	-20000	4.27	2.45	46.3
3	-30000	4.39	2.51	47.5
3	-40000	3.79	2.17	41.1
3	-50000	3.5	2.01	37.9
3	-60000	4.08	2.34	44.2
3	-70000	3.95	2.26	42.7
3	-80000	3.68	2.11	39.9
3	-90000	3.1	1.77	33.5
3	-100000	3.55	2.03	38.4
3	-110000	3.86	2.21	41.8
3	-120000	3.33	1.91	36.1
3	-130000	2.77	1.59	30
3	-140000	3.23	1.85	35
3	-150000	3.46	1.98	37.4
3	-160000	3.07	1.76	33.2
3	-170000	2.61	1.49	28.2
3	-180000	3.2	1.84	34.7
3	-190000	3.56	2.04	38.6
3	-200000	2.81	1.61	30.4
3	-210000	2.46	1.41	26.6
3	-220000	3	1.72	32.5
3	-230000	3.14	1.8	34
3	-240000	2.63	1.5	28.4
3	-250000	2.07	1.18	22.4
3	-260000	2.62	1.5	28.4
3	-270000	3.07	1.76	33.3
3	-280000	2.08	1.19	22.5
3	-290000	1.73	0.99	18.7
3	-300000	2.56	1.47	27.7
3	-310000	2.43	1.39	26.3
3	-320000	2.01	1.15	21.8
3	-330000	1.7	0.975	18.4
3	-340000	1.51	0.865	16.3
3	-350000	1.31	0.751	14.2
3	-360000	1.68	0.962	18.2
3	0	0.759	1.04	19.7
3	10000	1.05	1.34	25.3
3	20000	0.94	1.23	23.2
3	30000	0.768	1.05	19.9
3	40000	0.395	0.681	12.9
3	50000	0.381	0.667	12.6
3	60000	0.989	1.28	24.1
3	70000	0.931	1.22	23
3	80000	0.351	0.637	12
3	90000	0.463	0.749	14.2
3	100000	0.968	1.25	23.7
3	110000	0.827	1.11	21
3	120000	0.265	0.551	10.4
3	130000	0.349	0.635	12
3	140000	1	1.29	24.4
3	150000	0.88	1.17	22
3	160000	0.491	0.777	14.7
3	170000	0.458	0.744	14.1
3	180000	1.2	1.48	28
3	190000	0.82	1.11	20.9
3	200000	0.452	0.738	14
3	210000	0.422	0.708	13.4
3	220000	1.01	1.3	24.6
3	230000	1.15	1.44	27.2
3	240000	0.433	0.719	13.6
3	250000	0.606	0.892	16.9
3	260000	1.04	1.33	25.2
3	270000	1.16	1.45	27.3
3	280000	0.585	0.871	16.5
3	290000	1.02	1.31	24.8
3	300000	1.8	2.08	39.3
3	310000	1.83	2.12	40.1
3	320000	1.49	1.78	33.6
3	330000	2.06	2.35	44.4
3	340000	3.39	3.67	69.4
3	350000	3.07	3.36	63.5
3	360000	3.28	3.57	67.5
4	0	4.4	2.52	47.7
4	-10000	4.76	2.73	51.5
4	-20000	4.07	2.33	44
4	-30000	4.46	2.56	48.3
4	-40000	3.67	2.1	39.8
4	-50000	3.36	1.93	36.4
4	-60000	3.69	2.11	39.9
4	-70000	3.81	2.18	41.3
4	-80000	3.29	1.89	35.6
4	-90000	2.94	1.69	31.9
4	-100000	3.37	1.93	36.5
4	-110000	3.74	2.14	40.5
4	-120000	3.01	1.73	32.6
4	-130000	2.66	1.52	28.8
4	-140000	3.35	1.92	36.3
4	-150000	3.44	1.97	37.3
4	-160000	2.99	1.71	32.4
4	-170000	2.66	1.53	28.8
4	-180000	3.16	1.81	34.2
4	-190000	3.42	1.96	37.1
4	-200000	2.75	1.58	29.8
4	-210000	2.42	1.39	26.2
4	-220000	2.98	1.71	32.3
4	-230000	3.11	1.78	33.6
4	-240000	2.52	1.44	27.3
4	-250000	2.06	1.18	22.3
4	-260000	2.51	1.44	27.2
4	-270000	3.13	1.79	33.9
4	-280000	2.27	1.3	24.6
4	-290000	1.98	1.13	21.5
4	-300000	2.86	1.64	30.9
4	-310000	2.68	1.54	29
4	-320000	2.49	1.42	26.9
4	-330000	1.96	1.12	21.2
4	-340000	1.68	0.962	18.2
4	-350000	1.61	0.924	17.5
4	-360000	1.82	1.04	19.7
4	0	1.36	1.65	31.1
4	10000	1.62	1.9	36
4	20000	1.61	1.89	35.8
4	30000	1.54	1.83	34.5
4	40000	1.01	1.29	24.4
4	50000	1.2	1.49	28.1
4	60000	1.72	2.01	38
4	70000	1.43	1.72	32.4
4	80000	0.736	1.02	19.3
4	90000	1	1.29	24.4
4	100000	1.67	1.96	37.1
4	110000	1.49	1.78	33.6
4	120000	0.637	0.923	17.5
4	130000	1.1	1.38	26.1
4	140000	1.56	1.85	35
4	150000	1.63	1.92	36.2
4	160000	0.985	1.27	24
4	170000	1.26	1.54	29.2
4	180000	1.79	2.07	39.2
4	190000	1.57	1.85	35
4	200000	1.11	1.39	26.3
4	210000	1.15	1.44	27.2
4	220000	1.66	1.94	36.8
4	230000	1.8	2.09	39.5
4	240000	0.779	1.06	20.1
4	250000	1.05	1.33	25.2
4	260000	1.73	2.02	38.1
4	270000	1.37	1.65	31.3
4	280000	1.09	1.37	26
4	290000	1.64	1.93	36.4
4	300000	2.33	2.61	49.4
4	310000	2.25	2.53	47.9
4	320000	2.09	2.38	44.9
4	330000	2.54	2.82	53.4
4	340000	3.52	3.8	71.9
4	350000	3.28	3.56	67.4
4	360000	3.46	3.74	70.7
5	0	4.06	2.32	43.9
5	-10000	3.73	2.14	40.4
5	-20000	3.43	1.97	37.2
5	-30000	3.78	2.17	41
5	-40000	3.01	1.72	32.6
5	-50000	2.96	1.7	32
5	-60000	3.41	1.95	36.9
5	-70000	3.6	2.06	39
5	-80000	3.62	2.07	39.2
5	-90000	2.98	1.71	32.3
5	-100000	3.57	2.05	38.7
5	-110000	4.01	2.3	43.4
5	-120000	2.98	1.71	32.3
5	-130000	2.57	1.47	27.9
5	-140000	3.12	1.79	33.8
5	-150000	3.19	1.83	34.6
5	-160000	2.88	1.65	31.2
5	-170000	2.34	1.34	25.3
5	-180000	2.83	1.62	30.6
5	-190000	3.12	1.79	33.7
5	-200000	2.44	1.4	26.4
5	-210000	2.13	1.22	23
5	-220000	2.52	1.44	27.3
5	-230000	2.82	1.62	30.6
5	-240000	2.34	1.34	25.3
5	-250000	1.87	1.07	20.3
5	-260000	2.25	1.29	24.3
5	-270000	2.94	1.68	31.8
5	-280000	2.22	1.27	24.1
5	-290000	1.66	0.953	18
5	-300000	2.46	1.41	26.6
5	-310000	2.29	1.31	24.8
5	-320000	1.8	1.03	19.5
5	-330000	1.45	0.832	15.7
5	-340000	1.53	0.878	16.6
5	-350000	1.14	0.653	12.3
5	-360000	1.04	0.594	11.2
5	0	1.03	1.31	24.8
5	10000	1.47	1.75	33.1
5	20000	1.21	1.49	28.2
5	30000	0.841	1.13	21.3
5	40000	0.506	0.792	15
5	50000	0.414	0.7	13.2
5	60000	0.964	1.25	23.6
5	70000	0.844	1.13	21.4
5	80000	0.351	0.637	12
5	90000	0.321	0.607	11.5
5	100000	0.961	1.25	23.6
5	110000	0.79	1.08	20.3
5	120000	0.231	0.517	9.77
5	130000	0.274	0.56	10.6
5	140000	0.843	1.13	21.3
5	150000	0.73	1.02	19.2
5	160000	0.356	0.642	12.1
5	170000	0.377	0.663	12.5
5	180000	1.04	1.33	25.1
5	190000	0.647	0.933	17.6
5	200000	0.272	0.558	10.5
5	210000	0.516	0.802	15.2
5	220000	1.12	1.41	26.6
5	230000	1.06	1.35	25.5
5	240000	0.406	0.692	13.1
5	250000	0.554	0.84	15.9
5	260000	1.37	1.65	31.3
5	270000	1.35	1.64	31
5	280000	0.777	1.06	20.1
5	290000	1.07	1.35	25.5
5	300000	2.06	2.34	44.3
5	310000	2	2.28	43.1
5	320000	1.33	1.61	30.5
5	330000	1.92	2.21	41.8
5	340000	2.33	2.61	49.4
5	350000	2.35	2.63	49.8
5	360000	3.17	3.46	65.4
6	0	5.01	2.87	54.3
6	-10000	4.34	2.48	46.9
6	-20000	3.49	2	37.8
6	-30000	3.7	2.12	40.1
6	-40000	3	1.72	32.5
6	-50000	2.62	1.5	28.3
6	-60000	2.87	1.65	31.1
6	-70000	3.27	1.88	35.4
6	-80000	2.89	1.66	31.3
6	-90000	2.28	1.31	24.7
6	-100000	2.83	1.62	30.6
6	-110000	3.08	1.76	33.3
6	-120000	2.28	1.31	24.7
6	-130000	2.03	1.16	21.9
6	-140000	2.64	1.51	28.6
6	-150000	2.95	1.69	32
6	-160000	2.64	1.51	28.5
6	-170000	2.22	1.27	24.1
6	-180000	2.95	1.69	31.9
6	-190000	3.24	1.86	35.1
6	-200000	2.56	1.47	27.7
6	-210000	2.16	1.24	23.4
6	-220000	2.77	1.59	30
6	-230000	2.8	1.6	30.3
6	-240000	2.28	1.3	24.7
6	-250000	1.8	1.03	19.5
6	-260000	2.14	1.23	23.2
6	-270000	2.81	1.61	30.5
6	-280000	1.72	0.988	18.7
6	-290000	1.4	0.801	15.1
6	-300000	2.06	1.18	22.3
6	-310000	1.96	1.12	21.2
6	-320000	1.57	0.897	16.9
6	-330000	1.23	0.703	13.3
6	-340000	1.06	0.608	11.5
6	-350000	0.8	0.458	8.66
6	-360000	0.872	0.5	9.44
