rep_num	position	torque	torque_compensated	lbs_compensated
1	0	3.15	3.44	64.9
1	10000	5.05	5.34	101
1	20000	5.14	5.43	103
1	30000	7.25	7.64	144
1	40000	6.23	6.57	124
1	50000	6.29	6.63	125
1	60000	7.74	8.16	154
1	70000	8.13	8.57	162
1	80000	6.98	7.36	139
1	90000	7.26	7.66	145
1	100000	8.25	8.7	164
1	110000	8.71	9.18	174
1	120000	7.59	8	151
1	130000	7.09	7.47	141
1	140000	7.51	7.91	150
1	150000	7.7	8.11	153
1	160000	7.22	7.61	144
1	170000	7.3	7.69	145
1	180000	8.25	8.69	164
1	190000	8.49	8.95	169
1	200000	7.63	8.05	152
1	210000	7.21	7.6	144
1	220000	8.46	8.91	168
1	230000	9.19	9.68	183
1	240000	8.08	8.52	161
1	250000	7.66	8.08	153
1	260000	9.23	9.73	184
1	270000	9.67	10.2	193
1	280000	8.49	8.94	169
1	290000	8.11	8.55	162
1	300000	9.5	10	189
1	310000	9.71	10.2	193
1	320000	8.39	8.84	167
1	330000	8.44	8.9	168
1	340000	9.76	10.3	194
1	350000	7.84	8.27	156
1	360000	7.61	8.02	152
2	0	9.33	7.07	134
2	-10000	11.2	8.93	169
2	-20000	11.9	9.68	183
2	-30000	13.3	11.1	209
2	-40000	12.5	10.2	193
2	-50000	12.7	10.4	197
2	-60000	13.9	11.6	220
2	-70000	13.4	11.1	210
2	-80000	12	9.71	184
2	-90000	12.4	10.2	192
2	-100000	13.8	11.5	218
2	-110000	13.2	10.9	207
2	-120000	12	9.76	185
2	-130000	12.8	10.5	199
2	-140000	13.5	11.2	212
2	-150000	12.3	10	189
2	-160000	11.3	9.01	170
2	-170000	11.2	8.98	170
2	-180000	11.7	9.49	179
2	-190000	11	8.74	165
2	-200000	10.3	8.07	152
2	-210000	11	8.7	165
2	-220000	12	9.75	184
2	-230000	11.7	9.47	179
2	-240000	11.1	8.81	167
2	-250000	11.3	9.06	171
2	-260000	12.2	9.91	187
2	-270000	11.5	9.25	175
2	-280000	10.2	7.9	149
2	-290000	10.3	8	151
2	-300000	11.1	8.83	167
2	-310000	10.7	8.47	160
2	-320000	9.93	7.67	145
2	-330000	9.52	7.26	137
2	-340000	11.1	8.83	167
2	-350000	9.83	7.57	143
2	-360000	9.62	7.36	139
2	0	8.06	8.5	161
2	10000	6.62	6.98	132
2	20000	6.89	7.27	137
2	30000	8.2	8.65	163
2	40000	6.66	7.02	133
2	50000	6.54	6.89	130
2	60000	7.9	8.33	157
2	70000	7.83	8.25	156
2	80000	6.76	7.13	135
2	90000	6.68	7.04	133
2	100000	7.36	7.76	147
2	110000	7.6	8.01	151
2	120000	7.02	7.4	140
2	130000	7.05	7.43	140
2	140000	7.68	8.09	153
2	150000	8.05	8.49	160
2	160000	7.21	7.6	144
2	170000	7.08	7.47	141
2	180000	7.95	8.38	158
2	190000	8.35	8.8	166
2	200000	7.54	7.95	150
2	210000	7.34	7.74	146
2	220000	8.37	8.82	167
2	230000	8.86	9.34	177
2	240000	7.42	7.82	148
2	250000	7.03	7.41	140
2	260000	8	8.43	159
2	270000	8.51	8.97	169
2	280000	7.38	7.78	147
2	290000	6.84	7.21	136
2	300000	8.2	8.64	163
2	310000	8.39	8.85	167
2	320000	7.04	7.43	140
2	330000	7.13	7.52	142
2	340000	8.41	8.87	168
2	350000	6.62	6.98	132
2	360000	6.93	7.31	138
3	0	8.75	6.49	123
3	-10000	8.85	6.59	125
3	-20000	9.31	7.05	133
3	-30000	11.8	9.58	181
3	-40000	11	8.71	165
3	-50000	11.1	8.8	166
3	-60000	12.6	10.4	196
3	-70000	12.3	10.1	190
3	-80000	10.9	8.63	163
3	-90000	11.3	9.09	172
3	-100000	12.6	10.3	195
3	-110000	12	9.7	183
3	-120000	11.3	9	170
3	-130000	12.4	10.2	192
3	-140000	12.7	10.5	198
3	-150000	12.4	10.1	192
3	-160000	11.1	8.82	167
3	-170000	10.5	8.28	156
3	-180000	11.3	9.05	171
3	-190000	10.7	8.39	159
3	-200000	9.89	7.63	144
3	-210000	10.2	7.94	150
3	-220000	11.4	9.12	172
3	-230000	11.2	8.95	169
3	-240000	9.69	7.43	140
3	-250000	10	7.74	146
3	-260000	10.9	8.6	163
3	-270000	10.4	8.12	153
3	-280000	9.37	7.11	134
3	-290000	9.88	7.62	144
3	-300000	11	8.72	165
3	-310000	10.4	8.13	154
3	-320000	9.6	7.34	139
3	-330000	8.96	6.7	127
3	-340000	9.85	7.59	143
3	-350000	8.72	6.46	122
3	-360000	8.29	6.03	114
3	0	7.02	7.4	140
3	10000	5.47	5.76	109
3	20000	5.8	6.12	116
3	30000	7.46	7.86	149
3	40000	6.61	6.97	132
3	50000	6.53	6.89	130
3	60000	7.42	7.82	148
3	70000	7.35	7.75	146
3	80000	6.09	6.42	121
3	90000	6.37	6.72	127
3	100000	7.41	7.81	148
3	110000	7.7	8.12	153
3	120000	6.71	7.07	134
3	130000	6.24	6.57	124
3	140000	6.73	7.1	134
3	150000	6.98	7.36	139
3	160000	6.81	7.18	136
3	170000	6.68	7.04	133
3	180000	7.04	7.42	140
3	190000	7.19	7.58	143
3	200000	6.61	6.97	132
3	210000	5.99	6.31	119
3	220000	6.56	6.91	131
3	230000	7.52	7.92	150
3	240000	6.3	6.64	125
3	250000	6.11	6.44	122
3	260000	7.56	7.97	151
3	270000	7.47	7.88	149
3	280000	6.38	6.72	127
3	290000	5.8	6.12	116
3	300000	6.52	6.88	130
3	310000	7.26	7.66	145
3	320000	5.93	6.25	118
3	330000	5.99	6.32	119
3	340000	7.04	7.42	140
3	350000	5.41	5.71	108
3	360000	5.38	5.67	107
4	0	7.19	4.93	93.2
4	-10000	8.41	6.15	116
4	-20000	9.1	6.84	129
4	-30000	11.4	9.19	174
4	-40000	10.3	8.03	152
4	-50000	10.3	8.08	153
4	-60000	11.6	9.3	176
4	-70000	11.1	8.87	168
4	-80000	9.62	7.36	139
4	-90000	10.1	7.79	147
4	-100000	11.4	9.12	172
4	-110000	11.5	9.22	174
4	-120000	10.5	8.2	155
4	-130000	10.5	8.26	156
4	-140000	11.5	9.21	174
4	-150000	10.9	8.63	163
4	-160000	9.69	7.43	141
4	-170000	10.1	7.87	149
4	-180000	10.5	8.27	156
4	-190000	10.1	7.81	148
4	-200000	9.21	6.95	131
4	-210000	9.25	6.99	132
4	-220000	10.9	8.63	163
4	-230000	10.9	8.61	163
4	-240000	10	7.77	147
4	-250000	10.3	8.06	152
4	-260000	11.1	8.81	166
4	-270000	10.3	8.08	153
4	-280000	9.25	6.99	132
4	-290000	9.31	7.05	133
4	-300000	10.1	7.87	149
4	-310000	9.91	7.65	145
4	-320000	8.96	6.7	127
4	-330000	8.54	6.28	119
4	-340000	9.66	7.4	140
4	-350000	8.23	5.97	113
4	-360000	7.3	5.04	95.2
4	0	5.83	6.14	116
4	10000	5.49	5.79	109
4	20000	5.68	5.98	113
4	30000	6.91	7.28	138
4	40000	5.75	6.06	115
4	50000	5.23	5.52	104
4	60000	6.1	6.43	121
4	70000	6.41	6.75	128
4	80000	4.82	5.1	96.4
4	90000	4.74	5.03	95
4	100000	5.76	6.07	115
4	110000	5.88	6.2	117
4	120000	4.99	5.27	99.7
4	130000	4.74	5.03	95
4	140000	5.5	5.79	109
4	150000	5.58	5.88	111
4	160000	4.64	4.93	93.2
4	170000	4.22	4.51	85.2
4	180000	4.83	5.11	96.7
4	190000	5.06	5.35	101
4	200000	4.44	4.73	89.3
4	210000	3.98	4.26	80.5
4	220000	4.85	5.14	97.1
4	230000	5.28	5.57	105
4	240000	4.36	4.65	87.9
4	250000	3.96	4.25	80.3
4	260000	5.33	5.62	106
4	270000	5.48	5.77	109
4	280000	4.72	5.01	94.6
4	290000	3.87	4.15	78.5
4	300000	4.97	5.26	99.4
4	310000	5.4	5.69	108
4	320000	4.19	4.48	84.6
4	330000	4.11	4.4	83.1
4	340000	5.27	5.56	105
4	350000	3.79	4.08	77.1
4	360000	4.38	4.67	88.3
5	0	5.95	3.69	69.7
5	-10000	8.21	5.95	112
5	-20000	8.55	6.29	119
5	-30000	10.1	7.86	149
5	-40000	8.4	6.14	116
5	-50000	8.82	6.56	124
5	-60000	9.9	7.64	144
5	-70000	9.98	7.72	146
5	-80000	9.75	7.49	142
5	-90000	10.7	8.44	160
5	-100000	12.1	9.86	186
5	-110000	11.2	8.9	168
5	-120000	10.2	7.96	150
5	-130000	11.2	8.95	169
5	-140000	12.1	9.81	185
5	-150000	11.7	9.44	178
5	-160000	10.4	8.15	154
5	-170000	10.5	8.25	156
5	-180000	11.2	8.93	169
5	-190000	10.4	8.18	155
5	-200000	9.86	7.6	144
5	-210000	10.1	7.85	148
5	-220000	11	8.76	166
5	-230000	10.5	8.27	156
5	-240000	9.47	7.21	136
5	-250000	9.52	7.26	137
5	-260000	10.4	8.17	154
5	-270000	10.3	8.08	153
5	-280000	9.09	6.83	129
5	-290000	9.36	7.1	134
5	-300000	10.6	8.37	158
5	-310000	10.5	8.21	155
5	-320000	9.68	7.42	140
5	-330000	8.98	6.72	127
5	-340000	9.98	7.72	146
5	-350000	8.41	6.15	116
5	-360000	7.99	5.73	108
5	0	6.49	6.84	129
5	10000	4.96	5.25	99.2
5	20000	4.59	4.88	92.2
5	30000	5.73	6.04	114
5	40000	4.25	4.53	85.7
5	50000	3.84	4.13	78
5	60000	4.86	5.15	97.2
5	70000	4.93	5.21	98.5
5	80000	3.55	3.83	72.4
5	90000	3.73	4.01	75.9
5	100000	4.97	5.25	99.3
5	110000	4.82	5.1	96.5
5	120000	3.64	3.92	74.1
5	130000	3.3	3.58	67.7
5	140000	4.39	4.68	88.4
5	150000	4.34	4.62	87.4
5	160000	3.35	3.63	68.7
5	170000	3.14	3.43	64.8
5	180000	3.75	4.04	76.4
5	190000	4.14	4.43	83.6
5	200000	3.42	3.71	70.1
5	210000	3.2	3.48	65.9
5	220000	3.97	4.26	80.5
5	230000	4.32	4.61	87.1
5	240000	3.15	3.43	64.9
5	250000	2.67	2.95	55.8
5	260000	4.01	4.3	81.3
5	270000	3.81	4.1	77.4
5	280000	2.71	3	56.7
5	290000	2.6	2.88	54.5
5	300000	3.4	3.68	69.6
5	310000	3.19	3.47	65.6
5	320000	2.17	2.45	46.3
5	330000	2.77	3.06	57.8
5	340000	4.22	4.51	85.2
5	350000	2.27	2.55	48.3
5	360000	2.18	2.47	46.7
6	0	4.15	2.38	44.9
6	-10000	5.2	2.98	56.3
6	-20000	5.34	3.08	58.1
6	-30000	7.47	5.21	98.5
6	-40000	6.41	4.15	78.4
6	-50000	7.01	4.75	89.7
6	-60000	8.39	6.13	116
6	-70000	8.17	5.91	112
6	-80000	6.72	4.46	84.3
6	-90000	7.04	4.78	90.4
6	-100000	8.08	5.82	110
6	-110000	7.16	4.9	92.6
6	-120000	6.09	3.83	72.3
6	-130000	6.84	4.58	86.6
6	-140000	7.67	5.41	102
6	-150000	7.04	4.78	90.3
6	-160000	6.43	4.17	78.8
6	-170000	6.82	4.56	86.2
6	-180000	7.84	5.58	105
6	-190000	7.73	5.47	103
6	-200000	6.63	4.37	82.6
6	-210000	6.83	4.57	86.3
6	-220000	7.91	5.65	107
6	-230000	7.97	5.71	108
6	-240000	6.97	4.71	89.1
6	-250000	7.62	5.36	101
6	-260000	8.84	6.58	124
6	-270000	8.4	6.14	116
6	-280000	7.62	5.36	101
6	-290000	7.59	5.33	101
6	-300000	8.17	5.91	112
6	-310000	7.62	5.36	101
6	-320000	6.76	4.5	85
6	-330000	6.09	3.83	72.3
6	-340000	7.21	4.95	93.6
6	-350000	5.89	3.63	68.7
6	-360000	5.71	3.45	65.3
