rep_num	position	torque	torque_compensated	lbs_compensated
1	0	4.39	4.67	88.3
1	10000	6.74	7.11	134
1	20000	6.85	7.22	137
1	30000	7.4	7.8	147
1	40000	5	5.28	99.8
1	50000	5.53	5.83	110
1	60000	6.88	7.25	137
1	70000	7.48	7.88	149
1	80000	6.71	7.07	134
1	90000	7.14	7.52	142
1	100000	8.84	9.32	176
1	110000	8.3	8.75	165
1	120000	6.92	7.29	138
1	130000	7.1	7.48	141
1	140000	8.47	8.92	169
1	150000	8.03	8.47	160
1	160000	6.77	7.14	135
1	170000	7.55	7.96	150
1	180000	9.04	9.53	180
1	190000	8.25	8.7	164
1	200000	7.33	7.72	146
1	210000	8.54	9.01	170
1	220000	9.3	9.8	185
1	230000	8.54	9	170
1	240000	7.89	8.31	157
1	250000	8.27	8.72	165
1	260000	9.56	10.1	190
1	270000	9.39	9.9	187
1	280000	8.22	8.66	164
1	290000	8.54	9	170
1	300000	9.91	10.4	198
1	310000	9.45	9.96	188
1	320000	8.31	8.76	165
1	330000	7.95	8.38	158
1	340000	9.98	10.5	199
1	350000	8.27	8.72	165
1	360000	8.69	9.16	173
2	0	10.3	8.03	152
2	-10000	9.97	7.71	146
2	-20000	10.7	8.42	159
2	-30000	12.2	9.95	188
2	-40000	11	8.7	164
2	-50000	10.4	8.16	154
2	-60000	11.7	9.44	178
2	-70000	11.7	9.45	179
2	-80000	10	7.74	146
2	-90000	10.2	7.98	151
2	-100000	11.4	9.18	173
2	-110000	11.7	9.47	179
2	-120000	10.7	8.42	159
2	-130000	9.82	7.56	143
2	-140000	10.8	8.51	161
2	-150000	10.7	8.4	159
2	-160000	9.28	7.02	133
2	-170000	8.6	6.34	120
2	-180000	9.96	7.7	145
2	-190000	10.2	7.92	150
2	-200000	8.67	6.41	121
2	-210000	8.07	5.81	110
2	-220000	9.63	7.37	139
2	-230000	9.77	7.51	142
2	-240000	8.37	6.11	115
2	-250000	7.96	5.7	108
2	-260000	9.21	6.95	131
2	-270000	9.72	7.46	141
2	-280000	8.39	6.13	116
2	-290000	7.81	5.55	105
2	-300000	8.96	6.7	127
2	-310000	9.46	7.2	136
2	-320000	8	5.74	109
2	-330000	7.93	5.67	107
2	-340000	8.86	6.6	125
2	-350000	6.88	4.62	87.3
2	-360000	6.67	4.41	83.4
2	0	6.39	6.74	127
2	10000	6.86	7.23	137
2	20000	6.92	7.3	138
2	30000	7.5	7.91	150
2	40000	6.43	6.77	128
2	50000	7.32	7.71	146
2	60000	8.56	9.02	171
2	70000	8.27	8.72	165
2	80000	6.94	7.31	138
2	90000	7.31	7.7	146
2	100000	8.57	9.04	171
2	110000	7.74	8.16	154
2	120000	6.65	7.01	133
2	130000	7.79	8.21	155
2	140000	8.96	9.44	178
2	150000	8.69	9.16	173
2	160000	7.2	7.59	143
2	170000	7.99	8.42	159
2	180000	8.88	9.36	177
2	190000	8.12	8.56	162
2	200000	7.07	7.45	141
2	210000	7.81	8.23	156
2	220000	8.94	9.42	178
2	230000	8.44	8.9	168
2	240000	7.53	7.93	150
2	250000	8.35	8.8	166
2	260000	9.08	9.57	181
2	270000	8.58	9.04	171
2	280000	6.97	7.34	139
2	290000	7.14	7.53	142
2	300000	8.42	8.88	168
2	310000	7.9	8.33	157
2	320000	7.17	7.55	143
2	330000	6.68	7.05	133
2	340000	8.84	9.31	176
2	350000	7.02	7.39	140
2	360000	7.09	7.47	141
3	0	8.48	6.22	117
3	-10000	11.2	8.96	169
3	-20000	11.4	9.14	173
3	-30000	12.9	10.7	202
3	-40000	11.4	9.14	173
3	-50000	11.3	9.08	172
3	-60000	12.4	10.1	191
3	-70000	12.5	10.2	193
3	-80000	11.2	8.91	168
3	-90000	10.8	8.57	162
3	-100000	11.9	9.6	181
3	-110000	11.9	9.62	182
3	-120000	10.4	8.13	154
3	-130000	9.68	7.42	140
3	-140000	11.2	8.94	169
3	-150000	11.9	9.66	183
3	-160000	11	8.78	166
3	-170000	10.5	8.27	156
3	-180000	11.6	9.36	177
3	-190000	11.6	9.34	176
3	-200000	9.82	7.56	143
3	-210000	9.11	6.85	129
3	-220000	10.4	8.16	154
3	-230000	10.9	8.64	163
3	-240000	10.4	8.13	154
3	-250000	9.85	7.59	143
3	-260000	11.4	9.16	173
3	-270000	12	9.77	185
3	-280000	11.2	8.97	170
3	-290000	10.6	8.31	157
3	-300000	11.1	8.84	167
3	-310000	11.1	8.8	166
3	-320000	9.54	7.28	138
3	-330000	9.45	7.19	136
3	-340000	11	8.73	165
3	-350000	8.9	6.64	126
3	-360000	7.29	5.03	95.1
3	0	5.84	6.16	116
3	10000	7.4	7.8	147
3	20000	7.51	7.91	150
3	30000	8.57	9.03	171
3	40000	6.76	7.13	135
3	50000	7.21	7.6	144
3	60000	7.72	8.14	154
3	70000	7.34	7.73	146
3	80000	5.97	6.3	119
3	90000	6.32	6.66	126
3	100000	7.71	8.13	154
3	110000	7.18	7.57	143
3	120000	5.78	6.09	115
3	130000	6.66	7.02	133
3	140000	7.73	8.14	154
3	150000	6.68	7.04	133
3	160000	5.65	5.96	113
3	170000	6.63	6.99	132
3	180000	8.34	8.79	166
3	190000	7.97	8.4	159
3	200000	6.39	6.74	127
3	210000	7.22	7.61	144
3	220000	7.88	8.31	157
3	230000	7.11	7.49	142
3	240000	6.16	6.49	123
3	250000	6.75	7.11	134
3	260000	7.48	7.88	149
3	270000	6.84	7.21	136
3	280000	5.73	6.04	114
3	290000	5.93	6.25	118
3	300000	6.84	7.2	136
3	310000	6.13	6.46	122
3	320000	4.82	5.1	96.4
3	330000	4.75	5.04	95.2
3	340000	6.89	7.26	137
3	350000	5.23	5.51	104
3	360000	5.51	5.81	110
4	0	6.59	4.33	81.8
4	-10000	8.52	6.26	118
4	-20000	8.82	6.56	124
4	-30000	10.4	8.11	153
4	-40000	9.03	6.77	128
4	-50000	8.71	6.45	122
4	-60000	10.7	8.47	160
4	-70000	11.9	9.66	182
4	-80000	11.2	8.92	169
4	-90000	12	9.72	184
4	-100000	13.3	11	208
4	-110000	13.7	11.4	216
4	-120000	13.3	11.1	210
4	-130000	12.5	10.3	194
4	-140000	13.7	11.5	217
4	-150000	14	11.7	222
4	-160000	12.3	10.1	190
4	-170000	11.2	8.96	169
4	-180000	12.1	9.82	186
4	-190000	12.4	10.2	192
4	-200000	10.9	8.67	164
4	-210000	10.2	7.97	151
4	-220000	10.9	8.66	164
4	-230000	11	8.77	166
4	-240000	9.21	6.95	131
4	-250000	8.41	6.15	116
4	-260000	9.39	7.13	135
4	-270000	9.44	7.18	136
4	-280000	8.5	6.24	118
4	-290000	8.11	5.85	111
4	-300000	9.19	6.93	131
4	-310000	9.6	7.34	139
4	-320000	7.96	5.7	108
4	-330000	7.85	5.59	106
4	-340000	9.31	7.05	133
4	-350000	7.69	5.43	103
4	-360000	7.03	4.77	90.2
4	0	5.59	5.89	111
4	10000	4.39	4.68	88.4
4	20000	5.49	5.78	109
4	30000	7.05	7.43	140
4	40000	5.36	5.64	107
4	50000	5.89	6.21	117
4	60000	6.94	7.31	138
4	70000	6.64	7	132
4	80000	5.46	5.76	109
4	90000	5.59	5.89	111
4	100000	6.64	7	132
4	110000	6.21	6.55	124
4	120000	4.67	4.96	93.7
4	130000	5.34	5.63	106
4	140000	6.01	6.33	120
4	150000	5.57	5.87	111
4	160000	3.94	4.23	79.9
4	170000	4.92	5.21	98.4
4	180000	6.15	6.49	123
4	190000	5.61	5.92	112
4	200000	4.59	4.87	92.1
4	210000	5.16	5.44	103
4	220000	6.21	6.55	124
4	230000	5.6	5.9	112
4	240000	4.33	4.61	87.2
4	250000	4.67	4.95	93.6
4	260000	5.79	6.11	115
4	270000	5.44	5.73	108
4	280000	4.06	4.34	82.1
4	290000	4.42	4.7	88.9
4	300000	5.54	5.84	110
4	310000	5.07	5.35	101
4	320000	3.98	4.26	80.6
4	330000	3.46	3.74	70.8
4	340000	5.11	5.4	102
4	350000	3.22	3.5	66.2
4	360000	3.57	3.86	73
5	0	4.84	2.78	52.5
5	-10000	6.11	3.85	72.7
5	-20000	6.25	3.99	75.5
5	-30000	8	5.74	108
5	-40000	6.54	4.28	80.9
5	-50000	6.41	4.15	78.5
5	-60000	7.76	5.5	104
5	-70000	8.18	5.92	112
5	-80000	6.84	4.58	86.6
5	-90000	6.93	4.67	88.3
5	-100000	8.6	6.34	120
5	-110000	8.85	6.59	125
5	-120000	8.23	5.97	113
5	-130000	7.6	5.34	101
5	-140000	8.69	6.43	122
5	-150000	9.49	7.23	137
5	-160000	9.02	6.76	128
5	-170000	9.3	7.04	133
5	-180000	10.8	8.5	161
5	-190000	11.6	9.31	176
5	-200000	10.3	8.08	153
5	-210000	9.58	7.32	138
5	-220000	10.4	8.12	154
5	-230000	10.2	7.99	151
5	-240000	8.68	6.42	121
5	-250000	8.19	5.93	112
5	-260000	8.82	6.56	124
5	-270000	9.03	6.77	128
5	-280000	8.34	6.08	115
5	-290000	7.67	5.41	102
5	-300000	8.44	6.18	117
5	-310000	9.38	7.12	135
5	-320000	8.38	6.12	116
5	-330000	7.83	5.57	105
5	-340000	9.15	6.89	130
5	-350000	7.34	5.08	96
5	-360000	6.11	3.85	72.7
5	0	4.76	5.05	95.4
5	10000	5.05	5.34	101
5	20000	5.15	5.44	103
5	30000	5.96	6.28	119
5	40000	4.18	4.47	84.4
5	50000	3.96	4.25	80.2
5	60000	5.57	5.87	111
5	70000	4.89	5.18	97.9
5	80000	4.02	4.31	81.5
5	90000	4.6	4.88	92.3
5	100000	5.96	6.28	119
5	110000	5.19	5.48	104
5	120000	3.82	4.11	77.7
5	130000	4.39	4.68	88.5
5	140000	5.55	5.85	111
5	150000	4.71	4.99	94.4
5	160000	3.62	3.91	73.8
5	170000	4.46	4.75	89.7
5	180000	5.46	5.76	109
5	190000	4.61	4.9	92.6
5	200000	3.42	3.71	70.1
5	210000	4.42	4.7	88.9
5	220000	5.1	5.39	102
5	230000	4.45	4.74	89.5
5	240000	3.3	3.59	67.8
5	250000	3.51	3.8	71.8
5	260000	4.55	4.84	91.4
5	270000	3.81	4.1	77.4
5	280000	2.38	2.67	50.4
5	290000	2.49	2.78	52.5
5	300000	3.84	4.13	78
5	310000	3.11	3.39	64.1
5	320000	2.15	2.44	46.1
5	330000	1.72	2	37.8
5	340000	3.74	4.02	76.1
5	350000	2.06	2.34	44.3
5	360000	2.21	2.49	47.1
6	0	3.42	1.96	37
6	-10000	5.32	3.06	57.8
6	-20000	6.09	3.83	72.4
6	-30000	8.37	6.11	115
6	-40000	6.93	4.67	88.2
6	-50000	6.3	4.04	76.4
6	-60000	7.53	5.27	99.6
6	-70000	7.47	5.21	98.5
6	-80000	6.7	4.44	83.9
6	-90000	6.78	4.52	85.5
6	-100000	8.12	5.86	111
6	-110000	8.57	6.31	119
6	-120000	7.73	5.47	103
6	-130000	7.32	5.06	95.7
6	-140000	8.52	6.26	118
6	-150000	9.06	6.8	129
6	-160000	7.58	5.32	100
6	-170000	6.98	4.72	89.3
6	-180000	8.39	6.13	116
6	-190000	8.57	6.31	119
6	-200000	7.4	5.14	97.1
6	-210000	6.98	4.72	89.2
6	-220000	8.39	6.13	116
6	-230000	8.38	6.12	116
6	-240000	6.65	4.39	83
6	-250000	6.31	4.05	76.6
6	-260000	7.87	5.61	106
6	-270000	7.96	5.7	108
6	-280000	6.91	4.65	87.9
6	-290000	6.1	3.84	72.6
6	-300000	6.89	4.63	87.6
6	-310000	7.3	5.04	95.2
6	-320000	5.42	3.16	59.7
6	-330000	5.56	3.3	62.4
6	-340000	6.88	4.62	87.3
6	-350000	5.23	3	56.6
6	-360000	4.25	2.43	46
