rep_num	position	torque	torque_compensated	lbs_compensated
1	0	2.77	3.05	57.7
1	10000	5.39	5.68	107
1	20000	6.04	6.36	120
1	30000	6.59	6.95	131
1	40000	7.53	7.94	150
1	50000	8.38	8.83	167
1	60000	9.33	9.83	186
1	70000	10.4	10.9	206
1	80000	10.7	11.2	212
1	90000	10.4	10.9	207
1	100000	11.3	11.9	224
1	110000	12	12.7	239
1	120000	12.6	13.3	251
1	130000	13.2	14	264
1	140000	13.4	14.1	266
1	150000	13.5	14.2	269
1	160000	14.5	15.3	289
1	170000	14.4	15.2	287
1	180000	13.7	14.4	273
1	190000	14.8	15.6	295
1	200000	15.6	16.4	310
1	210000	15.7	16.5	313
1	220000	15.3	16.1	305
1	230000	16.5	17.4	328
1	240000	16.4	17.3	327
1	250000	16	16.9	319
1	260000	15.5	16.3	309
1	270000	15.1	15.9	301
1	280000	15.9	16.8	317
1	290000	15.5	16.3	308
2	0	16.9	14.6	276
2	-10000	19.4	17.1	323
2	-20000	19.1	16.8	318
2	-30000	19.6	17.4	329
2	-40000	20.5	18.2	344
2	-50000	20.2	17.9	339
2	-60000	19.5	17.2	325
2	-70000	19.2	16.9	320
2	-80000	19.2	17	320
2	-90000	19.1	16.8	318
2	-100000	19.5	17.3	327
2	-110000	19.9	17.6	332
2	-120000	19.6	17.4	328
2	-130000	18.8	16.6	313
2	-140000	19.8	17.5	331
2	-150000	18.5	16.2	306
2	-160000	18	15.7	298
2	-170000	17.6	15.4	291
2	-180000	17.2	14.9	282
2	-190000	17.2	15	283
2	-200000	16.8	14.6	275
2	-210000	15.7	13.4	253
2	-220000	16	13.7	259
2	-230000	15.7	13.5	255
2	-240000	17.3	15	283
2	-250000	18.8	16.5	312
2	-260000	18	15.7	297
2	-270000	16.6	14.3	270
2	-280000	16.1	13.8	262
2	-290000	14.7	12.4	235
2	0	12.9	13.6	258
2	10000	14.2	15	284
2	20000	13.7	14.4	273
2	30000	14	14.7	279
2	40000	14.8	15.6	295
2	50000	13.8	14.6	275
2	60000	13.6	14.3	270
2	70000	13.3	14	265
2	80000	12.7	13.3	252
2	90000	12.3	13	245
2	100000	12.8	13.5	256
2	110000	14.1	14.9	282
2	120000	14.7	15.5	294
2	130000	15.4	16.3	308
2	140000	16.5	17.4	330
2	150000	16.9	17.8	336
2	160000	17.2	18.2	343
2	170000	16.2	17	322
2	180000	15.2	16	302
2	190000	15.6	16.5	312
2	200000	15.4	16.2	306
2	210000	16.2	17	322
2	220000	16.1	17	321
2	230000	16.5	17.4	328
2	240000	16	16.9	319
2	250000	15.4	16.2	307
2	260000	14.3	15.1	285
2	270000	14.1	14.8	281
2	280000	14.3	15	284
2	290000	14.1	14.9	282
3	0	15.5	13.2	249
3	-10000	17.7	15.5	292
3	-20000	15.9	13.6	257
3	-30000	17.4	15.1	286
3	-40000	18.7	16.4	310
3	-50000	18.1	15.8	299
3	-60000	17.4	15.1	286
3	-70000	18.4	16.1	305
3	-80000	19.5	17.2	326
3	-90000	18.8	16.6	314
3	-100000	16.6	14.3	271
3	-110000	18	15.7	297
3	-120000	18.3	16.1	303
3	-130000	18.3	16	302
3	-140000	18.8	16.5	312
3	-150000	17.3	15	284
3	-160000	17.3	15.1	284
3	-170000	17.7	15.4	292
3	-180000	18	15.7	297
3	-190000	19	16.7	316
3	-200000	20	17.7	335
3	-210000	18.9	16.6	314
3	-220000	16.2	13.9	263
3	-230000	14.4	12.2	230
3	-240000	12.9	10.6	201
3	-250000	9.57	7.31	138
3	-260000	6.69	4.43	83.7
3	-270000	4.81	2.76	52.1
3	-280000	4.61	2.64	49.9
3	-290000	3.44	1.97	37.3
3	0	1.79	2.08	39.3
3	10000	2.09	2.38	44.9
3	20000	5.34	5.63	106
3	30000	7.82	8.24	156
3	40000	9.34	9.85	186
3	50000	9.36	9.87	186
3	60000	10.6	11.2	212
3	70000	11.6	12.2	231
3	80000	12.3	13	246
3	90000	12.3	13	245
3	100000	12.9	13.6	258
3	110000	13.7	14.5	274
3	120000	13.7	14.5	274
3	130000	14.5	15.3	289
3	140000	14.5	15.3	289
3	150000	15.7	16.6	313
3	160000	16.5	17.4	330
3	170000	16.7	17.6	332
3	180000	17.3	18.2	344
3	190000	17.6	18.6	351
3	200000	17.6	18.6	351
3	210000	17.1	18	341
3	220000	16.3	17.2	324
3	230000	17	17.9	338
3	240000	16.8	17.7	334
3	250000	15.9	16.8	317
3	260000	15	15.8	298
3	270000	14.3	15.1	285
3	280000	15.3	16.1	304
3	290000	15.2	16	303
4	0	16.3	14	265
4	-10000	20.1	17.9	337
4	-20000	19.9	17.6	333
4	-30000	19.9	17.7	334
4	-40000	20.1	17.8	337
4	-50000	18.9	16.7	315
4	-60000	19	16.7	316
4	-70000	19.4	17.2	324
4	-80000	19.2	16.9	320
4	-90000	18.3	16	303
4	-100000	18.7	16.4	310
4	-110000	20.1	17.8	337
4	-120000	20.4	18.2	343
4	-130000	19.4	17.1	323
4	-140000	20.3	18	340
4	-150000	20.3	18	341
4	-160000	19.7	17.4	330
4	-170000	19.6	17.3	328
4	-180000	18.6	16.3	308
4	-190000	18.8	16.5	312
4	-200000	18.2	15.9	301
4	-210000	17.6	15.4	291
4	-220000	15.3	13	246
4	-230000	14.8	12.6	238
4	-240000	15.3	13.1	247
4	-250000	15.1	12.9	244
4	-260000	14.3	12	227
4	-270000	14.3	12.1	228
4	-280000	14.1	11.8	223
4	-290000	12.9	10.6	201
4	0	11	11.6	218
4	10000	11.3	11.9	225
4	20000	10.5	11	209
4	30000	9.84	10.4	196
4	40000	9.73	10.3	194
4	50000	10.4	11	208
4	60000	10.3	10.8	205
4	70000	10.3	10.8	204
4	80000	11	11.6	220
4	90000	11.7	12.4	234
4	100000	12.6	13.2	250
4	110000	13	13.7	259
4	120000	13.4	14.1	267
4	130000	14.6	15.4	292
4	140000	14.4	15.2	287
4	150000	13.6	14.4	272
4	160000	13.7	14.5	273
4	170000	13.6	14.3	271
4	180000	13.7	14.4	273
4	190000	14.2	15	284
4	200000	13.8	14.5	274
4	210000	13.5	14.2	269
4	220000	13.4	14.1	267
4	230000	14	14.8	279
4	240000	14.1	14.9	282
4	250000	13.1	13.8	261
4	260000	12.5	13.2	249
4	270000	12	12.6	239
4	280000	11.6	12.2	232
4	290000	11.1	11.7	221
5	0	12.7	10.4	196
5	-10000	16.2	13.9	263
5	-20000	15.8	13.6	256
5	-30000	14.8	12.6	238
5	-40000	15.3	13	246
5	-50000	15.6	13.4	253
5	-60000	14.4	12.2	230
5	-70000	15.1	12.9	243
5	-80000	16.1	13.8	261
5	-90000	15.5	13.2	250
5	-100000	12.5	10.2	193
5	-110000	14.6	12.4	234
5	-120000	15.5	13.2	249
5	-130000	15.7	13.4	253
5	-140000	15.4	13.2	249
5	-150000	15.3	13	246
5	-160000	15.4	13.1	248
5	-170000	15.6	13.4	253
5	-180000	14.3	12.1	228
5	-190000	13.7	11.5	217
5	-200000	13.3	11	208
5	-210000	13.7	11.4	216
5	-220000	13	10.7	202
5	-230000	12.6	10.3	195
5	-240000	12.7	10.4	197
5	-250000	12.1	9.87	187
5	-260000	9.33	7.07	134
5	-270000	7.13	4.87	92
5	-280000	4.78	2.74	51.8
5	-290000	3.24	1.85	35.1
5	0	1.93	2.22	41.9
5	10000	4.31	4.59	86.8
5	20000	5.89	6.2	117
5	30000	6.87	7.24	137
5	40000	7.49	7.9	149
5	50000	7.69	8.11	153
5	60000	8.65	9.12	172
5	70000	9.76	10.3	195
5	80000	9.13	9.62	182
5	90000	9.07	9.56	181
5	100000	9.41	9.92	187
5	110000	8	8.43	159
5	120000	8.74	9.21	174
5	130000	10.4	11	208
5	140000	11.4	12	226
5	150000	12.1	12.7	240
5	160000	12.2	12.9	243
5	170000	11.2	11.8	223
5	180000	10.6	11.1	210
5	190000	11.1	11.7	221
5	200000	11.2	11.9	224
5	210000	10.7	11.2	212
5	220000	10	10.6	200
5	230000	11.3	11.9	225
5	240000	11.9	12.5	237
5	250000	12	12.7	240
5	260000	11.8	12.4	235
5	270000	11.1	11.7	221
5	280000	12	12.7	240
5	290000	11.9	12.6	238
6	0	13	10.8	203
6	-10000	13.4	11.2	211
6	-20000	14	11.7	222
6	-30000	13.4	11.1	211
6	-40000	13.6	11.3	214
6	-50000	14.9	12.6	239
6	-60000	15.9	13.7	258
6	-70000	16.6	14.4	271
6	-80000	16.3	14.1	266
6	-90000	13.5	11.2	213
6	-100000	14.1	11.8	224
6	-110000	14.6	12.3	233
6	-120000	14.1	11.9	224
6	-130000	13.6	11.4	215
6	-140000	14	11.7	221
6	-150000	14.2	12	227
6	-160000	14.9	12.6	238
6	-170000	14.7	12.4	235
6	-180000	13.7	11.5	217
6	-190000	13.4	11.2	211
6	-200000	13.3	11.1	209
6	-210000	13.2	11	207
6	-220000	12.2	9.97	188
6	-230000	12.5	10.2	193
6	-240000	12.2	9.99	189
6	-250000	11.5	9.24	175
6	-260000	11.4	9.14	173
6	-270000	10.5	8.29	157
6	-280000	9.98	7.72	146
6	-290000	8.95	6.69	126
