rep_num	position	torque	torque_compensated	lbs_compensated
1	0	2.48	2.77	52.3
1	10000	7.11	7.5	142
1	20000	9.79	10.3	195
1	30000	10.9	11.5	218
1	40000	11.1	11.6	220
1	50000	12	12.7	239
1	60000	12.5	13.1	248
1	70000	12.1	12.7	240
1	80000	12	12.7	240
1	90000	13.7	14.4	272
1	100000	14.4	15.2	287
1	110000	13.8	14.5	274
1	120000	13.7	14.4	272
1	130000	13.8	14.5	275
1	140000	14.1	14.8	280
1	150000	13.4	14.1	267
1	160000	13.4	14.1	267
1	170000	13.5	14.2	269
1	180000	14.2	14.9	282
1	190000	15.4	16.3	307
1	200000	15.2	16	303
1	210000	16.1	17	321
1	220000	17.2	18.1	342
1	230000	16.9	17.8	337
1	240000	15.9	16.7	316
1	250000	15.7	16.5	313
1	260000	16.2	17	322
1	270000	16.2	17.1	323
1	280000	14.7	15.5	293
1	290000	13.8	14.5	275
2	0	14.7	12.5	236
2	-10000	14.6	12.3	233
2	-20000	15.8	13.5	255
2	-30000	17.9	15.6	295
2	-40000	18.2	16	302
2	-50000	19.1	16.9	319
2	-60000	19.8	17.6	332
2	-70000	19.8	17.5	331
2	-80000	19	16.7	316
2	-90000	18.6	16.3	309
2	-100000	20	17.7	335
2	-110000	20.6	18.4	347
2	-120000	20	17.7	335
2	-130000	20.4	18.2	344
2	-140000	22.3	20	379
2	-150000	21.7	19.4	367
2	-160000	19.6	17.3	327
2	-170000	19.4	17.1	323
2	-180000	19.8	17.5	331
2	-190000	18.8	16.5	313
2	-200000	17.7	15.4	291
2	-210000	17.5	15.2	287
2	-220000	18.2	16	302
2	-230000	17.7	15.4	292
2	-240000	17.9	15.7	296
2	-250000	18.9	16.6	315
2	-260000	19	16.7	316
2	-270000	18.4	16.2	305
2	-280000	16.9	14.6	276
2	-290000	17.4	15.1	285
2	0	14.6	15.4	290
2	10000	11.9	12.6	238
2	20000	12.5	13.2	250
2	30000	11.8	12.5	236
2	40000	10.3	10.8	205
2	50000	12.4	13	246
2	60000	11.1	11.7	222
2	70000	11	11.6	219
2	80000	12.2	12.9	244
2	90000	14.3	15.1	284
2	100000	15.6	16.5	312
2	110000	15	15.9	300
2	120000	15.6	16.4	310
2	130000	17.3	18.3	345
2	140000	17.4	18.4	347
2	150000	17	17.9	338
2	160000	17	17.9	339
2	170000	18.2	19.2	362
2	180000	19.1	20.1	381
2	190000	18.4	19.4	366
2	200000	18.5	19.4	368
2	210000	19.5	20.5	388
2	220000	19.1	20.1	380
2	230000	17.3	18.2	344
2	240000	15.8	16.6	315
2	250000	15.2	16	303
2	260000	14.9	15.7	296
2	270000	14.8	15.6	295
2	280000	12.6	13.3	252
2	290000	12.4	13.1	248
3	0	13.4	11.2	211
3	-10000	15.9	13.6	257
3	-20000	16.3	14.1	266
3	-30000	18.4	16.2	306
3	-40000	18.4	16.2	305
3	-50000	19	16.7	316
3	-60000	20.9	18.6	352
3	-70000	21	18.7	354
3	-80000	19.6	17.4	328
3	-90000	19.3	17	322
3	-100000	20.5	18.2	344
3	-110000	21.1	18.9	356
3	-120000	19.6	17.4	328
3	-130000	18.7	16.4	311
3	-140000	19.3	17	321
3	-150000	19.4	17.2	324
3	-160000	18	15.8	298
3	-170000	18.5	16.3	308
3	-180000	19.6	17.4	328
3	-190000	18.3	16.1	304
3	-200000	17.2	15	283
3	-210000	18	15.8	298
3	-220000	18	15.7	297
3	-230000	17.1	14.9	281
3	-240000	16.8	14.6	275
3	-250000	16.1	13.8	261
3	-260000	16.9	14.7	277
3	-270000	15.7	13.4	253
3	-280000	13.9	11.6	220
3	-290000	13.4	11.2	211
3	0	11.1	11.7	221
3	10000	13.7	14.5	274
3	20000	15.7	16.5	313
3	30000	13.7	14.5	274
3	40000	13.7	14.5	273
3	50000	14.7	15.5	293
3	60000	15.6	16.4	310
3	70000	14.9	15.7	298
3	80000	13	13.7	259
3	90000	14.1	14.8	280
3	100000	15.4	16.3	307
3	110000	14	14.7	278
3	120000	12.6	13.3	251
3	130000	13.7	14.5	274
3	140000	13.1	13.8	262
3	150000	12.7	13.4	254
3	160000	12.8	13.5	255
3	170000	13.7	14.4	273
3	180000	14.4	15.2	287
3	190000	13.3	14	265
3	200000	13.2	13.9	264
3	210000	14.7	15.5	293
3	220000	15.4	16.2	306
3	230000	15.9	16.8	318
3	240000	14.8	15.6	295
3	250000	13.3	14	265
3	260000	12.7	13.4	254
3	270000	12.2	12.9	243
3	280000	11.4	12	227
3	290000	10.7	11.3	213
4	0	11.9	9.6	182
4	-10000	14	11.7	222
4	-20000	14	11.8	222
4	-30000	14.5	12.3	232
4	-40000	14.7	12.4	235
4	-50000	16.2	14	264
4	-60000	17.4	15.2	287
4	-70000	18.4	16.2	306
4	-80000	18.2	15.9	301
4	-90000	18	15.8	298
4	-100000	19.7	17.4	330
4	-110000	20	17.7	335
4	-120000	18	15.7	297
4	-130000	16.9	14.7	277
4	-140000	17.4	15.2	287
4	-150000	16.9	14.7	277
4	-160000	16.4	14.1	266
4	-170000	16.7	14.4	273
4	-180000	17.5	15.3	289
4	-190000	16.8	14.6	275
4	-200000	15.4	13.2	249
4	-210000	15.5	13.2	250
4	-220000	15.3	13	246
4	-230000	15.5	13.2	250
4	-240000	15.3	13.1	247
4	-250000	15.3	13	247
4	-260000	15.3	13	247
4	-270000	14.7	12.4	235
4	-280000	14.1	11.8	224
4	-290000	13.8	11.6	219
4	0	12.9	13.6	257
4	10000	14.2	14.9	282
4	20000	14.6	15.4	290
4	30000	13.4	14.1	266
4	40000	12.3	13	245
4	50000	14.1	14.9	281
4	60000	16	16.9	319
4	70000	15.8	16.7	315
4	80000	15.3	16.2	306
4	90000	17	17.9	339
4	100000	18.2	19.1	362
4	110000	16.1	16.9	320
4	120000	15.9	16.8	317
4	130000	16.8	17.7	334
4	140000	16.5	17.4	329
4	150000	16.1	17	322
4	160000	16.1	16.9	320
4	170000	17.8	18.8	355
4	180000	19	20	378
4	190000	17.8	18.8	356
4	200000	16.4	17.3	328
4	210000	16.6	17.5	331
4	220000	16.4	17.2	326
4	230000	15.4	16.2	307
4	240000	13.7	14.4	273
4	250000	12.7	13.4	253
4	260000	12.3	13	245
4	270000	10.5	11.1	209
4	280000	8.69	9.16	173
4	290000	8.39	8.84	167
5	0	9.79	7.53	142
5	-10000	13.3	11.1	209
5	-20000	14.6	12.3	233
5	-30000	15.2	12.9	244
5	-40000	14.7	12.5	236
5	-50000	15.9	13.6	257
5	-60000	18	15.7	298
5	-70000	19.8	17.6	332
5	-80000	20.3	18	341
5	-90000	20.4	18.1	342
5	-100000	21.7	19.4	367
5	-110000	22.3	20	378
5	-120000	21.8	19.6	370
5	-130000	22.2	20	377
5	-140000	23.7	21.4	404
5	-150000	22.9	20.6	390
5	-160000	21.6	19.3	366
5	-170000	21.5	19.3	364
5	-180000	22.5	20.3	383
5	-190000	22.1	19.9	376
5	-200000	21.7	19.5	368
5	-210000	22.4	20.2	382
5	-220000	22.8	20.6	389
5	-230000	21.4	19.1	362
5	-240000	19.9	17.6	333
5	-250000	15.3	13	246
5	-260000	13.1	10.9	206
5	-270000	12.3	10.1	190
5	-280000	7.3	5.04	95.2
5	-290000	7.13	4.87	92
5	0	5.83	6.14	116
5	10000	12.1	12.8	242
5	20000	13.3	14	265
5	30000	13.7	14.4	273
5	40000	13	13.7	259
5	50000	14.4	15.1	286
5	60000	15.7	16.6	313
5	70000	14.3	15.1	285
5	80000	12.3	13	246
5	90000	14	14.7	278
5	100000	15.2	16	303
5	110000	14.2	14.9	282
5	120000	14.3	15.1	285
5	130000	15.2	16	302
5	140000	16.2	17.1	323
5	150000	16.1	17	321
5	160000	15.6	16.5	311
5	170000	14.9	15.7	296
5	180000	15.1	15.9	300
5	190000	14.1	14.9	282
5	200000	12.3	13	245
5	210000	12.9	13.6	257
5	220000	12.8	13.5	255
5	230000	11.7	12.3	233
5	240000	10	10.6	200
5	250000	9.81	10.3	195
5	260000	11	11.6	219
5	270000	10.6	11.1	210
5	280000	8.97	9.46	179
5	290000	8.76	9.24	175
6	0	10.1	7.82	148
6	-10000	14	11.8	223
6	-20000	15.1	12.8	243
6	-30000	16.3	14	266
6	-40000	16.6	14.4	272
6	-50000	17.2	14.9	282
6	-60000	18.2	15.9	301
6	-70000	20.1	17.8	337
6	-80000	21	18.7	353
6	-90000	21.4	19.1	361
6	-100000	21.5	19.3	364
6	-110000	22.3	20	379
6	-120000	21.9	19.7	372
6	-130000	21	18.7	354
6	-140000	21.4	19.2	362
6	-150000	21.7	19.5	368
6	-160000	19.4	17.1	324
6	-170000	20.2	18	340
6	-180000	22.6	20.3	384
6	-190000	22.9	20.6	390
6	-200000	21.9	19.7	372
6	-210000	22.2	19.9	376
6	-220000	23.2	20.9	395
6	-230000	22.4	20.1	381
6	-240000	21.3	19	360
6	-250000	19.7	17.5	330
6	-260000	20.4	18.1	343
6	-270000	20.3	18.1	342
6	-280000	18	15.7	298
6	-290000	15	12.8	242
