rep_num	position	torque	torque_compensated	lbs_compensated
1	0	6.77	7.14	135
1	10000	9.64	10.2	192
1	20000	10.3	10.8	205
1	30000	11.2	11.8	223
1	40000	11.5	12.1	229
1	50000	11.9	12.5	237
1	60000	12.3	13	245
1	70000	12.7	13.4	253
1	80000	12.9	13.6	258
1	90000	13.6	14.4	272
1	100000	13.5	14.2	269
1	110000	13.5	14.2	269
1	120000	14.1	14.9	282
1	130000	14.8	15.6	294
1	140000	15.1	15.9	301
1	150000	15.8	16.7	316
1	160000	16.4	17.3	327
1	170000	16.3	17.2	325
1	180000	16.2	17.1	324
1	190000	17	18	340
1	200000	17.2	18.1	342
1	210000	16.9	17.8	337
1	220000	16.7	17.6	333
1	230000	16.3	17.2	326
1	240000	15.9	16.7	316
1	250000	15.2	16	303
1	260000	14.8	15.6	295
1	270000	14.3	15.1	286
1	280000	13.8	14.6	276
1	290000	13.6	14.3	271
2	0	15.6	13.4	253
2	-10000	20.3	18.1	341
2	-20000	21	18.8	355
2	-30000	21.3	19.1	360
2	-40000	22.4	20.1	381
2	-50000	22.7	20.5	387
2	-60000	22.3	20.1	379
2	-70000	22.1	19.8	375
2	-80000	22.3	20	378
2	-90000	22.3	20	379
2	-100000	22.7	20.4	386
2	-110000	23.5	21.2	401
2	-120000	22.8	20.5	388
2	-130000	21.6	19.4	366
2	-140000	21.4	19.1	362
2	-150000	20.5	18.3	346
2	-160000	20.8	18.5	351
2	-170000	21.4	19.1	361
2	-180000	22	19.8	374
2	-190000	21.5	19.2	363
2	-200000	21.6	19.3	365
2	-210000	21.4	19.1	362
2	-220000	21.4	19.2	363
2	-230000	21.4	19.1	361
2	-240000	21.9	19.6	371
2	-250000	21.5	19.2	363
2	-260000	20.9	18.7	353
2	-270000	19.4	17.1	323
2	-280000	18.6	16.4	310
2	-290000	18.4	16.2	305
2	0	15.6	16.4	311
2	10000	16.3	17.2	326
2	20000	16.4	17.3	326
2	30000	16.6	17.5	330
2	40000	16.5	17.4	329
2	50000	16.7	17.6	333
2	60000	17.3	18.3	345
2	70000	16.9	17.8	336
2	80000	16.6	17.5	331
2	90000	16.3	17.2	325
2	100000	15.8	16.7	316
2	110000	16	16.8	318
2	120000	16	16.9	319
2	130000	16.5	17.4	328
2	140000	16.4	17.3	327
2	150000	16.3	17.2	325
2	160000	16.3	17.2	324
2	170000	16.5	17.4	329
2	180000	17.3	18.2	345
2	190000	18.1	19.1	360
2	200000	18.4	19.4	366
2	210000	17.9	18.8	356
2	220000	17.2	18.1	342
2	230000	16.6	17.5	330
2	240000	16	16.9	319
2	250000	15.4	16.2	306
2	260000	14.9	15.7	297
2	270000	15.7	16.5	312
2	280000	15.1	15.9	300
2	290000	14.1	14.8	280
3	0	15.4	13.2	249
3	-10000	18.3	16.1	303
3	-20000	19.6	17.4	328
3	-30000	19.9	17.7	334
3	-40000	20.5	18.2	344
3	-50000	20.4	18.1	343
3	-60000	19.8	17.5	331
3	-70000	20.9	18.7	353
3	-80000	22	19.8	374
3	-90000	21.8	19.5	369
3	-100000	21.2	18.9	358
3	-110000	21.9	19.7	372
3	-120000	22.1	19.8	374
3	-130000	21.7	19.4	367
3	-140000	21.8	19.6	370
3	-150000	21.9	19.7	372
3	-160000	21.1	18.8	356
3	-170000	21.4	19.1	361
3	-180000	21.5	19.2	364
3	-190000	20.5	18.2	345
3	-200000	20.3	18	340
3	-210000	20.2	17.9	339
3	-220000	19.9	17.6	333
3	-230000	20	17.8	336
3	-240000	20.3	18.1	342
3	-250000	20.1	17.9	338
3	-260000	20.3	18.1	342
3	-270000	19.6	17.4	328
3	-280000	19.1	16.8	318
3	-290000	18.9	16.7	315
3	0	16.3	17.2	326
3	10000	15.9	16.8	317
3	20000	15.7	16.5	312
3	30000	16.5	17.4	328
3	40000	17.1	18	341
3	50000	16.2	17.1	323
3	60000	16	16.9	319
3	70000	15.9	16.8	317
3	80000	16.4	17.3	326
3	90000	16.5	17.4	328
3	100000	16.3	17.1	324
3	110000	16.3	17.1	324
3	120000	16.7	17.6	333
3	130000	17	17.9	338
3	140000	17.2	18.1	342
3	150000	17.9	18.9	357
3	160000	17.9	18.9	357
3	170000	17.9	18.9	358
3	180000	18.4	19.4	367
3	190000	19.3	20.3	384
3	200000	18.7	19.8	373
3	210000	18.3	19.3	364
3	220000	17.9	18.9	357
3	230000	17.3	18.2	345
3	240000	15.6	16.4	310
3	250000	13.4	14.1	267
3	260000	11.3	11.9	226
3	270000	10.6	11.2	212
3	280000	10.8	11.4	215
3	290000	11.4	12.1	228
4	0	13.1	10.9	205
4	-10000	15.8	13.5	255
4	-20000	17.6	15.4	291
4	-30000	18.1	15.9	300
4	-40000	18.5	16.2	307
4	-50000	20.1	17.8	337
4	-60000	21	18.7	353
4	-70000	21.2	19	359
4	-80000	21.6	19.3	365
4	-90000	21.9	19.6	371
4	-100000	22.4	20.1	380
4	-110000	23.2	20.9	395
4	-120000	23.5	21.2	402
4	-130000	23.3	21.1	398
4	-140000	24.2	21.9	414
4	-150000	24.1	21.8	412
4	-160000	23.7	21.4	405
4	-170000	24.2	22	415
4	-180000	23.8	21.5	406
4	-190000	23.1	20.8	394
4	-200000	22.8	20.6	389
4	-210000	23.5	21.2	401
4	-220000	23	20.8	393
4	-230000	22.5	20.3	383
4	-240000	22.8	20.5	388
4	-250000	22	19.7	373
4	-260000	20.2	18	340
4	-270000	17.4	15.2	287
4	-280000	14.9	12.6	239
4	-290000	10.4	8.11	153
4	0	10.3	10.9	206
4	10000	15.8	16.7	316
4	20000	15.3	16.1	304
4	30000	14.7	15.5	293
4	40000	13.7	14.4	272
4	50000	15	15.8	299
4	60000	14.8	15.6	294
4	70000	15.2	16	302
4	80000	15.3	16.1	305
4	90000	15.9	16.8	317
4	100000	17.5	18.5	349
4	110000	18.1	19.1	361
4	120000	19.2	20.2	382
4	130000	19	20	378
4	140000	18.7	19.7	372
4	150000	17.8	18.8	356
4	160000	18	19	359
4	170000	16.7	17.6	332
4	180000	16.1	17	321
4	190000	16.3	17.1	324
4	200000	15.8	16.7	315
4	210000	15.5	16.4	310
4	220000	15.1	15.9	300
4	230000	14	14.8	279
4	240000	13.1	13.8	260
4	250000	11.5	12.1	229
4	260000	10.2	10.8	204
4	270000	10.6	11.1	210
4	280000	10.7	11.2	212
4	290000	9.84	10.4	196
5	0	11.1	8.88	168
5	-10000	14.2	12	226
5	-20000	14.4	12.1	229
5	-30000	15.4	13.1	248
5	-40000	17.4	15.2	287
5	-50000	19	16.7	317
5	-60000	19.2	16.9	320
5	-70000	19.5	17.3	326
5	-80000	20.9	18.7	353
5	-90000	21	18.8	355
5	-100000	21.3	19.1	360
5	-110000	21.5	19.2	364
5	-120000	21.2	19	359
5	-130000	22	19.8	374
5	-140000	22.4	20.1	380
5	-150000	22.5	20.2	382
5	-160000	21.4	19.1	362
5	-170000	21.5	19.2	364
5	-180000	21.5	19.3	364
5	-190000	21	18.7	354
5	-200000	21.3	19.1	361
5	-210000	21.2	18.9	358
5	-220000	21.2	18.9	358
5	-230000	20	17.7	334
5	-240000	20.4	18.2	343
5	-250000	19.7	17.5	331
5	-260000	18.5	16.2	307
5	-270000	17.9	15.7	296
5	-280000	16.9	14.6	276
5	-290000	14	11.7	222
5	0	11.9	12.5	236
5	10000	9.74	10.3	194
5	20000	11	11.6	219
5	30000	13	13.7	260
5	40000	13.9	14.6	276
5	50000	14.1	14.8	280
5	60000	14.1	14.8	280
5	70000	13.6	14.4	272
5	80000	13	13.8	260
5	90000	13.1	13.8	260
5	100000	13.9	14.7	277
5	110000	14.4	15.2	286
5	120000	15.2	16	302
5	130000	15.1	16	302
5	140000	15.4	16.3	308
5	150000	16.1	17	321
5	160000	16.4	17.3	327
5	170000	16.1	17	321
5	180000	15.5	16.4	309
5	190000	15.5	16.4	309
5	200000	15	15.8	298
5	210000	14	14.7	278
5	220000	13.6	14.4	271
5	230000	12.6	13.2	250
5	240000	11.3	12	226
5	250000	10.3	10.9	206
5	260000	9.11	9.61	182
5	270000	8.44	8.9	168
5	280000	8.27	8.72	165
5	290000	8	8.43	159
6	0	9.5	7.24	137
6	-10000	12.3	10	189
6	-20000	12.7	10.4	197
6	-30000	13.7	11.5	217
6	-40000	13.9	11.6	220
6	-50000	16	13.7	260
6	-60000	17.6	15.4	290
6	-70000	18.7	16.4	310
6	-80000	19.7	17.4	329
6	-90000	19	16.8	317
6	-100000	20.2	17.9	339
6	-110000	20	17.7	335
6	-120000	20.1	17.9	337
6	-130000	19.6	17.4	328
6	-140000	20.4	18.2	344
6	-150000	21.5	19.3	364
6	-160000	21.5	19.3	364
6	-170000	21.7	19.5	368
6	-180000	21.7	19.5	368
6	-190000	20.5	18.3	345
6	-200000	19.7	17.4	329
6	-210000	19.6	17.3	327
6	-220000	18.5	16.2	307
6	-230000	18	15.7	297
6	-240000	17.4	15.1	286
6	-250000	16	13.7	259
6	-260000	13.7	11.5	217
6	-270000	11.3	9.01	170
6	-280000	8.01	5.75	109
6	-290000	4.84	2.78	52.5
