rep_num	position	torque	torque_compensated	lbs_compensated
1	0	2.84	3.13	59.1
1	10000	7.06	7.44	141
1	20000	10.4	11	207
1	30000	9.48	9.99	189
1	40000	10	10.6	200
1	50000	11.7	12.4	234
1	60000	11.4	12	227
1	70000	10.1	10.7	202
1	80000	10.4	11	207
1	90000	13	13.7	259
1	100000	13.3	14.1	266
1	110000	11.6	12.3	232
1	120000	12.2	12.8	243
1	130000	14	14.7	278
1	140000	14.3	15	284
1	150000	13.4	14.1	266
1	160000	13.9	14.7	277
1	170000	15.2	16	303
1	180000	15.8	16.6	314
1	190000	14.6	15.4	291
1	200000	14	14.7	279
1	210000	15.3	16.2	306
1	220000	15.5	16.4	310
1	230000	13.4	14.1	267
1	240000	13.2	13.9	263
1	250000	14.3	15.1	285
1	260000	13.9	14.6	276
1	270000	13.7	14.4	273
1	280000	12.4	13.1	248
1	290000	12.3	12.9	244
2	0	13.2	10.9	206
2	-10000	17.1	14.9	281
2	-20000	17.8	15.5	293
2	-30000	19.6	17.4	329
2	-40000	18.1	15.8	299
2	-50000	17.5	15.3	289
2	-60000	19.1	16.8	318
2	-70000	19.6	17.4	329
2	-80000	19.6	17.4	328
2	-90000	19.6	17.3	327
2	-100000	21.7	19.5	368
2	-110000	22.6	20.3	384
2	-120000	20	17.7	335
2	-130000	18.4	16.2	306
2	-140000	20.4	18.1	343
2	-150000	21.5	19.2	364
2	-160000	19.6	17.3	328
2	-170000	19	16.7	316
2	-180000	20.8	18.5	349
2	-190000	21	18.8	355
2	-200000	19.7	17.4	330
2	-210000	20.1	17.9	337
2	-220000	21.5	19.3	364
2	-230000	21.2	18.9	358
2	-240000	19.3	17	322
2	-250000	18.3	16.1	304
2	-260000	18.8	16.5	312
2	-270000	17.7	15.5	292
2	-280000	15.4	13.1	248
2	-290000	13.8	11.6	219
2	0	12.6	13.2	250
2	10000	12	12.6	239
2	20000	13.9	14.7	277
2	30000	12.5	13.1	248
2	40000	11.9	12.5	237
2	50000	13.9	14.7	277
2	60000	14.4	15.1	286
2	70000	12.9	13.6	257
2	80000	13	13.7	259
2	90000	14.8	15.6	294
2	100000	15.4	16.2	306
2	110000	13.5	14.3	269
2	120000	14.6	15.3	290
2	130000	15.8	16.7	315
2	140000	14.9	15.7	297
2	150000	14	14.7	278
2	160000	14.3	15.1	285
2	170000	16.2	17	322
2	180000	15.2	16.1	303
2	190000	14.5	15.3	288
2	200000	14.7	15.5	294
2	210000	16.1	17	321
2	220000	16.1	16.9	320
2	230000	13.6	14.3	271
2	240000	13	13.7	258
2	250000	13.3	14	264
2	260000	12.7	13.4	253
2	270000	12.7	13.4	254
2	280000	11.3	11.9	225
2	290000	12.2	12.8	242
3	0	13.4	11.2	211
3	-10000	17.9	15.6	295
3	-20000	17.7	15.4	291
3	-30000	19.5	17.2	325
3	-40000	19.5	17.2	325
3	-50000	18.9	16.6	314
3	-60000	19.5	17.2	326
3	-70000	20.7	18.4	348
3	-80000	20.4	18.1	342
3	-90000	19.4	17.1	324
3	-100000	21.8	19.5	369
3	-110000	22.9	20.6	390
3	-120000	20.7	18.4	348
3	-130000	19.6	17.4	328
3	-140000	21.1	18.8	356
3	-150000	21.3	19	360
3	-160000	18.8	16.5	312
3	-170000	18.4	16.2	305
3	-180000	20.2	18	340
3	-190000	21.2	18.9	357
3	-200000	20.1	17.8	337
3	-210000	18.8	16.6	313
3	-220000	19.9	17.6	333
3	-230000	19.9	17.7	334
3	-240000	18.5	16.2	307
3	-250000	18.2	15.9	301
3	-260000	18.6	16.3	308
3	-270000	17.7	15.4	292
3	-280000	15.9	13.7	258
3	-290000	14.7	12.5	236
3	0	12.6	13.3	251
3	10000	12.7	13.4	253
3	20000	14.5	15.3	288
3	30000	12.9	13.6	257
3	40000	11.9	12.5	236
3	50000	13	13.7	259
3	60000	13.4	14.1	267
3	70000	12.3	13	245
3	80000	11.1	11.7	222
3	90000	12.8	13.5	255
3	100000	12.8	13.5	256
3	110000	11.2	11.8	223
3	120000	11.9	12.5	236
3	130000	13.8	14.5	274
3	140000	13.5	14.2	269
3	150000	12.9	13.6	257
3	160000	14.1	14.9	282
3	170000	16.1	17	321
3	180000	15.9	16.8	317
3	190000	14.1	14.9	282
3	200000	13.9	14.6	277
3	210000	14.9	15.7	296
3	220000	14.8	15.6	295
3	230000	12.6	13.2	250
3	240000	11.1	11.8	222
3	250000	11.8	12.5	236
3	260000	9.94	10.5	198
3	270000	9.16	9.65	182
3	280000	8	8.43	159
3	290000	9.25	9.74	184
4	0	10.5	8.28	157
4	-10000	16.4	14.1	267
4	-20000	17.1	14.9	281
4	-30000	19.6	17.3	328
4	-40000	19.2	17	321
4	-50000	19.7	17.4	329
4	-60000	22.7	20.4	386
4	-70000	22.8	20.6	389
4	-80000	21.5	19.2	363
4	-90000	19.8	17.6	332
4	-100000	21.5	19.2	364
4	-110000	22.2	20	377
4	-120000	19.7	17.5	330
4	-130000	19	16.8	317
4	-140000	21	18.7	353
4	-150000	21	18.7	354
4	-160000	18.3	16	303
4	-170000	17.5	15.2	288
4	-180000	18.9	16.7	315
4	-190000	19.4	17.1	324
4	-200000	17.4	15.2	287
4	-210000	16.4	14.2	268
4	-220000	17.8	15.6	294
4	-230000	17.7	15.4	292
4	-240000	16.3	14	265
4	-250000	15.8	13.6	256
4	-260000	16	13.8	261
4	-270000	15.5	13.3	250
4	-280000	13.8	11.5	218
4	-290000	13.2	11	207
4	0	9.97	10.5	199
4	10000	11.7	12.3	233
4	20000	14.2	15	283
4	30000	11.8	12.4	234
4	40000	11	11.6	218
4	50000	12.6	13.3	251
4	60000	13.2	13.9	263
4	70000	11.1	11.7	221
4	80000	10.7	11.3	213
4	90000	13.5	14.2	269
4	100000	14.2	14.9	282
4	110000	12.6	13.3	250
4	120000	12.8	13.5	254
4	130000	14.3	15.1	286
4	140000	14	14.7	278
4	150000	12.6	13.3	251
4	160000	12.5	13.2	249
4	170000	13.1	13.8	261
4	180000	12.7	13.4	253
4	190000	11.4	12	228
4	200000	11.2	11.8	223
4	210000	13.3	14	264
4	220000	13.2	13.9	263
4	230000	11.2	11.8	222
4	240000	10.3	10.9	206
4	250000	9.66	10.2	192
4	260000	10.6	11.2	211
4	270000	9.81	10.3	195
4	280000	8.04	8.47	160
4	290000	8.38	8.83	167
5	0	9.57	7.31	138
5	-10000	13	10.7	203
5	-20000	13	10.8	204
5	-30000	15.1	12.8	242
5	-40000	15.1	12.9	243
5	-50000	15.8	13.5	255
5	-60000	17.8	15.5	293
5	-70000	18.7	16.5	311
5	-80000	17.7	15.4	291
5	-90000	17	14.8	279
5	-100000	18.4	16.1	304
5	-110000	19.2	16.9	320
5	-120000	17.3	15	284
5	-130000	15.5	13.2	250
5	-140000	16	13.8	261
5	-150000	17	14.7	278
5	-160000	16.3	14	265
5	-170000	15.6	13.4	252
5	-180000	16.3	14	264
5	-190000	16.2	13.9	263
5	-200000	14.5	12.2	231
5	-210000	13.6	11.3	214
5	-220000	14.3	12	227
5	-230000	14.6	12.3	233
5	-240000	13.8	11.5	218
5	-250000	13.1	10.9	205
5	-260000	14.2	11.9	225
5	-270000	13.6	11.4	215
5	-280000	12.4	10.1	191
5	-290000	11.6	9.29	176
5	0	10.3	10.9	206
5	10000	9.95	10.5	198
5	20000	13.3	14	265
5	30000	12.3	12.9	244
5	40000	12.1	12.7	241
5	50000	12.9	13.6	257
5	60000	11.5	12.1	229
5	70000	10.4	10.9	206
5	80000	10.7	11.3	213
5	90000	12.4	13.1	247
5	100000	13	13.8	260
5	110000	10.7	11.3	214
5	120000	10.9	11.5	217
5	130000	12.8	13.4	254
5	140000	12.3	13	246
5	150000	11.4	12	227
5	160000	11	11.6	219
5	170000	12.1	12.7	241
5	180000	11.5	12.2	230
5	190000	10	10.6	200
5	200000	9.83	10.4	196
5	210000	11.3	12	226
5	220000	10.8	11.4	216
5	230000	8.5	8.96	169
5	240000	7.74	8.16	154
5	250000	7.93	8.36	158
5	260000	7.22	7.61	144
5	270000	6.2	6.54	124
5	280000	4.99	5.27	99.6
5	290000	5.72	6.03	114
6	0	7.32	5.06	95.6
6	-10000	13.2	10.9	206
6	-20000	13.8	11.6	218
6	-30000	15.5	13.2	250
6	-40000	15.1	12.8	242
6	-50000	12.3	10.1	190
6	-60000	13.9	11.6	220
6	-70000	15.4	13.1	249
6	-80000	15.4	13.1	248
6	-90000	15	12.7	241
6	-100000	15.9	13.6	257
6	-110000	17	14.7	279
6	-120000	15.4	13.2	249
6	-130000	14.2	11.9	226
6	-140000	15.1	12.8	243
6	-150000	16.4	14.1	267
6	-160000	15.8	13.6	256
6	-170000	14.4	12.1	229
6	-180000	15.7	13.4	254
6	-190000	15.8	13.5	256
6	-200000	14.1	11.8	223
6	-210000	13.8	11.5	217
6	-220000	15.3	13.1	247
6	-230000	15.9	13.7	258
6	-240000	14.9	12.6	239
6	-250000	14.3	12.1	228
6	-260000	15.2	12.9	245
6	-270000	14.5	12.3	232
6	-280000	12.9	10.7	201
6	-290000	11.7	9.43	178
