rep_num	position	torque	torque_compensated	lbs_compensated
1	0	2.23	2.51	47.5
1	10000	7.16	7.55	143
1	20000	10.1	10.7	201
1	30000	10.9	11.5	217
1	40000	10.9	11.5	217
1	50000	12.8	13.5	255
1	60000	12.7	13.4	254
1	70000	11.8	12.5	236
1	80000	11.7	12.3	233
1	90000	13.9	14.7	277
1	100000	14.9	15.7	297
1	110000	13.4	14.2	268
1	120000	14.3	15	284
1	130000	16	16.8	318
1	140000	16.1	17	321
1	150000	14.8	15.6	295
1	160000	14.5	15.3	290
1	170000	16.4	17.3	327
1	180000	17.2	18.1	343
1	190000	16.6	17.5	332
1	200000	16.1	17	321
1	210000	17.1	18	340
1	220000	17.2	18.1	342
1	230000	17	17.9	338
1	240000	16.4	17.3	327
1	250000	16.3	17.2	326
1	260000	16	16.8	318
1	270000	16.1	17	321
1	280000	14.8	15.6	294
1	290000	15.2	16	302
2	0	15.7	13.4	253
2	-10000	18.1	15.8	299
2	-20000	17.7	15.4	292
2	-30000	19.4	17.1	324
2	-40000	19.6	17.3	328
2	-50000	19.2	16.9	320
2	-60000	20.3	18.1	341
2	-70000	21.1	18.8	356
2	-80000	19.9	17.7	334
2	-90000	18.8	16.6	313
2	-100000	20.7	18.5	349
2	-110000	22.2	20	377
2	-120000	21.2	18.9	358
2	-130000	20	17.7	335
2	-140000	20.6	18.3	346
2	-150000	21.3	19.1	360
2	-160000	20.1	17.9	338
2	-170000	18.7	16.4	311
2	-180000	20.2	17.9	339
2	-190000	19.7	17.5	330
2	-200000	19.1	16.8	318
2	-210000	20	17.7	334
2	-220000	21.1	18.8	356
2	-230000	20.5	18.2	344
2	-240000	19.6	17.3	328
2	-250000	19.6	17.3	328
2	-260000	18.9	16.6	314
2	-270000	18	15.8	298
2	-280000	14.5	12.2	231
2	-290000	10.3	8.03	152
2	0	8.42	8.87	168
2	10000	10.4	11	207
2	20000	13.9	14.7	278
2	30000	14.3	15	284
2	40000	14.1	14.9	281
2	50000	15.8	16.6	314
2	60000	16.3	17.1	324
2	70000	15.4	16.2	306
2	80000	14.8	15.6	294
2	90000	16.2	17	322
2	100000	16.8	17.7	334
2	110000	15.2	16	302
2	120000	15.8	16.7	315
2	130000	17.5	18.5	349
2	140000	18	19	359
2	150000	16.9	17.9	337
2	160000	16.8	17.7	334
2	170000	18.2	19.2	363
2	180000	18.3	19.3	364
2	190000	18	19	359
2	200000	17.9	18.9	357
2	210000	18.9	19.9	376
2	220000	18.6	19.6	370
2	230000	17	17.9	338
2	240000	16.1	17	321
2	250000	16.4	17.3	326
2	260000	15.5	16.4	310
2	270000	14.2	15	284
2	280000	12.6	13.3	251
2	290000	13.2	13.9	263
3	0	13.9	11.6	220
3	-10000	17.9	15.6	296
3	-20000	17.1	14.8	280
3	-30000	18.6	16.4	310
3	-40000	18.6	16.3	308
3	-50000	19.4	17.2	324
3	-60000	20.5	18.2	344
3	-70000	21.4	19.2	362
3	-80000	21.3	19	359
3	-90000	21.4	19.1	361
3	-100000	21.8	19.5	369
3	-110000	21.9	19.6	371
3	-120000	20.4	18.2	343
3	-130000	20.2	18	340
3	-140000	22.3	20	379
3	-150000	23.4	21.1	399
3	-160000	21.8	19.6	370
3	-170000	21.1	18.8	356
3	-180000	22.7	20.4	386
3	-190000	22.2	19.9	377
3	-200000	20.2	18	340
3	-210000	19.7	17.4	329
3	-220000	20.2	17.9	339
3	-230000	19.7	17.4	330
3	-240000	18.9	16.7	315
3	-250000	18.5	16.2	307
3	-260000	19.3	17.1	323
3	-270000	18.1	15.8	299
3	-280000	17.2	14.9	281
3	-290000	17.9	15.7	296
3	0	16.8	17.7	334
3	10000	16.1	16.9	320
3	20000	15.5	16.3	308
3	30000	13.8	14.5	274
3	40000	13.8	14.6	276
3	50000	15.4	16.2	306
3	60000	16.1	16.9	320
3	70000	15.8	16.7	315
3	80000	15.6	16.5	311
3	90000	16.9	17.8	336
3	100000	16.8	17.7	335
3	110000	15.4	16.2	307
3	120000	16.2	17.1	322
3	130000	17	17.9	338
3	140000	17	17.9	339
3	150000	16.4	17.3	326
3	160000	16.3	17.2	325
3	170000	18.5	19.5	368
3	180000	17.9	18.9	356
3	190000	16.6	17.5	331
3	200000	17.4	18.4	347
3	210000	18.5	19.5	368
3	220000	17.8	18.7	354
3	230000	16.3	17.2	326
3	240000	15.1	15.9	300
3	250000	15	15.8	298
3	260000	13.9	14.7	277
3	270000	12.6	13.3	251
3	280000	11.9	12.6	238
3	290000	12.8	13.5	255
4	0	13.5	11.2	212
4	-10000	17.8	15.6	294
4	-20000	18.8	16.5	312
4	-30000	20.1	17.9	338
4	-40000	19.6	17.3	327
4	-50000	19.6	17.3	327
4	-60000	20.3	18.1	341
4	-70000	22.1	19.9	375
4	-80000	22.6	20.3	384
4	-90000	22.2	19.9	376
4	-100000	22.5	20.2	382
4	-110000	24.4	22.2	419
4	-120000	24	21.8	411
4	-130000	22.5	20.2	382
4	-140000	23.3	21	398
4	-150000	23.8	21.5	407
4	-160000	22.4	20.2	381
4	-170000	21.2	19	359
4	-180000	22.4	20.2	381
4	-190000	22.4	20.1	380
4	-200000	20.2	18	340
4	-210000	19.3	17.1	323
4	-220000	20.6	18.4	347
4	-230000	21	18.7	354
4	-240000	20.2	17.9	338
4	-250000	19.8	17.5	331
4	-260000	20.2	17.9	339
4	-270000	20.6	18.3	346
4	-280000	18.9	16.7	315
4	-290000	18	15.7	297
4	0	16.3	17.2	325
4	10000	16.5	17.4	328
4	20000	16.8	17.7	334
4	30000	15	15.8	298
4	40000	14.3	15.1	285
4	50000	15.9	16.8	317
4	60000	16.8	17.7	334
4	70000	16.1	17	321
4	80000	16.1	17	321
4	90000	17.7	18.7	353
4	100000	18.7	19.7	372
4	110000	17.1	18.1	341
4	120000	17.4	18.3	347
4	130000	19.2	20.2	383
4	140000	19.3	20.4	385
4	150000	18.6	19.6	371
4	160000	18	19	359
4	170000	18.4	19.4	366
4	180000	17.8	18.8	355
4	190000	17.8	18.7	354
4	200000	16.8	17.7	334
4	210000	16.8	17.7	334
4	220000	16.1	17	321
4	230000	14.3	15.1	286
4	240000	13.2	13.9	263
4	250000	12.8	13.4	254
4	260000	9.93	10.5	198
4	270000	8.81	9.29	175
4	280000	6.76	7.13	135
4	290000	7.95	8.38	158
5	0	8.09	5.83	110
5	-10000	13.8	11.6	218
5	-20000	14.2	11.9	226
5	-30000	15.3	13.1	247
5	-40000	16.5	14.2	268
5	-50000	18.2	16	302
5	-60000	19	16.7	316
5	-70000	19.6	17.3	328
5	-80000	19.3	17	322
5	-90000	19.2	17	321
5	-100000	20.5	18.2	345
5	-110000	21.6	19.3	365
5	-120000	20.5	18.2	344
5	-130000	19.6	17.3	328
5	-140000	20.7	18.5	349
5	-150000	21.3	19	360
5	-160000	20.2	17.9	339
5	-170000	20	17.7	335
5	-180000	20.2	18	339
5	-190000	20.5	18.2	344
5	-200000	19.5	17.3	327
5	-210000	18.8	16.5	312
5	-220000	19.3	17.1	323
5	-230000	18.4	16.2	305
5	-240000	16.9	14.6	277
5	-250000	16.6	14.3	270
5	-260000	15.7	13.4	254
5	-270000	16	13.7	259
5	-280000	13.7	11.4	216
5	-290000	13	10.7	202
5	0	12.6	13.3	252
5	10000	15.6	16.4	310
5	20000	15.1	15.9	301
5	30000	14.2	14.9	282
5	40000	13.8	14.6	276
5	50000	15.2	16.1	303
5	60000	16.2	17.1	323
5	70000	15.4	16.3	308
5	80000	15.2	16.1	303
5	90000	15.8	16.7	315
5	100000	15.7	16.5	313
5	110000	14.6	15.4	291
5	120000	15	15.8	299
5	130000	16	16.8	318
5	140000	14.8	15.6	295
5	150000	14.4	15.2	287
5	160000	15.1	15.9	301
5	170000	16	16.8	318
5	180000	15.8	16.6	314
5	190000	15.1	15.9	301
5	200000	14.8	15.6	294
5	210000	15.8	16.6	314
5	220000	15.8	16.6	314
5	230000	13.5	14.2	268
5	240000	12.4	13.1	248
5	250000	12.4	13	247
5	260000	12	12.6	239
5	270000	11.2	11.8	224
5	280000	10.7	11.2	213
5	290000	10.6	11.1	211
6	0	10.7	8.4	159
6	-10000	13.7	11.5	217
6	-20000	13	10.7	203
6	-30000	14.4	12.1	229
6	-40000	14.3	12.1	228
6	-50000	16.3	14	265
6	-60000	16.9	14.7	278
6	-70000	17.9	15.6	295
6	-80000	17.7	15.5	292
6	-90000	17.9	15.6	295
6	-100000	19.7	17.5	330
6	-110000	20.1	17.8	337
6	-120000	18.1	15.8	299
6	-130000	17.5	15.2	287
6	-140000	18.4	16.1	305
6	-150000	18.7	16.5	311
6	-160000	18.5	16.2	307
6	-170000	18.6	16.4	310
6	-180000	18.9	16.6	314
6	-190000	19.1	16.8	318
6	-200000	17.3	15.1	285
6	-210000	18.1	15.8	299
6	-220000	19.6	17.3	327
6	-230000	20.1	17.8	336
6	-240000	19	16.8	317
6	-250000	19.4	17.1	323
6	-260000	19.4	17.1	324
6	-270000	18.3	16	303
6	-280000	14.6	12.4	234
6	-290000	14.1	11.9	224
