rep_num	position	torque	torque_compensated	lbs_compensated
1	0	2.22	2.51	47.5
1	10000	4.97	5.25	99.3
1	20000	7.26	7.65	145
1	30000	7.61	8.02	152
1	40000	6.7	7.06	133
1	50000	7.2	7.59	143
1	60000	7.88	8.31	157
1	70000	8.04	8.47	160
1	80000	8.13	8.57	162
1	90000	8.68	9.15	173
1	100000	9.15	9.65	182
1	110000	8.64	9.1	172
1	120000	8.54	9	170
1	130000	9.31	9.82	186
1	140000	10.4	11	208
1	150000	9.36	9.87	187
1	160000	8.29	8.74	165
1	170000	8.26	8.71	165
1	180000	9.48	9.99	189
1	190000	9.51	10	189
1	200000	9.43	9.94	188
1	210000	9.86	10.4	196
1	220000	10.7	11.3	214
1	230000	10.6	11.1	211
1	240000	9.46	9.97	188
1	250000	9.99	10.5	199
1	260000	11	11.6	220
1	270000	11.5	12.1	229
1	280000	10.5	11	209
1	290000	10.6	11.2	211
2	0	10.9	8.59	162
2	-10000	14.8	12.5	237
2	-20000	14.8	12.6	237
2	-30000	14.3	12	227
2	-40000	14.3	12	227
2	-50000	14.9	12.6	239
2	-60000	15.5	13.3	251
2	-70000	14.3	12.1	228
2	-80000	13.5	11.2	213
2	-90000	14.8	12.5	236
2	-100000	14.5	12.2	231
2	-110000	13.8	11.5	218
2	-120000	13.2	11	207
2	-130000	13.2	11	207
2	-140000	13.1	10.8	205
2	-150000	12.7	10.5	198
2	-160000	12.8	10.5	199
2	-170000	13.2	10.9	207
2	-180000	13.2	10.9	206
2	-190000	13.4	11.2	211
2	-200000	12.6	10.4	196
2	-210000	12.6	10.4	196
2	-220000	13.4	11.2	211
2	-230000	12.6	10.3	195
2	-240000	12.2	9.96	188
2	-250000	13	10.7	203
2	-260000	13.6	11.3	214
2	-270000	12.6	10.3	195
2	-280000	10.9	8.63	163
2	-290000	11	8.75	165
2	0	9.46	9.97	188
2	10000	9.76	10.3	194
2	20000	9.05	9.54	180
2	30000	9.11	9.6	182
2	40000	7.71	8.13	154
2	50000	8.49	8.95	169
2	60000	9.28	9.78	185
2	70000	8.73	9.21	174
2	80000	8.63	9.1	172
2	90000	8.64	9.11	172
2	100000	9.55	10.1	190
2	110000	9.48	9.99	189
2	120000	8.93	9.41	178
2	130000	9.51	10	189
2	140000	10.2	10.7	202
2	150000	10.1	10.7	202
2	160000	9.21	9.71	184
2	170000	9.04	9.53	180
2	180000	10.2	10.8	204
2	190000	10.1	10.6	201
2	200000	9.65	10.2	192
2	210000	10.1	10.7	202
2	220000	10.9	11.5	218
2	230000	10.5	11.1	210
2	240000	9.55	10.1	190
2	250000	9.98	10.5	199
2	260000	10.7	11.3	214
2	270000	11.2	11.8	224
2	280000	10.5	11.1	209
2	290000	10.1	10.6	201
3	0	11.1	8.84	167
3	-10000	13.8	11.6	219
3	-20000	14.7	12.4	235
3	-30000	14.9	12.6	239
3	-40000	15.2	13	245
3	-50000	16.3	14	265
3	-60000	16.3	14.1	266
3	-70000	14.4	12.1	229
3	-80000	14.1	11.9	225
3	-90000	14.6	12.4	234
3	-100000	14.9	12.6	238
3	-110000	14.8	12.5	236
3	-120000	14	11.8	222
3	-130000	14.2	12	226
3	-140000	14.3	12	227
3	-150000	13.7	11.4	216
3	-160000	13	10.7	202
3	-170000	13.1	10.8	205
3	-180000	13.4	11.1	210
3	-190000	12.8	10.5	199
3	-200000	11.6	9.33	176
3	-210000	11.9	9.64	182
3	-220000	12.8	10.5	199
3	-230000	12.7	10.4	197
3	-240000	12.1	9.86	186
3	-250000	12.7	10.5	198
3	-260000	14.1	11.8	223
3	-270000	14.4	12.1	229
3	-280000	13.7	11.4	215
3	-290000	13.5	11.2	212
3	0	12	12.6	238
3	10000	12.1	12.7	240
3	20000	12.4	13	246
3	30000	11.6	12.2	231
3	40000	10.7	11.2	213
3	50000	11.3	12	226
3	60000	11.3	11.9	226
3	70000	9.83	10.4	196
3	80000	10.5	11.1	209
3	90000	11.2	11.9	224
3	100000	11.5	12.1	229
3	110000	11.9	12.5	237
3	120000	11.5	12.1	228
3	130000	11.3	11.9	226
3	140000	11.6	12.3	232
3	150000	11.8	12.5	235
3	160000	10.8	11.4	216
3	170000	10.8	11.4	216
3	180000	11	11.6	219
3	190000	11	11.6	220
3	200000	10.4	11	208
3	210000	10.4	11	207
3	220000	10.7	11.3	213
3	230000	10.1	10.7	202
3	240000	9.69	10.2	193
3	250000	10.1	10.6	201
3	260000	10.7	11.2	213
3	270000	10.8	11.3	214
3	280000	10.4	10.9	207
3	290000	10.2	10.8	204
4	0	11.1	8.8	166
4	-10000	14.6	12.4	234
4	-20000	16.3	14	265
4	-30000	16.8	14.5	274
4	-40000	15.7	13.5	254
4	-50000	15.2	12.9	244
4	-60000	16.3	14	265
4	-70000	15.6	13.3	252
4	-80000	15	12.7	240
4	-90000	16.5	14.3	269
4	-100000	16.7	14.5	274
4	-110000	15.6	13.3	252
4	-120000	14.5	12.3	232
4	-130000	14.4	12.1	229
4	-140000	14.3	12	228
4	-150000	14.2	12	226
4	-160000	14	11.8	222
4	-170000	14.4	12.1	229
4	-180000	14.5	12.3	232
4	-190000	14.4	12.1	229
4	-200000	13.3	11.1	209
4	-210000	13.1	10.9	205
4	-220000	14.3	12.1	228
4	-230000	13.9	11.6	220
4	-240000	13.1	10.8	205
4	-250000	13.7	11.5	217
4	-260000	14.5	12.2	230
4	-270000	14.2	12	226
4	-280000	13	10.7	202
4	-290000	12	9.78	185
4	0	10.4	11	208
4	10000	10.3	10.9	206
4	20000	10.8	11.4	215
4	30000	10.3	10.8	205
4	40000	9.64	10.2	192
4	50000	9.9	10.4	197
4	60000	10.6	11.1	210
4	70000	9.78	10.3	195
4	80000	9.16	9.65	182
4	90000	9.52	10	190
4	100000	10.2	10.8	204
4	110000	10	10.6	200
4	120000	9.14	9.63	182
4	130000	9.28	9.78	185
4	140000	10.4	11	208
4	150000	11	11.6	220
4	160000	10.5	11.1	209
4	170000	11.4	12	227
4	180000	12.5	13.2	249
4	190000	12.8	13.5	255
4	200000	12.7	13.4	254
4	210000	13	13.7	258
4	220000	13.2	13.9	262
4	230000	12.9	13.6	256
4	240000	12.2	12.8	242
4	250000	12.3	13	245
4	260000	12.1	12.8	242
4	270000	12.1	12.8	241
4	280000	11.2	11.8	223
4	290000	11.1	11.7	222
5	0	11.4	9.17	173
5	-10000	13.9	11.7	220
5	-20000	14.6	12.4	234
5	-30000	15.1	12.8	242
5	-40000	14.8	12.5	237
5	-50000	14.8	12.6	238
5	-60000	15.5	13.2	250
5	-70000	14.3	12	228
5	-80000	15	12.7	240
5	-90000	15.6	13.4	253
5	-100000	15.8	13.6	256
5	-110000	15.9	13.7	258
5	-120000	16.7	14.5	274
5	-130000	16.3	14.1	266
5	-140000	16.2	14	264
5	-150000	16.6	14.3	270
5	-160000	15.4	13.2	249
5	-170000	15	12.8	241
5	-180000	15.6	13.3	251
5	-190000	16.3	14	265
5	-200000	15	12.7	240
5	-210000	14.7	12.4	235
5	-220000	15.6	13.4	253
5	-230000	14.8	12.6	237
5	-240000	14.6	12.3	233
5	-250000	14.3	12.1	228
5	-260000	14.4	12.1	229
5	-270000	14	11.8	222
5	-280000	13.2	10.9	207
5	-290000	12.6	10.3	195
5	0	10.9	11.5	217
5	10000	11	11.6	220
5	20000	11.1	11.7	222
5	30000	10.7	11.3	213
5	40000	9.48	9.99	189
5	50000	9.23	9.73	184
5	60000	10.2	10.8	204
5	70000	10.2	10.7	203
5	80000	9.5	10	189
5	90000	10.2	10.8	203
5	100000	10.5	11.1	210
5	110000	11.3	11.9	226
5	120000	11	11.6	220
5	130000	11.1	11.7	221
5	140000	11.5	12.2	230
5	150000	10.6	11.2	211
5	160000	9.75	10.3	194
5	170000	10.2	10.8	203
5	180000	10.9	11.5	218
5	190000	11.3	11.9	224
5	200000	10.1	10.7	201
5	210000	10.3	10.9	205
5	220000	10.9	11.5	217
5	230000	11.7	12.4	233
5	240000	11.4	12.1	228
5	250000	11.2	11.8	223
5	260000	11.4	12	228
5	270000	11	11.6	220
5	280000	11.9	12.5	237
5	290000	11.3	11.9	226
6	0	11.8	9.56	181
6	-10000	15.2	12.9	244
6	-20000	15.7	13.4	254
6	-30000	15.8	13.6	256
6	-40000	14.1	11.8	224
6	-50000	14.1	11.9	225
6	-60000	15.2	13	245
6	-70000	14.4	12.1	229
6	-80000	13.9	11.7	221
6	-90000	15	12.8	242
6	-100000	14.4	12.2	230
6	-110000	14.8	12.6	238
6	-120000	14.3	12	228
6	-130000	14.5	12.2	231
6	-140000	15.9	13.6	258
6	-150000	15.7	13.4	254
6	-160000	14.9	12.7	240
6	-170000	15.1	12.8	242
6	-180000	14.6	12.3	233
6	-190000	15.3	13.1	247
6	-200000	14.6	12.4	234
6	-210000	13.9	11.7	221
6	-220000	14.1	11.8	223
6	-230000	13.5	11.3	213
6	-240000	12.2	9.94	188
6	-250000	13.4	11.1	211
6	-260000	13.9	11.7	221
6	-270000	14.3	12	227
6	-280000	12.7	10.5	198
6	-290000	12	9.71	183
