rep_num	position	torque	torque_compensated	lbs_compensated
1	0	2.38	2.67	50.4
1	10000	5.51	5.81	110
1	20000	5.99	6.31	119
1	30000	5.64	5.95	112
1	40000	7.31	7.7	146
1	50000	9	9.49	179
1	60000	9.41	9.92	188
1	70000	9.45	9.96	188
1	80000	10.6	11.2	211
1	90000	11.7	12.4	234
1	100000	12.6	13.3	252
1	110000	12.9	13.6	257
1	120000	13.7	14.5	273
1	130000	13.8	14.5	274
1	140000	13.9	14.6	276
1	150000	14.9	15.7	297
1	160000	14.8	15.6	295
1	170000	15.3	16.1	304
1	180000	16	16.9	319
1	190000	16.4	17.3	327
1	200000	17.5	18.4	348
1	210000	16.9	17.8	336
1	220000	16.6	17.5	331
1	230000	16.1	17	321
1	240000	15.8	16.7	315
1	250000	15.8	16.7	315
1	260000	15.5	16.3	308
1	270000	16.3	17.2	324
1	280000	17.1	18.1	342
1	290000	17.8	18.7	354
1	0	19.2	16.9	320
1	-10000	21.9	19.7	372
1	-20000	21.7	19.4	367
1	-30000	21.6	19.3	365
1	-40000	21.8	19.6	370
1	-50000	21.7	19.4	367
1	-60000	21.5	19.3	364
1	-70000	22.9	20.6	390
1	-80000	22.1	19.8	374
1	-90000	20.3	18.1	341
1	-100000	19.7	17.5	330
1	-110000	19.1	16.9	319
1	-120000	20.5	18.3	346
1	-130000	20.6	18.4	347
1	-140000	19.6	17.3	327
1	-150000	19.4	17.1	324
1	-160000	19.3	17	322
1	-170000	19.4	17.1	323
1	-180000	19.8	17.6	332
1	-190000	19.5	17.2	326
1	-200000	19.3	17.1	323
1	-210000	19.3	17	322
1	-220000	18.2	16	302
1	-230000	18	15.8	298
1	-240000	17.6	15.3	289
1	-250000	17.7	15.4	291
1	-260000	17.8	15.6	294
1	-270000	16.8	14.5	274
1	-280000	16.7	14.4	273
1	-290000	16.1	13.8	261
2	0	14.7	15.5	293
2	10000	13.7	14.5	273
2	20000	13.2	13.9	263
2	30000	14	14.8	279
2	40000	14.1	14.9	281
2	50000	14	14.7	278
2	60000	13.5	14.3	270
2	70000	13.6	14.3	270
2	80000	14.3	15.1	285
2	90000	14.1	14.8	281
2	100000	14.9	15.7	297
2	110000	15.3	16.1	305
2	120000	15.4	16.2	306
2	130000	15.1	15.9	300
2	140000	15.1	15.9	300
2	150000	15.9	16.8	317
2	160000	15.8	16.6	314
2	170000	15.7	16.5	312
2	180000	16.2	17.1	323
2	190000	16.5	17.4	328
2	200000	16.6	17.5	331
2	210000	16	16.9	319
2	220000	16.5	17.4	328
2	230000	15.8	16.6	314
2	240000	15.7	16.5	312
2	250000	14.8	15.6	296
2	260000	14.5	15.3	290
2	270000	14.8	15.6	295
2	280000	14.4	15.2	287
2	290000	13.6	14.4	272
2	0	15.2	13	245
2	-10000	18	15.8	298
2	-20000	17.7	15.4	292
2	-30000	18.3	16.1	304
2	-40000	18.9	16.6	314
2	-50000	18.5	16.2	306
2	-60000	18.8	16.5	312
2	-70000	18	15.8	298
2	-80000	18.4	16.2	305
2	-90000	18.8	16.5	312
2	-100000	17.7	15.4	291
2	-110000	17.6	15.4	290
2	-120000	18.1	15.9	300
2	-130000	17	14.8	279
2	-140000	17.2	14.9	282
2	-150000	18.4	16.2	306
2	-160000	18	15.7	297
2	-170000	16.7	14.5	273
2	-180000	17.2	14.9	282
2	-190000	17.1	14.8	281
2	-200000	16.7	14.4	272
2	-210000	17.8	15.5	293
2	-220000	19.1	16.8	318
2	-230000	19.1	16.9	319
2	-240000	18.4	16.2	306
2	-250000	18.9	16.6	314
2	-260000	18.8	16.6	313
2	-270000	17.5	15.2	288
2	-280000	16.4	14.1	267
2	-290000	15	12.7	241
3	0	14	14.7	279
3	10000	11.9	12.6	238
3	20000	11.8	12.4	234
3	30000	11.5	12.1	229
3	40000	10.3	10.9	206
3	50000	10.8	11.3	214
3	60000	10.7	11.3	213
3	70000	12	12.6	238
3	80000	12.7	13.4	253
3	90000	12.8	13.5	255
3	100000	13.7	14.4	273
3	110000	14	14.8	279
3	120000	14.5	15.2	288
3	130000	14.6	15.3	290
3	140000	14.4	15.2	287
3	150000	15.2	16	303
3	160000	14.6	15.4	290
3	170000	14.5	15.3	289
3	180000	15	15.8	298
3	190000	14.3	15	284
3	200000	14.8	15.6	295
3	210000	13.5	14.2	269
3	220000	14.2	15	283
3	230000	13.9	14.6	276
3	240000	12.8	13.5	255
3	250000	12	12.7	240
3	260000	11.3	11.9	224
3	270000	11.9	12.5	237
3	280000	11.2	11.8	223
3	290000	11	11.6	219
3	0	12.4	10.1	191
3	-10000	17.1	14.9	281
3	-20000	18.4	16.2	305
3	-30000	18.1	15.8	299
3	-40000	18.3	16.1	304
3	-50000	18.4	16.1	305
3	-60000	18.2	15.9	301
3	-70000	17.5	15.2	288
3	-80000	17.2	15	283
3	-90000	17.1	14.9	281
3	-100000	16.4	14.2	268
3	-110000	16.3	14	265
3	-120000	17.4	15.1	285
3	-130000	16.4	14.1	267
3	-140000	16	13.7	259
3	-150000	16	13.7	259
3	-160000	15.5	13.3	251
3	-170000	15.1	12.8	242
3	-180000	14.7	12.5	236
3	-190000	13.8	11.6	219
3	-200000	14.2	11.9	225
3	-210000	14.5	12.2	231
3	-220000	13.8	11.5	218
3	-230000	11.5	9.26	175
3	-240000	8.48	6.22	118
3	-250000	7.39	5.13	97
3	-260000	5.26	3.01	56.9
3	-270000	3.39	1.94	36.7
3	-280000	2.47	1.41	26.7
3	-290000	2.18	1.25	23.6
4	0	1.09	1.37	26
4	10000	3.86	4.15	78.4
4	20000	6.79	7.15	135
4	30000	7.77	8.18	155
4	40000	9.31	9.82	186
4	50000	10.5	11.1	210
4	60000	10.8	11.3	214
4	70000	9.85	10.4	196
4	80000	9.98	10.5	199
4	90000	10.2	10.8	204
4	100000	10.3	10.8	205
4	110000	10.5	11.1	209
4	120000	11.1	11.7	220
4	130000	10.8	11.3	214
4	140000	10.8	11.4	216
4	150000	11.9	12.5	237
4	160000	11.7	12.4	234
4	170000	11.2	11.8	224
4	180000	11.6	12.3	232
4	190000	11.3	11.9	225
4	200000	11.5	12.1	228
4	210000	10.9	11.5	218
4	220000	11.2	11.8	223
4	230000	11.2	11.8	222
4	240000	11.3	11.9	225
4	250000	9.91	10.4	197
4	260000	8.53	8.99	170
4	270000	8.92	9.4	178
4	280000	8.63	9.1	172
4	290000	8.86	9.34	177
4	0	10.6	8.31	157
4	-10000	13.4	11.1	210
4	-20000	13.1	10.9	206
4	-30000	13.1	10.8	205
4	-40000	13.5	11.2	212
4	-50000	13.3	11	208
4	-60000	13.1	10.9	205
4	-70000	13.2	10.9	206
4	-80000	14.4	12.1	229
4	-90000	15.1	12.8	242
4	-100000	14.5	12.2	231
4	-110000	13.7	11.4	216
4	-120000	14.6	12.3	233
4	-130000	14.1	11.9	224
4	-140000	13.8	11.6	218
4	-150000	14.1	11.8	223
4	-160000	13.8	11.6	219
4	-170000	13.3	11.1	210
4	-180000	13.4	11.2	211
4	-190000	12.9	10.6	201
4	-200000	12.6	10.3	195
4	-210000	12.1	9.88	187
4	-220000	12.9	10.7	202
4	-230000	12.4	10.1	192
4	-240000	12.5	10.2	194
4	-250000	12.9	10.7	201
4	-260000	12.8	10.6	200
4	-270000	12	9.72	184
4	-280000	11.7	9.46	179
4	-290000	11.6	9.36	177
5	0	10.6	11.1	210
5	10000	8.28	8.72	165
5	20000	8.69	9.16	173
5	30000	8.95	9.43	178
5	40000	9.06	9.55	180
5	50000	8.94	9.42	178
5	60000	9.21	9.7	183
5	70000	8.48	8.93	169
5	80000	8.51	8.97	169
5	90000	8.87	9.35	177
5	100000	9.16	9.66	183
5	110000	9.22	9.72	184
5	120000	9.74	10.3	194
5	130000	9.22	9.72	184
5	140000	9.11	9.6	181
5	150000	9.75	10.3	194
5	160000	9.54	10.1	190
5	170000	8.74	9.22	174
5	180000	9.38	9.89	187
5	190000	9.49	10	189
5	200000	9.6	10.1	191
5	210000	9.29	9.79	185
5	220000	9.37	9.88	187
5	230000	9.17	9.67	183
5	240000	8.58	9.05	171
5	250000	8.48	8.94	169
5	260000	8.51	8.97	170
5	270000	8.7	9.17	173
5	280000	8.56	9.02	170
5	290000	8.73	9.21	174
5	0	9.83	7.57	143
5	-10000	11.7	9.44	178
5	-20000	12	9.74	184
5	-30000	12.1	9.81	185
5	-40000	12.4	10.2	192
5	-50000	11.9	9.6	181
5	-60000	10.9	8.69	164
5	-70000	10.8	8.51	161
5	-80000	10.6	8.37	158
5	-90000	10.7	8.41	159
5	-100000	10.3	8.06	152
5	-110000	11.3	9.07	172
5	-120000	12.2	9.89	187
5	-130000	12	9.75	184
5	-140000	12.1	9.82	186
5	-150000	12.5	10.2	194
5	-160000	11.9	9.6	181
5	-170000	11.6	9.31	176
5	-180000	11.6	9.33	176
5	-190000	10.6	8.36	158
5	-200000	10.5	8.22	155
5	-210000	10.2	7.95	150
5	-220000	10.5	8.24	156
5	-230000	10.5	8.26	156
5	-240000	10.9	8.64	163
5	-250000	11.7	9.45	179
5	-260000	12.2	9.96	188
5	-270000	10.9	8.66	164
5	-280000	10.5	8.29	157
5	-290000	10.4	8.12	154
