rep_num	position	torque	torque_compensated	lbs_compensated
1	0	2.83	3.12	58.9
1	10000	6.08	6.41	121
1	20000	9.35	9.85	186
1	30000	8.12	8.56	162
1	40000	7.7	8.12	153
1	50000	10.2	10.8	204
1	60000	11.3	12	226
1	70000	9.86	10.4	197
1	80000	10.3	10.8	205
1	90000	12.5	13.2	249
1	100000	12.2	12.8	243
1	110000	10.8	11.4	215
1	120000	11.1	11.7	222
1	130000	13.2	13.9	263
1	140000	13.2	13.9	263
1	150000	12.3	12.9	244
1	160000	11.6	12.3	232
1	170000	12.9	13.6	257
1	180000	13	13.7	259
1	190000	12.7	13.4	253
1	200000	12.7	13.4	253
1	210000	14.6	15.4	290
1	220000	15	15.8	298
1	230000	13	13.7	260
1	240000	13.1	13.8	262
1	250000	13.9	14.7	277
1	260000	12.5	13.2	249
1	270000	11.1	11.7	222
1	280000	10.4	10.9	206
1	290000	11.2	11.8	224
2	0	12.5	10.3	194
2	-10000	18.8	16.5	312
2	-20000	19.1	16.8	318
2	-30000	19.4	17.2	324
2	-40000	17.6	15.3	289
2	-50000	16.9	14.6	276
2	-60000	17.9	15.7	296
2	-70000	18.7	16.4	310
2	-80000	18.7	16.5	311
2	-90000	18.8	16.6	313
2	-100000	19.3	17	321
2	-110000	19.6	17.4	328
2	-120000	18.2	16	302
2	-130000	17.7	15.4	291
2	-140000	19.1	16.8	318
2	-150000	20.4	18.2	344
2	-160000	18.4	16.1	305
2	-170000	17.4	15.2	287
2	-180000	19.5	17.2	325
2	-190000	19.2	16.9	320
2	-200000	17.6	15.3	289
2	-210000	16.4	14.1	267
2	-220000	16.7	14.4	272
2	-230000	17.1	14.9	281
2	-240000	15.6	13.4	253
2	-250000	14.8	12.6	238
2	-260000	15.7	13.4	254
2	-270000	14.4	12.2	230
2	-280000	14	11.7	221
2	-290000	13	10.8	204
2	0	11.6	12.2	231
2	10000	11.3	11.9	225
2	20000	13.2	13.9	262
2	30000	11.7	12.3	233
2	40000	10.7	11.3	213
2	50000	12	12.6	239
2	60000	11.9	12.6	237
2	70000	11	11.6	219
2	80000	11.8	12.4	235
2	90000	13.2	14	264
2	100000	13.6	14.3	271
2	110000	13	13.7	259
2	120000	13.9	14.6	277
2	130000	16.2	17.1	323
2	140000	16.1	16.9	320
2	150000	15.4	16.2	306
2	160000	15.7	16.6	313
2	170000	16.8	17.7	335
2	180000	17.1	18	340
2	190000	16.3	17.2	325
2	200000	16.4	17.3	327
2	210000	17.7	18.6	352
2	220000	17.2	18.1	342
2	230000	14.9	15.7	297
2	240000	14.1	14.9	281
2	250000	14.7	15.5	293
2	260000	13.9	14.6	276
2	270000	14.3	15.1	286
2	280000	12.3	13	245
2	290000	12.9	13.6	257
3	0	14.4	12.2	230
3	-10000	19.2	16.9	320
3	-20000	19.7	17.4	330
3	-30000	21.5	19.2	363
3	-40000	20.3	18	340
3	-50000	19.3	17	322
3	-60000	20.1	17.8	336
3	-70000	20.4	18.2	343
3	-80000	20.1	17.8	337
3	-90000	19.9	17.6	333
3	-100000	21	18.7	353
3	-110000	20.7	18.4	348
3	-120000	19.9	17.6	333
3	-130000	18.3	16	302
3	-140000	18.6	16.4	310
3	-150000	20.7	18.5	349
3	-160000	19.9	17.7	334
3	-170000	18.2	15.9	301
3	-180000	19.7	17.4	330
3	-190000	20	17.7	334
3	-200000	18.8	16.5	313
3	-210000	18.5	16.2	306
3	-220000	20.8	18.5	351
3	-230000	21.5	19.3	365
3	-240000	19.4	17.2	325
3	-250000	17.6	15.4	290
3	-260000	19.2	16.9	320
3	-270000	17.5	15.2	288
3	-280000	13.8	11.6	219
3	-290000	8.55	6.29	119
3	0	4.26	4.55	85.9
3	10000	0.749	1.04	19.6
3	20000	4.92	5.2	98.4
3	30000	5.31	5.6	106
3	40000	7.19	7.58	143
3	50000	11	11.6	219
3	60000	13.3	14	265
3	70000	11.3	11.9	225
3	80000	12.1	12.7	240
3	90000	14.4	15.2	288
3	100000	14.2	14.9	282
3	110000	13.4	14.2	268
3	120000	14.2	14.9	283
3	130000	15	15.8	298
3	140000	14.5	15.3	290
3	150000	14	14.8	279
3	160000	13.3	14	265
3	170000	14.4	15.2	287
3	180000	14.2	15	284
3	190000	13.5	14.2	268
3	200000	14.1	14.9	282
3	210000	15.9	16.8	317
3	220000	15.2	16	303
3	230000	13.3	14	264
3	240000	13.3	14.1	266
3	250000	13.8	14.5	275
3	260000	11.7	12.3	232
3	270000	11.9	12.6	237
3	280000	11.3	12	226
3	290000	11.7	12.3	233
4	0	12.5	10.2	193
4	-10000	16.7	14.4	273
4	-20000	16.3	14	265
4	-30000	17.2	15	283
4	-40000	16.2	13.9	263
4	-50000	17.4	15.2	287
4	-60000	18.7	16.4	310
4	-70000	18.8	16.6	313
4	-80000	18.3	16.1	304
4	-90000	17.5	15.3	289
4	-100000	18.5	16.3	308
4	-110000	18.8	16.5	312
4	-120000	17.2	15	283
4	-130000	16.4	14.1	267
4	-140000	16.6	14.4	271
4	-150000	16.9	14.6	277
4	-160000	16.9	14.7	278
4	-170000	16.2	13.9	263
4	-180000	17.3	15.1	285
4	-190000	16.8	14.5	274
4	-200000	15.3	13	246
4	-210000	13.8	11.6	219
4	-220000	14.7	12.5	236
4	-230000	14.6	12.3	233
4	-240000	13.4	11.1	210
4	-250000	13.2	11	208
4	-260000	14.4	12.2	230
4	-270000	15.1	12.9	243
4	-280000	13.7	11.5	217
4	-290000	12.2	9.97	188
4	0	11.1	11.7	220
4	10000	11.8	12.5	236
4	20000	13	13.7	259
4	30000	11.5	12.1	229
4	40000	10.9	11.5	218
4	50000	12	12.7	239
4	60000	12.3	12.9	244
4	70000	10.6	11.2	212
4	80000	11.4	12	228
4	90000	13.8	14.6	276
4	100000	13.8	14.5	275
4	110000	12.8	13.5	255
4	120000	13.5	14.3	269
4	130000	15.2	16	303
4	140000	14.8	15.6	294
4	150000	13.4	14.1	267
4	160000	13.6	14.3	271
4	170000	15.1	15.9	301
4	180000	14.7	15.5	294
4	190000	13.9	14.7	277
4	200000	13.4	14.1	267
4	210000	13.8	14.5	274
4	220000	14.3	15	284
4	230000	11.8	12.4	235
4	240000	11.1	11.7	222
4	250000	11.7	12.3	233
4	260000	11	11.6	220
4	270000	11.1	11.7	220
4	280000	9.64	10.2	192
4	290000	9.29	9.8	185
5	0	10.3	8.07	153
5	-10000	14.7	12.4	235
5	-20000	15.7	13.4	253
5	-30000	17.6	15.3	289
5	-40000	17.3	15	284
5	-50000	18.2	15.9	300
5	-60000	18.7	16.4	310
5	-70000	19.6	17.4	328
5	-80000	18.6	16.4	309
5	-90000	17.5	15.3	288
5	-100000	18.2	15.9	301
5	-110000	19.3	17.1	323
5	-120000	17.3	15.1	285
5	-130000	16.4	14.1	267
5	-140000	17	14.8	279
5	-150000	18	15.7	297
5	-160000	16.2	13.9	263
5	-170000	14.9	12.6	238
5	-180000	16.6	14.4	271
5	-190000	16.8	14.5	274
5	-200000	15	12.8	242
5	-210000	13.9	11.6	220
5	-220000	14.6	12.3	233
5	-230000	14.7	12.4	235
5	-240000	12.9	10.6	201
5	-250000	12.3	10	190
5	-260000	14	11.8	223
5	-270000	13.9	11.6	220
5	-280000	12.7	10.5	198
5	-290000	10.8	8.53	161
5	0	9.68	10.2	193
5	10000	11.6	12.3	232
5	20000	14.1	14.9	281
5	30000	12.3	12.9	245
5	40000	11.7	12.3	232
5	50000	13.2	13.9	262
5	60000	12.7	13.4	253
5	70000	10.9	11.5	217
5	80000	11.5	12.2	230
5	90000	12.8	13.4	254
5	100000	13	13.7	258
5	110000	11.6	12.2	231
5	120000	12.6	13.2	250
5	130000	14.2	14.9	282
5	140000	14.2	15	283
5	150000	13.3	14.1	266
5	160000	12.9	13.6	257
5	170000	13.6	14.3	270
5	180000	13	13.7	260
5	190000	11.9	12.6	238
5	200000	12.1	12.8	242
5	210000	13.4	14.1	267
5	220000	13.3	14	266
5	230000	11.2	11.8	223
5	240000	10.9	11.5	217
5	250000	10.5	11.1	210
5	260000	9.46	9.98	189
5	270000	9.06	9.55	181
5	280000	7.59	8	151
5	290000	8.07	8.5	161
6	0	8.92	6.66	126
6	-10000	13.3	11	208
6	-20000	12.9	10.6	201
6	-30000	14.8	12.5	237
6	-40000	14.2	12	226
6	-50000	14.6	12.4	234
6	-60000	16.3	14	265
6	-70000	15.8	13.6	257
6	-80000	15.1	12.9	243
6	-90000	13.9	11.6	219
6	-100000	14.5	12.3	232
6	-110000	16	13.7	259
6	-120000	15.4	13.1	248
6	-130000	13.4	11.2	211
6	-140000	14.2	11.9	226
6	-150000	16.1	13.8	262
6	-160000	15.6	13.4	252
6	-170000	14.3	12.1	228
6	-180000	16.3	14	265
6	-190000	16.2	13.9	263
6	-200000	15.3	13.1	247
6	-210000	14.4	12.2	230
6	-220000	14.1	11.9	224
6	-230000	14.4	12.1	229
6	-240000	13.2	11	207
6	-250000	12.1	9.87	187
6	-260000	12	9.73	184
6	-270000	9.25	6.99	132
6	-280000	6.33	4.07	76.9
6	-290000	4.53	2.6	49.1
