rep_num	position	torque	torque_compensated	lbs_compensated
1	0	4.52	4.8	90.8
1	10000	7.07	7.46	141
1	20000	7.85	8.27	156
1	30000	8.12	8.55	162
1	40000	8.15	8.59	162
1	50000	8.07	8.51	161
1	60000	7.56	7.97	151
1	70000	7.89	8.31	157
1	80000	8.51	8.97	169
1	90000	9.32	9.83	186
1	100000	9.53	10	190
1	110000	9.54	10.1	190
1	120000	11	11.6	219
1	130000	11.7	12.3	233
1	140000	12.3	13	245
1	150000	13.8	14.5	275
1	160000	13.9	14.6	276
1	170000	13.5	14.3	270
1	180000	13.7	14.4	273
1	190000	14.2	15	283
1	200000	14.3	15.1	286
1	210000	14.1	14.8	280
1	220000	14.3	15.1	284
1	230000	14.7	15.5	292
1	240000	14.7	15.5	293
1	250000	14.8	15.6	295
1	260000	15	15.8	299
1	270000	16	16.9	319
1	280000	17.1	18	341
1	290000	18.2	19.2	363
2	0	18.8	16.5	313
2	-10000	18.7	16.4	311
2	-20000	18.5	16.2	307
2	-30000	19.2	16.9	320
2	-40000	19.7	17.5	330
2	-50000	20.1	17.8	336
2	-60000	18.3	16	303
2	-70000	18.3	16	303
2	-80000	19	16.8	317
2	-90000	18.9	16.7	315
2	-100000	17.9	15.6	296
2	-110000	17.4	15.2	287
2	-120000	18.1	15.9	300
2	-130000	17.7	15.5	293
2	-140000	16.6	14.4	271
2	-150000	17.2	14.9	282
2	-160000	18.3	16	303
2	-170000	19.3	17.1	322
2	-180000	19.2	16.9	320
2	-190000	17.5	15.2	287
2	-200000	16.9	14.6	276
2	-210000	17.1	14.8	280
2	-220000	17.4	15.1	285
2	-230000	17.5	15.2	288
2	-240000	17.3	15	284
2	-250000	17.3	15.1	285
2	-260000	17.2	14.9	282
2	-270000	15.9	13.7	258
2	-280000	15.1	12.8	242
2	-290000	14.1	11.8	223
2	0	12.8	13.4	254
2	10000	13.3	14	264
2	20000	13.8	14.5	274
2	30000	13.7	14.5	274
2	40000	13.5	14.2	268
2	50000	13.1	13.8	260
2	60000	13.1	13.8	262
2	70000	13.6	14.4	271
2	80000	14.1	14.8	280
2	90000	14.2	14.9	282
2	100000	14.3	15	284
2	110000	13.9	14.6	277
2	120000	14.5	15.2	288
2	130000	13.6	14.3	271
2	140000	14.4	15.1	286
2	150000	14.8	15.6	295
2	160000	15.5	16.4	309
2	170000	15.6	16.4	311
2	180000	15.8	16.7	315
2	190000	15.7	16.5	312
2	200000	16.4	17.3	327
2	210000	15.5	16.4	309
2	220000	16.1	16.9	320
2	230000	15.6	16.4	311
2	240000	15.5	16.4	310
2	250000	15	15.9	300
2	260000	15	15.9	300
2	270000	15	15.8	299
2	280000	15.2	16	303
2	290000	14.5	15.3	289
3	0	15.1	12.8	242
3	-10000	19.4	17.2	325
3	-20000	19	16.8	317
3	-30000	18.2	16	302
3	-40000	17.8	15.5	293
3	-50000	17.7	15.5	293
3	-60000	17.4	15.1	286
3	-70000	17.9	15.7	296
3	-80000	18.2	15.9	301
3	-90000	19	16.8	317
3	-100000	18.4	16.2	305
3	-110000	17.9	15.7	296
3	-120000	19.1	16.8	317
3	-130000	18.7	16.5	311
3	-140000	17.6	15.4	291
3	-150000	18.3	16.1	304
3	-160000	17.4	15.2	287
3	-170000	17.4	15.1	286
3	-180000	17.5	15.3	289
3	-190000	17.8	15.6	294
3	-200000	17.8	15.6	294
3	-210000	18.8	16.5	312
3	-220000	18.4	16.2	305
3	-230000	17.2	14.9	282
3	-240000	16.7	14.4	272
3	-250000	17.6	15.3	289
3	-260000	16.4	14.1	267
3	-270000	15	12.7	240
3	-280000	14.7	12.4	234
3	-290000	15.5	13.2	249
3	0	14	14.8	279
3	10000	13.1	13.8	261
3	20000	12.9	13.6	257
3	30000	12.9	13.6	256
3	40000	12.4	13.1	248
3	50000	13.3	14	265
3	60000	13.3	14	265
3	70000	14	14.7	278
3	80000	13.7	14.4	272
3	90000	14.5	15.3	289
3	100000	14.1	14.8	281
3	110000	13.8	14.6	275
3	120000	15.1	15.9	300
3	130000	14.8	15.6	296
3	140000	14.7	15.5	292
3	150000	14.9	15.7	296
3	160000	13.2	13.9	263
3	170000	9.47	9.98	189
3	180000	5.61	5.91	112
3	190000	5.37	5.66	107
3	200000	4.27	4.55	86
3	210000	4.96	5.25	99.2
3	220000	7.36	7.76	147
3	230000	9.3	9.8	185
3	240000	10.8	11.4	216
3	250000	11.4	12	227
3	260000	11.3	11.9	225
3	270000	12.2	12.8	242
3	280000	12.9	13.6	257
3	290000	13.3	14	264
4	0	14	11.7	222
4	-10000	14.7	12.4	235
4	-20000	15.4	13.1	248
4	-30000	16.4	14.2	268
4	-40000	16.8	14.6	275
4	-50000	16.9	14.7	277
4	-60000	16.8	14.6	275
4	-70000	17.5	15.3	288
4	-80000	18.7	16.4	311
4	-90000	19.9	17.6	333
4	-100000	19.7	17.4	330
4	-110000	19.2	17	321
4	-120000	18.8	16.6	313
4	-130000	17.8	15.6	295
4	-140000	16.4	14.1	267
4	-150000	17	14.8	279
4	-160000	16.5	14.2	269
4	-170000	16.7	14.4	273
4	-180000	16.6	14.4	272
4	-190000	15.2	13	245
4	-200000	15.1	12.9	243
4	-210000	14.9	12.6	238
4	-220000	14.7	12.4	235
4	-230000	15	12.7	240
4	-240000	14.7	12.4	235
4	-250000	14.9	12.6	238
4	-260000	14.1	11.8	224
4	-270000	12.8	10.5	198
4	-280000	12.5	10.2	193
4	-290000	11.7	9.48	179
4	0	11.2	11.8	223
4	10000	11.7	12.3	232
4	20000	11.4	12	227
4	30000	12	12.7	240
4	40000	12.5	13.2	249
4	50000	12.5	13.2	249
4	60000	12.2	12.9	244
4	70000	12.5	13.2	249
4	80000	12.7	13.4	254
4	90000	13.2	13.9	263
4	100000	13.2	13.9	263
4	110000	12.8	13.5	255
4	120000	13.2	14	264
4	130000	13.3	14	264
4	140000	13.3	14.1	266
4	150000	13.9	14.7	277
4	160000	14	14.8	279
4	170000	13.9	14.7	278
4	180000	13.6	14.4	271
4	190000	14	14.7	278
4	200000	13.9	14.7	277
4	210000	13.2	13.9	262
4	220000	13.9	14.6	277
4	230000	13.3	14	266
4	240000	12.5	13.1	248
4	250000	11.8	12.5	235
4	260000	10.7	11.2	212
4	270000	11.1	11.7	221
4	280000	11.3	11.9	225
4	290000	12.1	12.7	241
5	0	12.8	10.6	200
5	-10000	14.5	12.3	232
5	-20000	13.8	11.6	218
5	-30000	13.8	11.5	218
5	-40000	13.7	11.5	217
5	-50000	13.5	11.2	213
5	-60000	12.9	10.7	201
5	-70000	13	10.8	203
5	-80000	13.9	11.6	220
5	-90000	13.9	11.7	221
5	-100000	13.8	11.6	219
5	-110000	13.1	10.8	204
5	-120000	12.6	10.3	195
5	-130000	12.1	9.88	187
5	-140000	11.4	9.19	174
5	-150000	11.2	8.98	170
5	-160000	12	9.71	184
5	-170000	13.3	11.1	209
5	-180000	14.1	11.9	224
5	-190000	12.5	10.2	193
5	-200000	12.4	10.1	191
5	-210000	12.1	9.88	187
5	-220000	12.6	10.4	196
5	-230000	12.2	9.9	187
5	-240000	11.2	8.9	168
5	-250000	12	9.69	183
5	-260000	12.5	10.2	193
5	-270000	11.6	9.35	177
5	-280000	11	8.78	166
5	-290000	11	8.77	166
5	0	9.83	10.4	196
5	10000	10.3	10.8	204
5	20000	10.9	11.5	217
5	30000	11.6	12.3	232
5	40000	11.5	12.1	229
5	50000	11.8	12.4	235
5	60000	12.1	12.8	242
5	70000	12.1	12.8	242
5	80000	11.8	12.5	236
5	90000	11.1	11.7	221
5	100000	11	11.6	220
5	110000	10.8	11.4	215
5	120000	11.3	11.9	224
5	130000	11.4	12	226
5	140000	10.6	11.1	211
5	150000	11.5	12.1	228
5	160000	11.2	11.8	223
5	170000	11	11.6	220
5	180000	11.4	12	227
5	190000	11.8	12.5	235
5	200000	11.5	12.1	229
5	210000	11	11.5	218
5	220000	11.4	12	228
5	230000	11.1	11.7	221
5	240000	10.5	11.1	210
5	250000	10.1	10.7	201
5	260000	9.43	9.94	188
5	270000	9.37	9.88	187
5	280000	9.4	9.91	187
5	290000	9.53	10	190
6	0	10.4	8.1	153
6	-10000	13.3	11.1	209
6	-20000	12.5	10.3	194
6	-30000	13.7	11.4	216
6	-40000	14.1	11.8	223
6	-50000	14	11.7	222
6	-60000	12.9	10.7	202
6	-70000	13.5	11.3	213
6	-80000	14.1	11.8	224
6	-90000	15	12.8	242
6	-100000	16.2	14	264
6	-110000	15.5	13.2	249
6	-120000	14.4	12.1	229
6	-130000	12.8	10.5	199
6	-140000	12	9.71	183
6	-150000	12.8	10.6	200
6	-160000	11.5	9.29	176
6	-170000	10	7.76	147
6	-180000	10.4	8.19	155
6	-190000	9.46	7.2	136
6	-200000	7.26	5	94.4
6	-210000	6.47	4.21	79.6
6	-220000	4.66	2.67	50.4
6	-230000	4.03	2.31	43.7
6	-240000	4.01	2.3	43.4
6	-250000	5.31	3.05	57.6
6	-260000	5.73	3.47	65.6
6	-270000	4.99	2.86	54
6	-280000	6.96	4.7	88.8
6	-290000	7.56	5.3	100
