rep_num	position	torque	torque_compensated	lbs_compensated
1	0	1.89	2.18	41.1
1	10000	4.39	4.68	88.4
1	20000	5.69	6	113
1	30000	7.1	7.48	141
1	40000	7.8	8.22	155
1	50000	8.35	8.8	166
1	60000	8.42	8.88	168
1	70000	10	10.6	199
1	80000	10	10.5	199
1	90000	10.2	10.7	202
1	100000	10.7	11.3	213
1	110000	11.3	11.9	225
1	120000	11.8	12.5	235
1	130000	12	12.7	239
1	140000	12.2	12.8	242
1	150000	13.3	14	265
1	160000	14.5	15.3	288
1	170000	14.1	14.8	280
1	180000	14	14.8	279
1	190000	14.6	15.4	291
1	200000	15.2	16	303
1	210000	15	15.8	299
1	220000	15	15.8	299
1	230000	15.4	16.2	307
1	240000	15.3	16.1	304
1	250000	14.2	14.9	282
1	260000	13.9	14.6	276
1	270000	13.4	14.1	266
1	280000	13.9	14.6	277
1	290000	13.6	14.3	271
2	0	14.9	12.6	239
2	-10000	17.7	15.5	292
2	-20000	18.5	16.3	308
2	-30000	18.7	16.4	310
2	-40000	19.7	17.4	329
2	-50000	19.7	17.4	329
2	-60000	19.4	17.1	323
2	-70000	19.7	17.4	329
2	-80000	19.5	17.3	326
2	-90000	18.8	16.5	312
2	-100000	18.4	16.1	305
2	-110000	18.5	16.3	308
2	-120000	17.7	15.5	292
2	-130000	17.6	15.4	291
2	-140000	19	16.7	317
2	-150000	18.9	16.7	315
2	-160000	18.4	16.2	306
2	-170000	18.1	15.9	300
2	-180000	16.9	14.7	277
2	-190000	16.3	14.1	266
2	-200000	15.7	13.4	254
2	-210000	15.2	13	245
2	-220000	14.7	12.5	236
2	-230000	13.8	11.5	218
2	-240000	14	11.7	221
2	-250000	14.5	12.2	231
2	-260000	13.7	11.4	216
2	-270000	13.8	11.5	217
2	-280000	13.1	10.8	204
2	-290000	12.3	10	190
2	0	10.6	11.1	211
2	10000	9.79	10.3	195
2	20000	10.2	10.8	203
2	30000	11.1	11.7	222
2	40000	11.6	12.2	231
2	50000	11.3	11.9	224
2	60000	11.5	12.1	228
2	70000	12.2	12.9	243
2	80000	13.2	13.9	263
2	90000	13.4	14.1	266
2	100000	13.9	14.7	277
2	110000	13.5	14.2	269
2	120000	13.3	14	265
2	130000	13.4	14.1	267
2	140000	13.4	14.1	267
2	150000	14.2	15	284
2	160000	15.1	15.9	301
2	170000	14.7	15.5	293
2	180000	15	15.8	298
2	190000	15.2	16	302
2	200000	15	15.8	300
2	210000	13.8	14.6	275
2	220000	13.5	14.3	270
2	230000	13.6	14.4	272
2	240000	13.6	14.4	272
2	250000	12.6	13.3	250
2	260000	11.8	12.5	235
2	270000	11.6	12.2	231
2	280000	12.3	13	246
2	290000	11.6	12.2	231
3	0	12.8	10.6	199
3	-10000	18.6	16.3	308
3	-20000	19.1	16.8	318
3	-30000	19.2	17	321
3	-40000	19.5	17.2	326
3	-50000	18.9	16.6	314
3	-60000	19.4	17.1	324
3	-70000	19.1	16.9	319
3	-80000	18.5	16.2	307
3	-90000	18	15.7	297
3	-100000	17.5	15.3	288
3	-110000	17.7	15.4	292
3	-120000	17.8	15.6	295
3	-130000	18	15.7	297
3	-140000	18.9	16.6	315
3	-150000	18	15.7	297
3	-160000	17.9	15.6	295
3	-170000	19.1	16.8	318
3	-180000	19.3	17	322
3	-190000	19.5	17.3	327
3	-200000	19	16.7	316
3	-210000	18.6	16.3	309
3	-220000	18.3	16	303
3	-230000	18.4	16.1	305
3	-240000	18.4	16.1	304
3	-250000	17.9	15.6	296
3	-260000	16.8	14.6	275
3	-270000	16.5	14.2	269
3	-280000	16.8	14.5	275
3	-290000	15.6	13.3	252
3	0	14.1	14.8	280
3	10000	13.2	13.9	263
3	20000	12.4	13.1	247
3	30000	12.2	12.9	244
3	40000	12.7	13.4	252
3	50000	12.1	12.8	242
3	60000	12.2	12.8	243
3	70000	12.6	13.3	251
3	80000	12.6	13.3	251
3	90000	13.1	13.8	261
3	100000	13.7	14.4	273
3	110000	13.6	14.3	270
3	120000	13.6	14.4	272
3	130000	13.9	14.7	278
3	140000	14.2	15	284
3	150000	14.1	14.9	282
3	160000	14.9	15.7	296
3	170000	14.5	15.2	288
3	180000	14.5	15.2	288
3	190000	14.3	15.1	285
3	200000	14.4	15.1	286
3	210000	13.6	14.3	271
3	220000	13.4	14.2	268
3	230000	13.7	14.4	273
3	240000	13.4	14.1	267
3	250000	12.3	13	245
3	260000	11.8	12.4	235
3	270000	11.5	12.2	230
3	280000	11.3	11.9	226
3	290000	10.4	11	208
4	0	11.7	9.45	179
4	-10000	16.1	13.8	261
4	-20000	16.3	14.1	266
4	-30000	16.8	14.6	275
4	-40000	17.1	14.9	281
4	-50000	17.6	15.3	290
4	-60000	18	15.7	297
4	-70000	17.3	15	284
4	-80000	17.2	14.9	282
4	-90000	16.6	14.4	272
4	-100000	16.4	14.1	267
4	-110000	17.2	14.9	282
4	-120000	17.1	14.8	280
4	-130000	16.5	14.3	270
4	-140000	16.8	14.5	275
4	-150000	16.2	13.9	264
4	-160000	15.6	13.3	252
4	-170000	15.1	12.9	243
4	-180000	13.9	11.7	220
4	-190000	14	11.8	222
4	-200000	14.1	11.9	224
4	-210000	13.9	11.6	219
4	-220000	13.1	10.9	206
4	-230000	12.4	10.1	192
4	-240000	12.8	10.5	199
4	-250000	13.3	11	209
4	-260000	12.3	10	189
4	-270000	11.7	9.41	178
4	-280000	9.57	7.31	138
4	-290000	7.01	4.75	89.7
4	0	4.79	5.08	96
4	10000	6.62	6.97	132
4	20000	8.12	8.55	162
4	30000	10.2	10.7	202
4	40000	11	11.6	218
4	50000	11.1	11.8	222
4	60000	11.6	12.2	230
4	70000	12.3	13	245
4	80000	12.4	13	246
4	90000	12.3	13	246
4	100000	12.8	13.5	255
4	110000	12.6	13.3	251
4	120000	12.8	13.5	254
4	130000	12.5	13.2	249
4	140000	12.3	13	246
4	150000	12.5	13.2	250
4	160000	13.3	14	265
4	170000	12.7	13.4	253
4	180000	12.4	13.1	247
4	190000	12.4	13.1	247
4	200000	12.2	12.8	242
4	210000	11	11.6	220
4	220000	10.2	10.7	202
4	230000	10.3	10.9	205
4	240000	10.5	11	208
4	250000	10.5	11.1	209
4	260000	11.2	11.8	224
4	270000	11.8	12.5	236
4	280000	12.6	13.2	250
4	290000	11.8	12.4	234
5	0	12.9	10.6	201
5	-10000	14.1	11.9	224
5	-20000	14.5	12.3	232
5	-30000	14.2	11.9	226
5	-40000	15.1	12.9	244
5	-50000	15.6	13.3	251
5	-60000	15.3	13	246
5	-70000	14.3	12	227
5	-80000	15.8	13.5	256
5	-90000	16.8	14.5	274
5	-100000	16.5	14.3	269
5	-110000	16.4	14.2	268
5	-120000	16.2	13.9	263
5	-130000	15.7	13.4	253
5	-140000	16	13.8	260
5	-150000	15.6	13.3	252
5	-160000	16.1	13.9	262
5	-170000	17.1	14.9	281
5	-180000	16.1	13.9	262
5	-190000	15.3	13	246
5	-200000	14.3	12.1	228
5	-210000	11.4	9.14	173
5	-220000	6.53	4.27	80.6
5	-230000	3.75	2.15	40.6
5	-240000	2.79	1.6	30.2
5	-250000	2.39	1.37	25.9
5	-260000	1.93	1.1	20.9
5	-270000	1.81	1.03	19.6
5	-280000	2.02	1.16	21.9
5	-290000	1.9	1.09	20.6
5	0	1.7	1.98	37.5
5	10000	4.54	4.83	91.2
5	20000	6.78	7.14	135
5	30000	8.22	8.67	164
5	40000	9.18	9.67	183
5	50000	9.58	10.1	191
5	60000	10.2	10.7	202
5	70000	10.6	11.2	211
5	80000	10.5	11	208
5	90000	10.3	10.8	204
5	100000	10.3	10.9	205
5	110000	10.9	11.5	218
5	120000	11.3	11.9	226
5	130000	11.4	12	227
5	140000	11	11.6	219
5	150000	10.7	11.2	212
5	160000	10.8	11.3	214
5	170000	10.3	10.8	204
5	180000	10.1	10.7	202
5	190000	10.1	10.6	201
5	200000	9.97	10.5	199
5	210000	10.2	10.7	202
5	220000	10.1	10.6	200
5	230000	11.3	11.9	225
5	240000	11.2	11.9	224
5	250000	10.4	10.9	207
5	260000	9.32	9.82	186
5	270000	8.65	9.11	172
5	280000	8.67	9.14	173
5	290000	8.5	8.96	169
6	0	10.1	7.87	149
6	-10000	12.7	10.4	197
6	-20000	12.5	10.2	193
6	-30000	12.7	10.4	197
6	-40000	13.4	11.1	210
6	-50000	13.6	11.4	215
6	-60000	13.7	11.4	216
6	-70000	14	11.8	223
6	-80000	15.2	12.9	245
6	-90000	15.1	12.8	242
6	-100000	14.4	12.1	229
6	-110000	13.9	11.7	221
6	-120000	12.9	10.6	200
6	-130000	12.3	10.1	190
6	-140000	12.3	10	190
6	-150000	11.2	8.91	168
6	-160000	11.3	9.02	170
6	-170000	11.4	9.17	173
6	-180000	10.3	8.03	152
6	-190000	9.33	7.07	134
6	-200000	9.24	6.98	132
6	-210000	8.67	6.41	121
6	-220000	8.32	6.06	115
6	-230000	7.96	5.7	108
6	-240000	8.54	6.28	119
6	-250000	8.61	6.35	120
6	-260000	7.63	5.37	101
6	-270000	7.04	4.78	90.3
6	-280000	5.41	3.15	59.5
6	-290000	3.78	2.17	40.9
