rep_num	position	torque	torque_compensated	lbs_compensated
1	0	3.86	4.14	78.3
1	10000	9.97	10.5	199
1	20000	12.6	13.3	251
1	30000	11.7	12.3	233
1	40000	11.2	11.8	224
1	50000	12.7	13.4	253
1	60000	14.2	15	283
1	70000	13	13.7	260
1	80000	12.6	13.3	251
1	90000	14.5	15.2	288
1	100000	15.4	16.2	307
1	110000	15	15.8	298
1	120000	15.3	16.1	305
1	130000	16.5	17.4	329
1	140000	17.5	18.4	348
1	150000	16.3	17.2	326
1	160000	16.7	17.6	333
1	170000	17.7	18.7	353
1	180000	18.5	19.5	368
1	190000	18	18.9	358
1	200000	17.7	18.6	352
1	210000	18.4	19.4	366
1	220000	18.4	19.4	366
1	230000	17.3	18.2	344
1	240000	16.2	17	322
1	250000	16.4	17.3	327
1	260000	15.9	16.7	316
1	270000	15	15.8	299
1	280000	13.6	14.3	270
1	290000	14.1	14.9	281
2	0	15.3	13.1	247
2	-10000	19.2	16.9	320
2	-20000	19.1	16.9	319
2	-30000	20.7	18.4	348
2	-40000	20.9	18.6	352
2	-50000	21.3	19.1	360
2	-60000	22.7	20.5	387
2	-70000	23.7	21.5	406
2	-80000	23	20.7	391
2	-90000	22.1	19.9	376
2	-100000	23.1	20.9	395
2	-110000	23	20.8	392
2	-120000	21.6	19.3	365
2	-130000	20.8	18.5	350
2	-140000	21.9	19.7	372
2	-150000	21.6	19.4	366
2	-160000	20.6	18.3	347
2	-170000	20	17.7	335
2	-180000	21.3	19	360
2	-190000	20.7	18.4	348
2	-200000	20.8	18.5	350
2	-210000	21.2	18.9	358
2	-220000	21.8	19.5	369
2	-230000	20.9	18.7	353
2	-240000	19.6	17.3	327
2	-250000	20.1	17.8	337
2	-260000	21.5	19.2	363
2	-270000	20.3	18.1	342
2	-280000	18.4	16.1	305
2	-290000	17.7	15.4	291
2	0	15.9	16.8	317
2	10000	16.1	17	322
2	20000	17.5	18.4	349
2	30000	17	18	339
2	40000	15.2	16	302
2	50000	15.8	16.6	314
2	60000	16.8	17.7	334
2	70000	15.9	16.7	316
2	80000	14.7	15.5	292
2	90000	16.3	17.2	325
2	100000	17.2	18.2	344
2	110000	16.4	17.3	328
2	120000	16.7	17.6	332
2	130000	18.3	19.3	364
2	140000	18.9	19.9	377
2	150000	17.9	18.9	357
2	160000	18.2	19.2	362
2	170000	18.8	19.8	374
2	180000	19.2	20.3	383
2	190000	18.7	19.8	373
2	200000	17.6	18.5	350
2	210000	18.3	19.3	364
2	220000	17.9	18.9	357
2	230000	16.1	16.9	320
2	240000	13.6	14.4	272
2	250000	12.9	13.6	258
2	260000	12.6	13.2	250
2	270000	13	13.7	259
2	280000	11.8	12.5	235
2	290000	11.9	12.6	238
3	0	13.1	10.9	205
3	-10000	16.7	14.4	272
3	-20000	18	15.7	297
3	-30000	18.5	16.3	307
3	-40000	18.3	16	303
3	-50000	19.3	17	322
3	-60000	20.6	18.3	347
3	-70000	20.6	18.3	346
3	-80000	20.1	17.9	338
3	-90000	20	17.8	336
3	-100000	22	19.8	374
3	-110000	22.6	20.3	384
3	-120000	21.4	19.1	362
3	-130000	21	18.7	354
3	-140000	22.6	20.3	384
3	-150000	22.9	20.7	391
3	-160000	21.4	19.1	362
3	-170000	21.3	19.1	360
3	-180000	22.7	20.5	387
3	-190000	21.7	19.5	368
3	-200000	19.9	17.6	333
3	-210000	18.8	16.6	313
3	-220000	19.3	17.1	323
3	-230000	17.5	15.3	289
3	-240000	16.4	14.1	266
3	-250000	13.3	11	208
3	-260000	12.4	10.1	191
3	-270000	9.74	7.48	141
3	-280000	7.79	5.53	104
3	-290000	7.49	5.23	98.9
3	0	5.41	5.7	108
3	10000	12	12.7	239
3	20000	15.2	16	302
3	30000	15.1	15.9	300
3	40000	14.6	15.4	291
3	50000	15.5	16.3	308
3	60000	15.5	16.4	309
3	70000	15.1	15.9	301
3	80000	14.1	14.9	281
3	90000	15.9	16.8	317
3	100000	16.6	17.5	331
3	110000	15.9	16.8	317
3	120000	15.5	16.4	310
3	130000	16.6	17.5	332
3	140000	16.6	17.5	331
3	150000	16.5	17.4	329
3	160000	16.6	17.5	330
3	170000	17.7	18.7	354
3	180000	18.6	19.6	370
3	190000	18	19	359
3	200000	17.2	18.1	342
3	210000	17.9	18.9	357
3	220000	17.9	18.8	356
3	230000	16.1	16.9	320
3	240000	13.2	14	264
3	250000	12.4	13.1	248
3	260000	11.9	12.5	237
3	270000	11.6	12.2	230
3	280000	9.19	9.68	183
3	290000	9.45	9.96	188
4	0	10.3	8.06	152
4	-10000	14.7	12.4	235
4	-20000	14.7	12.4	235
4	-30000	16	13.7	259
4	-40000	15.6	13.3	251
4	-50000	17.1	14.8	280
4	-60000	19.1	16.9	319
4	-70000	19.9	17.6	333
4	-80000	19.5	17.2	325
4	-90000	18.8	16.6	313
4	-100000	20.1	17.8	337
4	-110000	20.4	18.1	343
4	-120000	20.2	17.9	338
4	-130000	20.2	18	339
4	-140000	21.7	19.5	368
4	-150000	21.4	19.2	362
4	-160000	20.1	17.8	337
4	-170000	19.4	17.1	323
4	-180000	20.7	18.5	349
4	-190000	19.5	17.2	325
4	-200000	17.2	14.9	282
4	-210000	17.4	15.2	287
4	-220000	18.5	16.2	307
4	-230000	17.9	15.6	295
4	-240000	16.5	14.3	270
4	-250000	17.5	15.2	288
4	-260000	18.5	16.3	308
4	-270000	17.1	14.9	281
4	-280000	13.2	10.9	207
4	-290000	13.6	11.4	215
4	0	12.5	13.2	250
4	10000	11.9	12.6	238
4	20000	12.7	13.4	254
4	30000	12.6	13.3	251
4	40000	11.1	11.7	221
4	50000	11.5	12.2	230
4	60000	12.5	13.2	249
4	70000	12.7	13.3	252
4	80000	12.9	13.6	257
4	90000	14.5	15.3	290
4	100000	15.4	16.2	306
4	110000	14.7	15.5	294
4	120000	14.7	15.5	292
4	130000	16.4	17.3	327
4	140000	17.7	18.7	353
4	150000	16	16.9	319
4	160000	14.9	15.7	297
4	170000	15.1	15.9	300
4	180000	15.5	16.3	309
4	190000	14.9	15.7	298
4	200000	13.1	13.8	261
4	210000	13.3	14	265
4	220000	13.8	14.5	275
4	230000	12.3	13	246
4	240000	10.6	11.2	212
4	250000	10.8	11.4	216
4	260000	12.6	13.3	251
4	270000	12.2	12.9	243
4	280000	8.86	9.34	177
4	290000	8.69	9.16	173
5	0	9.3	7.04	133
5	-10000	14.7	12.4	235
5	-20000	16.6	14.3	271
5	-30000	17.5	15.2	287
5	-40000	16.9	14.6	277
5	-50000	16.2	13.9	263
5	-60000	17.8	15.6	295
5	-70000	18.7	16.4	310
5	-80000	17.6	15.4	290
5	-90000	17.1	14.8	280
5	-100000	18.5	16.3	308
5	-110000	20	17.7	335
5	-120000	18.7	16.4	310
5	-130000	18.1	15.8	299
5	-140000	19.9	17.6	333
5	-150000	20.2	18	339
5	-160000	18.6	16.3	308
5	-170000	18.5	16.3	308
5	-180000	19.9	17.6	333
5	-190000	18.9	16.6	314
5	-200000	17.1	14.9	281
5	-210000	16.8	14.5	274
5	-220000	17.5	15.3	289
5	-230000	16.8	14.5	274
5	-240000	16.6	14.3	271
5	-250000	16.3	14	265
5	-260000	17.2	15	283
5	-270000	16.2	14	264
5	-280000	15	12.7	241
5	-290000	14	11.8	223
5	0	12.4	13.1	247
5	10000	11.5	12.1	229
5	20000	13.2	13.9	262
5	30000	12.9	13.6	257
5	40000	12.7	13.4	253
5	50000	14.3	15.1	286
5	60000	15.7	16.6	313
5	70000	15.2	16	302
5	80000	14.3	15	284
5	90000	15.3	16.1	305
5	100000	15.4	16.2	307
5	110000	13.5	14.2	269
5	120000	13.8	14.5	274
5	130000	14.7	15.5	293
5	140000	15.5	16.3	308
5	150000	14.5	15.3	289
5	160000	13.7	14.5	273
5	170000	14.5	15.2	288
5	180000	14.8	15.6	295
5	190000	14.3	15	284
5	200000	13.6	14.3	270
5	210000	15.2	16.1	303
5	220000	15	15.8	299
5	230000	13.1	13.8	260
5	240000	11.5	12.2	230
5	250000	10.7	11.3	213
5	260000	9.1	9.59	181
5	270000	8.78	9.26	175
5	280000	6.69	7.06	133
5	290000	6.62	6.98	132
6	0	7.28	5.02	94.8
6	-10000	12.5	10.2	193
6	-20000	13.7	11.5	217
6	-30000	16.5	14.2	268
6	-40000	16.6	14.3	271
6	-50000	17.1	14.9	281
6	-60000	19.6	17.3	327
6	-70000	19.2	17	321
6	-80000	18.4	16.1	304
6	-90000	18.4	16.2	305
6	-100000	19.6	17.3	327
6	-110000	19.4	17.1	323
6	-120000	18.5	16.3	308
6	-130000	18.2	16	302
6	-140000	19.8	17.6	332
6	-150000	19.8	17.5	331
6	-160000	18.1	15.8	298
6	-170000	18	15.8	298
6	-180000	19.1	16.8	318
6	-190000	18.1	15.9	300
6	-200000	16.9	14.6	277
6	-210000	16.9	14.6	276
6	-220000	18.6	16.3	308
6	-230000	18.4	16.1	305
6	-240000	17.3	15	283
6	-250000	17	14.8	279
6	-260000	17.5	15.2	287
6	-270000	16.5	14.2	269
6	-280000	14.6	12.3	233
6	-290000	13.8	11.5	218
