rep_num	position	torque	torque_compensated	lbs_compensated
1	0	6.09	6.42	121
1	10000	9.77	10.3	195
1	20000	10.9	11.5	217
1	30000	11.2	11.8	223
1	40000	12.3	12.9	245
1	50000	12.2	12.8	242
1	60000	12.3	12.9	245
1	70000	12.6	13.3	251
1	80000	12.1	12.7	240
1	90000	12.5	13.1	248
1	100000	12.3	12.9	244
1	110000	12.3	13	245
1	120000	13.5	14.2	268
1	130000	14	14.8	280
1	140000	14.1	14.9	281
1	150000	14.5	15.3	289
1	160000	15.1	16	302
1	170000	15.7	16.5	312
1	180000	15.6	16.5	311
1	190000	15.6	16.5	312
1	200000	16.1	17	320
1	210000	15.7	16.5	312
1	220000	14.4	15.2	288
1	230000	14.3	15.1	285
1	240000	14.1	14.9	281
1	250000	14.3	15	284
1	260000	14.3	15.1	286
1	270000	14.7	15.5	293
1	280000	15	15.8	299
1	290000	14.5	15.3	289
2	0	15.7	13.4	253
2	-10000	18.1	15.8	299
2	-20000	18.7	16.4	310
2	-30000	19.5	17.3	326
2	-40000	19.6	17.3	328
2	-50000	19.6	17.3	328
2	-60000	19.6	17.3	327
2	-70000	19.5	17.2	326
2	-80000	20.4	18.1	343
2	-90000	20.7	18.5	349
2	-100000	20.5	18.2	345
2	-110000	20.7	18.5	349
2	-120000	20.8	18.5	350
2	-130000	19.5	17.2	325
2	-140000	19.7	17.4	329
2	-150000	20.4	18.2	344
2	-160000	21.3	19	359
2	-170000	20	17.7	335
2	-180000	20.2	17.9	339
2	-190000	21.2	18.9	357
2	-200000	20.9	18.7	353
2	-210000	20.5	18.2	344
2	-220000	19.7	17.4	329
2	-230000	19.6	17.3	327
2	-240000	20.2	17.9	338
2	-250000	20.7	18.5	349
2	-260000	19.6	17.3	327
2	-270000	17.9	15.7	296
2	-280000	18.1	15.8	299
2	-290000	14.8	12.5	237
2	0	10.4	11	208
2	10000	7.59	8	151
2	20000	9.77	10.3	195
2	30000	9.39	9.9	187
2	40000	10.6	11.2	211
2	50000	12.6	13.3	252
2	60000	12.5	13.2	249
2	70000	12.8	13.5	255
2	80000	12.9	13.6	256
2	90000	13.4	14.1	267
2	100000	13.7	14.4	272
2	110000	14.1	14.9	282
2	120000	14.9	15.7	297
2	130000	15.6	16.5	311
2	140000	14.8	15.6	294
2	150000	15.5	16.3	309
2	160000	17.2	18.1	342
2	170000	16.9	17.8	336
2	180000	16.4	17.3	327
2	190000	16.1	16.9	320
2	200000	16.3	17.2	326
2	210000	16.2	17.1	323
2	220000	15.3	16.1	305
2	230000	15.2	16	302
2	240000	14.6	15.4	291
2	250000	13.3	14.1	266
2	260000	12.3	12.9	245
2	270000	12.3	12.9	244
2	280000	14.1	14.9	282
2	290000	14.2	15	283
3	0	14.7	12.4	235
3	-10000	16.2	14	264
3	-20000	15.3	13.1	247
3	-30000	16.5	14.3	270
3	-40000	19	16.7	316
3	-50000	20.3	18.1	342
3	-60000	20.5	18.2	344
3	-70000	20	17.7	335
3	-80000	20	17.7	335
3	-90000	19.1	16.9	319
3	-100000	18.9	16.6	315
3	-110000	20	17.8	336
3	-120000	20	17.8	336
3	-130000	19.9	17.7	334
3	-140000	20.7	18.4	349
3	-150000	21	18.7	354
3	-160000	20.5	18.2	345
3	-170000	19.5	17.2	325
3	-180000	20.2	17.9	339
3	-190000	20.2	18	340
3	-200000	19.5	17.3	327
3	-210000	18.8	16.5	312
3	-220000	18	15.8	298
3	-230000	17.5	15.2	287
3	-240000	18.9	16.6	314
3	-250000	20.1	17.8	337
3	-260000	19.1	16.8	318
3	-270000	18.2	16	302
3	-280000	18.9	16.6	314
3	-290000	17.3	15	284
3	0	15.8	16.7	315
3	10000	13.4	14.1	267
3	20000	13.2	13.9	262
3	30000	12.7	13.4	253
3	40000	13.9	14.6	277
3	50000	13.9	14.7	277
3	60000	14.5	15.3	289
3	70000	14.8	15.5	294
3	80000	14.6	15.4	291
3	90000	14.9	15.7	297
3	100000	14.4	15.2	287
3	110000	14.1	14.9	281
3	120000	14.1	14.9	281
3	130000	15.1	15.9	301
3	140000	14.8	15.6	296
3	150000	15	15.8	299
3	160000	15.1	15.9	300
3	170000	15	15.8	299
3	180000	14.5	15.3	289
3	190000	14.2	15	284
3	200000	14.2	15	283
3	210000	14.3	15.1	285
3	220000	13.8	14.6	275
3	230000	13.6	14.3	271
3	240000	13.2	13.9	262
3	250000	12	12.6	239
3	260000	10.8	11.4	215
3	270000	10.5	11.1	209
3	280000	11	11.6	219
3	290000	11.5	12.1	229
4	0	12.4	10.2	192
4	-10000	14.5	12.3	232
4	-20000	15.3	13	246
4	-30000	16.6	14.4	271
4	-40000	17.2	15	283
4	-50000	17.8	15.5	293
4	-60000	17.4	15.1	285
4	-70000	17.9	15.6	295
4	-80000	18.4	16.1	304
4	-90000	18.5	16.2	306
4	-100000	18.2	16	302
4	-110000	18.6	16.3	308
4	-120000	19.1	16.9	319
4	-130000	19.8	17.6	332
4	-140000	20.9	18.6	351
4	-150000	19.5	17.2	326
4	-160000	18.3	16.1	303
4	-170000	16.8	14.6	275
4	-180000	17.3	15	284
4	-190000	17.3	15.1	285
4	-200000	16.1	13.8	261
4	-210000	16.5	14.3	270
4	-220000	16.7	14.4	272
4	-230000	17	14.7	278
4	-240000	18.3	16.1	304
4	-250000	19	16.8	317
4	-260000	19.2	17	320
4	-270000	18.1	15.8	299
4	-280000	17.1	14.8	280
4	-290000	15.9	13.7	259
4	0	14.8	15.6	295
4	10000	12.8	13.5	255
4	20000	11.5	12.1	228
4	30000	12.7	13.4	253
4	40000	13.2	13.9	264
4	50000	13.1	13.8	260
4	60000	13.2	13.9	263
4	70000	13.1	13.8	262
4	80000	13.9	14.6	277
4	90000	14.1	14.8	280
4	100000	14	14.7	279
4	110000	13.9	14.7	277
4	120000	14.7	15.5	292
4	130000	14.8	15.6	295
4	140000	14	14.7	278
4	150000	14.1	14.8	280
4	160000	14.1	14.9	281
4	170000	14.2	15	284
4	180000	13.8	14.6	275
4	190000	13.1	13.8	261
4	200000	13.2	13.9	263
4	210000	13.4	14.1	267
4	220000	12.7	13.4	254
4	230000	12.1	12.8	241
4	240000	11.5	12.1	229
4	250000	10.6	11.2	211
4	260000	8.98	9.46	179
4	270000	8.59	9.05	171
4	280000	8.63	9.1	172
4	290000	8.64	9.11	172
5	0	9.66	7.4	140
5	-10000	11.7	9.45	179
5	-20000	12.7	10.4	197
5	-30000	14.3	12	227
5	-40000	15.4	13.1	248
5	-50000	15.5	13.2	249
5	-60000	16.1	13.8	261
5	-70000	17.2	14.9	281
5	-80000	18.5	16.3	307
5	-90000	18.1	15.9	300
5	-100000	17.5	15.2	288
5	-110000	18.2	16	301
5	-120000	18.2	16	302
5	-130000	17	14.7	278
5	-140000	17.5	15.3	288
5	-150000	17.6	15.4	291
5	-160000	17.9	15.6	295
5	-170000	17.9	15.7	296
5	-180000	18.3	16	303
5	-190000	17.7	15.4	291
5	-200000	17.7	15.4	292
5	-210000	17.7	15.5	292
5	-220000	17.7	15.4	292
5	-230000	17	14.7	278
5	-240000	17.3	15	284
5	-250000	16.9	14.6	276
5	-260000	16.3	14.1	266
5	-270000	15.6	13.4	252
5	-280000	15.4	13.1	248
5	-290000	15	12.8	241
5	0	13.9	14.7	277
5	10000	12.5	13.2	249
5	20000	12.8	13.5	255
5	30000	12.8	13.5	255
5	40000	12.6	13.3	252
5	50000	12.5	13.1	248
5	60000	11.5	12.1	229
5	70000	12	12.7	239
5	80000	11	11.6	219
5	90000	11.3	12	226
5	100000	10.8	11.4	216
5	110000	10	10.5	199
5	120000	11.6	12.3	232
5	130000	12.7	13.4	254
5	140000	12	12.6	239
5	150000	12.3	13	245
5	160000	12.2	12.9	243
5	170000	11.6	12.2	230
5	180000	11.3	11.9	225
5	190000	11.3	12	226
5	200000	11.3	11.9	225
5	210000	11.4	12	227
5	220000	11.1	11.7	220
5	230000	10.6	11.2	212
5	240000	11.3	11.9	225
5	250000	9.87	10.4	197
5	260000	8.55	9.02	170
5	270000	10.1	10.7	202
5	280000	9.68	10.2	193
5	290000	9.01	9.5	179
6	0	9.78	7.52	142
6	-10000	11.7	9.43	178
6	-20000	12.3	10.1	190
6	-30000	13.6	11.3	214
6	-40000	14.4	12.1	229
6	-50000	15.1	12.8	242
6	-60000	15.9	13.6	257
6	-70000	17.2	14.9	282
6	-80000	18.1	15.8	299
6	-90000	17.9	15.6	296
6	-100000	17.9	15.6	295
6	-110000	17.2	14.9	282
6	-120000	17.8	15.5	294
6	-130000	17.4	15.2	287
6	-140000	16.8	14.5	274
6	-150000	15.9	13.7	258
6	-160000	15.6	13.4	253
6	-170000	15.9	13.7	259
6	-180000	15.9	13.6	257
6	-190000	15.6	13.3	251
6	-200000	15.4	13.2	249
6	-210000	15.4	13.1	248
6	-220000	16.1	13.9	262
6	-230000	16.9	14.7	277
6	-240000	17.9	15.6	296
6	-250000	17.1	14.8	280
6	-260000	15.9	13.7	258
6	-270000	14.7	12.5	236
6	-280000	12.9	10.7	202
6	-290000	11.8	9.52	180
