rep_num	position	torque	torque_compensated	lbs_compensated
1	0	6.46	6.81	129
1	10000	10.5	11	208
1	20000	11.8	12.5	236
1	30000	11.3	11.9	226
1	40000	11.2	11.9	224
1	50000	11.9	12.5	236
1	60000	11.4	12	227
1	70000	10.8	11.3	214
1	80000	10.6	11.1	211
1	90000	11.4	12	227
1	100000	11.7	12.3	233
1	110000	10.8	11.4	216
1	120000	11.8	12.4	235
1	130000	13.5	14.3	270
1	140000	13.2	13.9	262
1	150000	13	13.7	259
1	160000	13.5	14.2	269
1	170000	14.9	15.7	297
1	180000	15.3	16.1	305
1	190000	14.9	15.7	297
1	200000	14.2	15	284
1	210000	15	15.8	298
1	220000	14.2	15	283
1	230000	13.7	14.5	274
1	240000	13.9	14.7	278
1	250000	14.5	15.3	289
1	260000	14.1	14.8	280
1	270000	14	14.7	279
1	280000	12.6	13.3	252
1	290000	12.3	13	246
2	0	13.7	11.4	216
2	-10000	17.2	15	283
2	-20000	17.3	15	284
2	-30000	18.6	16.4	310
2	-40000	18.3	16	303
2	-50000	18	15.7	297
2	-60000	18.4	16.1	304
2	-70000	18.6	16.4	310
2	-80000	18.5	16.2	307
2	-90000	17.9	15.7	296
2	-100000	18.3	16.1	303
2	-110000	19.2	17	321
2	-120000	18.9	16.6	314
2	-130000	18.7	16.4	310
2	-140000	18.9	16.6	315
2	-150000	18.5	16.2	306
2	-160000	17.2	14.9	282
2	-170000	17.4	15.1	286
2	-180000	20	17.7	335
2	-190000	20.5	18.2	344
2	-200000	19.3	17	322
2	-210000	19.4	17.1	323
2	-220000	19.6	17.4	328
2	-230000	19.3	17.1	323
2	-240000	18	15.7	297
2	-250000	17.4	15.1	285
2	-260000	17.8	15.5	293
2	-270000	15.9	13.7	258
2	-280000	13.3	11.1	209
2	-290000	11.6	9.38	177
2	0	6.71	7.08	134
2	10000	2.52	2.81	53
2	20000	4.78	5.07	95.8
2	30000	4.92	5.2	98.4
2	40000	6.83	7.2	136
2	50000	10.6	11.2	211
2	60000	12.5	13.1	248
2	70000	10.9	11.5	217
2	80000	10.6	11.2	212
2	90000	12.4	13.1	247
2	100000	13.2	13.9	262
2	110000	12.8	13.5	255
2	120000	13.6	14.3	271
2	130000	15.1	15.9	300
2	140000	14.7	15.5	294
2	150000	14.2	14.9	282
2	160000	15	15.8	299
2	170000	15.3	16.1	304
2	180000	15.1	15.9	300
2	190000	14.8	15.6	294
2	200000	14.1	14.9	281
2	210000	15.2	16.1	304
2	220000	15	15.8	299
2	230000	14.3	15.1	285
2	240000	14	14.7	279
2	250000	14.3	15.1	286
2	260000	14.1	14.9	281
2	270000	13.6	14.3	270
2	280000	13.3	14	265
2	290000	14	14.7	278
3	0	15	12.7	241
3	-10000	16.7	14.4	273
3	-20000	16.9	14.7	278
3	-30000	18	15.8	298
3	-40000	17	14.8	279
3	-50000	16.8	14.6	275
3	-60000	18	15.8	298
3	-70000	18.9	16.7	315
3	-80000	17.9	15.6	295
3	-90000	17.5	15.2	287
3	-100000	17.9	15.7	296
3	-110000	19.4	17.1	323
3	-120000	18.7	16.4	311
3	-130000	19.5	17.2	326
3	-140000	20.9	18.7	353
3	-150000	21.1	18.8	356
3	-160000	18.7	16.5	311
3	-170000	17.4	15.1	286
3	-180000	18.6	16.3	308
3	-190000	18.8	16.5	313
3	-200000	17.6	15.3	290
3	-210000	17.6	15.4	290
3	-220000	18.1	15.9	300
3	-230000	17.8	15.5	293
3	-240000	16.4	14.1	267
3	-250000	17.3	15	283
3	-260000	17.7	15.4	292
3	-270000	17.9	15.6	295
3	-280000	17.9	15.6	295
3	-290000	17.9	15.7	296
3	0	15.5	16.3	308
3	10000	13.4	14.1	266
3	20000	14.1	14.9	281
3	30000	13.2	13.9	263
3	40000	11.8	12.5	235
3	50000	13.2	14	264
3	60000	13.6	14.4	271
3	70000	13	13.7	260
3	80000	12.9	13.6	256
3	90000	14	14.8	280
3	100000	14.2	15	284
3	110000	13.2	13.9	263
3	120000	14	14.8	280
3	130000	15.1	15.9	300
3	140000	14.7	15.4	292
3	150000	14.2	14.9	282
3	160000	14.3	15.1	285
3	170000	15.3	16.1	305
3	180000	15.4	16.2	306
3	190000	15.5	16.3	309
3	200000	15.6	16.4	310
3	210000	16.2	17.1	323
3	220000	15.9	16.7	316
3	230000	14.9	15.7	297
3	240000	14.9	15.7	297
3	250000	15.3	16.1	305
3	260000	14.2	15	284
3	270000	14.6	15.4	290
3	280000	13.5	14.3	270
3	290000	13.1	13.8	260
4	0	14.6	12.3	233
4	-10000	17.5	15.2	288
4	-20000	18	15.8	298
4	-30000	19.1	16.8	318
4	-40000	18.4	16.1	304
4	-50000	18.7	16.4	310
4	-60000	19.9	17.6	333
4	-70000	20.9	18.6	352
4	-80000	20.4	18.1	343
4	-90000	19.8	17.5	331
4	-100000	20.3	18	340
4	-110000	21.7	19.4	367
4	-120000	22	19.7	372
4	-130000	20.8	18.6	351
4	-140000	21.3	19.1	361
4	-150000	20.6	18.4	347
4	-160000	20.2	17.9	338
4	-170000	18.6	16.4	309
4	-180000	19.1	16.8	318
4	-190000	19.6	17.4	328
4	-200000	18.8	16.5	313
4	-210000	18.8	16.5	313
4	-220000	19	16.8	317
4	-230000	18.8	16.5	313
4	-240000	17.7	15.5	292
4	-250000	17.7	15.5	293
4	-260000	17.4	15.2	287
4	-270000	16.3	14	265
4	-280000	15.1	12.8	243
4	-290000	13.3	11.1	209
4	0	12	12.6	239
4	10000	12.6	13.3	250
4	20000	14	14.8	280
4	30000	13.6	14.4	271
4	40000	12.3	13	245
4	50000	13.7	14.4	272
4	60000	14	14.7	278
4	70000	13.3	14	264
4	80000	12.9	13.6	257
4	90000	13.8	14.6	276
4	100000	14.2	15	284
4	110000	12.7	13.4	253
4	120000	12.8	13.5	254
4	130000	14.6	15.4	291
4	140000	14	14.8	279
4	150000	13.1	13.8	261
4	160000	13.3	14	265
4	170000	14.1	14.9	281
4	180000	14.2	15	284
4	190000	13.8	14.5	274
4	200000	14.2	15	283
4	210000	14.9	15.8	298
4	220000	14.7	15.5	293
4	230000	13.6	14.4	271
4	240000	13.2	13.9	262
4	250000	13.4	14.1	267
4	260000	13.7	14.4	272
4	270000	13.6	14.3	270
4	280000	12	12.6	239
4	290000	12.2	12.8	243
5	0	13.6	11.3	214
5	-10000	16.7	14.5	274
5	-20000	17.5	15.3	289
5	-30000	19	16.7	316
5	-40000	18	15.8	298
5	-50000	17.6	15.4	290
5	-60000	19.3	17.1	322
5	-70000	20.3	18	341
5	-80000	19.4	17.2	324
5	-90000	19.1	16.8	318
5	-100000	20.8	18.5	350
5	-110000	22.5	20.2	382
5	-120000	21.3	19	359
5	-130000	20.6	18.4	347
5	-140000	21.5	19.2	364
5	-150000	22.6	20.3	385
5	-160000	21.6	19.3	365
5	-170000	20.5	18.2	344
5	-180000	21.1	18.8	355
5	-190000	20.4	18.1	343
5	-200000	18.8	16.6	313
5	-210000	18.4	16.2	305
5	-220000	19.9	17.6	333
5	-230000	19.5	17.2	325
5	-240000	18.5	16.2	307
5	-250000	16.6	14.3	271
5	-260000	18.1	15.8	299
5	-270000	16.5	14.2	268
5	-280000	15.5	13.3	251
5	-290000	15.9	13.6	258
5	0	14.6	15.4	290
5	10000	14.1	14.9	282
5	20000	14.4	15.2	288
5	30000	14.1	14.9	281
5	40000	13.3	14	264
5	50000	15	15.8	299
5	60000	15.1	15.9	301
5	70000	13.8	14.6	275
5	80000	13.5	14.2	269
5	90000	15.2	16	303
5	100000	15.6	16.4	311
5	110000	14.9	15.7	296
5	120000	15.9	16.7	316
5	130000	16.3	17.2	325
5	140000	15.5	16.3	308
5	150000	14.1	14.9	281
5	160000	14.4	15.2	287
5	170000	14.2	14.9	282
5	180000	13.8	14.6	275
5	190000	13.5	14.2	269
5	200000	13.4	14.1	266
5	210000	14	14.7	278
5	220000	13.5	14.3	270
5	230000	12.6	13.3	251
5	240000	12.4	13.1	247
5	250000	12.5	13.1	248
5	260000	10.6	11.2	212
5	270000	10.7	11.2	212
5	280000	9.24	9.74	184
5	290000	9.53	10	190
6	0	10.3	8.01	151
6	-10000	14.2	11.9	225
6	-20000	14.3	12.1	228
6	-30000	15.8	13.5	256
6	-40000	16.1	13.9	262
6	-50000	17.4	15.1	286
6	-60000	18.3	16	303
6	-70000	17.9	15.7	297
6	-80000	17	14.7	278
6	-90000	16.9	14.6	277
6	-100000	17.7	15.4	292
6	-110000	18	15.7	298
6	-120000	16.5	14.3	270
6	-130000	15.2	12.9	244
6	-140000	18.4	16.2	305
6	-150000	19.7	17.4	329
6	-160000	18.9	16.6	314
6	-170000	18.6	16.3	309
6	-180000	19.4	17.2	324
6	-190000	18.1	15.8	299
6	-200000	16.3	14.1	266
6	-210000	14.9	12.6	239
6	-220000	15.5	13.2	250
6	-230000	15.2	13	245
6	-240000	12.5	10.2	193
6	-250000	12.3	10	189
6	-260000	11.7	9.47	179
6	-270000	11.5	9.25	175
6	-280000	8.8	6.54	124
6	-290000	5.74	3.48	65.7
