rep_num	position	torque	torque_compensated	lbs_compensated
1	0	2.51	2.79	52.8
1	10000	3.99	4.28	80.8
1	20000	4.52	4.8	90.7
1	30000	6.54	6.9	130
1	40000	6.35	6.7	127
1	50000	5.85	6.16	117
1	60000	7.14	7.52	142
1	70000	8.21	8.65	164
1	80000	7.11	7.5	142
1	90000	6.78	7.14	135
1	100000	7.08	7.47	141
1	110000	8.68	9.15	173
1	120000	10.9	11.4	216
1	130000	11.8	12.4	235
1	140000	12	12.7	240
1	150000	12.7	13.4	252
1	160000	13.7	14.4	273
1	170000	13.9	14.6	276
1	180000	13.6	14.3	271
1	190000	14.8	15.6	294
1	200000	15.6	16.5	311
1	210000	14.6	15.4	291
1	220000	15.1	16	302
1	230000	16.1	17	321
1	240000	16.6	17.5	330
1	250000	14.4	15.2	288
1	260000	11.3	11.9	226
1	270000	9.36	9.87	186
1	280000	10.4	10.9	206
1	290000	10.2	10.7	203
2	0	12	9.72	184
2	-10000	11.7	9.42	178
2	-20000	13.2	11	207
2	-30000	13.9	11.7	220
2	-40000	16.4	14.2	268
2	-50000	18.3	16	303
2	-60000	19.1	16.9	318
2	-70000	19.3	17.1	322
2	-80000	20.3	18	341
2	-90000	20.4	18.1	342
2	-100000	18.9	16.7	315
2	-110000	18.6	16.4	309
2	-120000	19.6	17.3	328
2	-130000	19.7	17.4	329
2	-140000	18.9	16.6	314
2	-150000	18.2	16	302
2	-160000	18.5	16.2	307
2	-170000	19.3	17.1	323
2	-180000	19.3	17	322
2	-190000	18.3	16.1	304
2	-200000	17.6	15.4	290
2	-210000	18	15.7	297
2	-220000	16.9	14.7	278
2	-230000	16.2	14	264
2	-240000	18	15.7	297
2	-250000	18.7	16.4	310
2	-260000	18	15.7	297
2	-270000	17.3	15	284
2	-280000	17.8	15.5	293
2	-290000	17.5	15.3	289
2	0	15.5	16.4	309
2	10000	14.3	15.1	285
2	20000	14.2	15	283
2	30000	14.6	15.4	290
2	40000	14.6	15.4	292
2	50000	14.3	15.1	285
2	60000	15.6	16.4	310
2	70000	17.2	18.1	342
2	80000	17.4	18.4	347
2	90000	17	17.9	338
2	100000	16.5	17.3	328
2	110000	16.8	17.7	334
2	120000	18.2	19.2	363
2	130000	17.1	18	340
2	140000	15.4	16.2	306
2	150000	16.2	17.1	324
2	160000	16.2	17.1	323
2	170000	15.4	16.2	307
2	180000	15.1	15.9	301
2	190000	16.1	17	321
2	200000	15.8	16.7	315
2	210000	14.9	15.7	298
2	220000	14.7	15.5	293
2	230000	15.3	16.1	304
2	240000	15.8	16.7	315
2	250000	14.4	15.2	288
2	260000	13.8	14.5	275
2	270000	13.9	14.7	277
2	280000	15.2	16.1	303
2	290000	14.9	15.7	297
3	0	16.8	14.6	275
3	-10000	20.6	18.4	347
3	-20000	21	18.7	353
3	-30000	19.8	17.5	331
3	-40000	20.5	18.3	345
3	-50000	20.7	18.5	349
3	-60000	20	17.7	335
3	-70000	19.6	17.4	328
3	-80000	20.2	17.9	339
3	-90000	20.9	18.6	352
3	-100000	20	17.7	335
3	-110000	20.1	17.9	338
3	-120000	20.5	18.3	346
3	-130000	20.9	18.6	352
3	-140000	20.9	18.6	352
3	-150000	19.7	17.5	331
3	-160000	20	17.7	335
3	-170000	20.5	18.3	346
3	-180000	20	17.7	335
3	-190000	18.5	16.3	308
3	-200000	19.3	17	321
3	-210000	19.7	17.4	330
3	-220000	18.3	16	303
3	-230000	17.6	15.3	290
3	-240000	18.2	15.9	301
3	-250000	19.5	17.3	326
3	-260000	17.6	15.3	289
3	-270000	17.4	15.1	285
3	-280000	18.2	15.9	301
3	-290000	18.5	16.2	306
3	0	16.4	17.3	326
3	10000	15.2	16.1	304
3	20000	14.5	15.3	289
3	30000	16.4	17.2	326
3	40000	17.5	18.4	348
3	50000	16.1	16.9	320
3	60000	15.4	16.2	307
3	70000	16.4	17.3	327
3	80000	17.2	18.1	342
3	90000	16.2	17	322
3	100000	15.3	16.2	306
3	110000	14	14.7	279
3	120000	14.8	15.6	294
3	130000	16	16.8	318
3	140000	16.4	17.3	326
3	150000	17.8	18.8	355
3	160000	17.6	18.6	351
3	170000	15.6	16.5	312
3	180000	15.2	16	303
3	190000	17.1	18	341
3	200000	17.5	18.5	349
3	210000	16.9	17.8	336
3	220000	16.4	17.2	326
3	230000	16.7	17.6	333
3	240000	16.3	17.2	324
3	250000	14.7	15.5	292
3	260000	13.4	14.2	268
3	270000	13	13.7	259
3	280000	14	14.8	279
3	290000	13.5	14.2	269
4	0	15.6	13.3	252
4	-10000	17.8	15.5	293
4	-20000	19.2	17	321
4	-30000	19.3	17.1	323
4	-40000	19.6	17.3	327
4	-50000	19.7	17.5	330
4	-60000	19	16.8	317
4	-70000	19.3	17	321
4	-80000	21	18.7	354
4	-90000	21	18.7	354
4	-100000	20.6	18.3	346
4	-110000	21.6	19.3	365
4	-120000	22.4	20.2	381
4	-130000	22.2	20	377
4	-140000	21.1	18.9	357
4	-150000	20.4	18.2	343
4	-160000	20.5	18.3	345
4	-170000	20.4	18.2	344
4	-180000	19.2	16.9	320
4	-190000	17.8	15.6	294
4	-200000	18.4	16.2	306
4	-210000	18.3	16	302
4	-220000	16.8	14.5	274
4	-230000	15.5	13.2	250
4	-240000	16.1	13.8	261
4	-250000	17	14.8	279
4	-260000	15.3	13	246
4	-270000	15.5	13.2	250
4	-280000	15.9	13.7	258
4	-290000	15	12.7	240
4	0	13.3	14	265
4	10000	14.2	15	283
4	20000	14.4	15.2	287
4	30000	17.1	18	340
4	40000	16.7	17.6	332
4	50000	16.1	17	322
4	60000	15.9	16.8	317
4	70000	16.3	17.2	325
4	80000	16.4	17.3	327
4	90000	16.3	17.2	325
4	100000	16.2	17.1	322
4	110000	16.8	17.7	334
4	120000	16.3	17.2	326
4	130000	15.3	16.1	305
4	140000	15	15.8	298
4	150000	15.2	16	302
4	160000	15.2	16	303
4	170000	14.6	15.4	291
4	180000	13.8	14.5	274
4	190000	14.4	15.2	287
4	200000	14.1	14.9	281
4	210000	12.9	13.6	256
4	220000	12.3	12.9	244
4	230000	12.6	13.3	251
4	240000	13.1	13.8	261
4	250000	11.6	12.2	231
4	260000	11.5	12.1	230
4	270000	11.9	12.6	238
4	280000	13.6	14.4	271
4	290000	12.6	13.3	251
5	0	13.8	11.5	218
5	-10000	12.1	9.8	185
5	-20000	13.1	10.8	205
5	-30000	13.5	11.2	212
5	-40000	14.7	12.5	236
5	-50000	16.2	13.9	263
5	-60000	16.7	14.4	272
5	-70000	17	14.8	279
5	-80000	18.5	16.3	308
5	-90000	19.1	16.8	317
5	-100000	18.6	16.4	309
5	-110000	18.9	16.7	315
5	-120000	19.7	17.4	330
5	-130000	19.6	17.4	328
5	-140000	18.3	16	303
5	-150000	17	14.7	278
5	-160000	17.5	15.3	288
5	-170000	17.7	15.4	292
5	-180000	17.1	14.8	280
5	-190000	16.6	14.3	271
5	-200000	16.9	14.6	276
5	-210000	17.2	14.9	282
5	-220000	16.3	14.1	266
5	-230000	15.8	13.6	256
5	-240000	16.7	14.4	273
5	-250000	16.8	14.6	276
5	-260000	16.4	14.2	268
5	-270000	15.3	13	247
5	-280000	15.5	13.3	251
5	-290000	14.4	12.1	229
5	0	12.2	12.9	244
5	10000	11.1	11.7	221
5	20000	11.5	12.2	230
5	30000	13.4	14.1	266
5	40000	14.1	14.8	281
5	50000	13.5	14.3	270
5	60000	13.7	14.5	273
5	70000	14.2	15	283
5	80000	14	14.8	279
5	90000	12.8	13.5	256
5	100000	11.4	12	227
5	110000	12.3	13	246
5	120000	13.2	13.9	264
5	130000	12.9	13.6	257
5	140000	12.7	13.4	254
5	150000	13.2	13.9	262
5	160000	13.2	13.9	263
5	170000	12.7	13.4	254
5	180000	11.9	12.6	238
5	190000	12.9	13.6	257
5	200000	12.7	13.4	253
5	210000	12.3	13	245
5	220000	12.5	13.2	250
5	230000	13.4	14.1	267
5	240000	14.1	14.8	280
5	250000	13.3	14	265
5	260000	13	13.8	260
5	270000	11.1	11.7	221
5	280000	10.3	10.9	206
5	290000	9.35	9.86	186
6	0	11.4	9.14	173
6	-10000	11.9	9.68	183
6	-20000	12.5	10.2	194
6	-30000	13.7	11.4	216
6	-40000	14.9	12.7	240
6	-50000	15.2	12.9	244
6	-60000	15	12.7	240
6	-70000	15.2	12.9	244
6	-80000	16.5	14.3	269
6	-90000	16.5	14.2	269
6	-100000	15.8	13.5	255
6	-110000	16.6	14.4	271
6	-120000	17.8	15.6	294
6	-130000	18.9	16.6	315
6	-140000	18.3	16	303
6	-150000	17.6	15.4	290
6	-160000	17.6	15.4	290
6	-170000	17.1	14.8	280
6	-180000	16.2	13.9	263
6	-190000	15.2	12.9	245
6	-200000	15.1	12.8	243
6	-210000	15.3	13	246
6	-220000	14.3	12	227
6	-230000	12.9	10.7	201
6	-240000	13.9	11.6	219
6	-250000	13.5	11.2	212
6	-260000	11.2	8.96	169
6	-270000	9.64	7.38	140
6	-280000	8.94	6.68	126
6	-290000	8.65	6.39	121
