rep_num	position	torque	torque_compensated	lbs_compensated
1	0	6.24	6.57	124
1	10000	7.13	7.52	142
1	20000	9.85	10.4	196
1	30000	10	10.6	200
1	40000	9.39	9.9	187
1	50000	10.8	11.4	215
1	60000	11.8	12.5	236
1	70000	11.4	12.1	228
1	80000	10.5	11.1	209
1	90000	11.5	12.2	230
1	100000	11.8	12.4	235
1	110000	11.5	12.1	229
1	120000	11.8	12.4	235
1	130000	12.4	13	246
1	140000	12.4	13	246
1	150000	12	12.6	239
1	160000	12.8	13.5	254
1	170000	13.3	14.1	266
1	180000	12.7	13.4	254
1	190000	12.8	13.5	256
1	200000	12.6	13.2	250
1	210000	13	13.7	260
1	220000	13.8	14.6	275
1	230000	13	13.7	259
1	240000	13	13.7	259
1	250000	14.2	15	283
1	260000	14	14.7	278
1	270000	14.2	15	283
1	280000	13.3	14.1	266
1	290000	13.1	13.8	260
2	0	13.9	11.6	219
2	-10000	14.9	12.6	238
2	-20000	15.1	12.8	242
2	-30000	16.8	14.6	275
2	-40000	16	13.8	260
2	-50000	16.8	14.6	275
2	-60000	18.2	15.9	301
2	-70000	18.4	16.1	305
2	-80000	18	15.8	298
2	-90000	18	15.8	298
2	-100000	18.5	16.3	307
2	-110000	19.8	17.5	331
2	-120000	19.6	17.3	328
2	-130000	18.5	16.2	306
2	-140000	19.8	17.6	332
2	-150000	20.6	18.4	347
2	-160000	19.3	17	322
2	-170000	18.5	16.3	307
2	-180000	19.2	17	321
2	-190000	19.1	16.8	318
2	-200000	18.8	16.5	312
2	-210000	18.6	16.3	308
2	-220000	19.7	17.5	330
2	-230000	18.8	16.5	313
2	-240000	18	15.7	298
2	-250000	17.2	14.9	282
2	-260000	16.2	13.9	263
2	-270000	16	13.7	260
2	-280000	15	12.8	242
2	-290000	15.2	12.9	244
2	0	13.7	14.5	274
2	10000	14.2	15	284
2	20000	15.2	16	303
2	30000	14.6	15.4	290
2	40000	14.5	15.3	288
2	50000	14.7	15.5	292
2	60000	14.5	15.3	288
2	70000	13	13.7	260
2	80000	13.1	13.8	261
2	90000	14.6	15.4	292
2	100000	15.7	16.6	313
2	110000	14.4	15.2	288
2	120000	14.8	15.6	294
2	130000	16.5	17.4	329
2	140000	17.2	18.1	342
2	150000	17.1	18	340
2	160000	17.5	18.4	349
2	170000	18	18.9	358
2	180000	18.2	19.2	362
2	190000	17.4	18.3	347
2	200000	16.5	17.3	328
2	210000	17.2	18.1	342
2	220000	16.8	17.7	335
2	230000	15.6	16.4	311
2	240000	14.3	15.1	285
2	250000	14.7	15.5	292
2	260000	14.2	15	283
2	270000	12.8	13.5	254
2	280000	11.4	12	227
2	290000	11.7	12.3	233
3	0	13	10.7	203
3	-10000	17.4	15.1	285
3	-20000	16.3	14.1	266
3	-30000	17.6	15.4	290
3	-40000	17.7	15.4	292
3	-50000	18.6	16.3	308
3	-60000	20.1	17.9	337
3	-70000	20.4	18.2	343
3	-80000	19.3	17.1	323
3	-90000	19.6	17.4	328
3	-100000	20.7	18.5	349
3	-110000	21.3	19.1	361
3	-120000	20.2	17.9	338
3	-130000	19.4	17.1	324
3	-140000	20.5	18.3	345
3	-150000	20.7	18.4	349
3	-160000	19.4	17.2	325
3	-170000	18.6	16.4	310
3	-180000	19.9	17.6	333
3	-190000	18.8	16.5	313
3	-200000	16.9	14.7	277
3	-210000	15.8	13.6	257
3	-220000	15.8	13.6	257
3	-230000	16.1	13.8	261
3	-240000	16.6	14.4	272
3	-250000	16.1	13.8	261
3	-260000	15.7	13.5	254
3	-270000	13.4	11.1	211
3	-280000	11.6	9.37	177
3	-290000	12.2	9.92	188
3	0	11.2	11.8	224
3	10000	12.1	12.7	240
3	20000	13.7	14.4	273
3	30000	11.8	12.5	236
3	40000	12.1	12.7	241
3	50000	12.1	12.7	240
3	60000	11.8	12.5	236
3	70000	12.4	13	246
3	80000	11.9	12.6	238
3	90000	13.2	13.9	263
3	100000	13.8	14.5	275
3	110000	12.8	13.5	255
3	120000	13.3	14	265
3	130000	14.5	15.3	289
3	140000	15.2	16	303
3	150000	14.6	15.4	291
3	160000	14.2	15	283
3	170000	14.6	15.4	291
3	180000	14.9	15.7	296
3	190000	14.5	15.3	289
3	200000	14.5	15.2	288
3	210000	15.1	16	302
3	220000	14.9	15.7	298
3	230000	13.6	14.3	270
3	240000	13.1	13.8	261
3	250000	12.8	13.4	254
3	260000	12.8	13.5	255
3	270000	13.5	14.3	269
3	280000	11.8	12.4	235
3	290000	11.4	12	227
4	0	12.2	9.99	189
4	-10000	14.7	12.5	236
4	-20000	13.5	11.3	213
4	-30000	16.2	13.9	263
4	-40000	16.7	14.4	272
4	-50000	17.1	14.9	281
4	-60000	18.4	16.1	304
4	-70000	20	17.7	335
4	-80000	20.1	17.8	337
4	-90000	19.2	17	321
4	-100000	19.3	17	321
4	-110000	20.2	18	340
4	-120000	18.2	15.9	301
4	-130000	17.3	15	283
4	-140000	17.8	15.6	294
4	-150000	17.5	15.3	289
4	-160000	15.8	13.5	256
4	-170000	15.1	12.8	243
4	-180000	16.3	14	265
4	-190000	16.2	13.9	263
4	-200000	15.7	13.5	254
4	-210000	15.5	13.2	250
4	-220000	16.2	14	264
4	-230000	15.7	13.5	255
4	-240000	14.4	12.2	230
4	-250000	14.5	12.2	231
4	-260000	15.3	13.1	247
4	-270000	13.8	11.5	217
4	-280000	11.8	9.58	181
4	-290000	11.6	9.32	176
4	0	9.65	10.2	192
4	10000	10.1	10.6	201
4	20000	10.9	11.5	218
4	30000	10.6	11.2	212
4	40000	10.7	11.3	214
4	50000	11.2	11.8	223
4	60000	12.6	13.3	251
4	70000	12.2	12.9	244
4	80000	12.5	13.2	249
4	90000	13.8	14.5	275
4	100000	14.5	15.3	290
4	110000	12.9	13.6	257
4	120000	12.4	13.1	248
4	130000	13.2	13.9	263
4	140000	12.2	12.9	244
4	150000	12.4	13	246
4	160000	12.7	13.4	253
4	170000	12.8	13.5	255
4	180000	12.6	13.3	251
4	190000	12.9	13.6	258
4	200000	13	13.7	259
4	210000	13.6	14.3	270
4	220000	13.1	13.8	262
4	230000	12.3	12.9	244
4	240000	11.2	11.8	224
4	250000	11.8	12.4	235
4	260000	10.5	11.1	210
4	270000	10.5	11.1	209
4	280000	9.2	9.7	183
4	290000	8.85	9.33	176
5	0	9.54	7.28	138
5	-10000	12.8	10.6	200
5	-20000	12.1	9.82	186
5	-30000	12.6	10.4	196
5	-40000	14.1	11.9	224
5	-50000	15.4	13.1	248
5	-60000	15.9	13.7	259
5	-70000	17.1	14.9	281
5	-80000	16.6	14.3	271
5	-90000	15.5	13.2	250
5	-100000	16.2	13.9	263
5	-110000	17.4	15.1	285
5	-120000	14.4	12.1	229
5	-130000	12.8	10.5	199
5	-140000	14.1	11.9	225
5	-150000	15.3	13	246
5	-160000	13.6	11.4	215
5	-170000	12.6	10.3	195
5	-180000	13.3	11.1	209
5	-190000	12.8	10.5	199
5	-200000	11.2	8.91	168
5	-210000	11.1	8.87	168
5	-220000	12	9.7	183
5	-230000	12.1	9.84	186
5	-240000	10.4	8.15	154
5	-250000	9.49	7.23	137
5	-260000	8.33	6.07	115
5	-270000	8.32	6.06	115
5	-280000	7.96	5.7	108
5	-290000	6.93	4.67	88.3
5	0	6.22	6.56	124
5	10000	9.58	10.1	191
5	20000	12.7	13.4	253
5	30000	12.2	12.9	244
5	40000	12	12.7	239
5	50000	13.5	14.3	269
5	60000	14.7	15.5	293
5	70000	14.3	15.1	285
5	80000	13.4	14.1	266
5	90000	14.7	15.5	293
5	100000	14.2	14.9	282
5	110000	12.3	13	245
5	120000	12.9	13.6	258
5	130000	13.5	14.3	270
5	140000	13.3	14	265
5	150000	12.8	13.5	255
5	160000	12.5	13.2	249
5	170000	13	13.7	260
5	180000	13.6	14.3	271
5	190000	13.1	13.8	261
5	200000	13.3	14.1	266
5	210000	14.1	14.9	281
5	220000	14.1	14.9	281
5	230000	12.7	13.4	254
5	240000	11	11.6	218
5	250000	11.2	11.8	224
5	260000	11.1	11.7	221
5	270000	10.3	10.8	205
5	280000	9.17	9.66	183
5	290000	9.12	9.61	182
6	0	9.84	7.58	143
6	-10000	14.7	12.4	235
6	-20000	14	11.8	223
6	-30000	14.3	12.1	228
6	-40000	14.4	12.1	229
6	-50000	14.7	12.5	236
6	-60000	15.4	13.1	248
6	-70000	15.7	13.4	254
6	-80000	14.3	12.1	228
6	-90000	14.2	12	227
6	-100000	15	12.7	240
6	-110000	15.1	12.8	243
6	-120000	15.4	13.1	248
6	-130000	14.7	12.4	235
6	-140000	15	12.7	240
6	-150000	16.5	14.2	268
6	-160000	15.1	12.8	242
6	-170000	14.2	11.9	225
6	-180000	15.1	12.9	243
6	-190000	14.6	12.3	233
6	-200000	12.5	10.2	193
6	-210000	12.1	9.84	186
6	-220000	13.2	10.9	206
6	-230000	13	10.7	202
6	-240000	11.6	9.35	177
6	-250000	10.6	8.37	158
6	-260000	11.3	9.02	170
6	-270000	10.3	8.05	152
6	-280000	9.29	7.03	133
6	-290000	8.94	6.68	126
