rep_num	position	torque	torque_compensated	lbs_compensated
1	0	7.73	8.15	154
1	10000	11.3	11.9	224
1	20000	13.4	14.1	266
1	30000	12.2	12.8	242
1	40000	13.3	14	265
1	50000	14.1	14.9	281
1	60000	14.3	15.1	285
1	70000	13.8	14.5	275
1	80000	13.2	13.9	262
1	90000	14	14.7	278
1	100000	13.3	14	264
1	110000	12.1	12.8	241
1	120000	14.1	14.8	280
1	130000	15.6	16.4	310
1	140000	16.3	17.2	325
1	150000	15.7	16.5	312
1	160000	15	15.8	298
1	170000	16	16.9	319
1	180000	16.4	17.3	327
1	190000	16.8	17.7	335
1	200000	17.7	18.7	353
1	210000	19	20	378
1	220000	19.2	20.3	383
1	230000	18.5	19.5	368
1	240000	19	20	378
1	250000	18.9	19.9	377
1	260000	18.3	19.3	365
1	270000	18.4	19.4	367
1	280000	17.7	18.7	353
1	290000	17.9	18.8	356
2	0	18.8	16.5	313
2	-10000	18.7	16.4	310
2	-20000	17.8	15.5	294
2	-30000	18.9	16.7	315
2	-40000	18.1	15.9	300
2	-50000	17.8	15.5	293
2	-60000	18.7	16.4	310
2	-70000	19.8	17.5	331
2	-80000	19.7	17.4	329
2	-90000	19.3	17.1	323
2	-100000	19.4	17.2	325
2	-110000	19.7	17.5	330
2	-120000	19.5	17.2	326
2	-130000	18.9	16.7	315
2	-140000	19.9	17.6	333
2	-150000	20.6	18.4	347
2	-160000	19.7	17.4	329
2	-170000	18	15.8	298
2	-180000	19.1	16.8	318
2	-190000	18.6	16.3	309
2	-200000	17.2	15	283
2	-210000	15.3	13.1	247
2	-220000	16.6	14.4	271
2	-230000	17.1	14.9	281
2	-240000	15.9	13.7	258
2	-250000	14.8	12.6	237
2	-260000	16.7	14.4	272
2	-270000	15.7	13.5	255
2	-280000	14.1	11.9	225
2	-290000	13.6	11.3	214
2	0	12.4	13	246
2	10000	13.4	14.2	268
2	20000	15.6	16.4	311
2	30000	14.5	15.2	288
2	40000	14.6	15.4	291
2	50000	16.1	16.9	320
2	60000	15.5	16.3	309
2	70000	14.6	15.3	290
2	80000	14.5	15.3	289
2	90000	16.3	17.1	324
2	100000	16.1	16.9	320
2	110000	14.7	15.5	293
2	120000	15.2	16	302
2	130000	16.3	17.2	324
2	140000	16.3	17.1	324
2	150000	16	16.9	320
2	160000	16.5	17.3	328
2	170000	17.3	18.2	345
2	180000	16.7	17.6	333
2	190000	15.4	16.3	308
2	200000	16.1	17	321
2	210000	17.5	18.5	350
2	220000	18.3	19.3	365
2	230000	18.2	19.2	363
2	240000	17.9	18.8	356
2	250000	18.3	19.3	365
2	260000	17.9	18.9	356
2	270000	17.4	18.4	347
2	280000	15.5	16.3	308
2	290000	14.5	15.3	289
3	0	15.8	13.5	255
3	-10000	16.6	14.4	271
3	-20000	16	13.8	260
3	-30000	17.1	14.9	281
3	-40000	16.5	14.2	269
3	-50000	17.2	14.9	282
3	-60000	19.1	16.8	317
3	-70000	19.6	17.3	327
3	-80000	18.7	16.5	311
3	-90000	17.1	14.9	281
3	-100000	18.2	15.9	301
3	-110000	18.9	16.6	314
3	-120000	19.2	17	321
3	-130000	18.3	16.1	304
3	-140000	18.9	16.6	314
3	-150000	18.6	16.3	309
3	-160000	17.4	15.1	285
3	-170000	17.1	14.8	280
3	-180000	18	15.7	297
3	-190000	18.4	16.1	305
3	-200000	16.8	14.5	274
3	-210000	15.7	13.4	254
3	-220000	16.6	14.4	272
3	-230000	15.6	13.3	252
3	-240000	14.4	12.2	230
3	-250000	14.5	12.2	231
3	-260000	14.3	12.1	228
3	-270000	14.4	12.1	229
3	-280000	12.4	10.2	192
3	-290000	10.4	8.11	153
3	0	9.8	10.3	195
3	10000	13.7	14.5	274
3	20000	15.5	16.3	308
3	30000	14	14.8	279
3	40000	14.8	15.6	294
3	50000	16.2	17.1	323
3	60000	15.7	16.6	314
3	70000	14.6	15.4	292
3	80000	15.1	15.9	300
3	90000	16.2	17	322
3	100000	15.6	16.4	310
3	110000	14.3	15.1	285
3	120000	13.9	14.7	277
3	130000	15.4	16.2	307
3	140000	16.2	17.1	323
3	150000	15.7	16.6	314
3	160000	16.2	17.1	323
3	170000	16.9	17.8	336
3	180000	16.1	16.9	320
3	190000	14.7	15.5	292
3	200000	14.7	15.5	293
3	210000	15.2	16	302
3	220000	14.8	15.6	296
3	230000	13.2	14	264
3	240000	12.7	13.4	254
3	250000	13.2	14	264
3	260000	13.4	14.2	268
3	270000	15	15.8	299
3	280000	14.9	15.7	296
3	290000	15.2	16	302
4	0	16.3	14.1	266
4	-10000	17	14.7	278
4	-20000	16.1	13.9	262
4	-30000	16.4	14.2	268
4	-40000	15.8	13.5	255
4	-50000	14.7	12.4	235
4	-60000	15.9	13.6	257
4	-70000	17.8	15.5	294
4	-80000	18.1	15.9	300
4	-90000	18	15.7	297
4	-100000	19	16.7	316
4	-110000	18.8	16.5	312
4	-120000	17.1	14.8	280
4	-130000	16.6	14.4	272
4	-140000	17.5	15.3	289
4	-150000	17.6	15.3	290
4	-160000	16.9	14.6	277
4	-170000	16.3	14	265
4	-180000	17.4	15.1	286
4	-190000	17.4	15.2	286
4	-200000	15.7	13.5	255
4	-210000	15.6	13.4	252
4	-220000	16.5	14.2	269
4	-230000	16.2	13.9	264
4	-240000	15.5	13.3	251
4	-250000	13.8	11.5	218
4	-260000	14	11.7	222
4	-270000	13.7	11.5	216
4	-280000	13	10.7	202
4	-290000	11.3	9.04	171
4	0	10.3	10.9	206
4	10000	11.7	12.3	233
4	20000	15	15.8	298
4	30000	14.3	15.1	286
4	40000	14	14.8	279
4	50000	15.1	15.9	300
4	60000	14.1	14.8	280
4	70000	11.2	11.8	222
4	80000	12.9	13.6	257
4	90000	15.8	16.7	315
4	100000	16	16.8	318
4	110000	15.5	16.3	308
4	120000	16.2	17.1	322
4	130000	17.7	18.7	353
4	140000	17.3	18.2	344
4	150000	16.1	16.9	320
4	160000	15.9	16.8	317
4	170000	16.9	17.8	336
4	180000	16.2	17.1	323
4	190000	14.7	15.5	293
4	200000	14.6	15.4	291
4	210000	15	15.8	299
4	220000	14.5	15.3	289
4	230000	14.1	14.9	281
4	240000	14	14.8	280
4	250000	14.5	15.3	289
4	260000	13.2	13.9	262
4	270000	13	13.7	259
4	280000	11.6	12.2	231
4	290000	10.9	11.5	218
5	0	11.8	9.57	181
5	-10000	13.1	10.8	204
5	-20000	13.3	11.1	209
5	-30000	14.4	12.2	230
5	-40000	15	12.8	242
5	-50000	15.6	13.3	252
5	-60000	16.9	14.7	277
5	-70000	17.6	15.3	289
5	-80000	17.7	15.5	293
5	-90000	18.1	15.9	300
5	-100000	18.2	15.9	301
5	-110000	18	15.7	297
5	-120000	17.3	15	284
5	-130000	15.9	13.7	258
5	-140000	16.6	14.3	270
5	-150000	17	14.8	279
5	-160000	15.6	13.3	252
5	-170000	14.5	12.3	232
5	-180000	15.6	13.3	252
5	-190000	15.8	13.5	255
5	-200000	14.2	11.9	225
5	-210000	14.3	12	227
5	-220000	14.2	11.9	225
5	-230000	14.8	12.5	236
5	-240000	14.5	12.2	231
5	-250000	15	12.8	241
5	-260000	16	13.7	259
5	-270000	15	12.7	240
5	-280000	13.9	11.6	219
5	-290000	13.6	11.3	214
5	0	12.6	13.3	251
5	10000	13.6	14.3	271
5	20000	15.4	16.3	308
5	30000	14	14.7	278
5	40000	13.3	14	264
5	50000	13.9	14.7	278
5	60000	13.8	14.5	274
5	70000	12.7	13.4	253
5	80000	12.3	13	246
5	90000	13.9	14.6	277
5	100000	13.5	14.2	269
5	110000	11.9	12.5	237
5	120000	12.6	13.3	252
5	130000	13.7	14.4	273
5	140000	13.7	14.5	274
5	150000	13	13.7	258
5	160000	12.4	13.1	247
5	170000	12.9	13.6	256
5	180000	12.5	13.1	248
5	190000	11.3	11.9	225
5	200000	12.6	13.3	252
5	210000	13.5	14.2	268
5	220000	13.2	14	264
5	230000	11.3	11.9	224
5	240000	12.3	12.9	245
5	250000	12.9	13.6	257
5	260000	12.2	12.9	244
5	270000	11.9	12.6	237
5	280000	11.2	11.8	223
5	290000	10.4	11	207
6	0	11.8	9.49	179
6	-10000	14.3	12	227
6	-20000	15.3	13.1	247
6	-30000	15.6	13.3	252
6	-40000	14.4	12.1	229
6	-50000	15.1	12.8	242
6	-60000	17.1	14.8	280
6	-70000	18.3	16	303
6	-80000	17.7	15.5	292
6	-90000	17.5	15.2	288
6	-100000	18	15.7	297
6	-110000	17.9	15.7	296
6	-120000	17.4	15.2	287
6	-130000	16.7	14.4	273
6	-140000	17.6	15.4	291
6	-150000	16.9	14.7	277
6	-160000	16.4	14.1	267
6	-170000	15.7	13.4	254
6	-180000	17.2	14.9	282
6	-190000	16.7	14.5	274
6	-200000	15.5	13.2	250
6	-210000	14.6	12.4	234
6	-220000	15.3	13	246
6	-230000	16.1	13.9	262
6	-240000	15.7	13.4	254
6	-250000	14.7	12.4	234
6	-260000	16	13.7	259
6	-270000	16	13.8	260
6	-280000	15.6	13.4	253
6	-290000	14.8	12.5	236
