rep_num	position	torque	torque_compensated	lbs_compensated
1	0	5.07	5.35	101
1	10000	6.97	7.35	139
1	20000	7.06	7.44	141
1	30000	6.8	7.16	135
1	40000	7.56	7.97	151
1	50000	8.49	8.94	169
1	60000	9.6	10.1	191
1	70000	9	9.48	179
1	80000	9.06	9.55	181
1	90000	10.5	11	209
1	100000	11.4	12.1	228
1	110000	11.5	12.1	228
1	120000	11.5	12.1	229
1	130000	12.5	13.2	249
1	140000	12.4	13	247
1	150000	12.8	13.5	255
1	160000	13.2	13.9	263
1	170000	13.3	14	264
1	180000	13.6	14.3	271
1	190000	14	14.7	279
1	200000	13.5	14.2	269
1	210000	14.3	15.1	286
1	220000	14.6	15.4	291
1	230000	15	15.8	298
1	240000	15.3	16.1	304
1	250000	14.7	15.5	294
1	260000	15.2	16	303
1	270000	15.4	16.2	307
1	280000	15.5	16.4	309
1	290000	16.1	17	322
2	0	17.8	15.5	293
2	-10000	17.3	15	284
2	-20000	16.3	14	265
2	-30000	16.9	14.6	276
2	-40000	17.4	15.2	287
2	-50000	18.5	16.2	307
2	-60000	19.1	16.8	318
2	-70000	19.5	17.3	327
2	-80000	19.4	17.1	323
2	-90000	19.3	17	321
2	-100000	19.3	17	321
2	-110000	19.7	17.4	329
2	-120000	18.9	16.6	314
2	-130000	18.6	16.3	309
2	-140000	19.1	16.9	319
2	-150000	18.3	16	303
2	-160000	17.6	15.4	291
2	-170000	17.2	14.9	282
2	-180000	17.2	14.9	282
2	-190000	16.7	14.4	272
2	-200000	16.3	14	265
2	-210000	15.9	13.7	258
2	-220000	15.9	13.7	259
2	-230000	16.1	13.8	262
2	-240000	16.9	14.7	277
2	-250000	17.5	15.3	289
2	-260000	17.3	15.1	285
2	-270000	16.5	14.2	269
2	-280000	15.5	13.3	251
2	-290000	15.3	13	246
2	0	12.9	13.6	256
2	10000	14.4	15.2	287
2	20000	14.7	15.5	294
2	30000	13.8	14.5	274
2	40000	13.8	14.5	274
2	50000	13.5	14.3	269
2	60000	14.4	15.2	288
2	70000	14.4	15.2	287
2	80000	14.1	14.8	280
2	90000	14.4	15.1	286
2	100000	13.6	14.4	272
2	110000	13.2	13.9	263
2	120000	12.4	13.1	248
2	130000	13.4	14.2	268
2	140000	15	15.8	298
2	150000	15.8	16.7	315
2	160000	17.1	18.1	341
2	170000	18.1	19.1	360
2	180000	18	19	358
2	190000	18.8	19.9	375
2	200000	18.5	19.5	368
2	210000	18.9	19.9	376
2	220000	18.7	19.7	372
2	230000	18	19	359
2	240000	17.8	18.7	354
2	250000	17.4	18.3	346
2	260000	17.2	18.2	343
2	270000	17.5	18.4	348
2	280000	16.7	17.6	332
2	290000	16	16.8	318
3	0	17.6	15.3	290
3	-10000	17.6	15.4	291
3	-20000	17.6	15.3	289
3	-30000	17.9	15.6	295
3	-40000	18.1	15.8	299
3	-50000	18.8	16.6	313
3	-60000	19.9	17.6	333
3	-70000	20.5	18.2	344
3	-80000	21.7	19.4	368
3	-90000	22	19.8	374
3	-100000	22.2	19.9	377
3	-110000	22.6	20.3	385
3	-120000	22.3	20	378
3	-130000	21.1	18.8	355
3	-140000	21.2	19	358
3	-150000	20.8	18.6	351
3	-160000	20.4	18.2	344
3	-170000	20.1	17.9	338
3	-180000	20.8	18.5	350
3	-190000	20.3	18	340
3	-200000	19.3	17	322
3	-210000	19	16.8	317
3	-220000	19.5	17.2	325
3	-230000	18.5	16.3	307
3	-240000	18.7	16.4	310
3	-250000	20.3	18	340
3	-260000	19.1	16.8	317
3	-270000	17.9	15.7	296
3	-280000	17	14.7	279
3	-290000	16.5	14.3	269
3	0	14.3	15	284
3	10000	14.1	14.8	280
3	20000	15.8	16.6	314
3	30000	15.9	16.8	317
3	40000	15.4	16.2	307
3	50000	15.9	16.8	317
3	60000	16.2	17.1	323
3	70000	16	16.8	318
3	80000	15.6	16.5	311
3	90000	16.8	17.7	335
3	100000	17.2	18.1	342
3	110000	17.4	18.3	347
3	120000	17.3	18.2	345
3	130000	17.5	18.5	349
3	140000	17.8	18.8	354
3	150000	17.1	18	340
3	160000	16.7	17.6	332
3	170000	16.5	17.4	329
3	180000	16	16.9	319
3	190000	15.7	16.6	314
3	200000	15	15.8	298
3	210000	15	15.8	298
3	220000	14.8	15.6	295
3	230000	14.4	15.2	287
3	240000	13.6	14.3	270
3	250000	13.4	14.1	267
3	260000	13.2	13.9	263
3	270000	13.5	14.2	269
3	280000	13.5	14.3	269
3	290000	12.3	13	246
4	0	13.2	10.9	206
4	-10000	13.3	11.1	209
4	-20000	14.3	12.1	228
4	-30000	15.5	13.2	249
4	-40000	16.4	14.1	267
4	-50000	17.5	15.2	288
4	-60000	19.1	16.9	319
4	-70000	18.6	16.3	309
4	-80000	19.3	17	322
4	-90000	20.5	18.3	345
4	-100000	20.7	18.4	348
4	-110000	21.4	19.1	361
4	-120000	20.2	18	339
4	-130000	18.9	16.6	314
4	-140000	19.1	16.9	319
4	-150000	18.7	16.4	310
4	-160000	17.9	15.6	296
4	-170000	17.4	15.1	286
4	-180000	18.3	16	302
4	-190000	17.8	15.5	294
4	-200000	16.9	14.6	276
4	-210000	16.9	14.6	276
4	-220000	16.1	13.8	261
4	-230000	15.5	13.3	251
4	-240000	14.7	12.4	235
4	-250000	14.6	12.4	234
4	-260000	14.6	12.4	234
4	-270000	13.6	11.4	215
4	-280000	13.4	11.1	210
4	-290000	13.5	11.2	212
4	0	10.7	11.2	212
4	10000	11.2	11.8	222
4	20000	13.6	14.3	270
4	30000	13.3	14	265
4	40000	13.1	13.8	260
4	50000	13.9	14.7	277
4	60000	14.9	15.7	296
4	70000	15.3	16.1	305
4	80000	14.3	15	284
4	90000	14.7	15.5	293
4	100000	14.6	15.4	291
4	110000	12.2	12.9	244
4	120000	13.1	13.8	261
4	130000	14.5	15.2	288
4	140000	15.1	15.9	301
4	150000	15.1	15.9	301
4	160000	16	16.9	320
4	170000	16.7	17.7	334
4	180000	17.4	18.4	347
4	190000	17.2	18.1	342
4	200000	16.4	17.3	327
4	210000	16.4	17.3	326
4	220000	17.3	18.2	345
4	230000	15.9	16.8	318
4	240000	14.8	15.6	295
4	250000	14.6	15.4	291
4	260000	14.2	15	283
4	270000	12	12.7	240
4	280000	10.9	11.5	218
4	290000	11.2	11.8	222
5	0	12.4	10.2	192
5	-10000	12.4	10.1	192
5	-20000	13.5	11.2	212
5	-30000	13.9	11.7	220
5	-40000	13.8	11.5	217
5	-50000	13.4	11.2	211
5	-60000	14.7	12.5	236
5	-70000	15.5	13.2	250
5	-80000	16	13.7	259
5	-90000	16	13.7	260
5	-100000	15.9	13.6	257
5	-110000	16.7	14.4	273
5	-120000	16.7	14.5	273
5	-130000	16	13.8	260
5	-140000	16	13.8	260
5	-150000	15.6	13.4	253
5	-160000	14.7	12.4	235
5	-170000	14.8	12.5	237
5	-180000	14.9	12.7	239
5	-190000	14.6	12.3	233
5	-200000	13.7	11.5	217
5	-210000	14.6	12.4	233
5	-220000	14.3	12	228
5	-230000	13.7	11.4	216
5	-240000	13.6	11.3	214
5	-250000	12.4	10.2	192
5	-260000	12.3	10	190
5	-270000	12.3	10	190
5	-280000	12.4	10.1	192
5	-290000	11.6	9.38	177
5	0	11.2	11.8	223
5	10000	11.4	12	228
5	20000	11.4	12	227
5	30000	12.5	13.2	249
5	40000	11.7	12.4	234
5	50000	11.9	12.6	238
5	60000	11.6	12.3	232
5	70000	10.6	11.2	211
5	80000	10.8	11.4	216
5	90000	11.5	12.1	229
5	100000	10.8	11.4	216
5	110000	10.3	10.9	206
5	120000	10.5	11.1	209
5	130000	11.7	12.3	233
5	140000	11.6	12.2	231
5	150000	11	11.6	219
5	160000	11.7	12.3	233
5	170000	12.5	13.2	249
5	180000	12.1	12.8	241
5	190000	13.1	13.8	261
5	200000	12.3	12.9	245
5	210000	11.6	12.2	231
5	220000	10.6	11.2	212
5	230000	11.5	12.1	229
5	240000	12.1	12.8	242
5	250000	12.1	12.8	241
5	260000	11.3	11.9	225
5	270000	11.4	12	227
5	280000	10.5	11.1	209
5	290000	8.98	9.46	179
6	0	9.42	7.16	135
6	-10000	10	7.75	146
6	-20000	10.5	8.2	155
6	-30000	10	7.79	147
6	-40000	12.1	9.82	186
6	-50000	13.5	11.2	212
6	-60000	14.4	12.1	229
6	-70000	14	11.7	221
6	-80000	14.5	12.3	232
6	-90000	14.3	12	227
6	-100000	14.4	12.1	229
6	-110000	16.4	14.1	267
6	-120000	16.5	14.3	270
6	-130000	14.4	12.1	229
6	-140000	14	11.7	221
6	-150000	13.8	11.5	218
6	-160000	14	11.8	222
6	-170000	14.2	12	226
6	-180000	13.8	11.5	218
6	-190000	13.6	11.3	213
6	-200000	13.7	11.4	216
6	-210000	13.2	11	207
6	-220000	12.4	10.1	191
6	-230000	12.6	10.3	195
6	-240000	10.7	8.4	159
6	-250000	10.8	8.57	162
6	-260000	11.1	8.86	167
6	-270000	10.4	8.13	154
6	-280000	10.8	8.59	162
6	-290000	11.1	8.81	166
