rep_num	position	torque	torque_compensated	lbs_compensated
1	0	5.2	5.49	104
1	10000	6.57	6.92	131
1	20000	9.61	10.1	192
1	30000	9.24	9.74	184
1	40000	8.67	9.14	173
1	50000	9.49	10	189
1	60000	10.6	11.1	210
1	70000	9.74	10.3	194
1	80000	9.52	10	190
1	90000	11.5	12.1	229
1	100000	11.5	12.1	230
1	110000	10.2	10.8	203
1	120000	10.3	10.9	205
1	130000	12.5	13.2	249
1	140000	12.3	13	246
1	150000	12.7	13.4	253
1	160000	13.6	14.3	271
1	170000	15.2	16	303
1	180000	16	16.8	318
1	190000	16.3	17.2	326
1	200000	16.9	17.8	336
1	210000	17.8	18.7	354
1	220000	18.4	19.4	366
1	230000	17.8	18.8	355
1	240000	17.2	18.1	342
1	250000	17.9	18.8	356
1	260000	18.4	19.4	366
1	270000	18.3	19.3	365
1	280000	17.2	18.1	342
1	290000	16.4	17.3	327
2	0	17	14.7	279
2	-10000	18.7	16.4	311
2	-20000	18.5	16.3	307
2	-30000	20	17.8	336
2	-40000	19.9	17.6	332
2	-50000	19.3	17.1	323
2	-60000	20.2	17.9	338
2	-70000	19.7	17.4	329
2	-80000	19.2	16.9	319
2	-90000	19.4	17.1	324
2	-100000	21.1	18.8	356
2	-110000	21.7	19.5	368
2	-120000	20.4	18.1	342
2	-130000	19	16.7	316
2	-140000	21.3	19.1	360
2	-150000	21.3	19.1	360
2	-160000	19.3	17	322
2	-170000	18.6	16.4	309
2	-180000	19.6	17.4	328
2	-190000	19.2	17	321
2	-200000	17.5	15.3	289
2	-210000	17.2	15	283
2	-220000	17.9	15.7	296
2	-230000	17.7	15.5	292
2	-240000	17.6	15.4	291
2	-250000	17.9	15.6	295
2	-260000	18.8	16.5	312
2	-270000	18.1	15.8	298
2	-280000	16.4	14.2	268
2	-290000	17.1	14.8	280
2	0	15.1	15.9	301
2	10000	17.3	18.2	344
2	20000	18	19	359
2	30000	17.7	18.7	353
2	40000	15.8	16.7	316
2	50000	16.8	17.7	335
2	60000	17.4	18.3	346
2	70000	16.7	17.6	332
2	80000	16.3	17.2	324
2	90000	17.8	18.8	355
2	100000	19	20	378
2	110000	18.4	19.4	367
2	120000	19	20	378
2	130000	19.8	20.9	395
2	140000	20.4	21.5	405
2	150000	18.6	19.6	370
2	160000	19	20	378
2	170000	19	20	379
2	180000	18.9	20	377
2	190000	18.3	19.3	365
2	200000	18	19	358
2	210000	18.7	19.8	374
2	220000	19.1	20.1	380
2	230000	18	19	359
2	240000	17.6	18.5	350
2	250000	18.5	19.5	368
2	260000	18.9	19.9	376
2	270000	18.1	19.1	361
2	280000	16.7	17.6	332
2	290000	16.5	17.4	329
3	0	17.1	14.8	280
3	-10000	18.2	16	301
3	-20000	18	15.7	297
3	-30000	18.9	16.7	315
3	-40000	17.5	15.3	288
3	-50000	18.1	15.8	299
3	-60000	20.2	17.9	339
3	-70000	20.1	17.9	337
3	-80000	20.1	17.8	337
3	-90000	20.1	17.8	336
3	-100000	21	18.7	354
3	-110000	22.9	20.6	390
3	-120000	21.3	19.1	361
3	-130000	21.1	18.9	357
3	-140000	21.8	19.5	369
3	-150000	21	18.7	354
3	-160000	20.4	18.2	343
3	-170000	20.2	17.9	338
3	-180000	20.9	18.6	351
3	-190000	20.3	18	341
3	-200000	19.3	17	322
3	-210000	20	17.7	335
3	-220000	20.3	18.1	341
3	-230000	20.1	17.9	338
3	-240000	19	16.7	316
3	-250000	19	16.8	317
3	-260000	20.2	17.9	338
3	-270000	19.4	17.2	325
3	-280000	18.6	16.3	309
3	-290000	18.1	15.9	300
3	0	16.5	17.3	328
3	10000	17.8	18.8	355
3	20000	17.8	18.7	354
3	30000	17.9	18.8	356
3	40000	17.5	18.5	349
3	50000	19.5	20.6	389
3	60000	18.6	19.6	371
3	70000	17.9	18.9	357
3	80000	17.1	18	340
3	90000	17.9	18.9	358
3	100000	18.9	19.9	377
3	110000	18.3	19.3	364
3	120000	18.2	19.1	362
3	130000	19.4	20.4	386
3	140000	19.8	20.9	395
3	150000	19.3	20.3	384
3	160000	18.7	19.7	373
3	170000	19.8	20.8	394
3	180000	20.2	21.3	402
3	190000	19	20	378
3	200000	18	19	360
3	210000	19.1	20.2	381
3	220000	19.4	20.5	387
3	230000	18.6	19.7	371
3	240000	17.6	18.6	351
3	250000	17	18	339
3	260000	16.4	17.3	326
3	270000	15.5	16.3	308
3	280000	14.3	15.1	286
3	290000	14.7	15.4	292
4	0	16	13.8	260
4	-10000	18.3	16	303
4	-20000	17.5	15.2	288
4	-30000	18.1	15.9	300
4	-40000	16.6	14.3	271
4	-50000	17.2	14.9	282
4	-60000	19.1	16.8	318
4	-70000	19.6	17.4	328
4	-80000	20.3	18.1	342
4	-90000	20.7	18.5	349
4	-100000	22.8	20.5	388
4	-110000	23.2	20.9	396
4	-120000	22.3	20.1	379
4	-130000	23	20.8	393
4	-140000	25	22.7	429
4	-150000	24.5	22.3	421
4	-160000	22.8	20.6	389
4	-170000	22.7	20.4	386
4	-180000	23.9	21.6	409
4	-190000	23.8	21.5	406
4	-200000	21.9	19.6	370
4	-210000	22	19.7	372
4	-220000	23.4	21.1	400
4	-230000	23.3	21	397
4	-240000	23	20.8	393
4	-250000	23.5	21.2	401
4	-260000	24.2	21.9	414
4	-270000	23.2	21	396
4	-280000	21.4	19.1	361
4	-290000	20.4	18.1	342
4	0	18.2	19.2	363
4	10000	18.2	19.2	363
4	20000	18.3	19.3	364
4	30000	17.7	18.7	353
4	40000	17.6	18.6	351
4	50000	18.4	19.4	367
4	60000	18.2	19.2	363
4	70000	17.4	18.3	346
4	80000	17.4	18.3	346
4	90000	18	19	359
4	100000	17.9	18.9	357
4	110000	16.3	17.1	324
4	120000	16	16.8	318
4	130000	17.8	18.8	355
4	140000	18	18.9	358
4	150000	16.7	17.6	332
4	160000	16.8	17.7	335
4	170000	17.6	18.6	351
4	180000	18.5	19.5	369
4	190000	18.4	19.4	366
4	200000	17.9	18.9	357
4	210000	18.1	19	360
4	220000	17.7	18.7	354
4	230000	16.5	17.4	329
4	240000	15.8	16.7	315
4	250000	15.4	16.2	306
4	260000	14.5	15.3	290
4	270000	13.7	14.4	272
4	280000	12.3	12.9	244
4	290000	12.1	12.7	240
5	0	12.8	10.6	200
5	-10000	15	12.8	241
5	-20000	13.9	11.7	221
5	-30000	15.3	13.1	247
5	-40000	16	13.7	259
5	-50000	16.9	14.7	278
5	-60000	19.2	16.9	319
5	-70000	19.4	17.1	324
5	-80000	17.9	15.7	296
5	-90000	16.8	14.6	275
5	-100000	18.6	16.3	308
5	-110000	19.6	17.3	327
5	-120000	19.1	16.8	318
5	-130000	18.7	16.4	310
5	-140000	19.9	17.7	334
5	-150000	19.5	17.2	325
5	-160000	18.4	16.2	305
5	-170000	19.4	17.1	323
5	-180000	20.4	18.1	343
5	-190000	19.5	17.2	325
5	-200000	17.4	15.1	286
5	-210000	17.9	15.6	296
5	-220000	18.7	16.4	311
5	-230000	18.3	16.1	304
5	-240000	18.2	15.9	300
5	-250000	18	15.8	298
5	-260000	18	15.8	298
5	-270000	18.3	16	303
5	-280000	16.1	13.8	261
5	-290000	16.4	14.1	267
5	0	14.7	15.5	294
5	10000	15.7	16.6	314
5	20000	16.1	16.9	320
5	30000	16.3	17.2	325
5	40000	14.3	15.1	285
5	50000	14.9	15.7	297
5	60000	15.8	16.6	314
5	70000	14.8	15.6	294
5	80000	14.6	15.4	290
5	90000	15.4	16.2	307
5	100000	15.7	16.6	313
5	110000	14.9	15.7	297
5	120000	14.2	15	283
5	130000	14.9	15.7	297
5	140000	14.9	15.7	297
5	150000	13.6	14.4	271
5	160000	13.2	14	264
5	170000	13.5	14.2	268
5	180000	13.8	14.5	275
5	190000	13.6	14.4	272
5	200000	13.5	14.2	269
5	210000	14.3	15.1	285
5	220000	13.9	14.7	277
5	230000	12.9	13.6	257
5	240000	12.6	13.3	251
5	250000	13.1	13.8	262
5	260000	12.8	13.5	255
5	270000	12.3	12.9	244
5	280000	10.6	11.2	211
5	290000	11	11.6	219
6	0	11.4	9.15	173
6	-10000	14	11.7	221
6	-20000	13.9	11.6	219
6	-30000	14.2	11.9	225
6	-40000	13.2	11	207
6	-50000	13.3	11	209
6	-60000	15.7	13.4	253
6	-70000	16.2	14	264
6	-80000	16.7	14.4	272
6	-90000	17.7	15.4	291
6	-100000	18.6	16.4	309
6	-110000	18.8	16.5	313
6	-120000	17.7	15.5	292
6	-130000	16.9	14.6	277
6	-140000	19.8	17.6	332
6	-150000	19.1	16.8	318
6	-160000	16.5	14.2	269
6	-170000	15.7	13.5	255
6	-180000	18.2	16	302
6	-190000	18.1	15.8	299
6	-200000	16.4	14.1	267
6	-210000	16.5	14.2	269
6	-220000	17	14.8	279
6	-230000	16.8	14.6	276
6	-240000	14.9	12.7	240
6	-250000	15	12.7	240
6	-260000	16.2	14	264
6	-270000	15.2	12.9	244
6	-280000	12.6	10.3	195
6	-290000	10.4	8.1	153
