rep_num	position	torque	torque_compensated	lbs_compensated
1	0	5.96	6.28	119
1	10000	9.74	10.3	194
1	20000	10.3	10.9	205
1	30000	9.96	10.5	198
1	40000	10.1	10.6	201
1	50000	11.1	11.7	221
1	60000	12	12.7	239
1	70000	11.9	12.5	237
1	80000	11.4	12	226
1	90000	12.3	12.9	245
1	100000	13.5	14.3	270
1	110000	12.5	13.2	250
1	120000	12.7	13.4	254
1	130000	13.4	14.1	267
1	140000	13.3	14	265
1	150000	13	13.7	259
1	160000	13.2	14	264
1	170000	14.1	14.9	281
1	180000	14.9	15.7	296
1	190000	14.2	15	284
1	200000	14	14.8	280
1	210000	14.8	15.6	295
1	220000	14.5	15.2	288
1	230000	13.7	14.4	272
1	240000	13	13.7	258
1	250000	13.5	14.2	268
1	260000	14	14.7	278
1	270000	13.5	14.2	268
1	280000	13.4	14.1	266
1	290000	13.8	14.5	274
2	0	14.1	11.9	224
2	-10000	14.8	12.6	237
2	-20000	14.2	12	226
2	-30000	15.8	13.6	256
2	-40000	16.2	13.9	263
2	-50000	16	13.7	260
2	-60000	17.5	15.2	288
2	-70000	18.8	16.6	313
2	-80000	19.1	16.8	318
2	-90000	18.5	16.2	307
2	-100000	19.4	17.1	324
2	-110000	20.2	18	339
2	-120000	18.8	16.5	312
2	-130000	17.7	15.4	291
2	-140000	19.9	17.6	333
2	-150000	20.4	18.1	343
2	-160000	17.6	15.4	291
2	-170000	17.5	15.3	288
2	-180000	19.6	17.4	329
2	-190000	19.9	17.6	333
2	-200000	18.6	16.3	308
2	-210000	18.6	16.4	309
2	-220000	19.5	17.3	327
2	-230000	19.8	17.6	332
2	-240000	19.6	17.3	328
2	-250000	19.4	17.2	325
2	-260000	19.6	17.3	327
2	-270000	19	16.7	316
2	-280000	17.5	15.3	288
2	-290000	17.7	15.5	293
2	0	15.2	16	302
2	10000	14.5	15.3	289
2	20000	15.9	16.7	316
2	30000	14.8	15.6	295
2	40000	14.6	15.4	291
2	50000	15.6	16.5	311
2	60000	15.5	16.4	309
2	70000	14.7	15.5	293
2	80000	14.1	14.9	281
2	90000	16.7	17.6	332
2	100000	17.1	18	340
2	110000	15	15.9	300
2	120000	14.5	15.3	288
2	130000	15.4	16.3	307
2	140000	15.1	16	302
2	150000	14.1	14.9	281
2	160000	14.4	15.2	287
2	170000	15.5	16.3	308
2	180000	15.8	16.7	315
2	190000	14.6	15.4	291
2	200000	13	13.7	258
2	210000	13.7	14.4	272
2	220000	15	15.8	299
2	230000	14.6	15.4	291
2	240000	13.2	13.9	262
2	250000	13.7	14.4	273
2	260000	13.7	14.4	273
2	270000	13.3	14	266
2	280000	12.3	13	245
2	290000	12	12.7	240
3	0	12.6	10.3	195
3	-10000	15.1	12.8	242
3	-20000	16.4	14.1	267
3	-30000	17.1	14.8	280
3	-40000	16.5	14.2	269
3	-50000	17.4	15.1	286
3	-60000	18.3	16	303
3	-70000	18.4	16.2	306
3	-80000	19.1	16.9	319
3	-90000	19.6	17.3	327
3	-100000	20.8	18.6	351
3	-110000	21.3	19	360
3	-120000	20.4	18.2	343
3	-130000	19.8	17.6	332
3	-140000	20.7	18.5	349
3	-150000	21	18.7	354
3	-160000	20.2	17.9	339
3	-170000	20.3	18	341
3	-180000	22.1	19.8	375
3	-190000	21.4	19.1	361
3	-200000	19.5	17.3	327
3	-210000	19.3	17	322
3	-220000	19.1	16.8	318
3	-230000	18.4	16.1	305
3	-240000	17.6	15.4	290
3	-250000	17.2	14.9	282
3	-260000	18.3	16	303
3	-270000	18.1	15.8	299
3	-280000	16.2	14	264
3	-290000	15.8	13.5	256
3	0	13.8	14.6	275
3	10000	14	14.8	279
3	20000	16.1	16.9	320
3	30000	16.4	17.3	327
3	40000	16.3	17.2	325
3	50000	17.4	18.4	347
3	60000	17.9	18.8	356
3	70000	16.5	17.4	328
3	80000	14.7	15.5	293
3	90000	15.1	15.9	301
3	100000	16.1	16.9	320
3	110000	15.5	16.4	310
3	120000	15.1	16	302
3	130000	17.2	18.1	342
3	140000	16.8	17.7	334
3	150000	16.4	17.3	327
3	160000	15.4	16.3	308
3	170000	16.1	16.9	320
3	180000	15.7	16.6	313
3	190000	15.5	16.4	309
3	200000	15.6	16.5	311
3	210000	17.2	18.2	343
3	220000	17.3	18.2	344
3	230000	16.4	17.3	327
3	240000	15.3	16.2	306
3	250000	14.8	15.6	294
3	260000	14.1	14.9	281
3	270000	12.6	13.3	251
3	280000	11.3	11.9	225
3	290000	11.7	12.3	233
4	0	13.1	10.8	205
4	-10000	17.5	15.3	289
4	-20000	16.9	14.7	277
4	-30000	17.6	15.4	291
4	-40000	17.7	15.4	291
4	-50000	18.2	16	302
4	-60000	19.3	17	321
4	-70000	20.1	17.8	336
4	-80000	20.6	18.3	346
4	-90000	21.2	19	359
4	-100000	21.9	19.6	370
4	-110000	21.9	19.6	371
4	-120000	20.9	18.6	352
4	-130000	20.2	18	340
4	-140000	21.5	19.2	363
4	-150000	21.8	19.5	368
4	-160000	20.7	18.4	348
4	-170000	20	17.7	335
4	-180000	21.2	19	358
4	-190000	20.6	18.3	346
4	-200000	19.7	17.4	329
4	-210000	18.9	16.7	315
4	-220000	18.5	16.3	308
4	-230000	18.3	16.1	304
4	-240000	16.9	14.6	276
4	-250000	16.6	14.4	272
4	-260000	16.3	14	265
4	-270000	16.4	14.1	267
4	-280000	15.7	13.4	253
4	-290000	14.9	12.6	239
4	0	13.1	13.9	262
4	10000	11.2	11.8	222
4	20000	13.1	13.8	261
4	30000	13.8	14.6	275
4	40000	13.4	14.1	266
4	50000	12.5	13.2	250
4	60000	13.6	14.4	271
4	70000	13.8	14.5	274
4	80000	13.8	14.6	276
4	90000	15.4	16.2	307
4	100000	15.3	16.2	305
4	110000	14.2	15	284
4	120000	14.3	15.1	285
4	130000	15.9	16.8	317
4	140000	16.1	17	321
4	150000	14.4	15.2	287
4	160000	13.9	14.7	278
4	170000	14.8	15.6	296
4	180000	14.1	14.9	281
4	190000	13.3	14	265
4	200000	12.3	12.9	245
4	210000	13.3	14	265
4	220000	13.3	14.1	266
4	230000	11.2	11.8	223
4	240000	10.3	10.9	206
4	250000	11.6	12.3	232
4	260000	11.5	12.1	229
4	270000	11.4	12	228
4	280000	9.36	9.87	187
4	290000	9.41	9.92	187
5	0	10	7.74	146
5	-10000	14.4	12.1	229
5	-20000	13.3	11.1	209
5	-30000	13.4	11.1	210
5	-40000	12.7	10.5	198
5	-50000	14.3	12	227
5	-60000	15.7	13.5	255
5	-70000	15.6	13.3	252
5	-80000	15.2	12.9	244
5	-90000	16.9	14.7	277
5	-100000	19.2	16.9	320
5	-110000	19.5	17.2	326
5	-120000	17.5	15.3	289
5	-130000	16.7	14.4	273
5	-140000	18	15.8	298
5	-150000	17.3	15	284
5	-160000	15.8	13.5	255
5	-170000	14.3	12.1	228
5	-180000	14.7	12.4	235
5	-190000	14.7	12.4	235
5	-200000	14.1	11.8	223
5	-210000	13.3	11.1	209
5	-220000	13.9	11.7	221
5	-230000	13.5	11.2	212
5	-240000	13	10.8	204
5	-250000	13.7	11.5	217
5	-260000	14.5	12.2	230
5	-270000	13.9	11.7	220
5	-280000	12	9.75	184
5	-290000	12.5	10.3	194
5	0	11.5	12.1	229
5	10000	11.1	11.7	222
5	20000	12.3	13	246
5	30000	11.5	12.1	229
5	40000	9.84	10.4	196
5	50000	11.2	11.8	223
5	60000	12.3	13	245
5	70000	11.4	12	226
5	80000	10.3	10.8	205
5	90000	11.7	12.3	233
5	100000	11.9	12.6	238
5	110000	10.4	11	207
5	120000	10.2	10.8	204
5	130000	11.4	12.1	228
5	140000	11.9	12.6	238
5	150000	11.4	12	227
5	160000	10.2	10.8	204
5	170000	10.6	11.2	212
5	180000	10.8	11.3	214
5	190000	10.8	11.4	215
5	200000	10.7	11.3	214
5	210000	12	12.7	239
5	220000	12.6	13.3	252
5	230000	12.1	12.8	241
5	240000	11.4	12	227
5	250000	11.7	12.3	233
5	260000	11.4	12	226
5	270000	11	11.5	218
5	280000	8.99	9.48	179
5	290000	9.8	10.3	195
6	0	10.7	8.46	160
6	-10000	13.2	11	207
6	-20000	12.8	10.5	198
6	-30000	12.8	10.5	199
6	-40000	12.6	10.4	196
6	-50000	13.9	11.6	220
6	-60000	15.7	13.5	255
6	-70000	17	14.7	278
6	-80000	17.7	15.4	291
6	-90000	18.9	16.6	314
6	-100000	20	17.8	336
6	-110000	21.6	19.3	365
6	-120000	20.7	18.4	348
6	-130000	20.5	18.2	345
6	-140000	22.7	20.4	386
6	-150000	22.8	20.6	389
6	-160000	20.7	18.4	348
6	-170000	20.5	18.3	345
6	-180000	23.2	21	396
6	-190000	22.7	20.5	387
6	-200000	21.6	19.4	366
6	-210000	20.9	18.7	353
6	-220000	21.3	19	360
6	-230000	21.4	19.1	362
6	-240000	21.3	19.1	360
6	-250000	21.2	18.9	358
6	-260000	23.3	21	398
6	-270000	22.2	20	377
6	-280000	19.4	17.2	324
6	-290000	18.7	16.4	310
