rep_num	position	torque	torque_compensated	lbs_compensated
1	0	2.81	3.09	58.5
1	10000	7.24	7.63	144
1	20000	7.89	8.31	157
1	30000	8.82	9.29	176
1	40000	8.41	8.86	167
1	50000	9.25	9.75	184
1	60000	10.8	11.4	216
1	70000	10.2	10.7	203
1	80000	8.43	8.89	168
1	90000	10.1	10.7	201
1	100000	10.3	10.8	204
1	110000	10.3	10.8	204
1	120000	9.64	10.2	192
1	130000	10.4	11	207
1	140000	12	12.6	238
1	150000	12	12.7	240
1	160000	11.9	12.6	238
1	170000	12.2	12.8	243
1	180000	12.4	13	247
1	190000	12.8	13.5	255
1	200000	12.3	13	246
1	210000	12.6	13.2	250
1	220000	13.7	14.4	273
1	230000	13.1	13.8	260
1	240000	11.9	12.6	237
1	250000	11.8	12.4	235
1	260000	11.8	12.5	236
1	270000	11.6	12.2	231
1	280000	11.3	11.9	224
1	290000	12.4	13.1	247
2	0	13.5	11.2	212
2	-10000	15.2	13	245
2	-20000	16.3	14	265
2	-30000	16	13.8	261
2	-40000	16.4	14.2	268
2	-50000	17.2	14.9	282
2	-60000	17.4	15.1	286
2	-70000	17.4	15.2	287
2	-80000	17.7	15.5	293
2	-90000	17.5	15.2	287
2	-100000	18.4	16.1	304
2	-110000	18.1	15.8	299
2	-120000	17.5	15.2	288
2	-130000	17.6	15.3	290
2	-140000	18.5	16.3	308
2	-150000	17.2	14.9	282
2	-160000	16.2	14	264
2	-170000	17.1	14.9	281
2	-180000	18.6	16.4	309
2	-190000	17.6	15.4	291
2	-200000	16.4	14.2	268
2	-210000	16.9	14.7	277
2	-220000	16.9	14.7	277
2	-230000	15.7	13.4	254
2	-240000	15.9	13.6	257
2	-250000	16.7	14.4	273
2	-260000	16.8	14.5	274
2	-270000	16.3	14.1	266
2	-280000	14.9	12.7	239
2	-290000	15	12.7	240
2	0	12.7	13.4	253
2	10000	12.7	13.4	254
2	20000	12.4	13.1	247
2	30000	12.2	12.8	242
2	40000	11.4	12	227
2	50000	12.3	13	245
2	60000	12.8	13.5	254
2	70000	11.6	12.3	232
2	80000	10.4	10.9	206
2	90000	11.5	12.2	230
2	100000	12.6	13.3	252
2	110000	12.5	13.1	248
2	120000	12.6	13.3	251
2	130000	12.6	13.3	251
2	140000	12.8	13.5	255
2	150000	12.3	13	245
2	160000	12.1	12.8	242
2	170000	12.9	13.6	257
2	180000	13.4	14.1	267
2	190000	13.9	14.7	277
2	200000	13.8	14.6	275
2	210000	14.1	14.9	281
2	220000	14	14.8	279
2	230000	13.3	14.1	266
2	240000	12.1	12.8	242
2	250000	11.8	12.4	235
2	260000	12.1	12.7	240
2	270000	11.2	11.8	223
2	280000	10.5	11.1	210
2	290000	11.1	11.6	220
3	0	12.4	10.1	191
3	-10000	15.3	13.1	247
3	-20000	17.7	15.4	291
3	-30000	17	14.8	279
3	-40000	16.3	14	265
3	-50000	16.1	13.8	262
3	-60000	17.4	15.1	286
3	-70000	17.2	15	283
3	-80000	17.3	15.1	285
3	-90000	17.4	15.2	287
3	-100000	17.4	15.1	286
3	-110000	17.2	15	283
3	-120000	17.2	14.9	282
3	-130000	17.2	15	283
3	-140000	17.9	15.7	296
3	-150000	17.2	15	283
3	-160000	16.8	14.5	274
3	-170000	16.5	14.3	270
3	-180000	16.4	14.2	268
3	-190000	15.4	13.1	248
3	-200000	14.4	12.1	229
3	-210000	15	12.7	240
3	-220000	14.9	12.6	238
3	-230000	14.4	12.1	229
3	-240000	14.5	12.3	232
3	-250000	15.3	13.1	247
3	-260000	15.7	13.4	254
3	-270000	13.9	11.7	221
3	-280000	13.1	10.9	206
3	-290000	13.2	11	208
3	0	10.7	11.2	212
3	10000	10.9	11.4	216
3	20000	10.7	11.3	214
3	30000	9.38	9.89	187
3	40000	8.9	9.38	177
3	50000	8.79	9.27	175
3	60000	10.3	10.9	206
3	70000	8.63	9.1	172
3	80000	8.42	8.88	168
3	90000	9.61	10.1	191
3	100000	10.4	10.9	206
3	110000	8.84	9.32	176
3	120000	8.97	9.45	179
3	130000	10.7	11.2	212
3	140000	11.7	12.3	233
3	150000	12.1	12.7	240
3	160000	12.3	13	245
3	170000	13.1	13.8	261
3	180000	14.9	15.7	297
3	190000	15.1	15.9	300
3	200000	13.7	14.5	273
3	210000	15	15.8	299
3	220000	15.8	16.7	316
3	230000	15.1	15.9	300
3	240000	14.8	15.6	295
3	250000	14.5	15.3	289
3	260000	14.7	15.5	293
3	270000	14.1	14.9	281
3	280000	11.8	12.5	236
3	290000	11	11.6	220
4	0	12.4	10.1	191
4	-10000	13.8	11.5	218
4	-20000	14.6	12.3	233
4	-30000	14.6	12.4	234
4	-40000	15.5	13.3	250
4	-50000	15.9	13.6	257
4	-60000	15.2	12.9	244
4	-70000	15	12.7	240
4	-80000	15.7	13.4	254
4	-90000	16.6	14.4	271
4	-100000	16.7	14.5	273
4	-110000	17.9	15.6	296
4	-120000	18	15.8	298
4	-130000	18	15.7	297
4	-140000	18.5	16.2	306
4	-150000	17.1	14.8	280
4	-160000	16.7	14.4	272
4	-170000	16.3	14	265
4	-180000	16.3	14.1	266
4	-190000	15.8	13.5	255
4	-200000	14.4	12.1	230
4	-210000	15.3	13	246
4	-220000	15.6	13.3	252
4	-230000	14.9	12.7	239
4	-240000	15	12.8	242
4	-250000	14.7	12.4	234
4	-260000	14.9	12.6	238
4	-270000	14.7	12.5	235
4	-280000	13	10.8	203
4	-290000	12.3	10	190
4	0	11	11.6	219
4	10000	12.4	13.1	247
4	20000	12.9	13.6	257
4	30000	12	12.6	239
4	40000	11.1	11.7	221
4	50000	11.5	12.1	229
4	60000	11.4	12.1	228
4	70000	11.7	12.3	233
4	80000	11.1	11.7	222
4	90000	11.5	12.1	229
4	100000	12.2	12.9	244
4	110000	11.8	12.4	235
4	120000	11.3	11.9	224
4	130000	12.2	12.9	244
4	140000	12.8	13.5	256
4	150000	13.3	14	266
4	160000	13.4	14.1	267
4	170000	13.4	14.1	266
4	180000	13.3	14.1	266
4	190000	12.7	13.4	254
4	200000	12	12.7	240
4	210000	11.5	12.1	229
4	220000	11.5	12.1	229
4	230000	11.5	12.1	229
4	240000	11.1	11.7	220
4	250000	10.2	10.8	203
4	260000	10.4	11	208
4	270000	10.7	11.3	213
4	280000	8.56	9.02	170
4	290000	8.19	8.63	163
5	0	9.73	7.47	141
5	-10000	12.1	9.84	186
5	-20000	13.9	11.6	220
5	-30000	14.5	12.2	231
5	-40000	14.6	12.4	234
5	-50000	15.4	13.2	249
5	-60000	17	14.7	278
5	-70000	16.9	14.7	277
5	-80000	16.5	14.3	270
5	-90000	16.9	14.6	276
5	-100000	17.9	15.6	295
5	-110000	18.4	16.1	305
5	-120000	18.3	16.1	304
5	-130000	18.9	16.7	315
5	-140000	20.3	18	341
5	-150000	20.9	18.6	352
5	-160000	21.2	19	359
5	-170000	21	18.7	353
5	-180000	20.7	18.4	348
5	-190000	19.8	17.6	332
5	-200000	18.7	16.5	311
5	-210000	17.4	15.1	286
5	-220000	17	14.8	279
5	-230000	15.2	13	245
5	-240000	15.4	13.1	248
5	-250000	16.8	14.5	274
5	-260000	17.2	15	283
5	-270000	15.6	13.4	252
5	-280000	13.3	11	208
5	-290000	13.8	11.5	218
5	0	11.9	12.5	237
5	10000	15.3	16.1	304
5	20000	15.6	16.5	311
5	30000	15.7	16.5	313
5	40000	14.7	15.5	292
5	50000	14.7	15.5	292
5	60000	14.7	15.5	292
5	70000	14	14.8	280
5	80000	12.4	13	247
5	90000	12.6	13.2	250
5	100000	13.7	14.5	273
5	110000	12.9	13.5	256
5	120000	12.7	13.3	252
5	130000	13.6	14.3	270
5	140000	13.5	14.3	270
5	150000	13.3	14	265
5	160000	13.8	14.5	274
5	170000	13.9	14.7	277
5	180000	14.6	15.3	290
5	190000	14.6	15.4	291
5	200000	12.9	13.6	257
5	210000	12.6	13.3	251
5	220000	12.3	13	246
5	230000	11.1	11.7	222
5	240000	10.3	10.8	205
5	250000	9.11	9.6	181
5	260000	9.18	9.67	183
5	270000	8.06	8.49	160
5	280000	7.36	7.76	147
5	290000	7.27	7.66	145
6	0	8.71	6.45	122
6	-10000	12.2	9.98	189
6	-20000	13.1	10.8	205
6	-30000	14.4	12.1	229
6	-40000	14.2	12	227
6	-50000	15	12.7	241
6	-60000	16.9	14.6	276
6	-70000	16.8	14.5	275
6	-80000	16.5	14.2	269
6	-90000	16.1	13.8	261
6	-100000	16.8	14.5	274
6	-110000	17	14.7	278
6	-120000	16.5	14.3	269
6	-130000	16.9	14.6	276
6	-140000	18.1	15.8	298
6	-150000	17.7	15.4	292
6	-160000	16.7	14.4	272
6	-170000	17.3	15	284
6	-180000	16.6	14.3	270
6	-190000	15.7	13.4	253
6	-200000	13.9	11.6	219
6	-210000	14.2	11.9	226
6	-220000	15.9	13.6	257
6	-230000	15.5	13.3	251
6	-240000	14.7	12.4	234
6	-250000	13.9	11.7	221
6	-260000	13.2	10.9	207
6	-270000	11.9	9.68	183
6	-280000	8.45	6.19	117
6	-290000	7.06	4.8	90.7
