rep_num	position	torque	torque_compensated	lbs_compensated
1	0	6.09	6.42	121
1	10000	8.08	8.52	161
1	20000	11.5	12.2	230
1	30000	11.1	11.7	221
1	40000	11.3	11.9	225
1	50000	13	13.7	258
1	60000	15	15.8	298
1	70000	14.6	15.4	291
1	80000	13.3	14	264
1	90000	14	14.7	279
1	100000	15.3	16.1	305
1	110000	14.4	15.2	287
1	120000	14.5	15.2	288
1	130000	15.6	16.5	311
1	140000	15.9	16.8	317
1	150000	15.7	16.5	313
1	160000	15.7	16.6	313
1	170000	16.6	17.5	331
1	180000	16.8	17.7	335
1	190000	16.5	17.4	330
1	200000	16.3	17.2	325
1	210000	17	17.9	339
1	220000	17.6	18.5	350
1	230000	17.1	18	340
1	240000	16.7	17.6	332
1	250000	16.9	17.8	337
1	260000	16	16.8	318
1	270000	15.2	16	302
1	280000	13.6	14.4	271
1	290000	13	13.7	259
2	0	14.5	12.3	232
2	-10000	18.7	16.5	312
2	-20000	18.9	16.6	314
2	-30000	19.7	17.5	330
2	-40000	19.2	17	320
2	-50000	19.6	17.3	327
2	-60000	21.3	19	360
2	-70000	22	19.7	373
2	-80000	21.5	19.2	363
2	-90000	20.9	18.6	352
2	-100000	21.4	19.1	362
2	-110000	22	19.8	374
2	-120000	21.8	19.5	369
2	-130000	22.4	20.1	380
2	-140000	23.6	21.4	404
2	-150000	23.2	20.9	395
2	-160000	22.2	19.9	376
2	-170000	21.7	19.4	368
2	-180000	23.6	21.3	403
2	-190000	23.9	21.6	408
2	-200000	22.9	20.6	390
2	-210000	22.2	19.9	376
2	-220000	23.6	21.4	404
2	-230000	22.9	20.6	390
2	-240000	21.8	19.5	369
2	-250000	22.1	19.9	375
2	-260000	22.9	20.6	389
2	-270000	21.5	19.3	364
2	-280000	19.7	17.5	330
2	-290000	18.4	16.1	304
2	0	16.1	17	321
2	10000	15.9	16.8	317
2	20000	16.3	17.1	324
2	30000	15	15.8	299
2	40000	14.2	15	283
2	50000	16.4	17.3	328
2	60000	17	18	340
2	70000	16.9	17.8	336
2	80000	16.9	17.8	336
2	90000	18.3	19.3	365
2	100000	17.8	18.8	354
2	110000	15.5	16.3	308
2	120000	15.3	16.1	304
2	130000	17.1	18	340
2	140000	17.5	18.4	348
2	150000	17.5	18.5	349
2	160000	16.6	17.5	330
2	170000	17.2	18.1	342
2	180000	16.6	17.5	332
2	190000	15.9	16.7	316
2	200000	15.7	16.6	313
2	210000	16.3	17.2	325
2	220000	16.4	17.3	327
2	230000	15.1	16	302
2	240000	14.2	15	283
2	250000	14.5	15.3	289
2	260000	14.3	15.1	285
2	270000	14.4	15.2	288
2	280000	13.1	13.8	261
2	290000	13.2	13.9	262
3	0	14.5	12.2	231
3	-10000	19.5	17.2	325
3	-20000	19.3	17.1	323
3	-30000	19.6	17.3	327
3	-40000	19	16.8	317
3	-50000	20.1	17.8	337
3	-60000	21.7	19.4	367
3	-70000	22	19.7	372
3	-80000	22.4	20.2	381
3	-90000	22.7	20.5	387
3	-100000	23.5	21.2	402
3	-110000	24	21.7	410
3	-120000	22.3	20.1	379
3	-130000	21	18.7	353
3	-140000	22.2	20	378
3	-150000	22.6	20.3	384
3	-160000	20.7	18.5	349
3	-170000	19.7	17.4	329
3	-180000	21.6	19.3	366
3	-190000	21.3	19.1	360
3	-200000	19.6	17.3	327
3	-210000	19	16.7	316
3	-220000	20	17.8	336
3	-230000	19.2	17	320
3	-240000	18.2	15.9	301
3	-250000	18	15.7	297
3	-260000	18.3	16	303
3	-270000	17.1	14.8	280
3	-280000	15.5	13.2	250
3	-290000	14.9	12.6	238
3	0	12.9	13.6	257
3	10000	15.1	15.9	301
3	20000	16.2	17.1	323
3	30000	15.1	15.9	300
3	40000	12.5	13.2	249
3	50000	13.4	14.2	268
3	60000	15.5	16.3	308
3	70000	15.4	16.3	307
3	80000	14.9	15.7	298
3	90000	15.7	16.5	313
3	100000	16.4	17.2	326
3	110000	15.3	16.1	304
3	120000	15	15.8	298
3	130000	15.8	16.6	314
3	140000	15.9	16.8	317
3	150000	15	15.8	299
3	160000	15	15.8	298
3	170000	15.8	16.7	316
3	180000	15.8	16.7	315
3	190000	15.1	15.9	301
3	200000	14.4	15.2	286
3	210000	14.5	15.3	289
3	220000	14.1	14.8	281
3	230000	12.8	13.5	256
3	240000	12.4	13	246
3	250000	12.7	13.4	253
3	260000	13	13.7	258
3	270000	12.5	13.2	250
3	280000	11.4	12	226
3	290000	11.5	12.1	229
4	0	12.4	10.1	191
4	-10000	15.6	13.4	253
4	-20000	16.2	13.9	263
4	-30000	16.9	14.6	277
4	-40000	15.9	13.6	258
4	-50000	16.3	14.1	266
4	-60000	17.6	15.4	291
4	-70000	19.4	17.1	324
4	-80000	18.8	16.5	312
4	-90000	18	15.7	297
4	-100000	19	16.8	317
4	-110000	19	16.7	316
4	-120000	17.9	15.6	296
4	-130000	18.3	16	303
4	-140000	19.3	17	322
4	-150000	19	16.8	317
4	-160000	18	15.8	298
4	-170000	18	15.8	298
4	-180000	18.9	16.6	314
4	-190000	18.4	16.1	304
4	-200000	17.4	15.1	286
4	-210000	17.4	15.1	286
4	-220000	18.1	15.8	299
4	-230000	17.8	15.5	294
4	-240000	17.3	15	284
4	-250000	17.8	15.5	294
4	-260000	19.9	17.7	334
4	-270000	19.2	16.9	320
4	-280000	17	14.8	279
4	-290000	16.3	14.1	266
4	0	14.3	15.1	285
4	10000	14.8	15.6	295
4	20000	15.8	16.7	315
4	30000	15.1	15.9	301
4	40000	13.8	14.5	274
4	50000	13.9	14.7	277
4	60000	13.8	14.5	275
4	70000	13.3	14	265
4	80000	13.4	14.2	268
4	90000	15.1	15.9	300
4	100000	15.1	15.9	301
4	110000	14.3	15.1	285
4	120000	13.4	14.1	266
4	130000	13.8	14.6	276
4	140000	13.5	14.3	270
4	150000	13.1	13.9	262
4	160000	12.6	13.3	250
4	170000	13.5	14.2	268
4	180000	13.2	13.9	263
4	190000	11.6	12.3	232
4	200000	11	11.6	219
4	210000	11.4	12	226
4	220000	11.5	12.1	228
4	230000	10.5	11.1	209
4	240000	9.35	9.86	186
4	250000	9.75	10.3	194
4	260000	9.31	9.82	186
4	270000	9.79	10.3	195
4	280000	8.32	8.77	166
4	290000	9.21	9.71	183
5	0	10.3	7.99	151
5	-10000	13.4	11.1	210
5	-20000	13.1	10.9	206
5	-30000	15.3	13	246
5	-40000	15.2	13	245
5	-50000	15.3	13	246
5	-60000	17.3	15	284
5	-70000	19.1	16.9	319
5	-80000	18.3	16.1	304
5	-90000	17.8	15.5	294
5	-100000	18.3	16.1	304
5	-110000	18.8	16.6	313
5	-120000	17.8	15.5	294
5	-130000	18.3	16.1	303
5	-140000	19.1	16.9	319
5	-150000	19.1	16.8	317
5	-160000	17.6	15.3	290
5	-170000	16.9	14.6	276
5	-180000	18.2	15.9	301
5	-190000	18.1	15.9	300
5	-200000	16.8	14.5	274
5	-210000	16.2	14	264
5	-220000	17.7	15.4	292
5	-230000	18.3	16	303
5	-240000	18.3	16	303
5	-250000	17.8	15.5	293
5	-260000	18.1	15.9	300
5	-270000	18.1	15.8	299
5	-280000	16.3	14	265
5	-290000	14.5	12.3	232
5	0	12.9	13.6	257
5	10000	14.2	15	283
5	20000	15.2	16.1	303
5	30000	13.9	14.7	278
5	40000	13.3	14	266
5	50000	14.4	15.2	288
5	60000	14.1	14.8	280
5	70000	13.6	14.4	272
5	80000	12.9	13.6	258
5	90000	14	14.8	279
5	100000	13.5	14.2	268
5	110000	11.7	12.3	232
5	120000	11.7	12.3	233
5	130000	12.6	13.3	251
5	140000	12	12.7	240
5	150000	11	11.6	220
5	160000	10.8	11.4	216
5	170000	11.6	12.2	231
5	180000	12.1	12.7	240
5	190000	11.8	12.4	235
5	200000	11.3	11.9	225
5	210000	11.5	12.1	229
5	220000	11.7	12.3	233
5	230000	10	10.6	199
5	240000	8.18	8.62	163
5	250000	8.72	9.19	174
5	260000	8.38	8.83	167
5	270000	8.44	8.9	168
5	280000	7.11	7.49	142
5	290000	7.4	7.8	147
6	0	8.54	6.28	119
6	-10000	11.9	9.61	182
6	-20000	11.8	9.53	180
6	-30000	13.1	10.8	205
6	-40000	13.2	10.9	206
6	-50000	14.2	11.9	225
6	-60000	15.5	13.3	251
6	-70000	16.2	13.9	263
6	-80000	15.4	13.1	248
6	-90000	15	12.7	241
6	-100000	15.8	13.5	256
6	-110000	16.5	14.3	269
6	-120000	16.8	14.5	275
6	-130000	17.1	14.8	280
6	-140000	17.6	15.4	291
6	-150000	18.5	16.3	308
6	-160000	17.8	15.5	294
6	-170000	18.2	16	302
6	-180000	19.4	17.2	325
6	-190000	19	16.7	317
6	-200000	17.5	15.3	289
6	-210000	17.2	14.9	282
6	-220000	18	15.8	298
6	-230000	17.1	14.8	281
6	-240000	15.4	13.2	249
6	-250000	15.4	13.1	248
6	-260000	15.6	13.4	252
6	-270000	14.9	12.7	239
6	-280000	13.2	11	207
6	-290000	12.1	9.87	186
