rep_num	position	torque	torque_compensated	lbs_compensated
1	0	5.47	5.77	109
1	10000	9.44	9.95	188
1	20000	10.3	10.8	204
1	30000	10.5	11.1	210
1	40000	10.7	11.3	213
1	50000	11.8	12.4	234
1	60000	12.5	13.1	248
1	70000	12.4	13.1	248
1	80000	12.8	13.4	254
1	90000	13.7	14.5	273
1	100000	13.3	14.1	266
1	110000	13.3	14.1	266
1	120000	14.1	14.8	280
1	130000	12.8	13.5	255
1	140000	10.7	11.3	214
1	150000	10.6	11.2	212
1	160000	10.7	11.2	212
1	170000	11.2	11.8	223
1	180000	12.2	12.8	243
1	190000	13.1	13.8	260
1	200000	13.5	14.2	268
1	210000	13.9	14.7	277
1	220000	14.7	15.5	293
1	230000	14.8	15.6	295
1	240000	15.3	16.1	304
1	250000	15.3	16.1	305
1	260000	15.2	16.1	303
1	270000	15.6	16.4	310
1	280000	16.7	17.6	332
1	290000	16.7	17.6	332
2	0	18.5	16.3	307
2	-10000	16.9	14.7	277
2	-20000	16.7	14.4	273
2	-30000	16.7	14.4	272
2	-40000	17.6	15.4	290
2	-50000	18	15.7	297
2	-60000	17.9	15.7	296
2	-70000	18	15.7	297
2	-80000	19.5	17.2	325
2	-90000	19.7	17.4	330
2	-100000	20.5	18.3	346
2	-110000	21.2	19	358
2	-120000	21.2	18.9	358
2	-130000	20.3	18.1	341
2	-140000	19.9	17.6	333
2	-150000	19	16.8	317
2	-160000	18.5	16.2	306
2	-170000	17.7	15.5	292
2	-180000	17.3	15.1	285
2	-190000	17	14.7	278
2	-200000	17.2	14.9	282
2	-210000	17.1	14.8	281
2	-220000	16.8	14.6	276
2	-230000	16	13.7	259
2	-240000	16.3	14	265
2	-250000	16.2	13.9	263
2	-260000	16.5	14.2	269
2	-270000	16.9	14.7	277
2	-280000	17	14.7	278
2	-290000	16.6	14.4	272
2	0	14.7	15.5	293
2	10000	15.3	16.1	305
2	20000	16.4	17.3	327
2	30000	15.7	16.6	313
2	40000	16.2	17.1	323
2	50000	16.8	17.7	335
2	60000	17.6	18.5	350
2	70000	17.7	18.6	352
2	80000	17.5	18.4	348
2	90000	17.7	18.6	352
2	100000	17.4	18.4	347
2	110000	16.9	17.8	337
2	120000	16.9	17.9	337
2	130000	17.7	18.6	352
2	140000	17.6	18.5	350
2	150000	17.7	18.7	354
2	160000	18.1	19	360
2	170000	18.3	19.3	365
2	180000	18.9	20	377
2	190000	19.5	20.5	388
2	200000	19.6	20.7	391
2	210000	19.1	20.2	381
2	220000	19.6	20.6	390
2	230000	19.4	20.4	386
2	240000	19.1	20.1	380
2	250000	18.6	19.6	371
2	260000	18.3	19.3	365
2	270000	17.6	18.6	351
2	280000	17.3	18.2	344
2	290000	16.7	17.6	332
3	0	18.3	16	303
3	-10000	18.7	16.4	310
3	-20000	18.3	16	303
3	-30000	18.5	16.3	308
3	-40000	19.7	17.5	331
3	-50000	20.3	18.1	342
3	-60000	20.4	18.2	344
3	-70000	20.2	17.9	339
3	-80000	20.7	18.4	348
3	-90000	20.1	17.9	338
3	-100000	19.3	17	321
3	-110000	19	16.7	316
3	-120000	19.3	17.1	323
3	-130000	19.7	17.4	330
3	-140000	20.2	17.9	339
3	-150000	21.2	18.9	358
3	-160000	20.8	18.5	350
3	-170000	20.2	17.9	339
3	-180000	19.7	17.4	330
3	-190000	18.4	16.2	306
3	-200000	17.2	14.9	282
3	-210000	16.7	14.4	272
3	-220000	15.2	12.9	245
3	-230000	14.7	12.5	235
3	-240000	14.5	12.2	231
3	-250000	14.2	12	226
3	-260000	13.9	11.6	219
3	-270000	13.4	11.1	211
3	-280000	12.8	10.6	200
3	-290000	14.8	12.6	237
3	0	13.5	14.3	270
3	10000	12.1	12.8	242
3	20000	13.9	14.6	276
3	30000	13.9	14.7	277
3	40000	13.8	14.5	274
3	50000	13.8	14.6	275
3	60000	15.2	16.1	303
3	70000	15.2	16	302
3	80000	15.6	16.4	310
3	90000	15.5	16.3	308
3	100000	15.8	16.7	315
3	110000	15.7	16.6	313
3	120000	16.6	17.5	330
3	130000	17.4	18.3	346
3	140000	16.9	17.8	337
3	150000	17.6	18.5	350
3	160000	17.2	18.1	343
3	170000	16.7	17.6	333
3	180000	16.6	17.5	330
3	190000	16.3	17.2	325
3	200000	16.2	17	322
3	210000	15.7	16.6	314
3	220000	16.3	17.2	325
3	230000	16.9	17.8	337
3	240000	18	18.9	358
3	250000	17.2	18.2	344
3	260000	16.5	17.4	329
3	270000	16.2	17	322
3	280000	16.1	17	321
3	290000	16.1	17	321
4	0	17.5	15.3	288
4	-10000	17.5	15.2	288
4	-20000	17.3	15.1	285
4	-30000	18	15.7	297
4	-40000	18.6	16.3	309
4	-50000	18.3	16	303
4	-60000	17.6	15.4	291
4	-70000	18.2	15.9	301
4	-80000	18.8	16.5	313
4	-90000	19.9	17.6	333
4	-100000	19.4	17.2	324
4	-110000	18.8	16.5	312
4	-120000	18.7	16.4	311
4	-130000	17.6	15.3	289
4	-140000	17.1	14.8	280
4	-150000	17.4	15.1	285
4	-160000	16.7	14.4	273
4	-170000	15.7	13.4	253
4	-180000	16.3	14	265
4	-190000	15.5	13.2	249
4	-200000	14.3	12.1	228
4	-210000	14.1	11.8	224
4	-220000	13.9	11.7	221
4	-230000	14.5	12.3	232
4	-240000	14.7	12.4	234
4	-250000	13.1	10.8	205
4	-260000	13.6	11.3	214
4	-270000	11.5	9.2	174
4	-280000	10.9	8.63	163
4	-290000	10.4	8.18	155
4	0	8.79	9.27	175
4	10000	13.5	14.2	269
4	20000	14.2	15	284
4	30000	16.3	17.2	325
4	40000	15.4	16.3	307
4	50000	14.9	15.7	296
4	60000	14.4	15.2	287
4	70000	14.5	15.3	289
4	80000	14	14.7	279
4	90000	14.3	15.1	286
4	100000	13.9	14.7	278
4	110000	13.4	14.1	266
4	120000	14.4	15.1	286
4	130000	14.3	15.1	285
4	140000	14.3	15.1	285
4	150000	15	15.8	298
4	160000	15.4	16.2	307
4	170000	14.9	15.7	296
4	180000	14.3	15.1	285
4	190000	14.3	15.1	285
4	200000	14.4	15.2	287
4	210000	14.1	14.9	281
4	220000	13.7	14.5	273
4	230000	13.2	13.9	262
4	240000	13.3	14	265
4	250000	13.6	14.3	271
4	260000	13.1	13.8	260
4	270000	12.5	13.2	250
4	280000	11.5	12.1	229
4	290000	11	11.6	219
5	0	13	10.7	203
5	-10000	13.7	11.5	217
5	-20000	14	11.7	221
5	-30000	14	11.7	222
5	-40000	15.3	13	246
5	-50000	16.5	14.2	269
5	-60000	17.3	15.1	284
5	-70000	17.9	15.7	296
5	-80000	17.6	15.4	291
5	-90000	17.9	15.7	296
5	-100000	17.9	15.7	296
5	-110000	17.3	15	284
5	-120000	17.1	14.9	281
5	-130000	15.9	13.7	259
5	-140000	14.8	12.5	236
5	-150000	15.3	13	246
5	-160000	15.7	13.5	254
5	-170000	15.6	13.3	252
5	-180000	16	13.7	260
5	-190000	15.6	13.3	252
5	-200000	15.7	13.4	253
5	-210000	15.2	13	245
5	-220000	14.8	12.5	237
5	-230000	13.2	10.9	207
5	-240000	13.2	11	208
5	-250000	13.3	11.1	210
5	-260000	12.8	10.6	200
5	-270000	12.1	9.87	187
5	-280000	11.4	9.17	173
5	-290000	11.7	9.49	179
5	0	10	10.6	200
5	10000	12.3	12.9	244
5	20000	11.8	12.4	235
5	30000	11.5	12.1	228
5	40000	10.9	11.5	218
5	50000	11.6	12.2	231
5	60000	12.5	13.1	248
5	70000	12	12.7	240
5	80000	11.3	12	226
5	90000	12.5	13.1	248
5	100000	12.6	13.3	251
5	110000	12.8	13.5	255
5	120000	13.6	14.4	272
5	130000	13.5	14.3	269
5	140000	13.2	13.9	263
5	150000	13	13.7	260
5	160000	12.8	13.5	255
5	170000	12.4	13.1	248
5	180000	12.6	13.2	250
5	190000	12.9	13.6	258
5	200000	12.5	13.2	249
5	210000	12	12.7	239
5	220000	12.7	13.4	253
5	230000	12.7	13.4	252
5	240000	13	13.7	259
5	250000	13.9	14.6	277
5	260000	13.2	13.9	263
5	270000	14.1	14.8	280
5	280000	13.5	14.2	268
5	290000	13	13.7	259
6	0	14.8	12.5	236
6	-10000	16.7	14.4	272
6	-20000	16.8	14.5	274
6	-30000	15.1	12.8	242
6	-40000	14.5	12.2	231
6	-50000	15.1	12.9	243
6	-60000	14.9	12.6	238
6	-70000	15.1	12.9	243
6	-80000	16	13.8	261
6	-90000	16.5	14.3	270
6	-100000	15.7	13.5	254
6	-110000	15.4	13.2	249
6	-120000	15.3	13.1	247
6	-130000	15.9	13.6	258
6	-140000	17.1	14.8	280
6	-150000	17.8	15.6	294
6	-160000	16.5	14.3	270
6	-170000	15.5	13.2	249
6	-180000	14.9	12.6	239
6	-190000	13.9	11.7	221
6	-200000	14	11.8	223
6	-210000	13.5	11.2	212
6	-220000	12.9	10.7	201
6	-230000	12.6	10.4	196
6	-240000	13.4	11.1	210
6	-250000	14.4	12.2	230
6	-260000	14.9	12.6	239
6	-270000	13.8	11.5	217
6	-280000	11.9	9.62	182
6	-290000	11.6	9.35	177
