rep_num	position	torque	torque_compensated	lbs_compensated
1	0	4.54	4.83	91.3
1	10000	8.82	9.3	176
1	20000	11	11.6	219
1	30000	10.9	11.5	218
1	40000	10.6	11.1	211
1	50000	11.7	12.4	233
1	60000	12.2	12.8	243
1	70000	12.6	13.3	251
1	80000	12.3	13	245
1	90000	12.8	13.5	256
1	100000	13.5	14.3	269
1	110000	12.9	13.6	258
1	120000	13.6	14.4	272
1	130000	14.2	15	283
1	140000	13.7	14.4	272
1	150000	14.2	14.9	282
1	160000	13.8	14.6	275
1	170000	13.7	14.5	274
1	180000	13.4	14.2	268
1	190000	12.9	13.6	257
1	200000	12.9	13.5	256
1	210000	13.9	14.7	278
1	220000	14.4	15.1	286
1	230000	14	14.7	278
1	240000	13.7	14.5	273
1	250000	13.6	14.4	272
1	260000	13.4	14.1	266
1	270000	13.4	14.1	266
1	280000	13.4	14.2	268
1	290000	14.6	15.4	291
2	0	14.5	12.3	232
2	-10000	16.1	13.8	262
2	-20000	15	12.8	242
2	-30000	15.5	13.2	250
2	-40000	16.4	14.1	267
2	-50000	17.6	15.3	290
2	-60000	18.3	16	303
2	-70000	19.1	16.9	319
2	-80000	19.2	16.9	320
2	-90000	19.5	17.2	325
2	-100000	19.6	17.3	327
2	-110000	19.8	17.5	331
2	-120000	18.9	16.6	314
2	-130000	18.7	16.4	310
2	-140000	19.2	16.9	319
2	-150000	19.1	16.9	319
2	-160000	18.4	16.1	304
2	-170000	17.7	15.4	292
2	-180000	19	16.7	316
2	-190000	18.5	16.2	306
2	-200000	16.7	14.5	273
2	-210000	16.6	14.3	271
2	-220000	16.8	14.6	276
2	-230000	16.4	14.2	268
2	-240000	16	13.7	259
2	-250000	16.4	14.1	267
2	-260000	16.7	14.4	272
2	-270000	16.3	14	266
2	-280000	15.4	13.1	248
2	-290000	14.1	11.9	225
2	0	12.7	13.3	252
2	10000	12.8	13.5	256
2	20000	14.2	15	283
2	30000	14.2	15	283
2	40000	14.2	14.9	282
2	50000	15	15.8	299
2	60000	15.4	16.2	306
2	70000	15.4	16.2	306
2	80000	15.3	16.2	305
2	90000	16.3	17.1	324
2	100000	16.5	17.4	329
2	110000	15.6	16.5	312
2	120000	14.9	15.7	297
2	130000	15.1	15.9	301
2	140000	14.9	15.8	298
2	150000	15.1	15.9	300
2	160000	15.1	15.9	301
2	170000	16	16.8	318
2	180000	15.7	16.5	312
2	190000	15.4	16.2	306
2	200000	15.1	15.9	301
2	210000	15.3	16.1	304
2	220000	15.5	16.4	310
2	230000	15	15.8	298
2	240000	14.4	15.1	286
2	250000	14.4	15.1	286
2	260000	14	14.7	279
2	270000	13.8	14.6	275
2	280000	13.3	14.1	266
2	290000	13.4	14.1	267
3	0	14.5	12.2	231
3	-10000	16.7	14.5	274
3	-20000	16	13.7	260
3	-30000	17.5	15.2	287
3	-40000	17.5	15.2	287
3	-50000	17.5	15.2	287
3	-60000	17.9	15.7	296
3	-70000	18.2	15.9	301
3	-80000	18.4	16.1	304
3	-90000	18.1	15.9	300
3	-100000	18.9	16.6	314
3	-110000	20.4	18.1	342
3	-120000	19.6	17.4	329
3	-130000	18.5	16.3	307
3	-140000	19.4	17.1	324
3	-150000	20.4	18.1	343
3	-160000	19.5	17.2	326
3	-170000	18.2	15.9	301
3	-180000	18.1	15.8	299
3	-190000	17.7	15.4	291
3	-200000	16.3	14	266
3	-210000	14.3	12	228
3	-220000	15.1	12.9	243
3	-230000	14.6	12.4	234
3	-240000	13.7	11.5	217
3	-250000	13.1	10.8	205
3	-260000	13	10.7	203
3	-270000	11.6	9.32	176
3	-280000	7.79	5.53	104
3	-290000	6.42	4.16	78.6
3	0	4.37	4.66	88
3	10000	10.3	10.9	206
3	20000	11	11.6	219
3	30000	10.6	11.2	212
3	40000	11.5	12.1	228
3	50000	13.4	14.1	267
3	60000	14.3	15.1	286
3	70000	14.2	15	283
3	80000	13.5	14.3	269
3	90000	14.4	15.2	287
3	100000	14.2	15	283
3	110000	13.5	14.2	268
3	120000	14	14.8	279
3	130000	15	15.8	299
3	140000	14.9	15.7	297
3	150000	14.7	15.5	294
3	160000	15.1	15.9	300
3	170000	15.1	16	302
3	180000	14.2	15	283
3	190000	14.1	14.9	281
3	200000	13.4	14.1	267
3	210000	13.9	14.6	277
3	220000	13.8	14.5	274
3	230000	11.7	12.3	233
3	240000	11.1	11.7	222
3	250000	11.3	11.9	225
3	260000	11.2	11.8	223
3	270000	11.4	12	227
3	280000	11.9	12.5	237
3	290000	11.7	12.3	233
4	0	11.5	9.22	174
4	-10000	13.7	11.4	216
4	-20000	13.9	11.7	220
4	-30000	14.8	12.6	238
4	-40000	14.8	12.6	238
4	-50000	15.5	13.3	251
4	-60000	17.1	14.8	280
4	-70000	18	15.7	297
4	-80000	18.5	16.2	306
4	-90000	18.5	16.3	307
4	-100000	19.2	17	321
4	-110000	19.7	17.4	330
4	-120000	19	16.7	316
4	-130000	18.2	15.9	301
4	-140000	18.4	16.1	304
4	-150000	18.8	16.6	313
4	-160000	17.9	15.6	295
4	-170000	17.1	14.8	281
4	-180000	17.7	15.5	292
4	-190000	17	14.8	279
4	-200000	15.7	13.4	253
4	-210000	14.8	12.6	237
4	-220000	15.2	12.9	244
4	-230000	14.3	12	228
4	-240000	13.5	11.2	212
4	-250000	12.9	10.6	201
4	-260000	13.1	10.8	205
4	-270000	12.6	10.4	196
4	-280000	11.8	9.49	179
4	-290000	11.1	8.8	166
4	0	9.6	10.1	191
4	10000	10.3	10.8	204
4	20000	10.2	10.8	204
4	30000	10.9	11.4	216
4	40000	11.3	12	226
4	50000	12.8	13.5	256
4	60000	12.3	12.9	245
4	70000	11.9	12.6	238
4	80000	11.6	12.2	231
4	90000	12.5	13.2	249
4	100000	12.7	13.3	252
4	110000	11.3	11.9	225
4	120000	11.2	11.8	223
4	130000	11.9	12.5	236
4	140000	12.5	13.2	249
4	150000	11.6	12.3	232
4	160000	11.4	12	228
4	170000	12.2	12.9	243
4	180000	12.6	13.3	252
4	190000	11.9	12.5	237
4	200000	11.1	11.7	222
4	210000	11.3	11.9	226
4	220000	11.7	12.4	234
4	230000	11.5	12.1	229
4	240000	11.1	11.7	222
4	250000	11.3	11.9	225
4	260000	11.6	12.3	232
4	270000	11.2	11.8	223
4	280000	10.3	10.8	205
4	290000	10.4	10.9	206
5	0	11.1	8.81	167
5	-10000	12.5	10.3	194
5	-20000	12	9.73	184
5	-30000	13.4	11.2	211
5	-40000	14.1	11.8	223
5	-50000	15.8	13.5	256
5	-60000	16.3	14	265
5	-70000	16.5	14.2	269
5	-80000	16.2	14	264
5	-90000	16.4	14.1	266
5	-100000	16.7	14.4	273
5	-110000	16	13.8	260
5	-120000	15.2	12.9	244
5	-130000	14.8	12.5	237
5	-140000	15.2	12.9	244
5	-150000	15.3	13	246
5	-160000	13.5	11.2	212
5	-170000	13.5	11.2	213
5	-180000	15	12.7	240
5	-190000	14.2	11.9	226
5	-200000	13.1	10.8	204
5	-210000	12.3	10	190
5	-220000	12.8	10.6	200
5	-230000	12	9.75	184
5	-240000	11.6	9.31	176
5	-250000	11.7	9.45	179
5	-260000	12.5	10.2	193
5	-270000	12	9.78	185
5	-280000	11.3	9.04	171
5	-290000	12.6	10.3	195
5	0	11.6	12.3	232
5	10000	13.4	14.1	267
5	20000	13.4	14.1	267
5	30000	12.6	13.3	251
5	40000	12	12.7	240
5	50000	13.4	14.1	266
5	60000	13.8	14.5	274
5	70000	13.1	13.8	261
5	80000	12.4	13	246
5	90000	13.1	13.8	260
5	100000	13.4	14.2	268
5	110000	12.7	13.3	252
5	120000	12.7	13.4	252
5	130000	12.9	13.6	257
5	140000	12.5	13.1	248
5	150000	11.9	12.6	238
5	160000	11.5	12.1	229
5	170000	11.7	12.3	233
5	180000	11.7	12.3	233
5	190000	11.8	12.4	235
5	200000	12	12.6	239
5	210000	12.7	13.4	253
5	220000	12.7	13.3	252
5	230000	11.6	12.2	232
5	240000	11.1	11.7	222
5	250000	11.4	12	228
5	260000	11.3	12	226
5	270000	10.8	11.4	215
5	280000	9.98	10.5	199
5	290000	9.94	10.5	198
6	0	10.7	8.41	159
6	-10000	13.6	11.4	215
6	-20000	13.5	11.2	212
6	-30000	13.3	11	208
6	-40000	13.2	10.9	207
6	-50000	14.5	12.3	232
6	-60000	15.1	12.8	243
6	-70000	14.9	12.7	239
6	-80000	14.3	12	228
6	-90000	14.2	11.9	226
6	-100000	15.5	13.3	251
6	-110000	16.1	13.8	262
6	-120000	14.9	12.6	239
6	-130000	14.1	11.9	224
6	-140000	14.8	12.6	238
6	-150000	16.2	14	264
6	-160000	15.2	12.9	244
6	-170000	14.4	12.1	229
6	-180000	16	13.7	259
6	-190000	16.2	13.9	263
6	-200000	14.7	12.5	236
6	-210000	13.8	11.5	218
6	-220000	14.5	12.3	232
6	-230000	14.2	11.9	225
6	-240000	12.7	10.4	197
6	-250000	12.3	10	190
6	-260000	12.3	10.1	190
6	-270000	12.4	10.1	191
6	-280000	11.7	9.42	178
6	-290000	11.3	9.03	171
