rep_num	position	torque	torque_compensated	lbs_compensated
1	0	5.54	5.84	110
1	10000	8.13	8.57	162
1	20000	9.13	9.63	182
1	30000	13	13.7	260
1	40000	9.94	10.5	198
1	50000	9.69	10.2	193
1	60000	12.7	13.4	253
1	70000	12.8	13.5	254
1	80000	10.8	11.3	214
1	90000	10.8	11.4	216
1	100000	14	14.7	279
1	110000	14.1	14.9	281
1	120000	12.6	13.3	251
1	130000	12.6	13.3	252
1	140000	15	15.8	299
1	150000	15.8	16.7	315
1	160000	13.5	14.3	270
1	170000	13.1	13.8	260
1	180000	15.6	16.5	311
1	190000	16.6	17.5	331
1	200000	14.6	15.4	291
1	210000	14.3	15.1	285
1	220000	18	19	359
1	230000	18.8	19.8	374
1	240000	16.1	16.9	320
1	250000	16.1	17	321
1	260000	18.4	19.4	366
1	270000	18.6	19.6	371
1	280000	17	17.9	338
1	290000	17.6	18.6	351
1	300000	20	21	397
1	310000	20.4	21.5	407
1	320000	17.5	18.5	350
1	330000	17.1	18.1	341
1	340000	19.6	20.7	391
1	350000	19.8	20.9	395
1	360000	17.5	18.5	349
1	370000	17	17.9	339
1	380000	20.9	22.1	417
1	390000	17.8	18.8	355
1	400000	17.3	18.3	346
2	0	19.6	17.3	327
2	-10000	19	16.8	317
2	-20000	19.3	17	322
2	-30000	24.1	21.9	413
2	-40000	21.6	19.4	366
2	-50000	21.8	19.5	369
2	-60000	24.4	22.2	419
2	-70000	23.8	21.5	407
2	-80000	21.2	19	359
2	-90000	21.8	19.5	368
2	-100000	24.5	22.2	420
2	-110000	24.8	22.5	426
2	-120000	22.1	19.8	374
2	-130000	21.8	19.5	369
2	-140000	23.5	21.3	402
2	-150000	22.5	20.2	382
2	-160000	20.5	18.2	345
2	-170000	21.1	18.9	357
2	-180000	23.8	21.5	407
2	-190000	22.5	20.2	382
2	-200000	20.6	18.4	347
2	-210000	20.4	18.1	342
2	-220000	22.8	20.5	388
2	-230000	21.5	19.2	364
2	-240000	19.7	17.4	329
2	-250000	20.6	18.4	347
2	-260000	22.3	20.1	379
2	-270000	21.4	19.2	362
2	-280000	19.3	17	322
2	-290000	19.6	17.3	328
2	-300000	21.8	19.5	369
2	-310000	20.7	18.5	349
2	-320000	18.2	15.9	300
2	-330000	18.1	15.8	299
2	-340000	20.1	17.9	337
2	-350000	19.4	17.1	324
2	-360000	17.5	15.2	288
2	-370000	15.7	13.4	254
2	-380000	18.4	16.1	305
2	-390000	14.3	12.1	228
2	-400000	13.9	11.6	220
2	0	11.6	12.2	231
2	10000	13	13.7	259
2	20000	13.4	14.2	268
2	30000	16.8	17.7	335
2	40000	13.8	14.5	275
2	50000	14.2	14.9	282
2	60000	16.4	17.3	326
2	70000	15.3	16.1	304
2	80000	13	13.7	258
2	90000	13.7	14.5	273
2	100000	15.4	16.3	308
2	110000	15.1	15.9	300
2	120000	12.5	13.2	249
2	130000	13.2	13.9	262
2	140000	16	16.9	319
2	150000	16.8	17.7	335
2	160000	13.6	14.4	271
2	170000	13.4	14.1	267
2	180000	16	16.8	318
2	190000	15.9	16.8	317
2	200000	14.3	15.1	286
2	210000	14.9	15.7	296
2	220000	17.7	18.7	353
2	230000	18.4	19.4	366
2	240000	15.5	16.4	309
2	250000	16.5	17.3	328
2	260000	19	20	378
2	270000	19.4	20.5	387
2	280000	17.7	18.7	353
2	290000	17.5	18.4	348
2	300000	20.7	21.9	413
2	310000	21.1	22.3	421
2	320000	18.8	19.8	375
2	330000	18.9	19.9	376
2	340000	20.4	21.5	407
2	350000	20.7	21.9	413
2	360000	18	18.9	358
2	370000	17.4	18.4	347
2	380000	20.7	21.8	413
2	390000	16.8	17.7	335
2	400000	16.6	17.5	331
3	0	18.7	16.5	311
3	-10000	19.3	17	322
3	-20000	19.1	16.8	318
3	-30000	22.3	20.1	379
3	-40000	20.7	18.4	348
3	-50000	22.2	20	378
3	-60000	25.6	23.3	441
3	-70000	25.3	23	435
3	-80000	23.2	20.9	395
3	-90000	24.6	22.3	422
3	-100000	27.7	25.5	481
3	-110000	26.9	24.6	465
3	-120000	24.7	22.4	424
3	-130000	24.8	22.6	427
3	-140000	27.2	24.9	470
3	-150000	25.9	23.6	446
3	-160000	23.5	21.2	401
3	-170000	24.8	22.6	426
3	-180000	27.3	25	473
3	-190000	27.2	25	472
3	-200000	24.9	22.7	428
3	-210000	25.5	23.3	440
3	-220000	26.9	24.7	467
3	-230000	25.1	22.9	432
3	-240000	22.8	20.5	388
3	-250000	23.1	20.8	394
3	-260000	24.2	21.9	414
3	-270000	23.3	21	398
3	-280000	20.9	18.6	352
3	-290000	20.9	18.6	352
3	-300000	23	20.8	393
3	-310000	22	19.8	373
3	-320000	19.5	17.3	326
3	-330000	19.7	17.5	331
3	-340000	21.9	19.6	371
3	-350000	22.1	19.8	374
3	-360000	19.6	17.3	327
3	-370000	18.7	16.4	311
3	-380000	21.2	18.9	357
3	-390000	16.5	14.3	270
3	-400000	16.1	13.8	261
3	0	13.2	13.9	264
3	10000	13.2	13.9	263
3	20000	14.4	15.2	287
3	30000	15.9	16.8	317
3	40000	13.4	14.1	266
3	50000	13.8	14.5	274
3	60000	14.9	15.7	297
3	70000	14.5	15.2	288
3	80000	12	12.7	239
3	90000	13.1	13.9	262
3	100000	14.7	15.5	293
3	110000	14	14.8	279
3	120000	10.3	10.8	205
3	130000	12	12.6	239
3	140000	15.7	16.5	312
3	150000	17.2	18.1	342
3	160000	15.6	16.4	310
3	170000	15.1	15.9	300
3	180000	16.5	17.4	329
3	190000	17	17.9	338
3	200000	14.9	15.7	297
3	210000	14.6	15.4	291
3	220000	17.2	18.1	342
3	230000	18	19	359
3	240000	15.8	16.6	314
3	250000	15.6	16.5	311
3	260000	16.7	17.6	333
3	270000	16.9	17.8	337
3	280000	14.9	15.7	297
3	290000	14.6	15.4	290
3	300000	17.1	18	341
3	310000	16.9	17.8	336
3	320000	13.5	14.2	269
3	330000	13.7	14.4	273
3	340000	15.4	16.2	307
3	350000	15.1	16	302
3	360000	13.1	13.8	260
3	370000	13.3	14	264
3	380000	16.7	17.6	332
3	390000	13.4	14.1	267
3	400000	13.5	14.2	268
4	0	16	13.7	259
4	-10000	18.7	16.4	310
4	-20000	19.6	17.4	328
4	-30000	23.8	21.6	408
4	-40000	21.2	19	359
4	-50000	22.3	20.1	379
4	-60000	25.1	22.9	433
4	-70000	24.4	22.2	419
4	-80000	21.8	19.6	370
4	-90000	22.5	20.3	383
4	-100000	23.9	21.6	409
4	-110000	22.6	20.3	384
4	-120000	20.4	18.1	343
4	-130000	20.6	18.4	347
4	-140000	22.9	20.7	391
4	-150000	21.8	19.6	370
4	-160000	19.2	16.9	319
4	-170000	20.3	18	341
4	-180000	22.7	20.4	386
4	-190000	22.5	20.2	382
4	-200000	19.5	17.3	326
4	-210000	19.2	16.9	320
4	-220000	22	19.7	373
4	-230000	21.4	19.1	361
4	-240000	19	16.8	317
4	-250000	20.3	18.1	342
4	-260000	21.5	19.3	364
4	-270000	20.9	18.7	353
4	-280000	18.4	16.1	305
4	-290000	18	15.8	298
4	-300000	20.5	18.2	345
4	-310000	19.5	17.3	326
4	-320000	16.9	14.6	276
4	-330000	17	14.7	279
4	-340000	20.1	17.8	336
4	-350000	20	17.7	335
4	-360000	17.6	15.4	291
4	-370000	16.7	14.4	273
4	-380000	19.1	16.9	319
4	-390000	15.1	12.8	243
4	-400000	15.2	13	245
4	0	12.2	12.8	242
4	10000	11.5	12.2	230
4	20000	11.7	12.3	233
4	30000	14.8	15.6	296
4	40000	12.3	13	246
4	50000	11.9	12.5	237
4	60000	14.5	15.3	289
4	70000	14.2	15	283
4	80000	11	11.6	219
4	90000	11.5	12.1	229
4	100000	14.2	15	283
4	110000	15	15.8	299
4	120000	12.7	13.4	253
4	130000	12.5	13.1	249
4	140000	14.1	14.9	282
4	150000	14	14.7	278
4	160000	12.3	13	246
4	170000	12.7	13.4	253
4	180000	14.6	15.3	290
4	190000	15	15.8	298
4	200000	12	12.6	238
4	210000	11.2	11.8	224
4	220000	14.4	15.1	286
4	230000	15.1	15.9	301
4	240000	12.5	13.1	248
4	250000	13	13.7	258
4	260000	16.2	17	322
4	270000	16.2	17.1	323
4	280000	14.2	14.9	283
4	290000	14.8	15.6	295
4	300000	17.6	18.5	351
4	310000	17.2	18.2	343
4	320000	14.1	14.9	281
4	330000	14.1	14.9	282
4	340000	16.6	17.5	331
4	350000	16	16.8	318
4	360000	13.1	13.8	261
4	370000	12.6	13.3	250
4	380000	15.3	16.2	306
4	390000	11.8	12.4	234
4	400000	11.7	12.3	233
5	0	13.4	11.1	210
5	-10000	15.4	13.1	248
5	-20000	16.4	14.2	268
5	-30000	20.5	18.2	344
5	-40000	17.7	15.5	292
5	-50000	17.9	15.6	296
5	-60000	20.8	18.5	350
5	-70000	20.1	17.8	337
5	-80000	17.5	15.3	289
5	-90000	18.5	16.2	306
5	-100000	20.4	18.2	343
5	-110000	20.7	18.4	348
5	-120000	17.6	15.3	290
5	-130000	18.4	16.1	305
5	-140000	20.4	18.1	343
5	-150000	20.1	17.8	337
5	-160000	17.8	15.5	293
5	-170000	16.6	14.4	271
5	-180000	20	17.7	335
5	-190000	19.2	17	321
5	-200000	16.9	14.7	277
5	-210000	17	14.7	279
5	-220000	19.4	17.2	324
5	-230000	18.9	16.6	315
5	-240000	16.2	14	264
5	-250000	17.1	14.8	280
5	-260000	18.9	16.6	314
5	-270000	18.5	16.2	307
5	-280000	16.8	14.6	275
5	-290000	17.2	14.9	282
5	-300000	19.5	17.2	325
5	-310000	18.7	16.4	311
5	-320000	16.4	14.2	268
5	-330000	17.4	15.2	287
5	-340000	20.1	17.8	337
5	-350000	19.7	17.4	329
5	-360000	17.7	15.4	291
5	-370000	17.3	15	284
5	-380000	19.7	17.4	329
5	-390000	15.8	13.6	257
5	-400000	15.5	13.3	251
5	0	12.7	13.4	253
5	10000	9.89	10.4	197
5	20000	10.6	11.1	211
5	30000	13.9	14.7	278
5	40000	10.6	11.2	211
5	50000	9.76	10.3	194
5	60000	13.6	14.3	270
5	70000	13.9	14.6	277
5	80000	10.5	11	209
5	90000	9.5	10	189
5	100000	12.4	13.1	248
5	110000	12	12.7	240
5	120000	10.1	10.6	200
5	130000	9.78	10.3	195
5	140000	11.6	12.2	231
5	150000	12	12.7	240
5	160000	10.3	10.9	206
5	170000	10.9	11.5	217
5	180000	13.5	14.3	269
5	190000	12.8	13.5	255
5	200000	10.2	10.7	202
5	210000	10.7	11.3	213
5	220000	13.6	14.3	271
5	230000	13.6	14.3	271
5	240000	10.9	11.5	217
5	250000	11	11.6	219
5	260000	13.2	13.9	262
5	270000	14	14.7	278
5	280000	11.4	12	227
5	290000	10.7	11.3	214
5	300000	12.9	13.6	257
5	310000	12	12.7	240
5	320000	8.02	8.46	160
5	330000	8.2	8.65	163
5	340000	12	12.6	238
5	350000	12.5	13.2	250
5	360000	10.9	11.5	217
5	370000	10.4	11	207
5	380000	13.6	14.3	271
5	390000	9.73	10.3	194
5	400000	9.29	9.8	185
6	0	11.2	8.98	170
6	-10000	12	9.76	185
6	-20000	12.9	10.7	201
6	-30000	17.7	15.4	292
6	-40000	15.3	13	246
6	-50000	14.9	12.6	239
6	-60000	17.5	15.2	287
6	-70000	17.8	15.5	293
6	-80000	16.5	14.3	270
6	-90000	16.9	14.6	276
6	-100000	19.5	17.3	327
6	-110000	19.2	16.9	320
6	-120000	16.9	14.7	277
6	-130000	16.6	14.3	270
6	-140000	20	17.8	336
6	-150000	19.8	17.5	331
6	-160000	16.6	14.3	271
6	-170000	16.8	14.5	275
6	-180000	19.2	16.9	320
6	-190000	18.5	16.2	307
6	-200000	15.4	13.1	248
6	-210000	15.3	13	246
6	-220000	17.6	15.4	291
6	-230000	17.2	14.9	282
6	-240000	14.5	12.2	231
6	-250000	14.3	12	227
6	-260000	16.9	14.6	276
6	-270000	16.2	13.9	263
6	-280000	13.8	11.5	218
6	-290000	13.1	10.9	206
6	-300000	15.7	13.5	254
6	-310000	15.4	13.1	248
6	-320000	13.1	10.8	204
6	-330000	12.2	9.91	187
6	-340000	14.4	12.1	229
6	-350000	14.1	11.9	224
6	-360000	11.3	9	170
6	-370000	10.6	8.3	157
6	-380000	12.8	10.5	199
6	-390000	8.19	5.93	112
6	-400000	7.5	5.24	99.1
