rep_num	position	torque	torque_compensated	lbs_compensated
1	0	2.06	2.35	44.4
1	10000	1.78	2.07	39
1	20000	1.86	2.14	40.5
1	30000	0.736	1.02	19.3
1	40000	1.17	1.46	27.5
1	50000	1.63	1.91	36.2
1	60000	2.94	3.23	61
1	70000	2.36	2.65	50
1	80000	3.26	3.55	67.1
1	90000	3.81	4.09	77.3
1	100000	3.95	4.23	80
1	110000	2.43	2.71	51.2
1	120000	2.89	3.18	60.1
1	130000	3.91	4.19	79.3
1	140000	5.04	5.33	101
1	150000	1.41	1.69	32
1	160000	0.73	1.02	19.2
1	170000	2.07	2.36	44.6
1	180000	2.48	2.77	52.4
1	190000	1.09	1.38	26.1
1	200000	0.477	0.763	14.4
1	210000	1.54	1.83	34.6
1	220000	1.94	2.23	42.1
1	230000	0.638	0.924	17.5
1	240000	0.829	1.12	21.1
1	250000	2.45	2.73	51.7
1	260000	3.63	3.92	74.1
1	270000	3.54	3.82	72.2
1	280000	5.17	5.46	103
1	290000	8.35	8.8	166
1	300000	10.3	10.9	205
1	310000	9.18	9.67	183
1	320000	8.48	8.94	169
1	330000	10.4	10.9	207
1	340000	11.5	12.2	230
1	350000	9.31	9.81	185
1	360000	9.02	9.5	180
1	370000	11.7	12.3	233
1	380000	13.1	13.8	260
1	390000	11.5	12.1	229
1	400000	11.2	11.8	224
2	0	12.3	10	189
2	-10000	13.4	11.2	211
2	-20000	15.3	13	246
2	-30000	12.8	10.5	199
2	-40000	12.7	10.4	197
2	-50000	14.8	12.5	236
2	-60000	15.6	13.3	252
2	-70000	14	11.7	221
2	-80000	13.3	11.1	209
2	-90000	14.9	12.7	239
2	-100000	15	12.7	241
2	-110000	13.5	11.2	212
2	-120000	12.2	9.92	187
2	-130000	13.7	11.5	217
2	-140000	14.3	12	227
2	-150000	12.4	10.2	192
2	-160000	12.4	10.1	191
2	-170000	13.6	11.4	215
2	-180000	13.9	11.6	219
2	-190000	11.7	9.45	179
2	-200000	11.6	9.38	177
2	-210000	12.9	10.7	201
2	-220000	14.7	12.5	236
2	-230000	13.4	11.1	210
2	-240000	11.9	9.65	182
2	-250000	13.6	11.3	214
2	-260000	14.5	12.2	231
2	-270000	11.6	9.35	177
2	-280000	11.5	9.2	174
2	-290000	13.4	11.1	211
2	-300000	14.4	12.2	230
2	-310000	12.1	9.82	186
2	-320000	11.2	8.9	168
2	-330000	13.1	10.8	205
2	-340000	13	10.8	203
2	-350000	11.2	8.97	170
2	-360000	10.6	8.35	158
2	-370000	13.2	10.9	206
2	-380000	13	10.8	203
2	-390000	10.7	8.44	159
2	-400000	11	8.71	165
2	0	9.45	9.97	188
2	10000	10.8	11.3	214
2	20000	12.3	13	245
2	30000	9.74	10.3	194
2	40000	8.44	8.9	168
2	50000	11.4	12	227
2	60000	11.7	12.3	232
2	70000	8.47	8.92	169
2	80000	7.08	7.46	141
2	90000	7.86	8.29	157
2	100000	8.65	9.11	172
2	110000	6.76	7.13	135
2	120000	5.51	5.8	110
2	130000	8.12	8.56	162
2	140000	7.93	8.36	158
2	150000	5.86	6.18	117
2	160000	7.3	7.69	145
2	170000	10.7	11.2	212
2	180000	12.7	13.4	253
2	190000	10.8	11.4	215
2	200000	10.4	11	207
2	210000	12.3	13	245
2	220000	13.4	14.1	266
2	230000	12.3	13	245
2	240000	12.4	13.1	247
2	250000	15.2	16	302
2	260000	15.8	16.6	314
2	270000	14.7	15.5	292
2	280000	14	14.7	278
2	290000	15.8	16.7	315
2	300000	17.3	18.2	345
2	310000	14.9	15.7	296
2	320000	14.1	14.8	280
2	330000	16.2	17.1	323
2	340000	16.6	17.5	332
2	350000	14.6	15.4	291
2	360000	13.4	14.2	268
2	370000	15.5	16.4	309
2	380000	16.2	17	322
2	390000	14.6	15.4	290
2	400000	15.5	16.4	309
3	0	18.5	16.3	307
3	-10000	21.1	18.8	356
3	-20000	22.5	20.2	382
3	-30000	20.1	17.8	337
3	-40000	19.2	16.9	320
3	-50000	21.3	19.1	360
3	-60000	21.7	19.5	368
3	-70000	19.8	17.5	331
3	-80000	19.4	17.1	324
3	-90000	20.6	18.3	346
3	-100000	20.9	18.7	353
3	-110000	19	16.7	316
3	-120000	18.8	16.5	312
3	-130000	20.7	18.5	349
3	-140000	21.6	19.3	365
3	-150000	19.2	16.9	319
3	-160000	18	15.7	297
3	-170000	19.9	17.6	333
3	-180000	20.4	18.1	343
3	-190000	17.3	15	284
3	-200000	16.3	14	265
3	-210000	18.3	16	303
3	-220000	18.4	16.1	305
3	-230000	16.4	14.1	267
3	-240000	15	12.7	241
3	-250000	16.4	14.1	267
3	-260000	17.2	14.9	282
3	-270000	14.5	12.3	232
3	-280000	13.7	11.4	216
3	-290000	15.3	13	246
3	-300000	16.1	13.9	262
3	-310000	14.3	12	227
3	-320000	13.1	10.8	205
3	-330000	14.6	12.3	233
3	-340000	15.1	12.8	242
3	-350000	13.3	11	209
3	-360000	12.5	10.3	194
3	-370000	15	12.7	240
3	-380000	14.3	12.1	228
3	-390000	11.7	9.44	178
3	-400000	11.2	8.95	169
3	0	9.45	9.96	188
3	10000	11.1	11.7	220
3	20000	12.9	13.6	256
3	30000	10.4	11	208
3	40000	10.5	11.1	210
3	50000	11.7	12.4	233
3	60000	12.1	12.8	242
3	70000	9.75	10.3	194
3	80000	8.82	9.3	176
3	90000	11.8	12.5	236
3	100000	12.5	13.2	249
3	110000	10.2	10.8	203
3	120000	9.61	10.1	191
3	130000	11.4	12.1	228
3	140000	11.8	12.4	235
3	150000	11.1	11.7	222
3	160000	11.6	12.2	231
3	170000	14.2	14.9	282
3	180000	15	15.8	299
3	190000	13	13.7	259
3	200000	12.7	13.4	252
3	210000	14.6	15.4	290
3	220000	14.9	15.7	297
3	230000	12.8	13.5	255
3	240000	12.6	13.3	251
3	250000	14.9	15.7	297
3	260000	14.7	15.5	293
3	270000	12.6	13.3	251
3	280000	12.4	13.1	247
3	290000	14.5	15.2	288
3	300000	15.5	16.3	308
3	310000	14.4	15.1	286
3	320000	13.6	14.3	270
3	330000	15.5	16.3	309
3	340000	16.1	17	322
3	350000	13.9	14.6	276
3	360000	12.9	13.6	256
3	370000	14.8	15.6	295
3	380000	15.2	16	302
3	390000	13.8	14.5	275
3	400000	13.9	14.7	278
4	0	16.5	14.2	269
4	-10000	17.2	14.9	282
4	-20000	19.4	17.1	323
4	-30000	16.8	14.5	274
4	-40000	16.7	14.5	273
4	-50000	18.9	16.6	314
4	-60000	19.8	17.5	331
4	-70000	17.6	15.3	290
4	-80000	16.7	14.4	273
4	-90000	18.6	16.3	309
4	-100000	19.2	17	321
4	-110000	17.3	15	284
4	-120000	16.5	14.2	269
4	-130000	18.4	16.1	305
4	-140000	18.9	16.7	315
4	-150000	17.3	15	284
4	-160000	16.5	14.3	270
4	-170000	18.4	16.1	304
4	-180000	19.9	17.7	334
4	-190000	18.5	16.3	307
4	-200000	17.7	15.4	292
4	-210000	19.2	16.9	320
4	-220000	19.5	17.2	326
4	-230000	17.3	15	283
4	-240000	16.1	13.9	262
4	-250000	18	15.8	298
4	-260000	19.1	16.8	318
4	-270000	16.5	14.3	269
4	-280000	15.1	12.8	242
4	-290000	16.7	14.5	273
4	-300000	17.6	15.3	289
4	-310000	15.4	13.2	249
4	-320000	14.6	12.4	234
4	-330000	16.5	14.3	269
4	-340000	17.4	15.2	286
4	-350000	15.2	13	245
4	-360000	14.3	12	227
4	-370000	16.4	14.1	267
4	-380000	15.6	13.3	252
4	-390000	12.6	10.3	195
4	-400000	10.9	8.64	163
4	0	9.79	10.3	195
4	10000	10.9	11.5	217
4	20000	12.9	13.6	258
4	30000	9.92	10.5	198
4	40000	9.91	10.4	197
4	50000	10.3	10.9	205
4	60000	11.2	11.8	222
4	70000	10.8	11.4	215
4	80000	11.2	11.8	223
4	90000	12.9	13.6	258
4	100000	13.3	14	264
4	110000	10.8	11.4	215
4	120000	10.6	11.2	212
4	130000	12.4	13	246
4	140000	13.7	14.4	272
4	150000	12.2	12.9	243
4	160000	10.9	11.5	218
4	170000	12	12.6	238
4	180000	13.2	14	264
4	190000	9.89	10.4	197
4	200000	9.96	10.5	199
4	210000	12.5	13.2	249
4	220000	13.5	14.2	269
4	230000	11.1	11.7	220
4	240000	8.58	9.05	171
4	250000	11.8	12.4	234
4	260000	12.7	13.4	253
4	270000	10.8	11.4	215
4	280000	10.7	11.3	214
4	290000	13.9	14.6	277
4	300000	14.2	15	283
4	310000	12.9	13.6	257
4	320000	12.5	13.2	250
4	330000	14.2	14.9	282
4	340000	14.5	15.2	288
4	350000	11.9	12.5	237
4	360000	11.6	12.2	230
4	370000	14.9	15.8	298
4	380000	15.2	16	302
4	390000	13.2	13.9	264
4	400000	13.1	13.8	260
5	0	14.9	12.7	239
5	-10000	15.9	13.7	259
5	-20000	18.1	15.8	298
5	-30000	15.7	13.4	254
5	-40000	15.6	13.3	251
5	-50000	17.6	15.4	291
5	-60000	18.4	16.1	305
5	-70000	16.5	14.3	270
5	-80000	15.3	13.1	247
5	-90000	17.5	15.3	288
5	-100000	18.5	16.2	306
5	-110000	17.1	14.9	281
5	-120000	16.9	14.7	278
5	-130000	18.9	16.6	314
5	-140000	18.7	16.4	310
5	-150000	16.2	14	264
5	-160000	15.9	13.6	257
5	-170000	17.1	14.9	281
5	-180000	17.4	15.1	286
5	-190000	15.2	12.9	245
5	-200000	14.4	12.2	230
5	-210000	15.3	13	247
5	-220000	16.2	14	264
5	-230000	14.6	12.3	233
5	-240000	13.7	11.4	216
5	-250000	15.1	12.8	242
5	-260000	16	13.7	260
5	-270000	13.7	11.5	217
5	-280000	12.8	10.6	200
5	-290000	14.2	11.9	225
5	-300000	15.3	13	246
5	-310000	13	10.7	203
5	-320000	11.4	9.13	173
5	-330000	13.8	11.5	218
5	-340000	14.5	12.2	231
5	-350000	12	9.73	184
5	-360000	11.3	9.01	170
5	-370000	13	10.8	204
5	-380000	13.1	10.9	206
5	-390000	9.93	7.67	145
5	-400000	8.82	6.56	124
5	0	7.29	7.68	145
5	10000	8.72	9.19	174
5	20000	11.4	12	226
5	30000	8.79	9.27	175
5	40000	9.05	9.54	180
5	50000	10	10.6	200
5	60000	8.87	9.34	177
5	70000	9.72	10.2	194
5	80000	9.55	10.1	190
5	90000	10.9	11.5	218
5	100000	10.6	11.1	211
5	110000	9.12	9.61	182
5	120000	8.95	9.43	178
5	130000	10.7	11.3	213
5	140000	12	12.6	238
5	150000	9.89	10.4	197
5	160000	8.92	9.4	178
5	170000	10.9	11.5	217
5	180000	9.95	10.5	198
5	190000	7.25	7.65	145
5	200000	8.93	9.41	178
5	210000	11.8	12.5	236
5	220000	13.3	14	264
5	230000	11.6	12.3	232
5	240000	10.8	11.4	215
5	250000	14.1	14.8	280
5	260000	14.1	14.8	281
5	270000	12.9	13.6	257
5	280000	11.7	12.4	233
5	290000	13.4	14.1	267
5	300000	13.6	14.4	272
5	310000	11.6	12.3	232
5	320000	11	11.6	220
5	330000	12.7	13.4	254
5	340000	13.7	14.5	274
5	350000	11.3	11.9	226
5	360000	10	10.6	200
5	370000	12.2	12.9	243
5	380000	12.7	13.4	254
5	390000	10.6	11.2	212
5	400000	11.4	12	226
6	0	13.3	11	208
6	-10000	15.2	13	245
6	-20000	17.2	14.9	282
6	-30000	15.8	13.6	256
6	-40000	15.7	13.5	255
6	-50000	18.1	15.9	300
6	-60000	19.2	17	321
6	-70000	17.9	15.6	295
6	-80000	17.5	15.2	288
6	-90000	19.4	17.2	325
6	-100000	19.5	17.3	327
6	-110000	16.8	14.5	274
6	-120000	15.9	13.7	258
6	-130000	18	15.7	297
6	-140000	18.5	16.3	307
6	-150000	16.8	14.6	275
6	-160000	16	13.7	259
6	-170000	17.6	15.4	290
6	-180000	17.7	15.4	292
6	-190000	14.8	12.5	236
6	-200000	13.6	11.3	214
6	-210000	15.4	13.2	249
6	-220000	15.9	13.6	258
6	-230000	14.4	12.1	229
6	-240000	12.9	10.7	202
6	-250000	13.5	11.3	213
6	-260000	14.9	12.7	240
6	-270000	12.7	10.5	198
6	-280000	12.2	9.97	188
6	-290000	13.9	11.7	221
6	-300000	14.5	12.3	232
6	-310000	12.2	9.98	189
6	-320000	11	8.72	165
6	-330000	13.3	11.1	209
6	-340000	13.5	11.3	213
6	-350000	10.9	8.64	163
6	-360000	10.4	8.16	154
6	-370000	11.8	9.54	180
6	-380000	10.6	8.36	158
6	-390000	6.78	4.52	85.3
6	-400000	6.06	3.8	71.9
