rep_num	position	torque	torque_compensated	lbs_compensated
1	0	4.93	5.22	98.6
1	10000	10.6	11.2	211
1	20000	13.6	14.3	271
1	30000	13.6	14.3	270
1	40000	13.7	14.4	273
1	50000	14.6	15.4	291
1	60000	15.4	16.3	308
1	70000	14.4	15.2	287
1	80000	13.7	14.4	272
1	90000	15.4	16.2	306
1	100000	16.1	17	321
1	110000	15.2	16	303
1	120000	15.6	16.4	310
1	130000	16.1	16.9	320
1	140000	15.9	16.7	316
1	150000	15.1	15.9	301
1	160000	15.6	16.5	311
1	170000	17.1	18	341
1	180000	17.9	18.9	356
1	190000	16.8	17.7	334
1	200000	15.5	16.3	308
1	210000	13.4	14.1	267
1	220000	13	13.7	260
1	230000	13.1	13.8	262
1	240000	13	13.7	259
1	250000	13.9	14.7	278
1	260000	13.5	14.2	269
1	270000	13.9	14.7	278
1	280000	13.2	13.9	262
1	290000	13.5	14.2	269
2	0	15.4	13.1	248
2	-10000	17.4	15.1	285
2	-20000	16.1	13.8	261
2	-30000	16.9	14.6	276
2	-40000	16.9	14.6	276
2	-50000	16.7	14.5	274
2	-60000	16.8	14.6	276
2	-70000	18.2	15.9	301
2	-80000	18.8	16.5	312
2	-90000	19.4	17.1	323
2	-100000	20.4	18.2	343
2	-110000	21	18.7	353
2	-120000	20.3	18	341
2	-130000	19.7	17.4	329
2	-140000	20.7	18.4	348
2	-150000	21.5	19.2	364
2	-160000	20.3	18	340
2	-170000	19.9	17.6	333
2	-180000	20.7	18.5	349
2	-190000	20.9	18.7	353
2	-200000	20.4	18.2	343
2	-210000	20	17.7	335
2	-220000	20.9	18.7	353
2	-230000	21.9	19.6	371
2	-240000	21.4	19.1	362
2	-250000	20.9	18.7	353
2	-260000	20.7	18.5	349
2	-270000	20.1	17.8	337
2	-280000	19.1	16.9	319
2	-290000	18.2	15.9	301
2	0	15.8	16.7	316
2	10000	14.8	15.6	295
2	20000	16.3	17.2	324
2	30000	15.1	15.9	301
2	40000	15.2	16	303
2	50000	16.2	17.1	323
2	60000	16.9	17.8	336
2	70000	15.6	16.4	310
2	80000	15	15.8	299
2	90000	16.1	17	320
2	100000	16.1	16.9	320
2	110000	15.2	16	303
2	120000	14.2	15	284
2	130000	14.7	15.4	292
2	140000	15.1	15.9	300
2	150000	14.4	15.2	287
2	160000	13.9	14.6	277
2	170000	14.6	15.4	291
2	180000	14.7	15.5	292
2	190000	13.5	14.2	269
2	200000	13.2	13.9	262
2	210000	13.2	13.9	263
2	220000	14.1	14.9	281
2	230000	13.2	13.9	263
2	240000	12.2	12.8	243
2	250000	12.6	13.3	251
2	260000	11.7	12.3	233
2	270000	11.4	12	227
2	280000	10.4	10.9	206
2	290000	10.4	10.9	207
3	0	11.6	9.39	177
3	-10000	15.1	12.9	244
3	-20000	14.8	12.6	238
3	-30000	15.5	13.2	250
3	-40000	14.8	12.6	238
3	-50000	15	12.7	241
3	-60000	16.1	13.8	261
3	-70000	17	14.8	279
3	-80000	17	14.7	278
3	-90000	17.4	15.1	286
3	-100000	18.6	16.4	309
3	-110000	19	16.7	316
3	-120000	19.1	16.8	318
3	-130000	19.9	17.6	333
3	-140000	21.4	19.1	361
3	-150000	22.2	19.9	376
3	-160000	21.5	19.3	364
3	-170000	22.2	19.9	376
3	-180000	23.3	21	397
3	-190000	22.5	20.2	383
3	-200000	21.3	19	360
3	-210000	20.5	18.2	345
3	-220000	20.6	18.4	347
3	-230000	20.3	18	341
3	-240000	19.5	17.2	326
3	-250000	18.7	16.5	311
3	-260000	18	15.8	298
3	-270000	16.9	14.6	277
3	-280000	16	13.7	260
3	-290000	16	13.8	260
3	0	15	15.8	299
3	10000	15.3	16.1	305
3	20000	16.7	17.6	332
3	30000	16.9	17.8	337
3	40000	17.2	18.1	343
3	50000	17.5	18.4	348
3	60000	18.1	19	360
3	70000	17.2	18.1	342
3	80000	16.5	17.4	329
3	90000	17.3	18.3	346
3	100000	17.5	18.5	349
3	110000	16.4	17.3	328
3	120000	16.3	17.2	324
3	130000	16.5	17.4	329
3	140000	16.4	17.3	326
3	150000	15.2	16	302
3	160000	14.9	15.7	297
3	170000	15.6	16.4	310
3	180000	15.4	16.2	306
3	190000	14	14.7	278
3	200000	13.5	14.2	269
3	210000	14.2	14.9	282
3	220000	14.1	14.8	281
3	230000	12.2	12.9	243
3	240000	11.1	11.7	222
3	250000	11	11.6	219
3	260000	9.51	10	189
3	270000	9.23	9.72	184
3	280000	9.28	9.78	185
3	290000	9.63	10.1	192
4	0	10.2	7.9	149
4	-10000	12.9	10.7	202
4	-20000	12.5	10.2	193
4	-30000	13.4	11.1	210
4	-40000	12.7	10.4	197
4	-50000	12.6	10.3	195
4	-60000	14.1	11.9	224
4	-70000	15.1	12.8	242
4	-80000	14.3	12	227
4	-90000	14.4	12.1	229
4	-100000	15.4	13.2	249
4	-110000	16.6	14.4	271
4	-120000	16.1	13.8	262
4	-130000	16	13.8	260
4	-140000	16.2	14	264
4	-150000	17.1	14.8	281
4	-160000	17.2	15	283
4	-170000	16.9	14.6	277
4	-180000	17.7	15.4	291
4	-190000	18	15.8	298
4	-200000	17	14.7	278
4	-210000	17.1	14.9	281
4	-220000	17.8	15.5	293
4	-230000	18.1	15.8	299
4	-240000	17.4	15.1	285
4	-250000	17	14.7	278
4	-260000	17.4	15.1	286
4	-270000	17	14.7	278
4	-280000	15.6	13.3	252
4	-290000	14.1	11.9	225
4	0	11.7	12.3	232
4	10000	11.4	12	227
4	20000	13.4	14.1	266
4	30000	12.4	13.1	247
4	40000	12.2	12.9	243
4	50000	13.4	14.2	268
4	60000	13.5	14.3	270
4	70000	12.2	12.9	244
4	80000	12	12.6	239
4	90000	13	13.7	258
4	100000	12.7	13.3	252
4	110000	12.3	12.9	244
4	120000	12.2	12.9	244
4	130000	12.9	13.6	258
4	140000	12.6	13.3	251
4	150000	11.2	11.8	223
4	160000	11	11.6	220
4	170000	11.7	12.4	234
4	180000	11.6	12.2	231
4	190000	11.3	12	226
4	200000	11.4	12	227
4	210000	12.1	12.8	242
4	220000	12	12.7	239
4	230000	10.9	11.5	216
4	240000	11.1	11.7	221
4	250000	10.8	11.3	214
4	260000	8.9	9.38	177
4	270000	8.9	9.38	177
4	280000	7.99	8.42	159
4	290000	7.72	8.13	154
5	0	8.7	6.44	122
5	-10000	9.88	7.62	144
5	-20000	9.87	7.61	144
5	-30000	10.3	8.07	153
5	-40000	10.4	8.12	153
5	-50000	10.2	7.96	150
5	-60000	11.3	9.07	171
5	-70000	12.2	9.97	189
5	-80000	12.3	9.99	189
5	-90000	12.5	10.2	193
5	-100000	13.8	11.5	217
5	-110000	14	11.7	222
5	-120000	13.9	11.6	220
5	-130000	13.5	11.2	212
5	-140000	14.7	12.4	235
5	-150000	15.8	13.5	255
5	-160000	15.1	12.9	244
5	-170000	15	12.8	241
5	-180000	16.7	14.4	273
5	-190000	16.9	14.6	277
5	-200000	15.6	13.3	252
5	-210000	15.2	12.9	244
5	-220000	15.8	13.6	256
5	-230000	15.7	13.4	253
5	-240000	15.5	13.2	250
5	-250000	15.9	13.6	257
5	-260000	17.1	14.9	281
5	-270000	16.2	13.9	263
5	-280000	15.6	13.3	251
5	-290000	15	12.7	241
5	0	12.8	13.5	255
5	10000	13.2	13.9	262
5	20000	13.8	14.5	275
5	30000	13	13.7	258
5	40000	12.7	13.4	253
5	50000	13.2	13.9	263
5	60000	13.5	14.3	269
5	70000	12.6	13.3	251
5	80000	11.5	12.1	230
5	90000	12.1	12.8	242
5	100000	13	13.7	258
5	110000	11.3	11.9	225
5	120000	11.3	11.9	226
5	130000	12.4	13	246
5	140000	13.2	13.9	263
5	150000	13	13.7	259
5	160000	13.2	13.9	263
5	170000	13.6	14.4	271
5	180000	13.7	14.4	272
5	190000	12.3	13	246
5	200000	11.3	11.9	225
5	210000	11.9	12.5	237
5	220000	12.1	12.7	241
5	230000	10.3	10.9	205
5	240000	8.47	8.92	169
5	250000	7.73	8.15	154
5	260000	6.51	6.86	130
5	270000	4.43	4.71	89.1
5	280000	2.91	3.2	60.4
5	290000	3	3.29	62.1
6	0	3.88	2.22	42
6	-10000	11.3	9.08	172
6	-20000	12.3	10	190
6	-30000	13.9	11.6	219
6	-40000	13.5	11.2	212
6	-50000	13.6	11.3	214
6	-60000	14.9	12.6	239
6	-70000	15.6	13.3	252
6	-80000	15.7	13.5	255
6	-90000	16.1	13.8	262
6	-100000	17.4	15.1	285
6	-110000	18.2	16	302
6	-120000	18.2	15.9	301
6	-130000	17.8	15.6	294
6	-140000	18.8	16.5	312
6	-150000	19.7	17.5	330
6	-160000	19.1	16.8	318
6	-170000	18	15.7	297
6	-180000	18.1	15.9	300
6	-190000	18.6	16.3	308
6	-200000	17.8	15.6	295
6	-210000	18.1	15.9	300
6	-220000	18.4	16.1	305
6	-230000	17.8	15.5	293
6	-240000	17.1	14.8	280
6	-250000	16.8	14.5	274
6	-260000	16.7	14.4	272
6	-270000	16.5	14.2	269
6	-280000	15.7	13.4	253
6	-290000	14.3	12	227
