rep_num	position	torque	torque_compensated	lbs_compensated
1	0	6.42	6.76	128
1	10000	9.93	10.5	198
1	20000	11.5	12.1	229
1	30000	11.3	11.9	225
1	40000	12.2	12.9	243
1	50000	13	13.7	259
1	60000	12.5	13.2	249
1	70000	13	13.7	259
1	80000	13.3	14	265
1	90000	14	14.7	278
1	100000	13.8	14.6	275
1	110000	14.3	15	284
1	120000	14	14.8	279
1	130000	14.2	15	284
1	140000	14.3	15.1	285
1	150000	14.2	15	284
1	160000	15.4	16.3	308
1	170000	15.8	16.6	314
1	180000	17.4	18.3	346
1	190000	17	18	340
1	200000	18.1	19.1	360
1	210000	18	19	359
1	220000	18.3	19.3	365
1	230000	18.7	19.7	373
1	240000	18.3	19.3	365
1	250000	17.6	18.5	350
1	260000	17.6	18.6	351
1	270000	17.6	18.5	350
1	280000	17.4	18.4	347
1	290000	17.6	18.5	350
2	0	18.6	16.4	310
2	-10000	19.4	17.2	325
2	-20000	19.7	17.4	330
2	-30000	20.3	18.1	342
2	-40000	20.9	18.6	352
2	-50000	21	18.7	354
2	-60000	21.7	19.5	368
2	-70000	22.9	20.7	391
2	-80000	23.8	21.5	407
2	-90000	24.5	22.2	420
2	-100000	24.6	22.4	423
2	-110000	24.4	22.1	418
2	-120000	24.5	22.2	420
2	-130000	23.1	20.8	394
2	-140000	23	20.8	393
2	-150000	23.4	21.1	399
2	-160000	22.6	20.4	385
2	-170000	21.8	19.5	369
2	-180000	21.6	19.4	366
2	-190000	21.1	18.9	356
2	-200000	19.8	17.6	332
2	-210000	19.5	17.3	326
2	-220000	19.4	17.2	325
2	-230000	18.1	15.8	299
2	-240000	18.5	16.2	307
2	-250000	18.8	16.6	314
2	-260000	18.6	16.3	309
2	-270000	17.2	14.9	282
2	-280000	16.8	14.6	275
2	-290000	15.8	13.5	256
2	0	15.6	16.4	310
2	10000	15.6	16.5	311
2	20000	15.5	16.3	308
2	30000	15.2	16.1	303
2	40000	15.3	16.2	306
2	50000	15.2	16.1	304
2	60000	15.2	16	302
2	70000	17	17.9	338
2	80000	17.3	18.2	344
2	90000	17.8	18.8	355
2	100000	17.3	18.2	344
2	110000	17.3	18.2	344
2	120000	18	18.9	358
2	130000	16.8	17.7	335
2	140000	16.6	17.5	330
2	150000	16.8	17.7	335
2	160000	17.4	18.3	347
2	170000	17.7	18.6	352
2	180000	17.4	18.3	346
2	190000	17.8	18.8	355
2	200000	18	19	359
2	210000	18.8	19.8	375
2	220000	18.8	19.8	374
2	230000	18.7	19.7	373
2	240000	18.1	19.1	360
2	250000	18	19	358
2	260000	17.8	18.8	355
2	270000	17.7	18.6	352
2	280000	17.7	18.6	352
2	290000	17.7	18.6	352
3	0	18.7	16.4	311
3	-10000	19.3	17	322
3	-20000	18.8	16.5	312
3	-30000	19	16.8	317
3	-40000	19.8	17.6	332
3	-50000	19.8	17.5	331
3	-60000	20.4	18.2	344
3	-70000	21.2	19	358
3	-80000	22.1	19.9	376
3	-90000	22.6	20.4	385
3	-100000	22.4	20.1	381
3	-110000	22.5	20.2	383
3	-120000	21.5	19.2	363
3	-130000	20.6	18.3	346
3	-140000	21	18.8	355
3	-150000	21.6	19.4	366
3	-160000	20.1	17.9	338
3	-170000	19.4	17.1	324
3	-180000	19.3	17.1	323
3	-190000	19.2	17	320
3	-200000	19.3	17	321
3	-210000	19.8	17.5	331
3	-220000	21.5	19.2	363
3	-230000	22.1	19.8	375
3	-240000	23	20.7	391
3	-250000	22.4	20.1	380
3	-260000	21.4	19.1	362
3	-270000	19.2	16.9	320
3	-280000	18.5	16.2	306
3	-290000	17.4	15.2	287
3	0	15.4	16.3	307
3	10000	15.6	16.4	310
3	20000	14.8	15.6	295
3	30000	15.3	16.1	305
3	40000	16.3	17.1	324
3	50000	16.8	17.7	335
3	60000	16.3	17.1	324
3	70000	16.5	17.3	328
3	80000	17.1	18	340
3	90000	17	17.9	339
3	100000	17.2	18.1	342
3	110000	17	17.9	338
3	120000	17.1	18.1	341
3	130000	16.7	17.6	332
3	140000	17.4	18.3	347
3	150000	18.5	19.5	369
3	160000	18.9	19.9	376
3	170000	19.5	20.6	389
3	180000	18.8	19.8	375
3	190000	18.3	19.3	366
3	200000	18.6	19.6	371
3	210000	19.5	20.6	389
3	220000	19.7	20.8	393
3	230000	19.8	20.8	394
3	240000	19.1	20.1	380
3	250000	18.1	19.1	361
3	260000	16.4	17.3	328
3	270000	15.5	16.3	309
3	280000	14.1	14.9	282
3	290000	13.9	14.6	276
4	0	15.3	13.1	247
4	-10000	17.9	15.6	295
4	-20000	18.1	15.9	300
4	-30000	18.7	16.4	310
4	-40000	19.6	17.3	328
4	-50000	19	16.8	317
4	-60000	19	16.8	317
4	-70000	20.3	18	341
4	-80000	21.8	19.5	369
4	-90000	22.3	20.1	379
4	-100000	22.6	20.3	384
4	-110000	23.1	20.9	394
4	-120000	22.6	20.3	384
4	-130000	22.4	20.1	381
4	-140000	21.9	19.7	372
4	-150000	22.1	19.8	374
4	-160000	22.7	20.4	386
4	-170000	23.2	20.9	395
4	-180000	24	21.7	410
4	-190000	22.5	20.3	383
4	-200000	21.2	18.9	357
4	-210000	20.7	18.4	348
4	-220000	20.5	18.3	345
4	-230000	18.8	16.6	313
4	-240000	18.9	16.6	314
4	-250000	18.9	16.6	314
4	-260000	17.8	15.5	293
4	-270000	15.6	13.3	252
4	-280000	15.1	12.8	243
4	-290000	12.2	9.89	187
4	0	10.6	11.2	211
4	10000	10.7	11.3	213
4	20000	14.7	15.5	292
4	30000	14.4	15.2	287
4	40000	14.4	15.1	286
4	50000	15.4	16.2	307
4	60000	13.4	14.2	267
4	70000	13.3	14	265
4	80000	14.5	15.3	289
4	90000	16.3	17.2	325
4	100000	16.7	17.6	332
4	110000	16	16.8	318
4	120000	16	16.8	318
4	130000	16	16.8	318
4	140000	16.1	17	322
4	150000	16.9	17.9	337
4	160000	17.5	18.5	349
4	170000	16.9	17.8	337
4	180000	16.3	17.2	325
4	190000	16.1	17	321
4	200000	16.6	17.5	330
4	210000	17.3	18.2	344
4	220000	16.6	17.5	330
4	230000	14.8	15.6	294
4	240000	13.9	14.6	277
4	250000	13.8	14.6	275
4	260000	12.6	13.3	251
4	270000	12.1	12.7	241
4	280000	10.8	11.3	214
4	290000	10.8	11.4	216
5	0	11.7	9.4	178
5	-10000	14.6	12.3	233
5	-20000	15.8	13.5	255
5	-30000	15.3	13	246
5	-40000	15.3	13	246
5	-50000	16.1	13.8	261
5	-60000	16.1	13.8	261
5	-70000	15.9	13.7	258
5	-80000	16.5	14.3	270
5	-90000	16.7	14.4	272
5	-100000	16.7	14.4	273
5	-110000	16	13.8	260
5	-120000	17.1	14.9	281
5	-130000	15.3	13	247
5	-140000	16.2	13.9	263
5	-150000	19	16.7	317
5	-160000	19.6	17.4	328
5	-170000	17.2	14.9	282
5	-180000	17.7	15.4	291
5	-190000	17	14.8	279
5	-200000	18	15.7	297
5	-210000	17.9	15.7	296
5	-220000	16.5	14.2	269
5	-230000	15.5	13.3	251
5	-240000	14.6	12.4	234
5	-250000	15.2	12.9	244
5	-260000	15.3	13	246
5	-270000	12.9	10.6	201
5	-280000	11.7	9.45	179
5	-290000	13.4	11.1	210
5	0	11.4	12	227
5	10000	13.2	14	264
5	20000	14.8	15.6	294
5	30000	14.7	15.5	293
5	40000	13.9	14.7	278
5	50000	14	14.8	280
5	60000	14.3	15	284
5	70000	13.8	14.6	275
5	80000	13.6	14.4	272
5	90000	13.5	14.3	270
5	100000	14.1	14.9	281
5	110000	13.7	14.4	273
5	120000	14.2	14.9	282
5	130000	14	14.8	279
5	140000	13.3	14.1	266
5	150000	13.2	14	264
5	160000	13.5	14.2	269
5	170000	13.2	13.9	263
5	180000	12.5	13.2	250
5	190000	12.5	13.1	248
5	200000	12.3	13	246
5	210000	11.8	12.5	236
5	220000	11.6	12.3	232
5	230000	11.6	12.3	232
5	240000	11.6	12.2	230
5	250000	11	11.6	220
5	260000	10.7	11.3	214
5	270000	11.8	12.5	235
5	280000	11	11.6	219
5	290000	11	11.6	219
6	0	11.6	9.3	176
6	-10000	14.1	11.8	223
6	-20000	13.9	11.7	221
6	-30000	13.8	11.5	218
6	-40000	15.5	13.3	251
6	-50000	17.6	15.4	290
6	-60000	17	14.7	278
6	-70000	15.9	13.7	258
6	-80000	15.4	13.1	248
6	-90000	14.8	12.5	237
6	-100000	14.9	12.6	239
6	-110000	16.5	14.2	269
6	-120000	17.7	15.4	291
6	-130000	17.1	14.9	281
6	-140000	18.5	16.2	307
6	-150000	20.3	18	340
6	-160000	19.4	17.1	323
6	-170000	18.5	16.2	306
6	-180000	19.2	16.9	320
6	-190000	18.1	15.8	299
6	-200000	18	15.8	298
6	-210000	18.3	16.1	304
6	-220000	19.1	16.9	319
6	-230000	19.4	17.1	323
6	-240000	20	17.7	335
6	-250000	20.5	18.2	344
6	-260000	20.9	18.6	352
6	-270000	19.7	17.4	329
6	-280000	18	15.7	297
6	-290000	17.4	15.1	286
