rep_num	position	torque	torque_compensated	lbs_compensated
1	0	4.7	4.99	94.3
1	10000	6.24	6.57	124
1	20000	7.59	8	151
1	30000	5.6	5.9	112
1	40000	8.67	9.14	173
1	50000	8.48	8.93	169
1	60000	8.48	8.94	169
1	70000	9.69	10.2	193
1	80000	11.5	12.1	229
1	90000	11.4	12	227
1	100000	9.65	10.2	192
1	110000	11.9	12.5	237
1	120000	12.9	13.6	256
1	130000	12.1	12.8	241
1	140000	11.6	12.2	231
1	150000	13.3	14	264
1	160000	13.3	14	265
1	170000	12.6	13.3	251
1	180000	12.2	12.9	244
1	190000	13.3	14	265
1	200000	14.6	15.4	292
1	210000	14.6	15.4	292
1	220000	13.4	14.2	268
1	230000	14.8	15.6	294
1	240000	16.2	17.1	323
1	250000	15.2	16	302
1	260000	14.2	15	284
1	270000	15	15.8	298
1	280000	16.1	17	321
1	290000	15.5	16.4	309
1	300000	15	15.8	298
1	310000	15.4	16.3	307
1	320000	17.3	18.2	345
1	330000	17.2	18.1	342
1	340000	16	16.8	318
1	350000	16.4	17.3	326
1	360000	17.5	18.4	348
1	370000	17.7	18.6	352
1	380000	16.2	17.1	323
1	390000	18.3	19.3	365
1	400000	18	19	359
2	0	20.1	17.8	337
2	-10000	21.2	18.9	358
2	-20000	21.1	18.9	356
2	-30000	19	16.7	316
2	-40000	20.5	18.3	346
2	-50000	21	18.7	353
2	-60000	19.2	16.9	320
2	-70000	18.8	16.5	312
2	-80000	20	17.7	335
2	-90000	20.9	18.7	353
2	-100000	20.4	18.1	343
2	-110000	20	17.7	335
2	-120000	21.5	19.2	363
2	-130000	22.1	19.8	375
2	-140000	20.8	18.5	350
2	-150000	19.2	16.9	320
2	-160000	20.4	18.1	342
2	-170000	20.2	17.9	339
2	-180000	18.2	15.9	301
2	-190000	17.5	15.2	288
2	-200000	18.2	15.9	301
2	-210000	18.7	16.4	310
2	-220000	17.6	15.4	290
2	-230000	16.8	14.5	274
2	-240000	18.3	16.1	304
2	-250000	18.6	16.3	309
2	-260000	17.7	15.5	292
2	-270000	15.8	13.6	256
2	-280000	16.7	14.5	273
2	-290000	18.1	15.8	299
2	-300000	16.5	14.2	269
2	-310000	14.9	12.7	240
2	-320000	16.6	14.4	271
2	-330000	17.5	15.2	287
2	-340000	15.8	13.5	256
2	-350000	15.1	12.8	242
2	-360000	15.8	13.5	256
2	-370000	16.1	13.8	261
2	-380000	14.5	12.3	232
2	-390000	16.9	14.6	276
2	-400000	16	13.8	261
2	0	14.2	15	283
2	10000	12.8	13.5	256
2	20000	13.4	14.1	267
2	30000	11	11.6	220
2	40000	13.9	14.7	277
2	50000	12.1	12.8	242
2	60000	11.3	11.9	225
2	70000	12.2	12.8	243
2	80000	14.4	15.2	287
2	90000	13.6	14.3	271
2	100000	12.2	12.8	243
2	110000	13.5	14.2	269
2	120000	14.2	15	283
2	130000	13.3	14	265
2	140000	12.1	12.8	241
2	150000	12.1	12.8	242
2	160000	13.6	14.4	271
2	170000	13.2	13.9	263
2	180000	13.2	14	264
2	190000	14.8	15.6	295
2	200000	16.3	17.2	324
2	210000	15.9	16.8	317
2	220000	15.9	16.7	316
2	230000	16.4	17.3	327
2	240000	18.2	19.2	363
2	250000	17.7	18.6	352
2	260000	16.7	17.6	332
2	270000	17.9	18.8	356
2	280000	19.2	20.2	382
2	290000	19	20.1	379
2	300000	18.1	19.1	360
2	310000	19.2	20.2	382
2	320000	20.4	21.5	407
2	330000	18.6	19.6	370
2	340000	16.5	17.4	329
2	350000	16.8	17.7	334
2	360000	17.9	18.8	356
2	370000	18.5	19.5	369
2	380000	16.9	17.8	336
2	390000	19	20	378
2	400000	19.4	20.4	386
3	0	21.6	19.4	366
3	-10000	21.4	19.1	361
3	-20000	21.9	19.7	372
3	-30000	20	17.7	335
3	-40000	21.9	19.6	370
3	-50000	23	20.7	391
3	-60000	21.6	19.4	366
3	-70000	21.2	19	359
3	-80000	23	20.7	391
3	-90000	23.2	20.9	395
3	-100000	21.6	19.3	365
3	-110000	20.5	18.2	345
3	-120000	21.4	19.2	363
3	-130000	21.5	19.3	364
3	-140000	19.8	17.6	332
3	-150000	18.3	16.1	304
3	-160000	19.5	17.3	327
3	-170000	20.6	18.3	346
3	-180000	19.7	17.5	330
3	-190000	20.7	18.4	348
3	-200000	22.6	20.3	384
3	-210000	22.2	20	377
3	-220000	20	17.7	335
3	-230000	18.4	16.1	305
3	-240000	18.3	16.1	304
3	-250000	19.3	17	322
3	-260000	16.9	14.6	276
3	-270000	16.3	14	265
3	-280000	17.9	15.7	296
3	-290000	19.1	16.8	318
3	-300000	16.8	14.5	274
3	-310000	15.4	13.1	248
3	-320000	16.6	14.4	271
3	-330000	17.2	15	283
3	-340000	15.4	13.2	249
3	-350000	15.4	13.2	249
3	-360000	16.4	14.2	268
3	-370000	15.9	13.6	258
3	-380000	14.2	11.9	225
3	-390000	16.5	14.2	269
3	-400000	15.9	13.6	257
3	0	14.4	15.2	287
3	10000	14	14.8	279
3	20000	12.4	13.1	247
3	30000	11.3	11.9	226
3	40000	13	13.7	259
3	50000	12.9	13.6	257
3	60000	11.6	12.3	232
3	70000	13.2	13.9	263
3	80000	14.6	15.4	290
3	90000	14.1	14.9	281
3	100000	11.7	12.3	233
3	110000	13	13.7	260
3	120000	14.2	15	284
3	130000	13.2	13.9	263
3	140000	12.3	13	245
3	150000	13.9	14.7	278
3	160000	15.2	16	303
3	170000	14.9	15.7	297
3	180000	14.4	15.2	287
3	190000	15.6	16.4	310
3	200000	16.7	17.6	333
3	210000	17.5	18.4	348
3	220000	17.2	18.1	342
3	230000	18.4	19.4	367
3	240000	20.1	21.2	400
3	250000	19.1	20.2	381
3	260000	18.4	19.4	367
3	270000	20.4	21.5	406
3	280000	21.1	22.3	421
3	290000	19.8	20.9	395
3	300000	18.9	20	377
3	310000	19	20.1	379
3	320000	19.7	20.7	392
3	330000	18	19	359
3	340000	16.5	17.3	328
3	350000	16.2	17.1	323
3	360000	17.7	18.7	353
3	370000	18	19	358
3	380000	16.1	16.9	320
3	390000	17	17.9	338
3	400000	16.3	17.2	325
4	0	17.7	15.5	293
4	-10000	20.3	18	341
4	-20000	22.9	20.7	391
4	-30000	21.1	18.8	356
4	-40000	22.7	20.4	386
4	-50000	23.5	21.2	401
4	-60000	21.9	19.6	371
4	-70000	21.3	19	360
4	-80000	22.2	19.9	376
4	-90000	22.9	20.7	390
4	-100000	22.1	19.9	375
4	-110000	21.5	19.3	364
4	-120000	22.6	20.4	385
4	-130000	22.7	20.5	387
4	-140000	21.7	19.5	368
4	-150000	21	18.7	353
4	-160000	22.1	19.8	374
4	-170000	22	19.7	373
4	-180000	20.5	18.2	345
4	-190000	19.5	17.2	325
4	-200000	20.4	18.2	344
4	-210000	21.2	19	358
4	-220000	21.2	18.9	357
4	-230000	20.1	17.8	336
4	-240000	21.3	19.1	361
4	-250000	22.5	20.3	383
4	-260000	21.7	19.4	367
4	-270000	20.1	17.8	337
4	-280000	20.7	18.5	349
4	-290000	21.3	19.1	361
4	-300000	20.2	17.9	339
4	-310000	19	16.7	316
4	-320000	20	17.8	336
4	-330000	21	18.7	354
4	-340000	18.8	16.5	312
4	-350000	18	15.7	297
4	-360000	18.9	16.7	315
4	-370000	18.4	16.1	305
4	-380000	14.8	12.5	237
4	-390000	16.8	14.5	274
4	-400000	15.7	13.5	255
4	0	13.7	14.4	273
4	10000	6.71	7.08	134
4	20000	11.3	11.9	226
4	30000	10.1	10.6	200
4	40000	10.6	11.2	211
4	50000	11.1	11.7	220
4	60000	7.83	8.26	156
4	70000	8.59	9.06	171
4	80000	10.3	10.9	205
4	90000	9.35	9.86	186
4	100000	8.98	9.46	179
4	110000	10.9	11.5	217
4	120000	12.2	12.8	243
4	130000	10.7	11.3	213
4	140000	11.3	11.9	225
4	150000	13.8	14.6	275
4	160000	15.9	16.8	318
4	170000	15.9	16.7	316
4	180000	14.6	15.4	290
4	190000	14.2	14.9	282
4	200000	15.5	16.4	309
4	210000	15.6	16.4	310
4	220000	13.9	14.6	277
4	230000	14.1	14.8	280
4	240000	14	14.8	279
4	250000	12.6	13.2	250
4	260000	11.8	12.4	234
4	270000	13.1	13.8	261
4	280000	14.1	14.8	280
4	290000	12.7	13.4	253
4	300000	12	12.7	240
4	310000	11.9	12.5	237
4	320000	12.6	13.2	250
4	330000	12.3	12.9	244
4	340000	13	13.7	258
4	350000	14	14.8	280
4	360000	15	15.8	299
4	370000	15.6	16.5	311
4	380000	14.2	15	284
4	390000	16	16.8	318
4	400000	15.7	16.6	313
5	0	17.5	15.3	289
5	-10000	19.4	17.2	324
5	-20000	20.4	18.2	343
5	-30000	18	15.8	298
5	-40000	19.1	16.8	318
5	-50000	18.6	16.4	309
5	-60000	17.6	15.3	290
5	-70000	17.6	15.3	290
5	-80000	19.4	17.2	324
5	-90000	19.3	17.1	323
5	-100000	18.5	16.2	307
5	-110000	17.5	15.2	288
5	-120000	19.5	17.2	326
5	-130000	21.1	18.8	356
5	-140000	20.2	17.9	339
5	-150000	19.3	17	322
5	-160000	20.6	18.3	346
5	-170000	21.2	18.9	357
5	-180000	19.2	16.9	319
5	-190000	17.9	15.6	296
5	-200000	19.1	16.8	317
5	-210000	19	16.8	317
5	-220000	18.2	15.9	301
5	-230000	16.4	14.1	267
5	-240000	17.1	14.9	281
5	-250000	17.6	15.3	290
5	-260000	16.1	13.9	262
5	-270000	14.3	12.1	228
5	-280000	15.7	13.4	254
5	-290000	16.4	14.2	268
5	-300000	14.2	12	227
5	-310000	13.7	11.4	216
5	-320000	15.6	13.4	253
5	-330000	16	13.8	260
5	-340000	14.1	11.9	224
5	-350000	13	10.7	203
5	-360000	14	11.7	221
5	-370000	14.2	12	226
5	-380000	12.1	9.86	186
5	-390000	13.8	11.5	218
5	-400000	13.5	11.3	213
5	0	11.9	12.5	237
5	10000	9.48	10	189
5	20000	10.7	11.2	212
5	30000	8.3	8.74	165
5	40000	10.3	10.9	206
5	50000	9.6	10.1	191
5	60000	7.75	8.17	154
5	70000	6.71	7.07	134
5	80000	9.67	10.2	193
5	90000	8.82	9.3	176
5	100000	7.69	8.11	153
5	110000	8.09	8.52	161
5	120000	8.55	9.01	170
5	130000	8.37	8.82	167
5	140000	7.94	8.37	158
5	150000	9.46	9.97	189
5	160000	10.7	11.2	212
5	170000	10	10.6	200
5	180000	7.9	8.32	157
5	190000	8.44	8.9	168
5	200000	8.65	9.11	172
5	210000	8.2	8.64	163
5	220000	8.13	8.57	162
5	230000	9.46	9.97	188
5	240000	10.6	11.2	211
5	250000	9.35	9.85	186
5	260000	7.51	7.91	150
5	270000	6.05	6.38	121
5	280000	7.44	7.85	148
5	290000	6.71	7.07	134
5	300000	8.06	8.49	161
5	310000	10.5	11	209
5	320000	12.6	13.3	252
5	330000	12.2	12.9	244
5	340000	11.1	11.7	222
5	350000	12.4	13.1	247
5	360000	13.6	14.4	272
5	370000	13.9	14.7	277
5	380000	12	12.6	238
5	390000	13.2	13.9	263
5	400000	13.3	14	264
6	0	15.3	13	246
6	-10000	15.8	13.5	256
6	-20000	16.3	14	265
6	-30000	14.3	12	227
6	-40000	16.5	14.2	269
6	-50000	16.8	14.6	276
6	-60000	15.5	13.3	251
6	-70000	14.8	12.5	237
6	-80000	16.3	14.1	266
6	-90000	16.5	14.3	270
6	-100000	14.9	12.6	239
6	-110000	13.3	11.1	209
6	-120000	14.8	12.5	237
6	-130000	15.1	12.9	243
6	-140000	13.4	11.2	211
6	-150000	12.8	10.5	199
6	-160000	14.2	11.9	225
6	-170000	13.8	11.6	219
6	-180000	12.1	9.85	186
6	-190000	11.9	9.66	183
6	-200000	12.9	10.6	201
6	-210000	13.5	11.2	212
6	-220000	12.4	10.2	193
6	-230000	11.9	9.63	182
6	-240000	13.1	10.8	205
6	-250000	13.1	10.9	206
6	-260000	12.6	10.4	196
6	-270000	10.3	8	151
6	-280000	11.4	9.1	172
6	-290000	12.7	10.4	197
6	-300000	10.2	7.91	149
6	-310000	9.41	7.15	135
6	-320000	10.9	8.6	162
6	-330000	11.5	9.24	175
6	-340000	9.16	6.9	130
6	-350000	8.37	6.11	116
6	-360000	9.56	7.3	138
6	-370000	9.43	7.17	136
6	-380000	5.63	3.37	63.7
6	-390000	6.85	4.59	86.8
6	-400000	6.01	3.75	70.8
