rep_num	position	torque	torque_compensated	lbs_compensated
1	0	8.47	8.92	169
1	10000	11.8	12.4	235
1	20000	12.6	13.3	251
1	30000	13.1	13.8	261
1	40000	13.9	14.7	277
1	50000	14	14.8	280
1	60000	13.1	13.8	260
1	70000	12.7	13.4	252
1	80000	13.8	14.5	274
1	90000	14.3	15.1	285
1	100000	14.7	15.5	293
1	110000	14.9	15.7	297
1	120000	14.9	15.7	297
1	130000	15	15.9	300
1	140000	15.7	16.6	313
1	150000	16.4	17.3	327
1	160000	17	17.9	338
1	170000	16.8	17.7	335
1	180000	17.6	18.5	350
1	190000	18.3	19.3	365
1	200000	18.4	19.4	367
1	210000	18.5	19.5	369
1	220000	18.9	20	377
1	230000	19.8	20.9	395
1	240000	19.9	21	397
1	250000	19.8	20.9	395
1	260000	20	21.1	398
1	270000	20.6	21.8	411
1	280000	21.2	22.3	422
1	290000	20.7	21.8	413
1	300000	21.4	22.6	426
1	310000	21.4	22.5	426
1	320000	20.9	22	415
1	330000	20.2	21.3	402
1	340000	19.6	20.7	391
1	350000	19.4	20.5	387
1	360000	18.9	19.9	376
1	370000	18.9	19.9	376
1	380000	19.1	20.2	381
1	390000	19.8	20.9	395
1	400000	20	21.1	399
2	0	22.1	19.8	374
2	-10000	22.6	20.4	385
2	-20000	22.4	20.2	381
2	-30000	22.9	20.7	390
2	-40000	23.2	20.9	395
2	-50000	23.6	21.3	403
2	-60000	23.7	21.4	405
2	-70000	24.3	22	416
2	-80000	25.1	22.9	432
2	-90000	25.3	23.1	436
2	-100000	25.6	23.4	442
2	-110000	25.4	23.1	437
2	-120000	24.7	22.5	425
2	-130000	25.1	22.8	431
2	-140000	25.3	23.1	436
2	-150000	25.3	23.1	436
2	-160000	25.3	23	435
2	-170000	25.3	23	435
2	-180000	25.3	23	435
2	-190000	24.8	22.5	425
2	-200000	24.4	22.2	419
2	-210000	25	22.7	429
2	-220000	25.7	23.4	443
2	-230000	24.8	22.6	427
2	-240000	24.4	22.2	419
2	-250000	24.5	22.2	420
2	-260000	24.2	22	415
2	-270000	24.3	22	416
2	-280000	24.5	22.2	420
2	-290000	23.2	20.9	396
2	-300000	22.5	20.3	383
2	-310000	22.4	20.1	380
2	-320000	22.8	20.5	387
2	-330000	22.1	19.9	375
2	-340000	21.7	19.4	368
2	-350000	21.4	19.1	361
2	-360000	21.4	19.1	361
2	-370000	20.1	17.9	338
2	-380000	19.6	17.3	327
2	-390000	18.7	16.4	310
2	-400000	18.1	15.9	300
2	0	16.4	17.3	327
2	10000	17	17.9	338
2	20000	17.4	18.3	346
2	30000	17.2	18.1	342
2	40000	16.9	17.8	337
2	50000	16.8	17.7	335
2	60000	16.3	17.2	325
2	70000	16.5	17.3	328
2	80000	17.3	18.2	345
2	90000	17.8	18.8	355
2	100000	17.9	18.8	356
2	110000	18.2	19.2	363
2	120000	18.4	19.4	367
2	130000	18	18.9	358
2	140000	18.3	19.3	365
2	150000	18.8	19.8	375
2	160000	19.1	20.2	381
2	170000	18.9	19.9	376
2	180000	19	20.1	379
2	190000	19.2	20.2	382
2	200000	17.5	18.4	348
2	210000	17.5	18.5	349
2	220000	16.9	17.8	336
2	230000	17.1	18	340
2	240000	17.7	18.6	352
2	250000	18.4	19.4	366
2	260000	18.1	19.1	361
2	270000	19	20.1	379
2	280000	19.2	20.2	382
2	290000	19.8	20.8	394
2	300000	20.1	21.2	401
2	310000	20.9	22	416
2	320000	20.5	21.6	409
2	330000	20	21.1	399
2	340000	20	21	398
2	350000	19.4	20.4	386
2	360000	19.1	20.2	381
2	370000	19.2	20.2	382
2	380000	18.6	19.6	370
2	390000	17.9	18.8	356
2	400000	17.3	18.2	344
3	0	19.1	16.9	319
3	-10000	21.3	19.1	360
3	-20000	20.4	18.1	343
3	-30000	21.4	19.2	362
3	-40000	22.9	20.6	389
3	-50000	24.2	21.9	414
3	-60000	25.7	23.4	442
3	-70000	26.1	23.8	450
3	-80000	26.2	23.9	452
3	-90000	26.6	24.4	460
3	-100000	26.8	24.5	464
3	-110000	26.1	23.9	451
3	-120000	24.9	22.7	429
3	-130000	25.3	23.1	436
3	-140000	25.4	23.1	437
3	-150000	25.8	23.5	444
3	-160000	25.5	23.2	439
3	-170000	25.1	22.9	432
3	-180000	25.3	23.1	436
3	-190000	25.2	23	434
3	-200000	24.9	22.7	429
3	-210000	25.5	23.2	438
3	-220000	25.5	23.3	439
3	-230000	24.4	22.1	418
3	-240000	23.3	21	398
3	-250000	23.9	21.6	409
3	-260000	23.7	21.4	404
3	-270000	23.2	20.9	396
3	-280000	22.8	20.5	388
3	-290000	22.8	20.5	388
3	-300000	22.5	20.2	383
3	-310000	22.3	20	379
3	-320000	22.4	20.2	382
3	-330000	22	19.7	373
3	-340000	21.8	19.5	369
3	-350000	21.7	19.5	368
3	-360000	21.9	19.7	372
3	-370000	21.5	19.3	365
3	-380000	21.5	19.3	364
3	-390000	20.6	18.4	347
3	-400000	20.6	18.3	347
3	0	18.8	19.8	374
3	10000	17.4	18.4	347
3	20000	17.5	18.5	350
3	30000	18.3	19.3	365
3	40000	18.4	19.4	367
3	50000	18.4	19.4	366
3	60000	17.5	18.5	349
3	70000	16.6	17.5	331
3	80000	17.3	18.2	345
3	90000	17.5	18.5	349
3	100000	15.8	16.7	316
3	110000	16.6	17.5	330
3	120000	17.7	18.6	352
3	130000	18.6	19.6	371
3	140000	17.9	18.9	357
3	150000	19	20	378
3	160000	18.7	19.7	373
3	170000	19.3	20.3	384
3	180000	18.5	19.5	369
3	190000	18.7	19.7	373
3	200000	19.1	20.1	380
3	210000	19.4	20.4	386
3	220000	19.5	20.6	389
3	230000	19.6	20.7	391
3	240000	19.2	20.2	382
3	250000	19.2	20.2	382
3	260000	18.7	19.7	372
3	270000	18.6	19.6	371
3	280000	17.9	18.9	357
3	290000	16.4	17.3	326
3	300000	16.4	17.3	327
3	310000	17.1	18	340
3	320000	17.7	18.7	353
3	330000	17.8	18.8	355
3	340000	17.6	18.5	351
3	350000	16.5	17.4	329
3	360000	14.6	15.4	292
3	370000	13.4	14.2	268
3	380000	12.8	13.5	255
3	390000	12.4	13	246
3	400000	11.9	12.5	237
4	0	13.9	11.6	220
4	-10000	19.8	17.5	331
4	-20000	22	19.7	373
4	-30000	23.3	21.1	398
4	-40000	23.7	21.4	405
4	-50000	23.7	21.5	406
4	-60000	23.4	21.2	400
4	-70000	22.7	20.4	386
4	-80000	22.6	20.3	384
4	-90000	23.2	21	396
4	-100000	23.9	21.6	408
4	-110000	23.6	21.4	404
4	-120000	23.4	21.1	400
4	-130000	23.5	21.2	402
4	-140000	22.9	20.7	391
4	-150000	22.6	20.4	385
4	-160000	22.3	20	378
4	-170000	21.3	19.1	360
4	-180000	21.4	19.1	361
4	-190000	21.1	18.9	357
4	-200000	20.6	18.3	347
4	-210000	21.2	18.9	358
4	-220000	22.2	19.9	377
4	-230000	21.9	19.6	371
4	-240000	21.5	19.2	363
4	-250000	21.6	19.3	366
4	-260000	21.6	19.4	366
4	-270000	20.7	18.4	348
4	-280000	20.3	18	340
4	-290000	20.4	18.2	344
4	-300000	20.2	17.9	339
4	-310000	19.5	17.2	326
4	-320000	20	17.8	336
4	-330000	19.6	17.4	328
4	-340000	18.9	16.6	315
4	-350000	19.5	17.2	326
4	-360000	20.1	17.8	337
4	-370000	19.6	17.3	328
4	-380000	18.8	16.6	313
4	-390000	18.9	16.7	315
4	-400000	19.2	16.9	320
4	0	17.2	18.2	343
4	10000	14.9	15.7	297
4	20000	15.2	16	303
4	30000	14.4	15.2	286
4	40000	14.9	15.7	297
4	50000	14.5	15.3	289
4	60000	14.9	15.7	297
4	70000	15.1	15.9	301
4	80000	16.4	17.2	326
4	90000	16.5	17.4	329
4	100000	15.7	16.5	312
4	110000	16.7	17.6	332
4	120000	16.3	17.2	325
4	130000	15.8	16.6	315
4	140000	16.1	17	321
4	150000	16.6	17.5	331
4	160000	15.6	16.4	310
4	170000	15.6	16.5	312
4	180000	16.3	17.1	324
4	190000	17.1	18	340
4	200000	17.4	18.4	347
4	210000	17.3	18.3	346
4	220000	17.3	18.2	344
4	230000	17.5	18.4	348
4	240000	17.4	18.4	347
4	250000	17.3	18.2	344
4	260000	16.8	17.7	334
4	270000	17	17.9	339
4	280000	16.5	17.4	328
4	290000	15.9	16.7	316
4	300000	15.5	16.3	309
4	310000	15.6	16.4	310
4	320000	14.8	15.6	294
4	330000	14.6	15.4	291
4	340000	14.7	15.5	292
4	350000	14.3	15.1	286
4	360000	13.9	14.6	277
4	370000	13.5	14.2	269
4	380000	13.9	14.6	276
4	390000	13.6	14.4	272
4	400000	13.4	14.1	267
5	0	15.3	13.1	247
5	-10000	16.3	14.1	266
5	-20000	17.9	15.6	295
5	-30000	19.2	17	321
5	-40000	19.9	17.7	334
5	-50000	20.5	18.2	345
5	-60000	20.7	18.5	349
5	-70000	20.9	18.6	352
5	-80000	20.5	18.3	345
5	-90000	19.5	17.2	325
5	-100000	19.5	17.3	326
5	-110000	19.7	17.4	329
5	-120000	19.2	16.9	319
5	-130000	18.7	16.4	310
5	-140000	19.1	16.9	319
5	-150000	19.6	17.3	328
5	-160000	19.7	17.4	329
5	-170000	19.8	17.6	332
5	-180000	20	17.7	335
5	-190000	19.9	17.6	333
5	-200000	19.1	16.9	319
5	-210000	19.3	17	321
5	-220000	20	17.7	335
5	-230000	20.2	18	339
5	-240000	20.6	18.4	347
5	-250000	21.3	19.1	360
5	-260000	21.2	18.9	358
5	-270000	20.2	17.9	339
5	-280000	20.6	18.4	347
5	-290000	20.4	18.1	342
5	-300000	20	17.8	336
5	-310000	18.9	16.6	315
5	-320000	19.2	17	321
5	-330000	18.2	16	302
5	-340000	18	15.7	297
5	-350000	17.3	15	284
5	-360000	17.4	15.2	287
5	-370000	16.8	14.6	275
5	-380000	16.4	14.1	267
5	-390000	16	13.7	259
5	-400000	14.8	12.5	236
5	0	12.6	13.2	250
5	10000	10.7	11.2	213
5	20000	10.6	11.1	210
5	30000	11.5	12.1	229
5	40000	11.8	12.4	235
5	50000	11.5	12.1	229
5	60000	12.1	12.8	242
5	70000	11.5	12.1	229
5	80000	11.3	11.9	225
5	90000	10.5	11	209
5	100000	11	11.6	218
5	110000	11.6	12.2	230
5	120000	12.2	12.9	244
5	130000	11.6	12.2	231
5	140000	11.9	12.6	238
5	150000	12.7	13.4	253
5	160000	12.6	13.3	252
5	170000	12.9	13.6	257
5	180000	13	13.7	260
5	190000	13.8	14.5	275
5	200000	14.1	14.9	281
5	210000	14.1	14.9	281
5	220000	13.5	14.2	268
5	230000	13.6	14.3	271
5	240000	12.1	12.8	242
5	250000	11.5	12.1	229
5	260000	12.1	12.8	242
5	270000	13.4	14.1	267
5	280000	13.3	14	264
5	290000	12	12.6	238
5	300000	10.4	11	208
5	310000	10.6	11.2	211
5	320000	9.91	10.4	197
5	330000	8.31	8.76	166
5	340000	7.99	8.42	159
5	350000	8.03	8.46	160
5	360000	7.4	7.8	147
5	370000	7.23	7.63	144
5	380000	6.83	7.2	136
5	390000	6.08	6.41	121
5	400000	6.88	7.26	137
6	0	9.21	6.95	131
6	-10000	16.2	14	264
6	-20000	17.9	15.6	295
6	-30000	18.8	16.5	313
6	-40000	19.3	17	321
6	-50000	18.9	16.6	314
6	-60000	18.8	16.5	313
6	-70000	19.5	17.3	327
6	-80000	20.2	17.9	339
6	-90000	20.9	18.7	353
6	-100000	20.2	18	340
6	-110000	20.4	18.1	342
6	-120000	19.9	17.7	334
6	-130000	19	16.7	316
6	-140000	17.8	15.6	294
6	-150000	18.9	16.6	314
6	-160000	19.1	16.8	318
6	-170000	18.6	16.4	309
6	-180000	18.6	16.3	308
6	-190000	18.1	15.8	299
6	-200000	17.7	15.4	291
6	-210000	17.2	14.9	282
6	-220000	16.6	14.3	270
6	-230000	15.7	13.5	255
6	-240000	15.4	13.2	249
6	-250000	15.7	13.4	254
6	-260000	14.4	12.1	229
6	-270000	11.2	8.93	169
6	-280000	12.1	9.84	186
6	-290000	11.7	9.44	178
6	-300000	11.2	8.97	170
6	-310000	10.2	7.92	150
6	-320000	10.3	7.99	151
6	-330000	10.1	7.83	148
6	-340000	9.45	7.19	136
6	-350000	9.36	7.1	134
6	-360000	9.35	7.09	134
6	-370000	7.99	5.73	108
6	-380000	7.03	4.77	90.2
6	-390000	6.29	4.03	76.1
6	-400000	5.21	2.98	56.4
