rep_num	position	torque	torque_compensated	lbs_compensated
1	0	3.52	3.8	71.8
1	10000	6.28	6.62	125
1	20000	7.22	7.61	144
1	30000	7.63	8.04	152
1	40000	8.31	8.76	166
1	50000	9.57	10.1	191
1	60000	10.1	10.6	201
1	70000	10.6	11.2	211
1	80000	11.3	11.9	225
1	90000	11.9	12.5	237
1	100000	11.5	12.1	229
1	110000	12	12.7	239
1	120000	13	13.7	260
1	130000	12.9	13.6	257
1	140000	13.2	13.9	263
1	150000	13.5	14.2	268
1	160000	14.7	15.5	293
1	170000	14	14.8	279
1	180000	14.2	14.9	282
1	190000	14.4	15.2	287
1	200000	14.8	15.6	295
1	210000	15.4	16.2	306
1	220000	15.8	16.6	314
1	230000	16.3	17.2	324
1	240000	16.8	17.7	335
1	250000	17.4	18.4	347
1	260000	17.1	18	340
1	270000	17.1	18.1	342
1	280000	17.8	18.7	354
1	290000	17.8	18.8	355
1	300000	18.3	19.3	365
1	310000	18.1	19	360
1	320000	18.5	19.5	369
1	330000	18.8	19.8	374
1	340000	18.4	19.4	366
1	350000	17.8	18.7	354
1	360000	17.9	18.9	357
1	370000	18.5	19.5	368
1	380000	18.4	19.4	367
1	390000	18.8	19.8	374
1	400000	18.8	19.8	374
2	0	20.9	18.6	351
2	-10000	22.3	20	378
2	-20000	22	19.8	374
2	-30000	22.4	20.1	381
2	-40000	23.3	21.1	398
2	-50000	23.4	21.1	399
2	-60000	24	21.8	411
2	-70000	24.3	22.1	417
2	-80000	24.7	22.5	424
2	-90000	23.9	21.7	410
2	-100000	23.2	21	396
2	-110000	23	20.7	392
2	-120000	23.1	20.8	394
2	-130000	22.4	20.1	381
2	-140000	22	19.7	373
2	-150000	21.6	19.4	366
2	-160000	21.3	19.1	360
2	-170000	21.8	19.5	369
2	-180000	21.6	19.4	366
2	-190000	21	18.8	355
2	-200000	20.4	18.2	344
2	-210000	19.8	17.6	332
2	-220000	19.9	17.6	333
2	-230000	20	17.7	335
2	-240000	20	17.7	335
2	-250000	20.2	17.9	339
2	-260000	19.4	17.1	324
2	-270000	19.2	16.9	320
2	-280000	19.7	17.4	329
2	-290000	19.2	16.9	320
2	-300000	18.3	16.1	304
2	-310000	18	15.7	297
2	-320000	18.6	16.3	308
2	-330000	17.6	15.3	290
2	-340000	17.5	15.2	287
2	-350000	17.7	15.5	292
2	-360000	18.3	16	303
2	-370000	17.8	15.6	294
2	-380000	17.1	14.8	280
2	-390000	17	14.7	278
2	-400000	17.8	15.5	293
2	0	16.3	17.2	325
2	10000	16.6	17.5	331
2	20000	17	17.9	338
2	30000	16.2	17	322
2	40000	16	16.9	319
2	50000	15.9	16.8	318
2	60000	14.9	15.7	297
2	70000	14.5	15.2	288
2	80000	14.5	15.3	289
2	90000	14.3	15.1	285
2	100000	14.3	15.1	285
2	110000	14.3	15.1	285
2	120000	15.2	16	302
2	130000	14.5	15.3	289
2	140000	14.8	15.6	295
2	150000	15.9	16.8	317
2	160000	15.4	16.3	307
2	170000	15.2	16	303
2	180000	15.5	16.3	308
2	190000	16.2	17.1	323
2	200000	17.1	18	341
2	210000	17.7	18.7	353
2	220000	17.3	18.3	345
2	230000	16.7	17.6	333
2	240000	17	18	340
2	250000	17.9	18.9	357
2	260000	18.4	19.4	366
2	270000	19	20	379
2	280000	19.4	20.4	386
2	290000	19.1	20.2	381
2	300000	19	20.1	379
2	310000	19	20.1	379
2	320000	19.1	20.1	381
2	330000	18.7	19.7	372
2	340000	17.9	18.8	356
2	350000	17.2	18.2	344
2	360000	17.9	18.9	356
2	370000	18.3	19.3	366
2	380000	18.8	19.8	375
2	390000	20	21.1	399
2	400000	21.3	22.4	424
3	0	23.6	21.4	404
3	-10000	24.6	22.3	422
3	-20000	23.6	21.3	403
3	-30000	23.7	21.4	405
3	-40000	24.4	22.1	418
3	-50000	25	22.7	429
3	-60000	25.2	22.9	434
3	-70000	25	22.7	429
3	-80000	24.9	22.6	427
3	-90000	24.8	22.6	427
3	-100000	24.3	22.1	417
3	-110000	24.3	22	416
3	-120000	24.8	22.5	426
3	-130000	24.9	22.7	429
3	-140000	25.6	23.3	440
3	-150000	26.2	23.9	452
3	-160000	26	23.7	449
3	-170000	26.4	24.2	457
3	-180000	25.8	23.5	445
3	-190000	26.5	24.3	459
3	-200000	25.7	23.4	443
3	-210000	25.5	23.2	439
3	-220000	24.6	22.3	422
3	-230000	24.1	21.9	413
3	-240000	23.8	21.5	406
3	-250000	23.8	21.5	407
3	-260000	23.2	20.9	395
3	-270000	23.2	21	396
3	-280000	23.2	20.9	395
3	-290000	22.8	20.5	388
3	-300000	21.8	19.5	369
3	-310000	21.4	19.1	361
3	-320000	21.2	19	358
3	-330000	21.5	19.2	363
3	-340000	20.6	18.3	347
3	-350000	21.1	18.9	357
3	-360000	20.9	18.6	351
3	-370000	20.7	18.5	349
3	-380000	20.4	18.1	342
3	-390000	20.6	18.4	348
3	-400000	20.5	18.2	344
3	0	18.5	19.5	368
3	10000	16.6	17.4	330
3	20000	16.2	17.1	323
3	30000	15.8	16.7	315
3	40000	16.1	17	321
3	50000	16.2	17.1	323
3	60000	15.4	16.3	308
3	70000	15.2	16	303
3	80000	15.6	16.4	310
3	90000	15.5	16.4	310
3	100000	14.8	15.6	295
3	110000	15.1	16	302
3	120000	15.9	16.8	317
3	130000	15.9	16.8	317
3	140000	15.2	16	303
3	150000	14.8	15.6	295
3	160000	14.8	15.6	294
3	170000	15	15.8	299
3	180000	14.9	15.7	297
3	190000	14.5	15.3	289
3	200000	14.7	15.5	293
3	210000	15	15.8	298
3	220000	14.5	15.3	289
3	230000	15.1	15.9	301
3	240000	16.3	17.2	325
3	250000	16.9	17.8	336
3	260000	17.2	18.2	344
3	270000	17.5	18.5	349
3	280000	18.2	19.2	363
3	290000	18.5	19.5	369
3	300000	18.6	19.6	370
3	310000	17.9	18.8	356
3	320000	17.7	18.7	353
3	330000	17.5	18.5	349
3	340000	16.8	17.7	335
3	350000	16.4	17.3	327
3	360000	16.8	17.7	334
3	370000	16.5	17.4	329
3	380000	16.3	17.2	324
3	390000	16.8	17.7	335
3	400000	17.7	18.6	352
4	0	19.1	16.8	318
4	-10000	19.4	17.2	325
4	-20000	19.4	17.1	324
4	-30000	19.8	17.6	332
4	-40000	21.3	19	360
4	-50000	21.6	19.3	366
4	-60000	22	19.7	373
4	-70000	22.1	19.9	376
4	-80000	21.7	19.5	368
4	-90000	21.5	19.3	364
4	-100000	21.1	18.8	356
4	-110000	20.8	18.5	350
4	-120000	20.5	18.3	345
4	-130000	20.1	17.9	338
4	-140000	19.8	17.6	332
4	-150000	20.2	18	339
4	-160000	20.7	18.5	349
4	-170000	20.8	18.6	351
4	-180000	20.8	18.5	350
4	-190000	20.9	18.7	353
4	-200000	20.6	18.4	347
4	-210000	20.3	18.1	342
4	-220000	20.8	18.6	351
4	-230000	20.8	18.5	350
4	-240000	20.8	18.5	350
4	-250000	21.1	18.9	356
4	-260000	20.9	18.7	353
4	-270000	21.5	19.3	364
4	-280000	22.3	20	379
4	-290000	21.7	19.4	367
4	-300000	20.1	17.8	337
4	-310000	19.9	17.6	333
4	-320000	20.4	18.1	342
4	-330000	19	16.7	316
4	-340000	18.2	15.9	301
4	-350000	18.5	16.2	307
4	-360000	19.1	16.8	318
4	-370000	19.2	16.9	320
4	-380000	18.9	16.6	314
4	-390000	18.8	16.6	313
4	-400000	18.2	16	302
4	0	16	16.8	318
4	10000	13.9	14.7	277
4	20000	14.3	15.1	285
4	30000	12.9	13.5	256
4	40000	13.5	14.3	270
4	50000	13.5	14.2	269
4	60000	12.9	13.6	257
4	70000	12.1	12.7	240
4	80000	13	13.7	258
4	90000	12.9	13.6	258
4	100000	12.3	12.9	244
4	110000	12.9	13.6	256
4	120000	13.1	13.8	261
4	130000	12.4	13.1	247
4	140000	11.9	12.5	237
4	150000	12.6	13.2	250
4	160000	12.7	13.3	252
4	170000	12.7	13.4	253
4	180000	12.7	13.3	252
4	190000	12.5	13.2	249
4	200000	12.4	13.1	248
4	210000	12.8	13.5	255
4	220000	13	13.7	259
4	230000	13.6	14.3	271
4	240000	14.5	15.3	289
4	250000	14.9	15.7	297
4	260000	14.7	15.5	293
4	270000	15	15.8	299
4	280000	16.1	17	321
4	290000	15.2	16	303
4	300000	14.9	15.7	296
4	310000	15.9	16.7	316
4	320000	17	17.9	339
4	330000	17.2	18.1	342
4	340000	17.2	18.1	343
4	350000	16.6	17.5	331
4	360000	17.2	18.1	342
4	370000	17.5	18.4	349
4	380000	17.1	18	340
4	390000	17.4	18.4	347
4	400000	18.2	19.1	362
5	0	19.9	17.7	334
5	-10000	20.7	18.4	348
5	-20000	20.5	18.2	344
5	-30000	21	18.7	354
5	-40000	22.1	19.8	375
5	-50000	22.4	20.1	381
5	-60000	22.5	20.2	382
5	-70000	22.3	20	379
5	-80000	22.6	20.3	384
5	-90000	22.5	20.3	383
5	-100000	22.5	20.3	383
5	-110000	22.6	20.3	384
5	-120000	22.4	20.1	380
5	-130000	21.6	19.3	365
5	-140000	21	18.7	354
5	-150000	21.7	19.4	367
5	-160000	22.3	20	379
5	-170000	22.2	20	377
5	-180000	20.6	18.4	347
5	-190000	20.2	18	340
5	-200000	19.7	17.5	330
5	-210000	19.1	16.9	319
5	-220000	19.2	16.9	320
5	-230000	18.4	16.2	305
5	-240000	17.8	15.5	293
5	-250000	18	15.7	297
5	-260000	17.2	14.9	281
5	-270000	17.1	14.9	281
5	-280000	17.3	15	283
5	-290000	17.4	15.2	286
5	-300000	16.2	13.9	263
5	-310000	15.6	13.3	252
5	-320000	15.6	13.3	252
5	-330000	15.5	13.2	250
5	-340000	15.2	12.9	244
5	-350000	15.2	12.9	244
5	-360000	15.3	13	246
5	-370000	14.6	12.4	234
5	-380000	14	11.8	223
5	-390000	13.6	11.3	214
5	-400000	13.6	11.3	214
5	0	11.7	12.3	233
5	10000	9.97	10.5	199
5	20000	9.54	10.1	190
5	30000	10.2	10.7	202
5	40000	10.5	11.1	210
5	50000	10.3	10.9	206
5	60000	10.1	10.6	201
5	70000	9.78	10.3	195
5	80000	9.18	9.68	183
5	90000	9.7	10.2	193
5	100000	8.86	9.33	176
5	110000	9.04	9.53	180
5	120000	10.6	11.2	212
5	130000	10.1	10.6	201
5	140000	9.65	10.2	192
5	150000	9.41	9.92	188
5	160000	9.66	10.2	193
5	170000	9.46	9.97	188
5	180000	9.36	9.86	186
5	190000	9.12	9.61	182
5	200000	9.66	10.2	193
5	210000	9.87	10.4	197
5	220000	9.23	9.72	184
5	230000	9.39	9.89	187
5	240000	9.55	10.1	190
5	250000	9.65	10.2	192
5	260000	8.75	9.22	174
5	270000	8.14	8.58	162
5	280000	8.52	8.98	170
5	290000	8.73	9.2	174
5	300000	9.07	9.56	181
5	310000	9.49	10	189
5	320000	9.72	10.2	194
5	330000	9.53	10	190
5	340000	9.31	9.82	186
5	350000	9.23	9.73	184
5	360000	10	10.6	200
5	370000	10.7	11.3	213
5	380000	10.7	11.2	213
5	390000	11.9	12.6	238
5	400000	13.1	13.8	261
6	0	15.1	12.9	243
6	-10000	17.4	15.1	286
6	-20000	17.3	15	284
6	-30000	17.6	15.4	290
6	-40000	17.6	15.3	289
6	-50000	16.8	14.5	275
6	-60000	15.5	13.2	250
6	-70000	15.3	13	247
6	-80000	15.7	13.5	255
6	-90000	14.9	12.6	238
6	-100000	14	11.8	222
6	-110000	12.6	10.4	196
6	-120000	12.9	10.6	201
6	-130000	13.3	11.1	209
6	-140000	10.9	8.64	163
6	-150000	11.7	9.43	178
6	-160000	11.3	8.99	170
6	-170000	11	8.69	164
6	-180000	11.6	9.35	177
6	-190000	12.3	10.1	190
6	-200000	13.2	11	208
6	-210000	13.9	11.6	219
6	-220000	13.9	11.7	221
6	-230000	14.1	11.9	225
6	-240000	13.2	10.9	206
6	-250000	13.7	11.5	217
6	-260000	13	10.8	203
6	-270000	12.2	9.98	189
6	-280000	12.5	10.2	193
6	-290000	12.2	9.92	188
6	-300000	11.4	9.13	173
6	-310000	11.1	8.82	167
6	-320000	11.3	9	170
6	-330000	10.9	8.65	164
6	-340000	10.7	8.44	159
6	-350000	10.8	8.54	161
6	-360000	10.8	8.52	161
6	-370000	9.63	7.37	139
6	-380000	9.28	7.02	133
6	-390000	7.72	5.46	103
6	-400000	6.11	3.85	72.8
