rep_num	position	torque	torque_compensated	lbs_compensated
1	0	6.99	7.37	139
1	10000	8.9	9.38	177
1	20000	11.7	12.3	233
1	30000	10.7	11.3	214
1	40000	11.1	11.7	221
1	50000	12.2	12.8	242
1	60000	11.5	12.1	229
1	70000	7.91	8.34	158
1	80000	5.78	6.09	115
1	90000	6.86	7.23	137
1	100000	10.6	11.1	211
1	110000	12.3	13	245
1	120000	12	12.7	240
1	130000	13.5	14.3	270
1	140000	13.7	14.5	273
1	150000	14	14.7	278
1	160000	13.2	14	264
1	170000	14.6	15.4	291
1	180000	16.2	17.1	323
1	190000	15.9	16.7	317
1	200000	16.2	17.1	323
1	210000	16.8	17.7	335
1	220000	17.3	18.2	344
1	230000	17	17.9	339
1	240000	15.7	16.6	313
1	250000	16.5	17.4	328
1	260000	16.6	17.5	330
1	270000	16.9	17.9	338
1	280000	16.1	16.9	320
1	290000	16.2	17.1	324
2	0	17.5	15.3	288
2	-10000	16.9	14.6	276
2	-20000	17.5	15.3	288
2	-30000	19.8	17.6	332
2	-40000	19.8	17.6	332
2	-50000	19.5	17.2	325
2	-60000	19.5	17.2	325
2	-70000	20.1	17.8	337
2	-80000	20.3	18	340
2	-90000	20.4	18.1	343
2	-100000	19.9	17.7	334
2	-110000	19.5	17.3	326
2	-120000	19.1	16.9	319
2	-130000	18.7	16.4	310
2	-140000	19	16.7	316
2	-150000	18.1	15.8	299
2	-160000	16.1	13.9	262
2	-170000	16.2	14	264
2	-180000	17.5	15.2	288
2	-190000	18.5	16.2	306
2	-200000	17.5	15.2	288
2	-210000	17.6	15.3	290
2	-220000	18.1	15.8	299
2	-230000	17.7	15.5	292
2	-240000	16.3	14.1	266
2	-250000	16.2	13.9	263
2	-260000	16.4	14.1	267
2	-270000	14.8	12.5	236
2	-280000	13	10.7	203
2	-290000	10.1	7.84	148
2	0	7.45	7.85	148
2	10000	1.71	2	37.7
2	20000	1.83	2.11	39.9
2	30000	1.12	1.4	26.5
2	40000	0.605	0.891	16.8
2	50000	1.11	1.39	26.4
2	60000	2.74	3.03	57.2
2	70000	4.84	5.12	96.9
2	80000	7.77	8.19	155
2	90000	10.4	11	208
2	100000	12	12.6	239
2	110000	12.7	13.4	253
2	120000	15.2	16	303
2	130000	16.2	17	322
2	140000	17.7	18.7	353
2	150000	17.7	18.7	353
2	160000	17.4	18.4	347
2	170000	17.8	18.8	355
2	180000	19.2	20.2	382
2	190000	19.3	20.3	384
2	200000	19.9	20.9	396
2	210000	20.4	21.5	406
2	220000	21	22.1	418
2	230000	19.7	20.8	393
2	240000	18.9	20	377
2	250000	20	21.1	398
2	260000	19.8	20.9	394
2	270000	19.7	20.8	393
2	280000	18.1	19.1	361
2	290000	16.5	17.4	330
3	0	16.9	14.6	276
3	-10000	16.4	14.1	267
3	-20000	15.6	13.4	253
3	-30000	15.2	12.9	244
3	-40000	16.7	14.4	272
3	-50000	20.4	18.1	343
3	-60000	22.6	20.3	384
3	-70000	21.8	19.5	368
3	-80000	20.4	18.2	343
3	-90000	20	17.7	335
3	-100000	19.2	16.9	319
3	-110000	19.2	17	321
3	-120000	18.6	16.3	309
3	-130000	17.7	15.4	292
3	-140000	17.4	15.1	286
3	-150000	17	14.7	278
3	-160000	16	13.7	259
3	-170000	15	12.8	241
3	-180000	15	12.8	241
3	-190000	14.6	12.3	233
3	-200000	13.6	11.3	214
3	-210000	12.8	10.5	198
3	-220000	13.1	10.9	205
3	-230000	13.5	11.3	213
3	-240000	11.6	9.3	176
3	-250000	13.6	11.4	215
3	-260000	14.3	12.1	228
3	-270000	13.6	11.3	214
3	-280000	10.8	8.52	161
3	-290000	9.01	6.75	127
3	0	7.83	8.26	156
3	10000	8.72	9.19	174
3	20000	11.8	12.4	235
3	30000	11.1	11.7	221
3	40000	11	11.6	219
3	50000	12	12.6	239
3	60000	13.3	14	265
3	70000	12.1	12.7	240
3	80000	11.5	12.1	229
3	90000	12.7	13.4	253
3	100000	14.1	14.9	282
3	110000	13.8	14.6	276
3	120000	14.5	15.3	289
3	130000	15.6	16.4	310
3	140000	15.8	16.7	315
3	150000	16	16.8	318
3	160000	15.6	16.4	311
3	170000	16.2	17.1	324
3	180000	16.7	17.6	333
3	190000	14.6	15.4	291
3	200000	13.8	14.6	275
3	210000	14	14.8	279
3	220000	15.1	16	302
3	230000	15.3	16.1	304
3	240000	15.1	15.9	301
3	250000	16.7	17.6	332
3	260000	15.2	16	303
3	270000	13.9	14.7	278
3	280000	12.5	13.2	249
3	290000	11.4	12	227
4	0	11.8	9.56	181
4	-10000	14	11.7	222
4	-20000	15	12.7	240
4	-30000	16.4	14.1	267
4	-40000	15.6	13.3	252
4	-50000	15.4	13.1	248
4	-60000	15.8	13.6	256
4	-70000	15.4	13.1	248
4	-80000	14.7	12.4	235
4	-90000	14.9	12.7	240
4	-100000	15.2	13	245
4	-110000	14.3	12.1	228
4	-120000	14	11.8	222
4	-130000	13.7	11.4	216
4	-140000	14.4	12.1	230
4	-150000	14.7	12.4	234
4	-160000	13.1	10.9	205
4	-170000	12.6	10.4	196
4	-180000	12.9	10.6	201
4	-190000	13.1	10.9	205
4	-200000	10.9	8.63	163
4	-210000	11.1	8.82	167
4	-220000	11.7	9.39	178
4	-230000	10.6	8.39	158
4	-240000	9.74	7.48	141
4	-250000	9.76	7.5	142
4	-260000	9.33	7.07	134
4	-270000	8.07	5.81	110
4	-280000	7.7	5.44	103
4	-290000	7.89	5.63	106
4	0	7.44	7.84	148
4	10000	9.8	10.3	195
4	20000	11.5	12.1	228
4	30000	12.8	13.5	254
4	40000	10.8	11.4	215
4	50000	12	12.6	239
4	60000	12.4	13	246
4	70000	12.4	13.1	248
4	80000	12.5	13.2	249
4	90000	11.8	12.4	235
4	100000	11.9	12.5	237
4	110000	11.6	12.3	232
4	120000	11.2	11.8	224
4	130000	11.5	12.2	230
4	140000	12.6	13.3	251
4	150000	12.2	12.9	243
4	160000	11.4	12	227
4	170000	11.4	12.1	228
4	180000	11.9	12.5	237
4	190000	11.5	12.2	230
4	200000	12.3	12.9	244
4	210000	13.2	13.9	263
4	220000	14.1	14.9	281
4	230000	13.1	13.8	260
4	240000	11.9	12.5	236
4	250000	11.9	12.6	238
4	260000	12.4	13.1	248
4	270000	13.3	14	265
4	280000	11.6	12.2	231
4	290000	10.5	11.1	210
5	0	10.7	8.4	159
5	-10000	12.5	10.2	194
5	-20000	12.6	10.4	196
5	-30000	12.9	10.6	201
5	-40000	13.2	11	207
5	-50000	15.3	13.1	247
5	-60000	16.9	14.7	277
5	-70000	18	15.7	297
5	-80000	16.9	14.7	278
5	-90000	16.4	14.2	268
5	-100000	15.8	13.6	257
5	-110000	15.1	12.9	243
5	-120000	15.1	12.8	243
5	-130000	14.2	12	226
5	-140000	14.4	12.1	229
5	-150000	15.3	13	246
5	-160000	14.9	12.6	238
5	-170000	14.9	12.7	240
5	-180000	15.5	13.2	250
5	-190000	14.8	12.5	237
5	-200000	13.8	11.6	219
5	-210000	13.3	11	208
5	-220000	13.3	11	208
5	-230000	13.8	11.5	218
5	-240000	12	9.78	185
5	-250000	11.8	9.55	180
5	-260000	12.3	10	190
5	-270000	11.2	8.94	169
5	-280000	10.7	8.44	160
5	-290000	11	8.79	166
5	0	9.84	10.4	196
5	10000	10.8	11.4	215
5	20000	12.1	12.7	241
5	30000	11.2	11.8	223
5	40000	11.5	12.1	229
5	50000	13	13.7	259
5	60000	14	14.8	280
5	70000	13.7	14.4	273
5	80000	13.8	14.5	274
5	90000	14.7	15.5	293
5	100000	14.6	15.4	290
5	110000	14.4	15.2	288
5	120000	14.3	15	284
5	130000	14.1	14.9	281
5	140000	15.5	16.3	308
5	150000	15.2	16	303
5	160000	15.4	16.2	306
5	170000	15.2	16.1	304
5	180000	15	15.8	299
5	190000	13.6	14.4	271
5	200000	12.6	13.3	251
5	210000	12.3	13	245
5	220000	12.3	13	245
5	230000	12.2	12.9	244
5	240000	11.6	12.2	231
5	250000	12.1	12.8	242
5	260000	11.9	12.5	237
5	270000	11.6	12.2	231
5	280000	9.14	9.64	182
5	290000	8.49	8.95	169
6	0	9.16	6.9	130
6	-10000	13.1	10.9	206
6	-20000	13.2	10.9	206
6	-30000	13.2	11	208
6	-40000	14.1	11.8	223
6	-50000	14.7	12.4	235
6	-60000	16.7	14.5	274
6	-70000	16.8	14.6	276
6	-80000	14.9	12.7	239
6	-90000	13.4	11.1	211
6	-100000	13.5	11.2	212
6	-110000	14.5	12.2	231
6	-120000	13.5	11.2	212
6	-130000	12.3	10.1	191
6	-140000	13.8	11.5	217
6	-150000	13.6	11.4	215
6	-160000	12.9	10.6	201
6	-170000	11.8	9.54	180
6	-180000	11.2	8.93	169
6	-190000	11.5	9.2	174
6	-200000	9.46	7.2	136
6	-210000	9.42	7.16	135
6	-220000	11.6	9.33	176
6	-230000	10.8	8.52	161
6	-240000	9.95	7.69	145
6	-250000	8.9	6.64	126
6	-260000	9.22	6.96	131
6	-270000	7.87	5.61	106
6	-280000	6.85	4.59	86.7
6	-290000	6.28	4.02	76
