rep_num	position	torque	torque_compensated	lbs_compensated
1	0	3.51	3.79	71.7
1	10000	3.06	3.34	63.2
1	20000	5.01	5.3	100
1	30000	4.99	5.27	99.7
1	40000	5.87	6.18	117
1	50000	6.95	7.33	138
1	60000	7.99	8.43	159
1	70000	8.41	8.86	168
1	80000	8.5	8.96	169
1	90000	8.53	8.99	170
1	100000	8.63	9.09	172
1	110000	9.32	9.83	186
1	120000	9.56	10.1	191
1	130000	8.94	9.43	178
1	140000	9.47	9.98	189
1	150000	9.94	10.5	198
1	160000	9.75	10.3	194
1	170000	9.35	9.86	186
1	180000	9.82	10.3	196
1	190000	10.1	10.7	202
1	200000	11	11.6	218
1	210000	11.6	12.2	231
1	220000	12.7	13.4	253
1	230000	12.9	13.6	256
1	240000	13	13.7	259
1	250000	13.5	14.2	269
1	260000	13.9	14.6	277
1	270000	14.1	14.8	280
1	280000	14.3	15	284
1	290000	14.7	15.5	293
1	300000	15.5	16.3	308
1	310000	15.7	16.5	312
1	320000	15.8	16.6	314
1	330000	15.7	16.5	313
1	340000	15.7	16.5	312
1	350000	15	15.9	300
1	360000	15.3	16.2	305
1	370000	15.5	16.3	309
1	380000	15.8	16.6	314
1	390000	16.6	17.5	331
1	400000	17.1	18.1	341
2	0	19.7	17.5	330
2	-10000	19.4	17.1	324
2	-20000	19.5	17.2	325
2	-30000	19	16.7	316
2	-40000	19.4	17.1	324
2	-50000	19.8	17.5	331
2	-60000	19.8	17.6	332
2	-70000	19.7	17.4	330
2	-80000	19.6	17.3	328
2	-90000	19.8	17.5	331
2	-100000	19.7	17.4	329
2	-110000	19.1	16.8	318
2	-120000	18.3	16	303
2	-130000	17.8	15.5	294
2	-140000	17.9	15.7	296
2	-150000	18	15.7	297
2	-160000	17.8	15.6	295
2	-170000	17.6	15.4	291
2	-180000	17	14.7	279
2	-190000	16.7	14.4	273
2	-200000	17.5	15.2	287
2	-210000	18	15.7	297
2	-220000	18.4	16.1	305
2	-230000	18.4	16.1	304
2	-240000	18.1	15.9	300
2	-250000	16.9	14.6	276
2	-260000	16.6	14.3	270
2	-270000	15.5	13.3	251
2	-280000	15.1	12.9	243
2	-290000	14.8	12.5	237
2	-300000	14.6	12.3	233
2	-310000	14.3	12.1	228
2	-320000	14.4	12.2	230
2	-330000	15.5	13.2	250
2	-340000	15.2	12.9	244
2	-350000	14.5	12.3	232
2	-360000	15.5	13.2	250
2	-370000	16.8	14.5	274
2	-380000	16.4	14.1	267
2	-390000	15.4	13.1	248
2	-400000	14.6	12.3	233
2	0	13	13.7	260
2	10000	12.7	13.4	253
2	20000	13.1	13.8	260
2	30000	13	13.7	258
2	40000	13	13.7	260
2	50000	12.7	13.4	254
2	60000	12.9	13.6	256
2	70000	12.3	13	245
2	80000	13.4	14.1	266
2	90000	13.7	14.5	274
2	100000	14.1	14.9	281
2	110000	13.7	14.4	272
2	120000	14.4	15.2	287
2	130000	14.6	15.4	292
2	140000	14.3	15.1	285
2	150000	15	15.8	299
2	160000	14.8	15.6	296
2	170000	14.9	15.7	298
2	180000	15.7	16.5	313
2	190000	15.6	16.5	311
2	200000	15.5	16.3	309
2	210000	14.8	15.6	295
2	220000	15.2	16	303
2	230000	15.2	16.1	303
2	240000	15	15.8	299
2	250000	15.2	16	303
2	260000	15.8	16.6	314
2	270000	15.6	16.5	311
2	280000	14.3	15.1	286
2	290000	14.3	15	284
2	300000	14.8	15.6	295
2	310000	13.8	14.6	275
2	320000	13.9	14.6	276
2	330000	14	14.8	279
2	340000	14.1	14.8	281
2	350000	14.6	15.3	290
2	360000	15	15.8	300
2	370000	14.8	15.6	294
2	380000	12.9	13.6	257
2	390000	11.7	12.3	233
2	400000	11.6	12.2	231
3	0	13.2	11	207
3	-10000	15.8	13.6	256
3	-20000	16.1	13.8	261
3	-30000	16.1	13.8	261
3	-40000	16.1	13.9	262
3	-50000	16.7	14.4	272
3	-60000	17.4	15.1	285
3	-70000	17.8	15.6	294
3	-80000	18.5	16.2	306
3	-90000	18.9	16.6	314
3	-100000	18.9	16.6	314
3	-110000	18.6	16.3	308
3	-120000	17.9	15.6	296
3	-130000	17.6	15.3	290
3	-140000	17.8	15.5	293
3	-150000	18.1	15.9	300
3	-160000	19.1	16.9	319
3	-170000	20.3	18.1	341
3	-180000	21.2	18.9	357
3	-190000	21.3	19	359
3	-200000	21.4	19.1	362
3	-210000	21.6	19.3	365
3	-220000	21.3	19	359
3	-230000	20.5	18.2	345
3	-240000	19.8	17.5	331
3	-250000	19.2	16.9	320
3	-260000	19.3	17	321
3	-270000	18.8	16.5	312
3	-280000	18.3	16	302
3	-290000	17.4	15.1	286
3	-300000	17.1	14.8	280
3	-310000	16.6	14.3	270
3	-320000	15.6	13.3	251
3	-330000	15.5	13.3	251
3	-340000	16.1	13.8	261
3	-350000	16.3	14	265
3	-360000	16.3	14	265
3	-370000	16.4	14.1	266
3	-380000	16.1	13.9	262
3	-390000	15.2	12.9	245
3	-400000	13.6	11.3	214
3	0	12	12.7	240
3	10000	11.2	11.8	223
3	20000	12.2	12.9	243
3	30000	12.4	13.1	248
3	40000	13.8	14.6	275
3	50000	14.5	15.2	288
3	60000	14.2	15	283
3	70000	13.8	14.5	274
3	80000	13.1	13.8	261
3	90000	13.6	14.3	270
3	100000	13.4	14.1	267
3	110000	12.8	13.5	255
3	120000	11.8	12.4	234
3	130000	12.2	12.9	243
3	140000	13	13.7	260
3	150000	13.1	13.8	260
3	160000	12	12.6	238
3	170000	10.9	11.5	217
3	180000	11.1	11.7	221
3	190000	11.6	12.2	231
3	200000	11.1	11.7	221
3	210000	11.7	12.3	232
3	220000	12.2	12.9	243
3	230000	12.3	13	245
3	240000	13.3	14	264
3	250000	14.3	15.1	285
3	260000	15.2	16	303
3	270000	16	16.9	320
3	280000	16.3	17.1	324
3	290000	16.5	17.4	328
3	300000	16.6	17.5	330
3	310000	16.2	17.1	322
3	320000	16	16.9	319
3	330000	16	16.9	319
3	340000	16	16.8	318
3	350000	15.4	16.3	307
3	360000	15.2	16	303
3	370000	15.6	16.5	312
3	380000	15.8	16.7	316
3	390000	16.4	17.3	327
3	400000	16.8	17.7	335
4	0	19.4	17.1	324
4	-10000	19.4	17.2	325
4	-20000	19.7	17.4	329
4	-30000	18.9	16.7	315
4	-40000	18.9	16.7	315
4	-50000	19.7	17.5	330
4	-60000	20.5	18.2	345
4	-70000	20.2	17.9	339
4	-80000	19.5	17.3	326
4	-90000	19.5	17.2	326
4	-100000	19.8	17.5	331
4	-110000	19.8	17.5	331
4	-120000	18.7	16.5	311
4	-130000	18.5	16.2	306
4	-140000	18.9	16.6	314
4	-150000	18.9	16.7	315
4	-160000	18.9	16.6	314
4	-170000	19.1	16.9	319
4	-180000	19.3	17.1	323
4	-190000	19.5	17.3	326
4	-200000	19	16.8	317
4	-210000	18.5	16.3	307
4	-220000	18.4	16.1	305
4	-230000	18.2	16	301
4	-240000	18.7	16.5	311
4	-250000	19.3	17	321
4	-260000	20.1	17.8	336
4	-270000	20.4	18.1	342
4	-280000	20.2	17.9	338
4	-290000	19.3	17	322
4	-300000	18.9	16.6	315
4	-310000	17.6	15.3	289
4	-320000	17	14.8	279
4	-330000	16.1	13.8	261
4	-340000	15.6	13.4	253
4	-350000	15.5	13.3	251
4	-360000	15.8	13.6	257
4	-370000	16.3	14	265
4	-380000	15.2	12.9	244
4	-390000	14.6	12.4	234
4	-400000	12.7	10.5	198
4	0	10.9	11.5	217
4	10000	11.5	12.1	229
4	20000	11.3	11.9	224
4	30000	11.5	12.1	229
4	40000	11.2	11.8	224
4	50000	11.5	12.2	230
4	60000	11.9	12.6	237
4	70000	12.2	12.9	243
4	80000	11.5	12.1	229
4	90000	10.8	11.4	215
4	100000	11.3	11.9	225
4	110000	12.3	13	246
4	120000	12.9	13.6	257
4	130000	13.9	14.6	276
4	140000	14.5	15.3	289
4	150000	13	13.7	260
4	160000	11.9	12.5	236
4	170000	10.3	10.9	206
4	180000	8.07	8.51	161
4	190000	5.58	5.88	111
4	200000	7.1	7.48	141
4	210000	9.2	9.7	183
4	220000	9.89	10.4	197
4	230000	12.7	13.3	252
4	240000	13.4	14.1	267
4	250000	14.4	15.2	287
4	260000	14.7	15.5	292
4	270000	14.2	15	284
4	280000	14.7	15.5	292
4	290000	15.2	16	303
4	300000	15.6	16.4	310
4	310000	14.5	15.3	289
4	320000	13.6	14.3	271
4	330000	13	13.7	258
4	340000	12.8	13.5	255
4	350000	12.7	13.4	253
4	360000	12.4	13.1	247
4	370000	12.3	12.9	245
4	380000	12.3	13	246
4	390000	13	13.7	260
4	400000	13.6	14.3	270
5	0	15.3	13.1	247
5	-10000	18.9	16.6	314
5	-20000	19.7	17.4	329
5	-30000	18.9	16.7	315
5	-40000	18.3	16	303
5	-50000	17.8	15.5	293
5	-60000	17.2	14.9	282
5	-70000	17.3	15	284
5	-80000	18.2	16	302
5	-90000	19.5	17.2	325
5	-100000	19.5	17.2	326
5	-110000	19.1	16.9	319
5	-120000	18.7	16.4	311
5	-130000	18.6	16.4	310
5	-140000	18.2	15.9	301
5	-150000	18.2	15.9	301
5	-160000	17.6	15.3	289
5	-170000	17.2	14.9	282
5	-180000	16.4	14.2	268
5	-190000	15.9	13.6	257
5	-200000	15.9	13.6	257
5	-210000	15	12.7	241
5	-220000	15	12.8	241
5	-230000	14.9	12.6	238
5	-240000	14	11.8	223
5	-250000	13.7	11.4	216
5	-260000	13.7	11.4	216
5	-270000	12.4	10.2	192
5	-280000	12.1	9.82	186
5	-290000	11.9	9.63	182
5	-300000	12	9.71	184
5	-310000	11.7	9.44	178
5	-320000	11.3	9.03	171
5	-330000	11.2	8.92	169
5	-340000	11.4	9.13	173
5	-350000	10.7	8.39	159
5	-360000	11.3	9.03	171
5	-370000	11.4	9.18	173
5	-380000	11.4	9.11	172
5	-390000	10.5	8.22	155
5	-400000	9.52	7.26	137
5	0	8.02	8.45	160
5	10000	6.72	7.08	134
5	20000	5.54	5.84	110
5	30000	5.84	6.15	116
5	40000	6.11	6.44	122
5	50000	5.32	5.61	106
5	60000	8.48	8.93	169
5	70000	8.13	8.57	162
5	80000	8.73	9.2	174
5	90000	8.92	9.41	178
5	100000	9.93	10.5	198
5	110000	10.7	11.3	213
5	120000	10.4	10.9	207
5	130000	9.04	9.53	180
5	140000	9.08	9.57	181
5	150000	8.89	9.38	177
5	160000	6.5	6.85	129
5	170000	5.76	6.07	115
5	180000	5.25	5.54	105
5	190000	6.06	6.39	121
5	200000	7.14	7.53	142
5	210000	8.44	8.9	168
5	220000	9.57	10.1	191
5	230000	9.7	10.2	193
5	240000	10.9	11.5	218
5	250000	11.4	12	226
5	260000	11.3	11.9	224
5	270000	10.8	11.3	214
5	280000	11	11.6	218
5	290000	11.2	11.8	223
5	300000	11.8	12.4	235
5	310000	11.9	12.6	237
5	320000	12.2	12.8	242
5	330000	12.3	13	246
5	340000	12.4	13.1	247
5	350000	11.7	12.4	234
5	360000	10.5	11.1	210
5	370000	9.77	10.3	195
5	380000	9.22	9.72	184
5	390000	8.67	9.14	173
5	400000	7.22	7.61	144
6	0	7.81	5.55	105
6	-10000	9.41	7.15	135
6	-20000	9.05	6.79	128
6	-30000	8.96	6.7	127
6	-40000	10.1	7.86	149
6	-50000	10.9	8.6	163
6	-60000	10.7	8.44	159
6	-70000	11.3	9.07	172
6	-80000	11.7	9.44	178
6	-90000	11.8	9.52	180
6	-100000	11.3	9.02	170
6	-110000	10.3	8.05	152
6	-120000	10.5	8.2	155
6	-130000	10.6	8.31	157
6	-140000	10.1	7.84	148
6	-150000	9.66	7.4	140
6	-160000	9.79	7.53	142
6	-170000	10.3	8.05	152
6	-180000	10.9	8.67	164
6	-190000	11	8.78	166
6	-200000	11.1	8.86	168
6	-210000	10.3	8.07	153
6	-220000	9.52	7.26	137
6	-230000	9.06	6.8	129
6	-240000	8.3	6.04	114
6	-250000	7.88	5.62	106
6	-260000	7.61	5.35	101
6	-270000	7.26	5	94.5
6	-280000	7.03	4.77	90.1
6	-290000	6.65	4.39	83
6	-300000	6.1	3.84	72.6
6	-310000	5.4	3.14	59.3
6	-320000	3.55	2.03	38.4
6	-330000	1.83	1.05	19.9
6	-340000	1.48	0.849	16
6	-350000	1.09	0.623	11.8
6	-360000	1.3	0.745	14.1
6	-370000	1.51	0.863	16.3
6	-380000	1.62	0.929	17.6
6	-390000	2.07	1.18	22.4
6	-400000	2.58	1.48	27.9
