rep_num	position	torque	torque_compensated	lbs_compensated
1	0	3.8	4.08	77.1
1	10000	7.48	7.89	149
1	20000	8.9	9.38	177
1	30000	8.84	9.32	176
1	40000	10.7	11.3	214
1	50000	10.1	10.6	201
1	60000	8.43	8.88	168
1	70000	10.6	11.2	212
1	80000	9.59	10.1	191
1	90000	10.5	11.1	210
1	100000	10.7	11.3	213
1	110000	12.6	13.2	250
1	120000	14.8	15.6	295
1	130000	12.3	13	245
1	140000	10.9	11.5	218
1	150000	12.3	13	245
1	160000	14.2	15	283
1	170000	11.5	12.1	228
1	180000	7.81	8.23	156
1	190000	9.19	9.69	183
1	200000	11.2	11.8	224
1	210000	10.9	11.5	218
1	220000	10	10.6	200
1	230000	10.7	11.3	214
1	240000	11.1	11.7	220
1	250000	10.4	11	208
1	260000	9.92	10.5	198
1	270000	12.8	13.5	256
1	280000	15.1	15.9	301
1	290000	14.8	15.6	294
1	300000	12.9	13.6	256
1	310000	14.1	14.9	282
1	320000	16.2	17.1	323
1	330000	15.2	16	302
1	340000	13.6	14.4	272
1	350000	15.7	16.5	313
1	360000	18.3	19.2	364
1	370000	19	20	378
1	380000	16.7	17.6	333
1	390000	19.6	20.6	390
1	400000	19.1	20.1	380
2	0	21.8	19.6	370
2	-10000	21.1	18.8	355
2	-20000	22.3	20	378
2	-30000	19.1	16.9	319
2	-40000	22.2	20	378
2	-50000	23.5	21.2	401
2	-60000	21.5	19.3	364
2	-70000	20.8	18.5	350
2	-80000	23.1	20.8	393
2	-90000	23.9	21.6	409
2	-100000	21.9	19.7	372
2	-110000	20.9	18.7	353
2	-120000	23	20.8	392
2	-130000	23.3	21	397
2	-140000	21.3	19.1	360
2	-150000	19.8	17.5	331
2	-160000	21.5	19.3	365
2	-170000	22.4	20.2	381
2	-180000	19.8	17.5	331
2	-190000	19	16.8	317
2	-200000	20.9	18.7	353
2	-210000	21.3	19.1	361
2	-220000	18.9	16.6	314
2	-230000	17.6	15.4	290
2	-240000	19.9	17.7	334
2	-250000	20.8	18.5	350
2	-260000	19	16.8	317
2	-270000	17.5	15.3	288
2	-280000	19	16.8	317
2	-290000	21.1	18.9	356
2	-300000	19.1	16.9	319
2	-310000	17.5	15.3	289
2	-320000	18.6	16.3	309
2	-330000	19.7	17.4	330
2	-340000	16.9	14.6	277
2	-350000	15.8	13.6	257
2	-360000	17.8	15.5	294
2	-370000	18	15.8	298
2	-380000	15.3	13	246
2	-390000	17.7	15.4	292
2	-400000	18.2	16	302
2	0	15.9	16.7	316
2	10000	16.1	17	322
2	20000	16.2	17.1	322
2	30000	14	14.8	280
2	40000	15.9	16.7	317
2	50000	14.3	15.1	285
2	60000	12.7	13.4	253
2	70000	14.6	15.4	291
2	80000	16.8	17.7	335
2	90000	15.9	16.7	316
2	100000	11.9	12.5	237
2	110000	13.2	13.9	262
2	120000	14.9	15.7	298
2	130000	13.9	14.6	276
2	140000	13.4	14.1	267
2	150000	14.9	15.7	297
2	160000	17	18	339
2	170000	15	15.8	298
2	180000	12.9	13.5	256
2	190000	15.4	16.3	307
2	200000	17.6	18.6	351
2	210000	16.7	17.6	333
2	220000	15.8	16.6	314
2	230000	17.1	18	341
2	240000	19.2	20.2	382
2	250000	17.8	18.8	355
2	260000	16.5	17.4	330
2	270000	18.4	19.4	366
2	280000	19.9	20.9	396
2	290000	19.2	20.2	382
2	300000	16.9	17.9	337
2	310000	17.6	18.6	351
2	320000	19.1	20.1	380
2	330000	17.8	18.7	354
2	340000	15.5	16.3	308
2	350000	16.8	17.7	334
2	360000	18.2	19.2	364
2	370000	18.5	19.5	368
2	380000	16	16.9	319
2	390000	19	20.1	379
2	400000	19.6	20.6	390
3	0	22.7	20.5	387
3	-10000	23.7	21.4	405
3	-20000	23.8	21.5	407
3	-30000	20.1	17.8	337
3	-40000	23	20.8	392
3	-50000	25	22.8	430
3	-60000	23.8	21.6	407
3	-70000	23.1	20.8	393
3	-80000	25.1	22.9	432
3	-90000	24.9	22.6	427
3	-100000	22.4	20.2	381
3	-110000	22.1	19.8	374
3	-120000	24.4	22.2	419
3	-130000	25	22.7	429
3	-140000	23.4	21.1	399
3	-150000	22.1	19.8	375
3	-160000	24.4	22.2	419
3	-170000	24.8	22.6	427
3	-180000	22.5	20.2	382
3	-190000	21.3	19.1	360
3	-200000	22.8	20.5	388
3	-210000	22.7	20.4	385
3	-220000	20.7	18.4	348
3	-230000	19.4	17.1	323
3	-240000	20.3	18	341
3	-250000	20.8	18.5	350
3	-260000	19.2	16.9	320
3	-270000	18.1	15.8	299
3	-280000	20	17.7	334
3	-290000	21.4	19.2	362
3	-300000	19.6	17.3	328
3	-310000	18.2	16	302
3	-320000	19.7	17.5	330
3	-330000	21	18.8	355
3	-340000	18.7	16.4	310
3	-350000	17.8	15.6	294
3	-360000	20.3	18	341
3	-370000	21.2	19	359
3	-380000	17.8	15.5	294
3	-390000	20.7	18.5	349
3	-400000	21.1	18.8	355
3	0	18.5	19.5	369
3	10000	16.2	17.1	324
3	20000	16.8	17.8	336
3	30000	14.5	15.3	289
3	40000	16.5	17.4	328
3	50000	15.1	15.9	301
3	60000	13.5	14.3	270
3	70000	15.7	16.5	312
3	80000	17	17.9	338
3	90000	15.4	16.2	306
3	100000	13.7	14.5	274
3	110000	16.1	17	321
3	120000	18.2	19.2	363
3	130000	16.3	17.1	324
3	140000	14.4	15.2	286
3	150000	16	16.8	318
3	160000	16.6	17.4	330
3	170000	15.4	16.2	306
3	180000	13.7	14.4	272
3	190000	16.4	17.3	326
3	200000	19.3	20.3	384
3	210000	19.1	20.1	380
3	220000	17.3	18.2	344
3	230000	18.1	19.1	361
3	240000	20.1	21.2	400
3	250000	19.2	20.3	383
3	260000	17.4	18.3	346
3	270000	18.5	19.5	369
3	280000	20.6	21.7	411
3	290000	18.8	19.8	375
3	300000	17.3	18.2	344
3	310000	17.9	18.9	358
3	320000	19.5	20.5	388
3	330000	17.6	18.5	350
3	340000	15.4	16.3	307
3	350000	16.2	17	322
3	360000	17.5	18.5	349
3	370000	18.2	19.2	363
3	380000	15.6	16.5	311
3	390000	18.5	19.5	369
3	400000	18.8	19.9	375
4	0	21.5	19.2	363
4	-10000	23.2	21	396
4	-20000	23.9	21.7	410
4	-30000	20.1	17.8	337
4	-40000	22.1	19.9	376
4	-50000	23.2	20.9	396
4	-60000	22.1	19.9	375
4	-70000	21.7	19.5	368
4	-80000	24.1	21.8	412
4	-90000	24.5	22.2	420
4	-100000	22.8	20.6	389
4	-110000	21.5	19.2	363
4	-120000	23.6	21.4	404
4	-130000	24.2	21.9	415
4	-140000	23.3	21.1	398
4	-150000	22.3	20	378
4	-160000	24.6	22.3	421
4	-170000	25.3	23	435
4	-180000	22.9	20.7	391
4	-190000	21.3	19	359
4	-200000	23	20.8	393
4	-210000	23	20.7	391
4	-220000	21	18.7	354
4	-230000	20.3	18.1	341
4	-240000	22.5	20.2	382
4	-250000	22.5	20.2	382
4	-260000	20.6	18.4	347
4	-270000	19.3	17	321
4	-280000	21.4	19.1	361
4	-290000	22.4	20.1	380
4	-300000	19.9	17.6	333
4	-310000	17.9	15.6	296
4	-320000	19.8	17.5	331
4	-330000	20.8	18.6	351
4	-340000	19	16.8	317
4	-350000	17	14.7	278
4	-360000	17.8	15.6	294
4	-370000	18.5	16.2	307
4	-380000	15.2	13	245
4	-390000	17.8	15.6	294
4	-400000	18.5	16.3	307
4	0	17	17.9	338
4	10000	16.9	17.8	337
4	20000	16.6	17.5	331
4	30000	14.3	15.1	285
4	40000	15.1	15.9	301
4	50000	15	15.8	299
4	60000	13.4	14.1	267
4	70000	14.9	15.7	297
4	80000	16.9	17.9	338
4	90000	15.9	16.8	317
4	100000	13.8	14.5	275
4	110000	15.1	15.9	301
4	120000	17.8	18.7	354
4	130000	17.2	18.2	343
4	140000	15.9	16.7	316
4	150000	17.2	18.1	343
4	160000	18.9	19.9	377
4	170000	18.1	19.1	362
4	180000	15.7	16.5	312
4	190000	17.8	18.7	354
4	200000	19.2	20.2	382
4	210000	17.4	18.4	347
4	220000	15.7	16.6	313
4	230000	16.5	17.4	330
4	240000	18.2	19.2	363
4	250000	16.5	17.4	328
4	260000	15.4	16.2	306
4	270000	16.7	17.6	333
4	280000	18.3	19.3	365
4	290000	17.5	18.5	349
4	300000	15.7	16.5	313
4	310000	16.2	17	322
4	320000	17.3	18.3	345
4	330000	16.1	17	322
4	340000	13.6	14.4	272
4	350000	14.6	15.4	290
4	360000	16.4	17.3	327
4	370000	16.9	17.8	337
4	380000	14.8	15.6	294
4	390000	17.8	18.8	355
4	400000	17.9	18.8	356
5	0	20.1	17.8	336
5	-10000	20.5	18.2	344
5	-20000	22.1	19.9	375
5	-30000	18.7	16.4	310
5	-40000	20.9	18.7	353
5	-50000	22.1	19.9	376
5	-60000	19.8	17.5	331
5	-70000	19	16.7	316
5	-80000	20.8	18.6	351
5	-90000	21.2	19	358
5	-100000	19.1	16.8	318
5	-110000	18.2	15.9	301
5	-120000	20	17.7	335
5	-130000	20.7	18.4	348
5	-140000	19.5	17.3	327
5	-150000	19.5	17.3	326
5	-160000	22.9	20.6	390
5	-170000	24.3	22.1	417
5	-180000	22.3	20	378
5	-190000	21.2	18.9	358
5	-200000	23	20.7	391
5	-210000	22.7	20.4	386
5	-220000	20.3	18	341
5	-230000	19.2	16.9	320
5	-240000	20.5	18.2	345
5	-250000	21.5	19.3	364
5	-260000	20	17.7	335
5	-270000	18.6	16.3	309
5	-280000	20.2	18	340
5	-290000	21.8	19.5	368
5	-300000	19.1	16.8	318
5	-310000	17.7	15.5	292
5	-320000	19.9	17.6	333
5	-330000	21	18.7	354
5	-340000	18.6	16.3	308
5	-350000	17.3	15.1	285
5	-360000	20	17.8	336
5	-370000	20.3	18	341
5	-380000	17.2	14.9	282
5	-390000	19.1	16.8	317
5	-400000	19.5	17.2	326
5	0	17.6	18.5	350
5	10000	15.4	16.2	306
5	20000	14.4	15.2	287
5	30000	11.9	12.5	237
5	40000	14.4	15.1	286
5	50000	14.7	15.5	293
5	60000	12	12.6	238
5	70000	13.8	14.6	275
5	80000	15.9	16.7	316
5	90000	14.4	15.1	286
5	100000	12.9	13.6	257
5	110000	14.2	14.9	282
5	120000	16.5	17.4	328
5	130000	14.9	15.7	297
5	140000	12.3	12.9	245
5	150000	14.2	14.9	282
5	160000	16	16.8	318
5	170000	14.9	15.7	296
5	180000	13	13.7	259
5	190000	14.2	15	283
5	200000	15.6	16.4	311
5	210000	14.4	15.2	286
5	220000	12.4	13.1	247
5	230000	13.9	14.7	278
5	240000	16.1	17	320
5	250000	12.6	13.3	252
5	260000	11.3	11.9	224
5	270000	13.8	14.6	276
5	280000	15.8	16.7	315
5	290000	14.6	15.4	292
5	300000	12.5	13.1	248
5	310000	13.6	14.3	271
5	320000	15	15.8	299
5	330000	13	13.7	259
5	340000	11.1	11.7	221
5	350000	12.4	13.1	247
5	360000	13.9	14.7	277
5	370000	14.1	14.8	280
5	380000	11.5	12.1	228
5	390000	14.3	15	284
5	400000	14.7	15.5	292
6	0	16.6	14.3	271
6	-10000	17.2	14.9	282
6	-20000	18.4	16.1	305
6	-30000	16.1	13.8	261
6	-40000	18.6	16.3	309
6	-50000	20	17.7	335
6	-60000	18.6	16.3	309
6	-70000	17.9	15.7	296
6	-80000	19.9	17.6	333
6	-90000	20.2	17.9	338
6	-100000	17.9	15.6	296
6	-110000	17	14.8	279
6	-120000	18.5	16.3	307
6	-130000	19.5	17.3	327
6	-140000	17.7	15.5	292
6	-150000	18.2	15.9	301
6	-160000	20.9	18.7	353
6	-170000	21.9	19.7	372
6	-180000	20	17.8	336
6	-190000	18.8	16.6	313
6	-200000	21	18.8	355
6	-210000	20.8	18.5	350
6	-220000	18.8	16.5	312
6	-230000	17.5	15.3	289
6	-240000	19.2	16.9	319
6	-250000	19	16.7	316
6	-260000	17.5	15.2	288
6	-270000	15.9	13.7	258
6	-280000	16.3	14	265
6	-290000	17.3	15	284
6	-300000	16	13.7	259
6	-310000	14.9	12.6	238
6	-320000	16.8	14.5	275
6	-330000	17.8	15.5	293
6	-340000	15.9	13.6	257
6	-350000	14	11.7	221
6	-360000	15.2	12.9	244
6	-370000	15.4	13.2	249
6	-380000	12	9.69	183
6	-390000	14	11.7	222
6	-400000	14	11.7	221
