rep_num	position	torque	torque_compensated	lbs_compensated
1	0	8.73	9.2	174
1	10000	11	11.6	220
1	20000	10.9	11.5	217
1	30000	10.7	11.3	213
1	40000	11.9	12.5	237
1	50000	12	12.7	239
1	60000	12.3	13	246
1	70000	12.7	13.3	252
1	80000	13.3	14.1	266
1	90000	13.3	14	265
1	100000	13.5	14.2	269
1	110000	13.8	14.5	274
1	120000	13.9	14.6	277
1	130000	14	14.7	279
1	140000	13.9	14.7	278
1	150000	14.4	15.2	288
1	160000	14.5	15.2	288
1	170000	15	15.8	299
1	180000	15.2	16	303
1	190000	15.8	16.7	315
1	200000	15.9	16.8	317
1	210000	15.5	16.4	310
1	220000	15.9	16.7	316
1	230000	16.1	16.9	320
1	240000	16.3	17.2	325
1	250000	15.7	16.6	314
1	260000	15.5	16.3	308
1	270000	16.3	17.2	325
1	280000	16.9	17.9	338
1	290000	17.4	18.3	346
1	300000	18.1	19.1	361
1	310000	18.7	19.7	373
1	320000	18.9	20	377
1	330000	18.3	19.3	365
1	340000	18.2	19.2	363
1	350000	18.2	19.2	363
1	360000	18.4	19.4	367
1	370000	18.7	19.7	372
1	380000	18.5	19.5	369
1	390000	18.6	19.6	370
1	400000	18.9	20	377
2	0	21.4	19.1	362
2	-10000	23.2	20.9	395
2	-20000	23.8	21.6	407
2	-30000	24.3	22.1	417
2	-40000	24.8	22.6	427
2	-50000	24.5	22.2	420
2	-60000	24.9	22.7	429
2	-70000	25.1	22.8	431
2	-80000	25.4	23.2	438
2	-90000	25.4	23.2	438
2	-100000	25.5	23.3	440
2	-110000	25.6	23.4	442
2	-120000	25.6	23.3	441
2	-130000	25.2	22.9	434
2	-140000	25	22.7	429
2	-150000	24.9	22.7	428
2	-160000	24.7	22.4	423
2	-170000	24.4	22.2	419
2	-180000	24.9	22.7	429
2	-190000	24.3	22	416
2	-200000	23.8	21.5	407
2	-210000	23.1	20.9	394
2	-220000	22.8	20.5	388
2	-230000	22.2	20	377
2	-240000	22.1	19.8	375
2	-250000	22.1	19.8	375
2	-260000	21.2	18.9	357
2	-270000	20.2	18	339
2	-280000	20.4	18.1	342
2	-290000	20.2	18	340
2	-300000	20.4	18.1	342
2	-310000	20.3	18	341
2	-320000	20.3	18	340
2	-330000	19.5	17.2	326
2	-340000	19.4	17.1	324
2	-350000	19.3	17.1	323
2	-360000	19.9	17.6	334
2	-370000	19.2	17	320
2	-380000	19	16.7	316
2	-390000	20	17.8	336
2	-400000	19.9	17.6	334
2	0	17.9	18.8	356
2	10000	17	18	339
2	20000	17.2	18.1	342
2	30000	17.5	18.4	349
2	40000	17.4	18.3	346
2	50000	17.3	18.2	344
2	60000	16.7	17.6	333
2	70000	16.3	17.2	324
2	80000	16.6	17.5	332
2	90000	17	17.9	338
2	100000	17.1	18	340
2	110000	17.7	18.6	352
2	120000	18.1	19.1	360
2	130000	18.3	19.3	365
2	140000	18.1	19.1	361
2	150000	19	20	378
2	160000	19.1	20.2	381
2	170000	19.5	20.6	388
2	180000	19.8	20.8	394
2	190000	19.9	21	397
2	200000	20.4	21.5	406
2	210000	20.2	21.3	402
2	220000	20.3	21.4	405
2	230000	20.2	21.3	403
2	240000	20.1	21.2	401
2	250000	19.8	20.9	395
2	260000	19.6	20.7	391
2	270000	19.9	20.9	396
2	280000	20.4	21.5	407
2	290000	20.6	21.8	411
2	300000	20.5	21.6	408
2	310000	20.1	21.2	401
2	320000	19.9	21	397
2	330000	19.3	20.3	385
2	340000	18.9	19.9	377
2	350000	18.7	19.8	373
2	360000	18.5	19.5	369
2	370000	18.4	19.4	367
2	380000	18.3	19.3	364
2	390000	18.6	19.6	370
2	400000	19.1	20.2	381
3	0	21.4	19.1	362
3	-10000	23.1	20.9	394
3	-20000	23.1	20.8	394
3	-30000	22.4	20.2	382
3	-40000	23.1	20.8	394
3	-50000	23.4	21.1	399
3	-60000	23.4	21.2	400
3	-70000	23.8	21.5	407
3	-80000	24.4	22.1	418
3	-90000	24.3	22	416
3	-100000	24.5	22.2	420
3	-110000	24	21.8	411
3	-120000	24.5	22.2	420
3	-130000	24.5	22.2	419
3	-140000	24.3	22	416
3	-150000	24.6	22.3	422
3	-160000	23.9	21.7	410
3	-170000	24.3	22.1	417
3	-180000	24.1	21.9	413
3	-190000	24	21.7	410
3	-200000	24.2	21.9	415
3	-210000	24.8	22.5	425
3	-220000	25.4	23.1	436
3	-230000	24.8	22.5	425
3	-240000	24.8	22.5	426
3	-250000	25.1	22.9	433
3	-260000	24.6	22.3	421
3	-270000	23.6	21.3	403
3	-280000	23.7	21.4	405
3	-290000	23.5	21.3	402
3	-300000	23	20.7	392
3	-310000	23.2	20.9	396
3	-320000	23.6	21.3	403
3	-330000	23.1	20.9	394
3	-340000	22.4	20.1	380
3	-350000	22.9	20.7	391
3	-360000	22.5	20.2	382
3	-370000	21.9	19.7	372
3	-380000	21.5	19.2	363
3	-390000	21.9	19.6	371
3	-400000	20.8	18.5	350
3	0	18.4	19.4	367
3	10000	17.3	18.2	344
3	20000	17.3	18.2	344
3	30000	16.2	17.1	323
3	40000	16.7	17.6	333
3	50000	16.8	17.7	334
3	60000	16.8	17.7	335
3	70000	16.6	17.5	331
3	80000	16.9	17.9	337
3	90000	16.7	17.6	332
3	100000	17.1	18.1	341
3	110000	17.9	18.9	357
3	120000	18	19	359
3	130000	18.1	19.1	360
3	140000	18	18.9	358
3	150000	18.4	19.4	367
3	160000	18	19	359
3	170000	17.9	18.9	357
3	180000	18.8	19.8	374
3	190000	19	20.1	379
3	200000	19.1	20.1	380
3	210000	19.6	20.6	390
3	220000	19.3	20.4	385
3	230000	20.4	21.5	406
3	240000	20.3	21.4	404
3	250000	20.5	21.6	409
3	260000	20.1	21.1	399
3	270000	20.3	21.3	403
3	280000	20.1	21.2	401
3	290000	19.7	20.8	393
3	300000	19.5	20.6	389
3	310000	19.2	20.3	383
3	320000	18.6	19.6	370
3	330000	18	19	359
3	340000	17.4	18.3	346
3	350000	16.8	17.7	335
3	360000	17	18	340
3	370000	17.5	18.4	348
3	380000	17.8	18.7	354
3	390000	17.7	18.6	352
3	400000	17.9	18.8	356
4	0	19.3	17	321
4	-10000	20.6	18.3	346
4	-20000	20.4	18.1	342
4	-30000	20.7	18.4	348
4	-40000	21.5	19.2	364
4	-50000	22.2	19.9	376
4	-60000	22.3	20	378
4	-70000	22.4	20.2	381
4	-80000	22.8	20.6	389
4	-90000	23.2	20.9	395
4	-100000	23	20.8	392
4	-110000	22.7	20.4	386
4	-120000	22.9	20.7	391
4	-130000	22.8	20.5	388
4	-140000	22.9	20.7	390
4	-150000	23.5	21.3	402
4	-160000	22.9	20.7	391
4	-170000	22.7	20.4	386
4	-180000	22.3	20.1	379
4	-190000	22.7	20.5	387
4	-200000	22.5	20.2	382
4	-210000	22.2	20	378
4	-220000	22.8	20.6	388
4	-230000	22.5	20.3	383
4	-240000	22.3	20.1	380
4	-250000	22.7	20.5	387
4	-260000	22	19.7	372
4	-270000	21.7	19.4	368
4	-280000	22.4	20.1	381
4	-290000	22.4	20.1	380
4	-300000	21.9	19.6	371
4	-310000	21.3	19	359
4	-320000	21.6	19.4	366
4	-330000	20.9	18.7	353
4	-340000	20.7	18.5	349
4	-350000	20.6	18.3	347
4	-360000	21.2	18.9	357
4	-370000	20.7	18.4	348
4	-380000	19.8	17.5	331
4	-390000	19.8	17.6	332
4	-400000	19	16.7	316
4	0	17.1	18	340
4	10000	15.1	15.9	300
4	20000	15.4	16.2	306
4	30000	14.6	15.4	291
4	40000	13.9	14.6	276
4	50000	13.8	14.6	276
4	60000	13.3	14	265
4	70000	13.2	13.9	263
4	80000	14	14.8	279
4	90000	13.9	14.7	277
4	100000	13.5	14.3	270
4	110000	14.1	14.9	282
4	120000	13.3	14	264
4	130000	13.5	14.2	269
4	140000	13.7	14.5	274
4	150000	14.6	15.4	290
4	160000	14.9	15.7	297
4	170000	14.4	15.2	288
4	180000	14.3	15.1	285
4	190000	14.8	15.6	295
4	200000	14.3	15.1	286
4	210000	13.6	14.3	271
4	220000	13.4	14.1	267
4	230000	14.2	14.9	282
4	240000	14.7	15.5	293
4	250000	14.2	15	283
4	260000	14.1	14.8	280
4	270000	14.3	15.1	285
4	280000	14.7	15.5	293
4	290000	14.6	15.4	290
4	300000	14.3	15.1	285
4	310000	14.2	15	284
4	320000	14.2	14.9	283
4	330000	14	14.7	278
4	340000	13.2	13.9	262
4	350000	13	13.7	259
4	360000	13.6	14.4	272
4	370000	14.2	14.9	282
4	380000	14.3	15	284
4	390000	14.7	15.4	292
4	400000	15.8	16.6	314
5	0	17.4	15.1	286
5	-10000	17.8	15.6	294
5	-20000	17.9	15.6	295
5	-30000	18.7	16.4	310
5	-40000	19.4	17.2	324
5	-50000	19.8	17.5	331
5	-60000	20.4	18.1	343
5	-70000	21.1	18.8	355
5	-80000	21.2	18.9	358
5	-90000	21.7	19.5	368
5	-100000	21.7	19.5	368
5	-110000	21.2	18.9	357
5	-120000	20.8	18.6	351
5	-130000	21.4	19.1	361
5	-140000	21.6	19.4	366
5	-150000	21.8	19.6	370
5	-160000	21.1	18.8	356
5	-170000	21.1	18.8	355
5	-180000	20.5	18.2	345
5	-190000	20.4	18.1	343
5	-200000	19.7	17.4	329
5	-210000	19.7	17.4	329
5	-220000	20	17.8	335
5	-230000	19.7	17.4	329
5	-240000	19.8	17.5	331
5	-250000	20.3	18.1	341
5	-260000	20	17.8	336
5	-270000	19.5	17.2	325
5	-280000	19.6	17.3	327
5	-290000	19.6	17.4	328
5	-300000	18.4	16.2	305
5	-310000	17.8	15.5	293
5	-320000	18.3	16	303
5	-330000	17.8	15.6	294
5	-340000	17.7	15.5	292
5	-350000	18	15.7	297
5	-360000	18	15.8	298
5	-370000	17.8	15.6	294
5	-380000	17	14.8	279
5	-390000	16.9	14.7	277
5	-400000	15.9	13.6	258
5	0	14.1	14.9	281
5	10000	11.4	12	227
5	20000	11	11.6	219
5	30000	10.3	10.9	206
5	40000	10.1	10.6	201
5	50000	9.35	9.85	186
5	60000	9.68	10.2	193
5	70000	9.26	9.76	184
5	80000	10	10.6	199
5	90000	9.93	10.5	198
5	100000	9.55	10.1	190
5	110000	9.8	10.3	195
5	120000	10.1	10.6	200
5	130000	9.09	9.58	181
5	140000	9.4	9.91	187
5	150000	10.1	10.7	201
5	160000	10.2	10.7	203
5	170000	9.54	10.1	190
5	180000	10.1	10.6	200
5	190000	10	10.6	200
5	200000	9.63	10.1	192
5	210000	9.65	10.2	192
5	220000	10	10.5	199
5	230000	10.2	10.8	204
5	240000	9.9	10.4	197
5	250000	9.72	10.2	194
5	260000	9.61	10.1	191
5	270000	10.5	11	209
5	280000	10.6	11.2	211
5	290000	10.7	11.3	213
5	300000	10.6	11.2	212
5	310000	10.6	11.2	211
5	320000	10.2	10.8	204
5	330000	9.96	10.5	199
5	340000	9.87	10.4	197
5	350000	9.44	9.95	188
5	360000	10	10.6	200
5	370000	10.2	10.8	204
5	380000	10.1	10.6	201
5	390000	10.1	10.7	202
5	400000	10.7	11.3	214
6	0	12.1	9.79	185
6	-10000	14.8	12.5	237
6	-20000	14.9	12.6	238
6	-30000	16.3	14	265
6	-40000	17.8	15.6	294
6	-50000	18.6	16.3	308
6	-60000	19	16.8	317
6	-70000	18.9	16.6	314
6	-80000	18.5	16.3	308
6	-90000	18.2	15.9	301
6	-100000	18.6	16.3	308
6	-110000	18.3	16.1	303
6	-120000	17.9	15.7	296
6	-130000	16.9	14.6	276
6	-140000	16.1	13.9	262
6	-150000	16.2	13.9	264
6	-160000	16.1	13.8	261
6	-170000	15.2	12.9	244
6	-180000	15	12.7	240
6	-190000	14.9	12.7	240
6	-200000	14.9	12.6	239
6	-210000	13.9	11.6	220
6	-220000	12.2	9.97	188
6	-230000	12.9	10.7	201
6	-240000	12.1	9.81	185
6	-250000	13.6	11.3	214
6	-260000	12.7	10.5	198
6	-270000	11.9	9.61	182
6	-280000	11.7	9.46	179
6	-290000	11.4	9.12	172
6	-300000	10.8	8.53	161
6	-310000	10.2	7.94	150
6	-320000	10.2	7.95	150
6	-330000	10	7.75	147
6	-340000	9.01	6.75	128
6	-350000	8.98	6.72	127
6	-360000	8.46	6.2	117
6	-370000	8.17	5.91	112
6	-380000	7.5	5.24	99.1
6	-390000	7.37	5.11	96.5
6	-400000	5.02	2.88	54.4
