rep_num	position	torque	torque_compensated	lbs_compensated
1	0	1.77	2.05	38.8
1	10000	0.513	0.799	15.1
1	20000	2.9	3.18	60.2
1	30000	5.69	5.99	113
1	40000	7.23	7.62	144
1	50000	8.65	9.11	172
1	60000	9.96	10.5	198
1	70000	10.6	11.2	211
1	80000	11	11.6	218
1	90000	10.6	11.2	211
1	100000	11.2	11.8	224
1	110000	12.3	12.9	244
1	120000	12.5	13.1	248
1	130000	12.6	13.3	252
1	140000	13	13.7	259
1	150000	13.5	14.3	270
1	160000	13.7	14.5	274
1	170000	14	14.8	279
1	180000	14.6	15.3	290
1	190000	14.6	15.4	290
1	200000	14.4	15.2	287
1	210000	14.2	14.9	282
1	220000	14.5	15.3	289
1	230000	15	15.9	300
1	240000	15.5	16.3	308
1	250000	15.8	16.6	314
1	260000	16.5	17.4	329
1	270000	17.3	18.2	344
1	280000	17.9	18.8	356
1	290000	18.6	19.6	370
1	300000	18.5	19.5	368
1	310000	18.8	19.8	374
1	320000	18.1	19.1	360
1	330000	18.3	19.3	365
1	340000	18.9	19.9	376
1	350000	18.7	19.7	372
1	360000	18.7	19.7	373
1	370000	19.2	20.3	383
1	380000	19.8	20.9	395
1	390000	19.9	21	396
1	400000	20.2	21.3	403
2	0	23.2	21	396
2	-10000	24.3	22	417
2	-20000	24.4	22.1	418
2	-30000	23.4	21.2	400
2	-40000	23.8	21.6	408
2	-50000	24.7	22.4	424
2	-60000	25.2	23	434
2	-70000	25.3	23	435
2	-80000	25.3	23	435
2	-90000	24.9	22.7	428
2	-100000	24.7	22.4	423
2	-110000	24.2	22	416
2	-120000	23.6	21.3	403
2	-130000	23.2	21	396
2	-140000	23.1	20.9	394
2	-150000	24.1	21.8	412
2	-160000	24.8	22.6	427
2	-170000	24.1	21.8	412
2	-180000	22.2	19.9	377
2	-190000	21.5	19.3	364
2	-200000	21.5	19.3	364
2	-210000	20.8	18.6	351
2	-220000	21.2	19	358
2	-230000	20.7	18.5	349
2	-240000	21.1	18.9	357
2	-250000	21.2	18.9	357
2	-260000	21.6	19.3	365
2	-270000	21	18.8	355
2	-280000	19.7	17.5	330
2	-290000	18.4	16.1	305
2	-300000	18.3	16	303
2	-310000	16.6	14.3	271
2	-320000	15.9	13.7	259
2	-330000	15.6	13.3	252
2	-340000	15	12.8	241
2	-350000	15.1	12.8	243
2	-360000	16.3	14	265
2	-370000	16.4	14.1	266
2	-380000	16.6	14.4	272
2	-390000	14.9	12.6	238
2	-400000	15.2	13	245
2	0	13.2	13.9	263
2	10000	14	14.8	280
2	20000	14.9	15.7	297
2	30000	14.3	15.1	286
2	40000	14.6	15.4	292
2	50000	15.2	16	303
2	60000	14.9	15.8	298
2	70000	14.5	15.3	289
2	80000	14.3	15.1	285
2	90000	14.9	15.7	297
2	100000	14.9	15.7	297
2	110000	13.5	14.2	269
2	120000	13.4	14.1	266
2	130000	14.7	15.5	294
2	140000	15.9	16.8	317
2	150000	17.9	18.9	357
2	160000	18.5	19.5	368
2	170000	18.7	19.7	372
2	180000	19.4	20.4	386
2	190000	19.6	20.6	390
2	200000	20.1	21.2	400
2	210000	20.3	21.3	403
2	220000	20	21.1	399
2	230000	20.3	21.4	405
2	240000	19.7	20.8	393
2	250000	19.4	20.4	386
2	260000	19.6	20.6	390
2	270000	19.8	20.9	395
2	280000	19.9	21	396
2	290000	19.4	20.5	387
2	300000	19.7	20.7	392
2	310000	19.2	20.2	383
2	320000	18.7	19.7	372
2	330000	18.3	19.3	365
2	340000	18.4	19.4	367
2	350000	18.2	19.2	363
2	360000	18.3	19.3	365
2	370000	17.7	18.7	353
2	380000	17.6	18.6	351
2	390000	18.1	19	360
2	400000	18.2	19.2	363
3	0	21	18.7	354
3	-10000	21.3	19	359
3	-20000	21.7	19.4	367
3	-30000	21.4	19.2	362
3	-40000	21.5	19.2	363
3	-50000	21.5	19.2	363
3	-60000	21.4	19.1	361
3	-70000	22.8	20.5	388
3	-80000	23.9	21.6	409
3	-90000	24	21.7	411
3	-100000	22.6	20.3	384
3	-110000	22.2	20	378
3	-120000	23.1	20.8	393
3	-130000	22.8	20.5	388
3	-140000	21.9	19.6	370
3	-150000	22.4	20.2	381
3	-160000	22.8	20.5	388
3	-170000	22.4	20.1	380
3	-180000	22	19.7	373
3	-190000	21.1	18.9	357
3	-200000	21.5	19.2	363
3	-210000	21.7	19.5	368
3	-220000	20.8	18.5	350
3	-230000	20.6	18.4	348
3	-240000	20.1	17.8	337
3	-250000	19.1	16.9	319
3	-260000	18.8	16.5	312
3	-270000	18.7	16.4	310
3	-280000	18.8	16.5	313
3	-290000	19	16.8	317
3	-300000	19.8	17.5	331
3	-310000	19.9	17.6	333
3	-320000	20.8	18.5	350
3	-330000	20.5	18.2	344
3	-340000	20.2	17.9	339
3	-350000	19.7	17.5	330
3	-360000	19.3	17.1	323
3	-370000	18.9	16.6	315
3	-380000	18.8	16.5	312
3	-390000	18.5	16.2	307
3	-400000	17.8	15.5	294
3	0	15.3	16.1	305
3	10000	15.6	16.5	311
3	20000	17.2	18.1	342
3	30000	16.8	17.7	335
3	40000	16.1	17	321
3	50000	15.9	16.8	317
3	60000	14.5	15.2	288
3	70000	14.3	15.1	285
3	80000	15.5	16.4	309
3	90000	15.3	16.1	305
3	100000	15.8	16.6	315
3	110000	16.9	17.8	336
3	120000	16.5	17.4	329
3	130000	15.5	16.4	309
3	140000	15.9	16.8	317
3	150000	16	16.9	319
3	160000	15.9	16.7	316
3	170000	15.8	16.7	315
3	180000	15.6	16.5	311
3	190000	16.2	17	322
3	200000	15.6	16.4	310
3	210000	15.3	16.1	305
3	220000	15.3	16.1	304
3	230000	15.2	16	303
3	240000	14.9	15.7	297
3	250000	14.9	15.7	296
3	260000	15.4	16.2	306
3	270000	15.3	16.1	304
3	280000	14.7	15.5	292
3	290000	14.2	15	284
3	300000	14.4	15.2	287
3	310000	14.3	15.1	285
3	320000	14.1	14.8	280
3	330000	13.7	14.4	272
3	340000	13.7	14.4	273
3	350000	13.6	14.3	271
3	360000	14	14.8	280
3	370000	13.9	14.6	276
3	380000	13.6	14.3	271
3	390000	13.8	14.5	274
3	400000	13.6	14.3	271
4	0	16.1	13.8	261
4	-10000	17	14.7	278
4	-20000	17	14.8	279
4	-30000	17.3	15	284
4	-40000	17.5	15.2	288
4	-50000	17.2	15	283
4	-60000	17	14.8	279
4	-70000	17.3	15	284
4	-80000	18.7	16.5	311
4	-90000	18.5	16.3	307
4	-100000	18.4	16.1	304
4	-110000	18.5	16.3	307
4	-120000	18.8	16.5	313
4	-130000	18.4	16.2	306
4	-140000	18.3	16	303
4	-150000	18	15.7	298
4	-160000	18.2	15.9	300
4	-170000	18.7	16.5	311
4	-180000	18.7	16.4	311
4	-190000	17.4	15.1	285
4	-200000	17.2	15	283
4	-210000	17.2	14.9	282
4	-220000	17	14.7	278
4	-230000	17.3	15.1	285
4	-240000	16.7	14.5	274
4	-250000	15.8	13.6	257
4	-260000	15.8	13.5	256
4	-270000	14.9	12.6	238
4	-280000	13.1	10.8	205
4	-290000	13.3	11.1	209
4	-300000	12.3	10.1	191
4	-310000	9.34	7.08	134
4	-320000	5.53	3.27	61.7
4	-330000	3.02	1.73	32.7
4	-340000	1.89	1.08	20.5
4	-350000	1.68	0.965	18.2
4	-360000	2.59	1.48	28.1
4	-370000	3.17	1.81	34.3
4	-380000	3.42	1.96	37.1
4	-390000	2.59	1.49	28.1
4	-400000	2.37	1.36	25.7
4	0	0.786	1.07	20.3
4	10000	2.73	3.01	56.9
4	20000	5.97	6.29	119
4	30000	8.2	8.64	163
4	40000	9.3	9.8	185
4	50000	10.3	10.9	206
4	60000	10.5	11.1	209
4	70000	10	10.6	200
4	80000	9.63	10.2	192
4	90000	10.4	11	208
4	100000	10.7	11.3	214
4	110000	11	11.6	219
4	120000	10.5	11.1	210
4	130000	10.5	11.1	210
4	140000	10.8	11.3	214
4	150000	11	11.6	218
4	160000	9.97	10.5	199
4	170000	8.5	8.96	169
4	180000	7.61	8.02	152
4	190000	6.21	6.54	124
4	200000	4.46	4.75	89.7
4	210000	2.86	3.15	59.5
4	220000	2.39	2.68	50.6
4	230000	1.59	1.87	35.4
4	240000	1.04	1.33	25.1
4	250000	0.704	0.99	18.7
4	260000	0.422	0.708	13.4
4	270000	0.375	0.661	12.5
4	280000	0.428	0.714	13.5
4	290000	1.64	1.92	36.4
4	300000	2.47	2.76	52.1
4	310000	4.22	4.5	85.1
4	320000	4.69	4.98	94.1
4	330000	5.96	6.29	119
4	340000	8.09	8.52	161
4	350000	8.94	9.42	178
4	360000	7.95	8.38	158
4	370000	8.69	9.15	173
4	380000	10	10.6	200
4	390000	10.5	11.1	209
4	400000	9.2	9.7	183
5	0	11	8.79	166
5	-10000	6.18	3.92	74
5	-20000	5.23	3	56.6
5	-30000	4.29	2.46	46.5
5	-40000	4.89	2.8	53
5	-50000	5.52	3.26	61.7
5	-60000	6.59	4.33	81.8
5	-70000	8.08	5.82	110
5	-80000	9.53	7.27	137
5	-90000	11.4	9.15	173
5	-100000	13.4	11.1	210
5	-110000	14.9	12.7	240
5	-120000	14.8	12.6	237
5	-130000	14.1	11.9	224
5	-140000	13.3	11	209
5	-150000	12.7	10.4	197
5	-160000	12	9.75	184
5	-170000	12.5	10.2	193
5	-180000	12.2	9.91	187
5	-190000	11.4	9.13	173
5	-200000	11.8	9.55	181
5	-210000	12.3	10.1	190
5	-220000	11.9	9.65	182
5	-230000	12.2	9.9	187
5	-240000	12.8	10.6	200
5	-250000	13.3	11	209
5	-260000	13.1	10.8	205
5	-270000	12.5	10.2	193
5	-280000	11.9	9.67	183
5	-290000	10.9	8.63	163
5	-300000	10.6	8.35	158
5	-310000	9.53	7.27	137
5	-320000	8.88	6.62	125
5	-330000	9.34	7.08	134
5	-340000	8.97	6.71	127
5	-350000	7.48	5.22	98.7
5	-360000	5.91	3.65	68.9
5	-370000	4.93	2.82	53.3
5	-380000	4.17	2.39	45.2
5	-390000	3.88	2.22	42
5	-400000	3.36	1.92	36.3
5	0	2.22	2.5	47.3
5	10000	6.07	6.4	121
5	20000	7.83	8.25	156
5	30000	7.25	7.64	144
5	40000	7.05	7.43	140
5	50000	8.05	8.48	160
5	60000	7.09	7.48	141
5	70000	5.95	6.28	119
5	80000	7.48	7.89	149
5	90000	8.01	8.45	160
5	100000	8.43	8.88	168
5	110000	9.6	10.1	191
5	120000	9.63	10.1	192
5	130000	8.3	8.75	165
5	140000	9.13	9.63	182
5	150000	9.14	9.64	182
5	160000	9.28	9.78	185
5	170000	9.95	10.5	198
5	180000	10.2	10.8	204
5	190000	10.3	10.9	206
5	200000	9.34	9.85	186
5	210000	10.1	10.6	201
5	220000	9.78	10.3	195
5	230000	9.29	9.8	185
5	240000	7.9	8.33	157
5	250000	7.62	8.04	152
5	260000	9.04	9.53	180
5	270000	9.01	9.49	179
5	280000	8.57	9.04	171
5	290000	9.41	9.92	188
5	300000	9.55	10.1	190
5	310000	9.59	10.1	191
5	320000	8.5	8.96	169
5	330000	6.32	6.66	126
5	340000	3.52	3.81	72
5	350000	4.48	4.76	90
5	360000	6.72	7.08	134
5	370000	7.88	8.31	157
5	380000	8.83	9.31	176
5	390000	10.3	10.9	206
5	400000	11.2	11.8	224
6	0	14	11.8	223
6	-10000	15.4	13.1	248
6	-20000	16.5	14.3	269
6	-30000	16.2	13.9	263
6	-40000	16	13.8	260
6	-50000	16.4	14.1	267
6	-60000	16.2	14	264
6	-70000	16	13.8	260
6	-80000	16.9	14.7	278
6	-90000	16.8	14.5	274
6	-100000	15.2	13	245
6	-110000	14.8	12.6	238
6	-120000	15.2	12.9	244
6	-130000	15.6	13.4	252
6	-140000	16.1	13.8	261
6	-150000	16.9	14.7	277
6	-160000	17.8	15.6	295
6	-170000	17.9	15.6	295
6	-180000	16.4	14.1	267
6	-190000	15.3	13	246
6	-200000	14.2	11.9	225
6	-210000	13.5	11.2	212
6	-220000	12.8	10.5	199
6	-230000	12.7	10.4	197
6	-240000	12.7	10.4	197
6	-250000	11.7	9.47	179
6	-260000	10.4	8.17	154
6	-270000	9.95	7.69	145
6	-280000	9.84	7.58	143
6	-290000	9.31	7.05	133
6	-300000	7.28	5.02	95
6	-310000	6.59	4.33	81.8
6	-320000	5.15	2.95	55.7
6	-330000	3.92	2.24	42.4
6	-340000	2.71	1.56	29.4
6	-350000	2.13	1.22	23.1
6	-360000	2.07	1.19	22.5
6	-370000	1.69	0.97	18.3
6	-380000	1.63	0.934	17.7
6	-390000	1.23	0.703	13.3
6	-400000	1.14	0.656	12.4
