#Command: "C:\Program Files (x86)\Microsoft Visual Studio\2017\Community\VC\Tools\MSVC\14.15.26726\bin\HostX86\x86\link.exe" /ERRORREPORT:PROMPT @C:\Users\justin\AppData\Local\Temp\tmp21b6737bb5d84547ba66e19f97d0484a.rsp
^C:\PROGRAM FILES (X86)\TEKNIC\CLEARVIEW\SDK\EXAMPLES\1-HELLOWORLD\WIN32\DEBUG\INTERMEDIATE\HELLOWORLD.OBJ
C:\USERS\JUSTIN\APPDATA\LOCAL\TEMP\LNK{EDD178CC-7EDE-4861-B3AD-E859EA3433B6}.TMP
